%!PS-Adobe-2.0 EPSF-2.0
%%BoundingBox:  0 0 567 415
%%Title: DataSet/plots/annconvergencetest.eps: MLP Convergence Test, MLP
%%Creator: ROOT Version 6.08/06
%%CreationDate: Fri Jun  1 10:04:59 2018
%%DocumentNeededResources: ProcSet (FontSetInit)
%%EndComments
%%BeginProlog
80 dict begin
/s {stroke} def /l {lineto} def /m {moveto} def /t {translate} def
/r {rotate} def /rl {roll}  def /R {repeat} def
/d {rlineto} def /rm {rmoveto} def /gr {grestore} def /f {eofill} def
/c {setrgbcolor} def /black {0 setgray} def /sd {setdash} def
/cl {closepath} def /sf {scalefont setfont} def /lw {setlinewidth} def
/box {m dup 0 exch d exch 0 d 0 exch neg d cl} def
/NC{systemdict begin initclip end}def/C{NC box clip newpath}def
/bl {box s} def /bf {gsave box gsave f grestore 1 lw [] 0 sd s grestore} def /Y { 0 exch d} def /X { 0 d} def 
/K {{pop pop 0 moveto} exch kshow} bind def
/ita {/ang 15 def gsave [1 0 ang dup sin exch cos div 1 0 0] concat} def 
/mp {newpath /y exch def /x exch def} def
/side {[w .77 mul w .23 mul] .385 w mul sd w 0 l currentpoint t -144 r} def
/mr {mp x y w2 0 360 arc} def /m24 {mr s} def /m20 {mr f} def
/mb {mp x y w2 add m w2 neg 0 d 0 w neg d w 0 d 0 w d cl} def
/mt {mp x y w2 add m w2 neg w neg d w 0 d cl} def
/m21 {mb f} def /m25 {mb s} def /m22 {mt f} def /m26{mt s} def
/m23 {mp x y w2 sub m w2 w d w neg 0 d cl f} def
/m27 {mp x y w2 add m w3 neg w2 neg d w3 w2 neg d w3 w2 d cl s} def
/m28 {mp x w2 sub y w2 sub w3 add m w3 0 d  0 w3 neg d w3 0 d 0 w3 d w3 0 d  0 w3 d w3 neg 0 d 0 w3 d w3 neg 0 d 0 w3 neg d w3 neg 0 d cl s } def
/m29 {mp gsave x w2 sub y w2 add w3 sub m currentpoint t 4 {side} repeat cl fill gr} def
/m30 {mp gsave x w2 sub y w2 add w3 sub m currentpoint t 4 {side} repeat cl s gr} def
/m31 {mp x y w2 sub m 0 w d x w2 sub y m w 0 d x w2 sub y w2 add m w w neg d x w2 sub y w2 sub m w w d s} def
/m32 {mp x y w2 sub m w2 w d w neg 0 d cl s} def
/m33 {mp x y w2 add m w3 neg w2 neg d w3 w2 neg d w3 w2 d cl f} def
/m34 {mp x w2 sub y w2 sub w3 add m w3 0 d  0 w3 neg d w3 0 d 0 w3 d w3 0 d  0 w3 d w3 neg 0 d 0 w3 d w3 neg 0 d 0 w3 neg d w3 neg 0 d cl f } def
/m2 {mp x y w2 sub m 0 w d x w2 sub y m w 0 d s} def
/m5 {mp x w2 sub y w2 sub m w w d x w2 sub y w2 add m w w neg d s} def
%%IncludeResource: ProcSet (FontSetInit)
%%IncludeResource: font Times-Roman
%%IncludeResource: font Times-Italic
%%IncludeResource: font Times-Bold
%%IncludeResource: font Times-BoldItalic
%%IncludeResource: font Helvetica
%%IncludeResource: font Helvetica-Oblique
%%IncludeResource: font Helvetica-Bold
%%IncludeResource: font Helvetica-BoldOblique
%%IncludeResource: font Courier
%%IncludeResource: font Courier-Oblique
%%IncludeResource: font Courier-Bold
%%IncludeResource: font Courier-BoldOblique
%%IncludeResource: font Symbol
%%IncludeResource: font ZapfDingbats
/reEncode {exch findfont dup length dict begin {1 index /FID eq  {pop pop} {def} ifelse } forall /Encoding exch def currentdict end dup /FontName get exch definefont pop } def [/Times-Bold /Times-Italic /Times-BoldItalic /Helvetica /Helvetica-Oblique
 /Helvetica-Bold /Helvetica-BoldOblique /Courier /Courier-Oblique /Courier-Bold /Courier-BoldOblique /Times-Roman /AvantGarde-Book /AvantGarde-BookOblique /AvantGarde-Demi /AvantGarde-DemiOblique /Bookman-Demi /Bookman-DemiItalic /Bookman-Light
 /Bookman-LightItalic /Helvetica-Narrow /Helvetica-Narrow-Bold /Helvetica-Narrow-BoldOblique /Helvetica-Narrow-Oblique /NewCenturySchlbk-Roman /NewCenturySchlbk-Bold /NewCenturySchlbk-BoldItalic /NewCenturySchlbk-Italic /Palatino-Bold
 /Palatino-BoldItalic /Palatino-Italic /Palatino-Roman ] {ISOLatin1Encoding reEncode } forall
%%EndProlog
%%BeginSetup
%%EndSetup
newpath  gsave  .25 .25 scale  gsave  0 0 t 0.490196 0.545098 0.615686 c[  ] 0 sd 3 lw 1 1 1 c 2268 1661 0 0 bf black 1 1 1 c 1882 1312 272 183 bf black 1882 1312 272 183 bl 1 1 1 c 1882 1312 272 183 bf black 1882 1312 272 183 bl 1 0 0 c 6 lw 1 1 1 c
 black 1 0 0 c 272 776 m 16 X 335 Y 15 X -464 Y 16 X 480 Y 16 X -518 Y 16 X -1 Y 15 X -11 Y 16 X -2 Y 16 X -82 Y 15 X 105 Y 16 X -36 Y 16 X -98 Y 15 X 96 Y 16 X -112 Y 16 X 54 Y 15 X -48 Y 16 X 9 Y 16 X -11 Y 15 X -48 Y 16 X -21 Y 16 X 34 Y 16 X -50
 Y 15 X 47 Y 16 X -50 Y 16 X -10 Y 15 X 2 Y 16 X 10 Y 16 X -22 Y 15 X 16 Y 16 X -19 Y 16 X 11 Y 15 X -26 Y 16 X -4 Y 16 X 12 Y 15 X -5 Y 16 X 16 Y 16 X -17 Y 15 X 25 Y 16 X -25 Y 16 X -17 Y 16 X -2 Y 15 X -3 Y 16 X 3 Y 16 X -12 Y 15 X 21 Y 16 X -8 Y
 16 X -18 Y 15 X 3 Y 16 X -1 Y 16 X -5 Y 15 X 9 Y 16 X -11 Y 16 X -1 Y 15 X -1 Y 16 X 5 Y 16 X -5 Y 15 X 1 Y 16 X -2 Y 16 X -2 Y 16 X 2 Y 15 X -3 Y 16 X 6 Y 16 X -7 Y 15 X 2 Y 16 X -2 Y 16 X 1 Y 15 X -2 Y 16 X 2 Y 16 X -2 Y 31 X -2 Y 16 X 1 Y 15 X -1
 Y 16 X 1 Y 16 X -1 Y 16 X -1 Y 31 X -1 Y 16 X 1 Y 15 X -1 Y 47 X -1 Y 16 X 1 Y 31 X 1 Y 16 X -2 Y 47 X 1 Y 16 X -1 Y 47 X -1 Y 172 X -1 Y 251 X s black 3 lw 272 183 m 1882 X s
 gsave  2268 1661 0 0 C 1975.72 56.8825 t 0 r /Helvetica findfont 53.0904 sf 0 0 m (Epochs) show NC gr  580 224 m -41 Y s 642 203 m -20 Y s 705 203 m -20 Y s 768 203 m -20 Y s 831 203 m -20 Y s 893 224 m -41 Y s 956 203 m -20 Y s 1019 203 m -20 Y s
 1081 203 m -20 Y s 1144 203 m -20 Y s 1207 224 m -41 Y s 1270 203 m -20 Y s 1332 203 m -20 Y s 1395 203 m -20 Y s 1458 203 m -20 Y s 1521 224 m -41 Y s 1583 203 m -20 Y s 1646 203 m -20 Y s 1709 203 m -20 Y s 1772 203 m -20 Y s 1834 224 m -41 Y s
 1897 203 m -20 Y s 1960 203 m -20 Y s 2023 203 m -20 Y s 2085 203 m -20 Y s 2148 224 m -41 Y s 580 224 m -41 Y s 517 203 m -20 Y s 454 203 m -20 Y s 391 203 m -20 Y s 329 203 m -20 Y s 2148 224 m -41 Y s
 gsave  2268 1661 0 0 C 530.904 128.934 t 0 r /Helvetica findfont 53.0904 sf 0 0 m (100) show NC gr 
 gsave  2268 1661 0 0 C 845.654 128.934 t 0 r /Helvetica findfont 53.0904 sf 0 0 m (200) show NC gr 
 gsave  2268 1661 0 0 C 1160.4 128.934 t 0 r /Helvetica findfont 53.0904 sf 0 0 m (300) show NC gr 
 gsave  2268 1661 0 0 C 1471.36 128.934 t 0 r /Helvetica findfont 53.0904 sf 0 0 m (400) show NC gr 
 gsave  2268 1661 0 0 C 1786.11 128.934 t 0 r /Helvetica findfont 53.0904 sf 0 0 m (500) show NC gr 
 gsave  2268 1661 0 0 C 2100.86 128.934 t 0 r /Helvetica findfont 53.0904 sf 0 0 m (600) show NC gr  272 1495 m 1882 X s 580 1454 m 41 Y s 642 1474 m 21 Y s 705 1474 m 21 Y s 768 1474 m 21 Y s 831 1474 m 21 Y s 893 1454 m 41 Y s 956 1474 m 21 Y s
 1019 1474 m 21 Y s 1081 1474 m 21 Y s 1144 1474 m 21 Y s 1207 1454 m 41 Y s 1270 1474 m 21 Y s 1332 1474 m 21 Y s 1395 1474 m 21 Y s 1458 1474 m 21 Y s 1521 1454 m 41 Y s 1583 1474 m 21 Y s 1646 1474 m 21 Y s 1709 1474 m 21 Y s 1772 1474 m 21 Y s
 1834 1454 m 41 Y s 1897 1474 m 21 Y s 1960 1474 m 21 Y s 2023 1474 m 21 Y s 2085 1474 m 21 Y s 2148 1454 m 41 Y s 580 1454 m 41 Y s 517 1474 m 21 Y s 454 1474 m 21 Y s 391 1474 m 21 Y s 329 1474 m 21 Y s 2148 1454 m 41 Y s 272 183 m 1312 Y s
 gsave  2268 1661 0 0 C 79.6355 1274.17 t 90 r /Helvetica findfont 53.0904 sf 0 0 m (Estimator) show NC gr  326 208 m -54 X s 299 239 m -27 X s 299 271 m -27 X s 299 302 m -27 X s 299 334 m -27 X s 326 365 m -54 X s 299 397 m -27 X s 299 428 m -27 X
 s 299 460 m -27 X s 299 491 m -27 X s 326 523 m -54 X s 299 554 m -27 X s 299 586 m -27 X s 299 617 m -27 X s 299 649 m -27 X s 326 680 m -54 X s 299 712 m -27 X s 299 743 m -27 X s 299 775 m -27 X s 299 806 m -27 X s 326 838 m -54 X s 299 869 m -27
 X s 299 901 m -27 X s 299 932 m -27 X s 299 964 m -27 X s 326 995 m -54 X s 299 1027 m -27 X s 299 1058 m -27 X s 299 1090 m -27 X s 299 1121 m -27 X s 326 1153 m -54 X s 299 1184 m -27 X s 299 1216 m -27 X s 299 1247 m -27 X s 299 1279 m -27 X s
 326 1310 m -54 X s 299 1342 m -27 X s 299 1373 m -27 X s 299 1405 m -27 X s 299 1436 m -27 X s 326 1468 m -54 X s 326 208 m -54 X s 326 1468 m -54 X s
 gsave  2268 1661 0 0 C 155.479 189.608 t 0 r /Helvetica findfont 53.0904 sf 0 0 m (0.25) show NC gr 
 gsave  2268 1661 0 0 C 185.816 348.879 t 0 r /Helvetica findfont 53.0904 sf 0 0 m (0.3) show NC gr 
 gsave  2268 1661 0 0 C 155.479 504.358 t 0 r /Helvetica findfont 53.0904 sf 0 0 m (0.35) show NC gr 
 gsave  2268 1661 0 0 C 185.816 663.629 t 0 r /Helvetica findfont 53.0904 sf 0 0 m (0.4) show NC gr 
 gsave  2268 1661 0 0 C 155.479 819.108 t 0 r /Helvetica findfont 53.0904 sf 0 0 m (0.45) show NC gr 
 gsave  2268 1661 0 0 C 185.816 978.379 t 0 r /Helvetica findfont 53.0904 sf 0 0 m (0.5) show NC gr 
 gsave  2268 1661 0 0 C 155.479 1137.65 t 0 r /Helvetica findfont 53.0904 sf 0 0 m (0.55) show NC gr 
 gsave  2268 1661 0 0 C 185.816 1293.13 t 0 r /Helvetica findfont 53.0904 sf 0 0 m (0.6) show NC gr 
 gsave  2268 1661 0 0 C 155.479 1452.4 t 0 r /Helvetica findfont 53.0904 sf 0 0 m (0.65) show NC gr  2154 183 m 1312 Y s 2101 208 m 53 X s 2127 239 m 27 X s 2127 271 m 27 X s 2127 302 m 27 X s 2127 334 m 27 X s 2101 365 m 53 X s 2127 397 m 27 X s
 2127 428 m 27 X s 2127 460 m 27 X s 2127 491 m 27 X s 2101 523 m 53 X s 2127 554 m 27 X s 2127 586 m 27 X s 2127 617 m 27 X s 2127 649 m 27 X s 2101 680 m 53 X s 2127 712 m 27 X s 2127 743 m 27 X s 2127 775 m 27 X s 2127 806 m 27 X s 2101 838 m 53 X
 s 2127 869 m 27 X s 2127 901 m 27 X s 2127 932 m 27 X s 2127 964 m 27 X s 2101 995 m 53 X s 2127 1027 m 27 X s 2127 1058 m 27 X s 2127 1090 m 27 X s 2127 1121 m 27 X s 2101 1153 m 53 X s 2127 1184 m 27 X s 2127 1216 m 27 X s 2127 1247 m 27 X s 2127
 1279 m 27 X s 2101 1310 m 53 X s 2127 1342 m 27 X s 2127 1373 m 27 X s 2127 1405 m 27 X s 2127 1436 m 27 X s 2101 1468 m 53 X s 2101 208 m 53 X s 2101 1468 m 53 X s 0 0 1 c 6 lw 1 1 1 c black 0 0 1 c 272 932 m 16 X 454 Y 15 X -484 Y 16 X 431 Y 16 X
 -465 Y 16 X 4 Y 15 X -2 Y 16 X -9 Y 16 X -84 Y 15 X 122 Y 16 X -122 Y 16 X -92 Y 15 X 108 Y 16 X -129 Y 16 X 48 Y 15 X -28 Y 16 X -29 Y 16 X 31 Y 15 X -58 Y 16 X 4 Y 16 X 47 Y 16 X -47 Y 15 X 31 Y 16 X -73 Y 16 X 20 Y 15 X -13 Y 16 X 18 Y 16 X -7 Y
 15 X -10 Y 16 X 3 Y 16 X 10 Y 15 X -15 Y 16 X -10 Y 16 X 15 Y 15 X -14 Y 16 X 27 Y 16 X -16 Y 15 X 25 Y 16 X -7 Y 16 X -32 Y 16 X 6 Y 15 X 3 Y 16 X 2 Y 16 X -3 Y 15 X 14 Y 16 X -6 Y 16 X -12 Y 31 X -1 Y 16 X -6 Y 15 X 13 Y 16 X -14 Y 16 X 6 Y 15 X 1
 Y 16 X 5 Y 16 X -6 Y 15 X 2 Y 16 X -3 Y 32 X 5 Y 15 X -3 Y 16 X 4 Y 16 X -4 Y 15 X 1 Y 16 X -1 Y 16 X 2 Y 15 X -3 Y 16 X 3 Y 16 X -1 Y 47 X 1 Y 15 X 1 Y 48 X -1 Y 15 X -1 Y 32 X 1 Y 15 X -1 Y 47 X 1 Y 141 X 1 Y 16 X -1 Y 173 X 1 Y 47 X -1 Y 47 X 1 Y
 15 X -1 Y 32 X 1 Y 125 X s black
 gsave  2268 1661 0 0 C 1403.1 1323.47 t 0 r /Helvetica-Bold findfont 75.8434 sf 0 0 m (Training Sample) show NC gr  1 0 0 c 1175 1350 m 190 X s black
 gsave  2268 1661 0 0 C 1403.1 1198.33 t 0 r /Helvetica-Bold findfont 75.8434 sf 0 0 m (Test sample) show NC gr  0 0 1 c 1175 1225 m 190 X s 0.490196 0.545098 0.615686 c 3 lw 0.364706 0.419608 0.490196 c 925 96 23 1557 bf 0.490196 0.545098 0.615686 c
 23 1557 m 925 X s 948 1557 m 96 Y s 948 1653 m -925 X s 23 1653 m -96 Y s 1 1 1 c black 1 1 1 c
 gsave  2268 1661 0 0 C 60.6747 1585.13 t 0 r /Helvetica-Bold findfont 75.8434 sf 0 0 m (MLP Convergence Test) show NC gr 
 gr  gr showpage
end
%%EOF
