%!PS-Adobe-2.0 EPSF-2.0
%%BoundingBox:  0 0 567 326
%%Title: DataSet/plots/BDT_0.eps: Reading weight file: /var/clus/usera/lovell/MVATools/MVATraining/work/DataSet/output-LL/weights/TMVATeacher_BDT.weights.xml
%%Creator: ROOT Version 6.08/06
%%CreationDate: Fri Jun  1 10:04:55 2018
%%DocumentNeededResources: ProcSet (FontSetInit)
%%EndComments
%%BeginProlog
80 dict begin
/s {stroke} def /l {lineto} def /m {moveto} def /t {translate} def
/r {rotate} def /rl {roll}  def /R {repeat} def
/d {rlineto} def /rm {rmoveto} def /gr {grestore} def /f {eofill} def
/c {setrgbcolor} def /black {0 setgray} def /sd {setdash} def
/cl {closepath} def /sf {scalefont setfont} def /lw {setlinewidth} def
/box {m dup 0 exch d exch 0 d 0 exch neg d cl} def
/NC{systemdict begin initclip end}def/C{NC box clip newpath}def
/bl {box s} def /bf {gsave box gsave f grestore 1 lw [] 0 sd s grestore} def /Y { 0 exch d} def /X { 0 d} def 
/K {{pop pop 0 moveto} exch kshow} bind def
/ita {/ang 15 def gsave [1 0 ang dup sin exch cos div 1 0 0] concat} def 
/mp {newpath /y exch def /x exch def} def
/side {[w .77 mul w .23 mul] .385 w mul sd w 0 l currentpoint t -144 r} def
/mr {mp x y w2 0 360 arc} def /m24 {mr s} def /m20 {mr f} def
/mb {mp x y w2 add m w2 neg 0 d 0 w neg d w 0 d 0 w d cl} def
/mt {mp x y w2 add m w2 neg w neg d w 0 d cl} def
/m21 {mb f} def /m25 {mb s} def /m22 {mt f} def /m26{mt s} def
/m23 {mp x y w2 sub m w2 w d w neg 0 d cl f} def
/m27 {mp x y w2 add m w3 neg w2 neg d w3 w2 neg d w3 w2 d cl s} def
/m28 {mp x w2 sub y w2 sub w3 add m w3 0 d  0 w3 neg d w3 0 d 0 w3 d w3 0 d  0 w3 d w3 neg 0 d 0 w3 d w3 neg 0 d 0 w3 neg d w3 neg 0 d cl s } def
/m29 {mp gsave x w2 sub y w2 add w3 sub m currentpoint t 4 {side} repeat cl fill gr} def
/m30 {mp gsave x w2 sub y w2 add w3 sub m currentpoint t 4 {side} repeat cl s gr} def
/m31 {mp x y w2 sub m 0 w d x w2 sub y m w 0 d x w2 sub y w2 add m w w neg d x w2 sub y w2 sub m w w d s} def
/m32 {mp x y w2 sub m w2 w d w neg 0 d cl s} def
/m33 {mp x y w2 add m w3 neg w2 neg d w3 w2 neg d w3 w2 d cl f} def
/m34 {mp x w2 sub y w2 sub w3 add m w3 0 d  0 w3 neg d w3 0 d 0 w3 d w3 0 d  0 w3 d w3 neg 0 d 0 w3 d w3 neg 0 d 0 w3 neg d w3 neg 0 d cl f } def
/m2 {mp x y w2 sub m 0 w d x w2 sub y m w 0 d s} def
/m5 {mp x w2 sub y w2 sub m w w d x w2 sub y w2 add m w w neg d s} def
%%IncludeResource: ProcSet (FontSetInit)
%%IncludeResource: font Times-Roman
%%IncludeResource: font Times-Italic
%%IncludeResource: font Times-Bold
%%IncludeResource: font Times-BoldItalic
%%IncludeResource: font Helvetica
%%IncludeResource: font Helvetica-Oblique
%%IncludeResource: font Helvetica-Bold
%%IncludeResource: font Helvetica-BoldOblique
%%IncludeResource: font Courier
%%IncludeResource: font Courier-Oblique
%%IncludeResource: font Courier-Bold
%%IncludeResource: font Courier-BoldOblique
%%IncludeResource: font Symbol
%%IncludeResource: font ZapfDingbats
/reEncode {exch findfont dup length dict begin {1 index /FID eq  {pop pop} {def} ifelse } forall /Encoding exch def currentdict end dup /FontName get exch definefont pop } def [/Times-Bold /Times-Italic /Times-BoldItalic /Helvetica /Helvetica-Oblique
 /Helvetica-Bold /Helvetica-BoldOblique /Courier /Courier-Oblique /Courier-Bold /Courier-BoldOblique /Times-Roman /AvantGarde-Book /AvantGarde-BookOblique /AvantGarde-Demi /AvantGarde-DemiOblique /Bookman-Demi /Bookman-DemiItalic /Bookman-Light
 /Bookman-LightItalic /Helvetica-Narrow /Helvetica-Narrow-Bold /Helvetica-Narrow-BoldOblique /Helvetica-Narrow-Oblique /NewCenturySchlbk-Roman /NewCenturySchlbk-Bold /NewCenturySchlbk-BoldItalic /NewCenturySchlbk-Italic /Palatino-Bold
 /Palatino-BoldItalic /Palatino-Italic /Palatino-Roman ] {ISOLatin1Encoding reEncode } forall
%%EndProlog
%%BeginSetup
%%EndSetup
newpath  gsave  .25 .25 scale  gsave  0 0 t 0.490196 0.545098 0.615686 c[  ] 0 sd 3 lw 1 1 1 c 2268 1304 0 0 bf 0.490196 0.545098 0.615686 c 6 lw 992 942 m -425 -145 d s 496 507 m -213 -145 d s 3 lw 0.12 0 0.88 c 425 290 71 72 bf 0.490196 0.545098
 0.615686 c 71 72 m 425 X s 496 72 m 290 Y s 496 362 m -425 X s 71 362 m -290 Y s 1 1 1 c black
 gsave  2268 1304 0 0 C 84.0737 199.959 t 0 r /Helvetica-Bold findfont 59.0788 sf 0 0 m (S/\(S+B\)=0.882) show NC gr  0.490196 0.545098 0.615686 c 6 lw 638 507 m 212 -145 d s 3 lw 0.63 0 0.37 c 425 290 638 72 bf 0.490196 0.545098 0.615686 c 638 72 m
 425 X s 1063 72 m 290 Y s 1063 362 m -425 X s 638 362 m -290 Y s 1 1 1 c black
 gsave  2268 1304 0 0 C 652.139 199.959 t 0 r /Helvetica-Bold findfont 59.0788 sf 0 0 m (S/\(S+B\)=0.378) show NC gr  0.490196 0.545098 0.615686 c 0.18 0 0.82 c 454 290 340 507 bf 0.490196 0.545098 0.615686 c 340 507 m 454 X s 794 507 m 290 Y s 794
 797 m -454 X s 340 797 m -290 Y s 1 1 1 c black
 gsave  2268 1304 0 0 C 465.814 715.762 t 0 r /Helvetica-Bold findfont 29.5394 sf 0 0 m (S/\(S+B\)=0.828) show NC gr 
 gsave  2268 1304 0 0 C 349.928 572.61 t 0 r /Helvetica-Bold findfont 29.5394 sf 0 0 m (B_PVFit_chi2_div_ndof		>\2550.547) show NC gr  0.490196 0.545098 0.615686 c 6 lw 1276 942 m 425 -145 d s 3 lw 0.93 0 0.07 c 454 290 1474 507 bf 0.490196 0.545098
 0.615686 c 1474 507 m 454 X s 1928 507 m 290 Y s 1928 797 m -454 X s 1474 797 m -290 Y s 1 1 1 c black
 gsave  2268 1304 0 0 C 1488.33 633.961 t 0 r /Helvetica-Bold findfont 63.6233 sf 0 0 m (S/\(S+B\)=0.075) show NC gr  0.490196 0.545098 0.615686 c 0.5 0 0.5 c 454 290 907 942 bf 0.490196 0.545098 0.615686 c 907 942 m 454 X s 1361 942 m 290 Y s 1361
 1232 m -454 X s 907 1232 m -290 Y s 1 1 1 c black
 gsave  2268 1304 0 0 C 1033.88 1152.04 t 0 r /Helvetica-Bold findfont 29.5394 sf 0 0 m (S/\(S+B\)=0.500) show NC gr 
 gsave  2268 1304 0 0 C 917.993 1006.61 t 0 r /Helvetica-Bold findfont 29.5394 sf 0 0 m (B_PVFit_chi2_div_ndof		>\2550.524) show NC gr  0.490196 0.545098 0.615686 c 1 1 0.2 c 294 174 1928 1117 bf 0.490196 0.545098 0.615686 c 1928 1117 m 294 X s 2222
 1117 m 174 Y s 2222 1291 m -294 X s 1928 1291 m -174 Y s 1 1 1 c black
 gsave  2268 1304 0 0 C 1933.69 1192.94 t 0 r /Helvetica-Bold findfont 29.5394 sf 0 0 m (Decision Tree no.: 0) show NC gr  0.490196 0.545098 0.615686 c 0 0 1 c 295 174 45 1117 bf 0.490196 0.545098 0.615686 c 45 1117 m 295 X s 340 1117 m 174 Y s 340
 1291 m -295 X s 45 1291 m -174 Y s 1 1 1 c 0.999 0.999 0.999 c black 0.999 0.999 0.999 c
 gsave  2268 1304 0 0 C 49.9897 1195.21 t 0 r /Helvetica-Bold findfont 31.8117 sf 0 0 m (Pure Signal Nodes) show NC gr  0.490196 0.545098 0.615686 c 1 0 0 c 295 174 45 909 bf 0.490196 0.545098 0.615686 c 45 909 m 295 X s 340 909 m 174 Y s 340 1083 m
 -295 X s 45 1083 m -174 Y s 1 1 1 c 0.999 0.999 0.999 c black 0.999 0.999 0.999 c
 gsave  2268 1304 0 0 C 49.9897 988.434 t 0 r /Helvetica-Bold findfont 29.5394 sf 0 0 m (Pure Backgr. Nodes) show NC gr 
 gr  gr showpage
end
%%EOF
