%!PS-Adobe-2.0 EPSF-2.0
%%BoundingBox:  0 0 567 362
%%Title: DataSet/plots/BDT_ControlPlots.eps: BDT Control Plots
%%Creator: ROOT Version 6.08/06
%%CreationDate: Wed Jun  6 14:36:56 2018
%%DocumentNeededResources: ProcSet (FontSetInit)
%%EndComments
%%BeginProlog
80 dict begin
/s {stroke} def /l {lineto} def /m {moveto} def /t {translate} def
/r {rotate} def /rl {roll}  def /R {repeat} def
/d {rlineto} def /rm {rmoveto} def /gr {grestore} def /f {eofill} def
/c {setrgbcolor} def /black {0 setgray} def /sd {setdash} def
/cl {closepath} def /sf {scalefont setfont} def /lw {setlinewidth} def
/box {m dup 0 exch d exch 0 d 0 exch neg d cl} def
/NC{systemdict begin initclip end}def/C{NC box clip newpath}def
/bl {box s} def /bf {gsave box gsave f grestore 1 lw [] 0 sd s grestore} def /Y { 0 exch d} def /X { 0 d} def 
/K {{pop pop 0 moveto} exch kshow} bind def
/ita {/ang 15 def gsave [1 0 ang dup sin exch cos div 1 0 0] concat} def 
/mp {newpath /y exch def /x exch def} def
/side {[w .77 mul w .23 mul] .385 w mul sd w 0 l currentpoint t -144 r} def
/mr {mp x y w2 0 360 arc} def /m24 {mr s} def /m20 {mr f} def
/mb {mp x y w2 add m w2 neg 0 d 0 w neg d w 0 d 0 w d cl} def
/mt {mp x y w2 add m w2 neg w neg d w 0 d cl} def
/m21 {mb f} def /m25 {mb s} def /m22 {mt f} def /m26{mt s} def
/m23 {mp x y w2 sub m w2 w d w neg 0 d cl f} def
/m27 {mp x y w2 add m w3 neg w2 neg d w3 w2 neg d w3 w2 d cl s} def
/m28 {mp x w2 sub y w2 sub w3 add m w3 0 d  0 w3 neg d w3 0 d 0 w3 d w3 0 d  0 w3 d w3 neg 0 d 0 w3 d w3 neg 0 d 0 w3 neg d w3 neg 0 d cl s } def
/m29 {mp gsave x w2 sub y w2 add w3 sub m currentpoint t 4 {side} repeat cl fill gr} def
/m30 {mp gsave x w2 sub y w2 add w3 sub m currentpoint t 4 {side} repeat cl s gr} def
/m31 {mp x y w2 sub m 0 w d x w2 sub y m w 0 d x w2 sub y w2 add m w w neg d x w2 sub y w2 sub m w w d s} def
/m32 {mp x y w2 sub m w2 w d w neg 0 d cl s} def
/m33 {mp x y w2 add m w3 neg w2 neg d w3 w2 neg d w3 w2 d cl f} def
/m34 {mp x w2 sub y w2 sub w3 add m w3 0 d  0 w3 neg d w3 0 d 0 w3 d w3 0 d  0 w3 d w3 neg 0 d 0 w3 d w3 neg 0 d 0 w3 neg d w3 neg 0 d cl f } def
/m2 {mp x y w2 sub m 0 w d x w2 sub y m w 0 d s} def
/m5 {mp x w2 sub y w2 sub m w w d x w2 sub y w2 add m w w neg d s} def
%%IncludeResource: ProcSet (FontSetInit)
%%IncludeResource: font Times-Roman
%%IncludeResource: font Times-Italic
%%IncludeResource: font Times-Bold
%%IncludeResource: font Times-BoldItalic
%%IncludeResource: font Helvetica
%%IncludeResource: font Helvetica-Oblique
%%IncludeResource: font Helvetica-Bold
%%IncludeResource: font Helvetica-BoldOblique
%%IncludeResource: font Courier
%%IncludeResource: font Courier-Oblique
%%IncludeResource: font Courier-Bold
%%IncludeResource: font Courier-BoldOblique
%%IncludeResource: font Symbol
%%IncludeResource: font ZapfDingbats
/reEncode {exch findfont dup length dict begin {1 index /FID eq  {pop pop} {def} ifelse } forall /Encoding exch def currentdict end dup /FontName get exch definefont pop } def [/Times-Bold /Times-Italic /Times-BoldItalic /Helvetica /Helvetica-Oblique
 /Helvetica-Bold /Helvetica-BoldOblique /Courier /Courier-Oblique /Courier-Bold /Courier-BoldOblique /Times-Roman /AvantGarde-Book /AvantGarde-BookOblique /AvantGarde-Demi /AvantGarde-DemiOblique /Bookman-Demi /Bookman-DemiItalic /Bookman-Light
 /Bookman-LightItalic /Helvetica-Narrow /Helvetica-Narrow-Bold /Helvetica-Narrow-BoldOblique /Helvetica-Narrow-Oblique /NewCenturySchlbk-Roman /NewCenturySchlbk-Bold /NewCenturySchlbk-BoldItalic /NewCenturySchlbk-Italic /Palatino-Bold
 /Palatino-BoldItalic /Palatino-Italic /Palatino-Roman ] {ISOLatin1Encoding reEncode } forall
%%EndProlog
%%BeginSetup
%%EndSetup
newpath  gsave  .25 .25 scale  gsave  0 0 t 0.490196 0.545098 0.615686 c[  ] 0 sd 3 lw 1 1 1 c 2268 1450 0 0 bf 0.490196 0.545098 0.615686 c 1 1 1 c 710 696 23 739 bf 0.490196 0.545098 0.615686 c 1 1 1 c 710 696 779 739 bf 0.490196 0.545098 0.615686
 c 1 1 1 c 711 696 1534 739 bf black 1 1 1 c 590 549 1620 816 bf black 590 549 1620 816 bl 1 1 1 c 590 549 1620 816 bf black 590 549 1620 816 bl 0 0 1 c 1 1 1 c 0 0 1 c 1620 1239 m -126 Y 1 X -37 Y 1 X -68 Y 1 X 17 Y -53 Y 1 X -2 Y 1 X -15 Y 1 X 9 Y
 -57 Y 1 X 8 Y 1 X -37 Y 1 X 32 Y -38 Y 1 X 32 Y 1 X -16 Y 1 X -13 Y 42 Y 1 X -22 Y 1 X 10 Y 1 X 7 Y 1 X 1 Y 1 X -41 Y 20 Y 1 X -28 Y 1 X 59 Y 1 X -37 Y 1 X 3 Y 1 X 9 Y 1 X -10 Y 1 X -25 Y 1 X 22 Y 1 X -15 Y 1 X 12 Y 1 X 8 Y 1 X -7 Y 1 X 25 Y 1 X -20
 Y 9 Y 1 X -6 Y 1 X -25 Y 1 X -20 Y 33 Y 1 X 15 Y 1 X 14 Y 1 X -37 Y 1 X -21 Y 1 X 18 Y 1 X -9 Y 6 Y 1 X 16 Y 1 X -8 Y 1 X -36 Y 5 Y 1 X 55 Y 1 X -30 Y 27 Y 1 X -51 Y 1 X 35 Y 1 X -7 Y 1 X 33 Y 1 X -32 Y 1 X -4 Y 15 Y 1 X -1 Y 1 X 7 Y 1 X -20 Y 1 X
 15 Y 1 X -18 Y 1 X 26 Y 1 X -27 Y 1 X 24 Y 1 X -49 Y 1 X 34 Y 1 X -17 Y 18 Y 1 X -16 Y 1 X 17 Y 1 X -27 Y 6 Y 1 X -12 Y 1 X 11 Y 1 X 20 Y -1 Y 1 X -4 Y 1 X 21 Y 1 X -44 Y 1 X 13 Y 1 X 7 Y -18 Y 1 X 13 Y 1 X 20 Y 1 X -42 Y 19 Y 2 X 6 Y 1 X -12 Y 11 Y
 1 X 20 Y 1 X -15 Y 1 X -28 Y 1 X 30 Y 1 X -28 Y 1 X 17 Y -4 Y 1 X 6 Y 1 X 4 Y -12 Y 1 X -12 Y 1 X 13 Y 1 X 25 Y -35 Y 1 X 31 Y 1 X 38 Y 1 X -63 Y 43 Y 1 X -27 Y 1 X -6 Y 1 X -13 Y 16 Y 1 X -8 Y 1 X 28 Y 1 X 1 Y -12 Y 1 X -20 Y 1 X -7 Y 2 Y 1 X 45 Y
 1 X -26 Y 1 X 21 Y -6 Y 1 X -24 Y 1 X -3 Y 1 X -8 Y 18 Y 1 X 22 Y 1 X 1 Y 1 X -33 Y 1 X 6 Y 1 X 7 Y 1 X 25 Y -26 Y 1 X -1 Y 1 X -22 Y 11 Y 1 X -12 Y 1 X 14 Y 1 X 34 Y 1 X 24 Y 1 X -27 Y 1 X -30 Y 1 X 1 Y 1 X 2 Y 1 X 21 Y -32 Y 1 X 4 Y 1 X -3 Y 1 X
 12 Y 1 X 28 Y 1 X -15 Y 1 X -7 Y 1 X 4 Y 1 X -16 Y 5 Y 1 X -9 Y 1 X 12 Y 1 X -17 Y 7 Y 1 X -3 Y 1 X 12 Y 1 X 16 Y 1 X -21 Y 1 X -10 Y 1 X 42 Y 1 X -19 Y 1 X -21 Y 1 X -2 Y 1 X 6 Y 1 X -11 Y 1 X 16 Y 1 X 14 Y 1 X 3 Y -37 Y 1 X 1 Y 1 X 21 Y 1 X 31 Y 1
 X -33 Y 1 X -4 Y 1 X 12 Y -18 Y 1 X 7 Y 1 X -8 Y 1 X 26 Y -16 Y 1 X 18 Y 1 X -33 Y 1 X 18 Y 1 X -22 Y 1 X 22 Y -19 Y 1 X 18 Y 1 X -20 Y 1 X 32 Y 1 X 32 Y 1 X -47 Y 1 X -13 Y 1 X 12 Y 1 X 9 Y 1 X 16 Y -14 Y 1 X -25 Y 1 X 4 Y 1 X 38 Y 1 X -5 Y 1 X -29
 Y 1 X -2 Y 1 X 11 Y 1 X 5 Y -13 Y 1 X -10 Y 1 X 36 Y 1 X -38 Y 1 X -3 Y 1 X 41 Y 1 X -26 Y 1 X 1 Y 1 X 15 Y 1 X -18 Y 1 X 7 Y 1 X -5 Y 1 X -8 Y 1 X 10 Y 1 X 7 Y -3 Y 1 X 17 Y 1 X -31 Y 1 X -1 Y 2 Y 1 X 6 Y 1 X -1 Y 1 X 14 Y 1 X -13 Y 1 X 9 Y -2 Y 1
 X -17 Y 1 X 3 Y 1 X 29 Y 1 X -23 Y 1 X 13 Y 1 X -6 Y 35 Y 1 X -35 Y 2 X 11 Y -16 Y 2 X 3 Y 1 X 20 Y 1 X -6 Y 1 X -6 Y 9 Y 1 X -23 Y 2 X -2 Y 9 Y 1 X -16 Y 1 X 27 Y 1 X 2 Y -6 Y 1 X 8 Y 1 X -14 Y 1 X 27 Y 1 X -17 Y 1 X -3 Y 1 X -1 Y 11 Y 1 X -2 Y 1 X
 -27 Y 3 Y 1 X 47 Y 1 X -43 Y 1 X 22 Y -6 Y 1 X -4 Y 1 X 5 Y 1 X -18 Y 16 Y 1 X -12 Y 1 X -1 Y 1 X -16 Y 1 X 3 Y 1 X 1 Y 1 X 14 Y 1 X -20 Y 1 X 27 Y 1 X -7 Y 26 Y 1 X -37 Y 1 X 33 Y -17 Y 2 X -13 Y 1 X 2 Y -5 Y 1 X 27 Y 1 X 18 Y 1 X -30 Y 1 X 10 Y 1
 X -9 Y 1 X -16 Y 28 Y 1 X -9 Y 1 X -12 Y 1 X 4 Y 1 X 40 Y 1 X -36 Y 31 Y 1 X -31 Y 1 X -12 Y 1 X 29 Y 1 X -8 Y 1 X 10 Y 1 X 20 Y -50 Y 1 X 1 Y 1 X 4 Y 1 X -6 Y 3 Y 1 X 30 Y 1 X -34 Y 1 X 19 Y -24 Y 2 X 27 Y -8 Y 1 X -15 Y 1 X 23 Y 1 X -17 Y 19 Y 1 X
 -23 Y 1 X 29 Y 1 X -26 Y 12 Y 1 X -12 Y 1 X -1 Y 1 X 19 Y 1 X -7 Y 1 X -2 Y 1 X -2 Y 2 Y 1 X 13 Y 1 X -3 Y 1 X -10 Y 1 X 2 Y 1 X 25 Y -18 Y 1 X -2 Y 1 X -18 Y 1 X 23 Y 1 X -29 Y 1 X 4 Y 1 X -6 Y 1 X 7 Y 1 X 3 Y 1 X -12 Y 1 X 31 Y 1 X 3 Y -4 Y 1 X
 -11 Y 2 X 13 Y -15 Y 1 X -6 Y 1 X 13 Y 1 X 6 Y -17 Y 2 X 4 Y 1 X 7 Y -18 Y 1 X 31 Y 1 X -24 Y 1 X -4 Y 2 Y 1 X 13 Y 1 X -23 Y 3 Y 1 X -6 Y 1 X 41 Y 1 X -24 Y 7 Y 1 X -9 Y 1 X 1 Y 1 X 19 Y -33 Y 1 X 45 Y 1 X -16 Y 1 X -30 Y 29 Y 1 X 7 Y 1 X -12 Y 1 X
 2 Y -1 Y 1 X -4 Y 1 X 3 Y -17 Y 1 X 4 Y 1 X 6 Y 1 X 6 Y -11 Y 1 X 3 Y 1 X 4 Y 1 X -16 Y 13 Y 1 X -6 Y 1 X 6 Y 1 X -10 Y 15 Y 1 X 5 Y 1 X 4 Y 1 X -11 Y 10 Y 1 X -19 Y 1 X 9 Y -1 Y 1 X 10 Y 1 X -13 Y 1 X 11 Y -28 Y 1 X 1 Y 1 X 29 Y 1 X 9 Y -10 Y 1 X
 -14 Y 1 X 24 Y 1 X -2 Y 12 Y 1 X -14 Y 1 X -2 Y 1 X -8 Y 21 Y 1 X -17 Y 1 X 6 Y 1 X -35 Y 16 Y 1 X 31 Y 1 X 3 Y -45 Y 1 X 16 Y 1 X 1 Y 1 X -4 Y 5 Y 1 X -5 Y 2 X -3 Y 2 X 15 Y 1 X 27 Y -15 Y 1 X -14 Y 1 X 5 Y 1 X 7 Y -3 Y 1 X -12 Y 1 X 15 Y -10 Y 1 X
 5 Y 1 X -16 Y 1 X -19 Y 1 X 1 Y 1 X 9 Y 1 X -7 Y 22 Y 1 X 2 Y 1 X -20 Y 1 X 12 Y -7 Y 1 X 5 Y 1 X -1 Y 1 X 8 Y -18 Y 1 X 2 Y 1 X -4 Y 21 Y 1 X -17 Y 1 X -7 Y 1 X 7 Y 1 X -8 Y 1 X 7 Y 1 X 17 Y 1 X 16 Y 1 X -6 Y 1 X 5 Y -3 Y 1 X 1 Y 1 X 5 Y 1 X -19 Y
 1 X 13 Y 1 X -8 Y 20 Y 1 X -29 Y 1 X -15 Y 1 X 34 Y 1 X -16 Y 1 X -12 Y 1 X 2 Y -6 Y 1 X -6 Y 1 X 13 Y 1 X -3 Y 2 X 7 Y 1 X 6 Y 1 X -1 Y 1 X -11 Y 19 Y 1 X 4 Y 1 X -6 Y 1 X -12 Y 1 X 9 Y 1 X 5 Y 1 X -14 Y 1 X 23 Y 1 X -9 Y 1 X 1 Y -4 Y 1 X -26 Y 1 X
 1 Y 1 X 38 Y 1 X 4 Y 1 X -18 Y 3 Y 1 X 17 Y 1 X -22 Y 1 X -13 Y 7 Y 1 X 30 Y 1 X -10 Y 1 X 8 Y -41 Y 1 X 11 Y 1 X -18 Y 1 X 26 Y 1 X 6 Y 1 X -21 Y 1 X 35 Y 1 X -20 Y 1 X -25 Y 13 Y 1 X 16 Y 1 X 2 Y 1 X 10 Y -10 Y 1 X -21 Y 1 X 4 Y 1 X 22 Y -21 Y 1 X
 -6 Y 1 X 11 Y 1 X 12 Y 1 X -18 Y 1 X 6 Y 1 X 6 Y -9 Y 1 X -4 Y 1 X 3 Y 1 X -6 Y 1 X 17 Y 1 X -20 Y 8 Y 1 X 5 Y 1 X 16 Y 1 X -13 Y 15 Y 1 X 1 Y 1 X -14 Y 1 X 29 Y -18 Y 1 X -1 Y 1 X -15 Y 1 X 18 Y -27 Y 1 X 14 Y 1 X 14 Y 1 X -32 Y 18 Y 1 X -8 Y 1 X
 -17 Y 22 Y 1 X 5 Y 1 X -1 Y 1 X -5 Y 9 Y 1 X -1 Y 1 X -20 Y 1 X -8 Y 5 Y 1 X 15 Y 1 X -6 Y 1 X -6 Y 16 Y 1 X -8 Y 1 X -6 Y 1 X 9 Y -13 Y 1 X 3 Y 1 X 43 Y -14 Y 1 X 4 Y 1 X -2 Y 1 X -38 Y 1 X 24 Y 1 X -8 Y 1 X 14 Y 1 X -25 Y 1 X -2 Y 1 X 10 Y -14 Y 1
 X 26 Y 1 X -26 Y 1 X -4 Y 5 Y 1 X 12 Y 1 X 9 Y -1 Y 1 X -6 Y 1 X 27 Y 1 X -25 Y 1 X 2 Y 1 X -22 Y 1 X 43 Y 1 X -5 Y 1 X -15 Y 1 X 17 Y -12 Y 1 X -5 Y 1 X -15 Y 1 X -3 Y 5 Y 1 X -3 Y 1 X 14 Y -6 Y 1 X 26 Y 1 X -29 Y 1 X 19 Y -15 Y 1 X -3 Y 1 X -15 Y
 1 X 28 Y -24 Y 1 X 26 Y 1 X 21 Y 1 X -49 Y 1 X 20 Y 1 X 13 Y 1 X -13 Y 18 Y 1 X -23 Y 1 X -5 Y 59 Y 1 X -53 Y 1 X 8 Y 1 X -14 Y 1 X -8 Y 1 X 25 Y 1 X 10 Y -8 Y 1 X 5 Y 1 X -4 Y 1 X 20 Y 1 X -5 Y 1 X -9 Y 1 X -9 Y 24 Y 1 X -19 Y 1 X -11 Y 1 X 5 Y 1 X
 21 Y 1 X -47 Y 1 X 22 Y 1 X -5 Y 1 X 13 Y -15 Y 1 X -9 Y 1 X 5 Y 1 X 8 Y 1 X -3 Y 1 X -5 Y 1 X 18 Y 1 X -7 Y 1 X -9 Y 17 Y 1 X -11 Y 1 X 3 Y 1 X 4 Y -25 Y 1 X -2 Y 1 X 36 Y 1 X 8 Y -10 Y 2 X -7 Y 1 X 3 Y 1 X -8 Y 1 X 20 Y 1 X -39 Y 1 X -2 Y 1 X 33 Y
 1 X -24 Y 1 X 20 Y 1 X -20 Y 16 Y 1 X 11 Y 1 X -5 Y 1 X 8 Y -30 Y 1 X -6 Y 1 X 5 Y 1 X 16 Y 1 X 6 Y 1 X -12 Y 1 X 29 Y 1 X -11 Y 1 X -7 Y 1 X s black 1620 816 m 590 X s
 gsave  711 696 1534 739 C 2154.08 767.69 t 0 r /Helvetica findfont 22.7706 sf 0 0 m (#tree) show NC gr  1620 833 m -17 Y s 1634 824 m -8 Y s 1649 824 m -8 Y s 1664 824 m -8 Y s 1679 824 m -8 Y s 1693 833 m -17 Y s 1708 824 m -8 Y s 1723 824 m -8 Y s
 1738 824 m -8 Y s 1752 824 m -8 Y s 1767 833 m -17 Y s 1782 824 m -8 Y s 1797 824 m -8 Y s 1811 824 m -8 Y s 1826 824 m -8 Y s 1841 833 m -17 Y s 1856 824 m -8 Y s 1870 824 m -8 Y s 1885 824 m -8 Y s 1900 824 m -8 Y s 1915 833 m -17 Y s 1929 824 m
 -8 Y s 1944 824 m -8 Y s 1959 824 m -8 Y s 1974 824 m -8 Y s 1988 833 m -17 Y s 2003 824 m -8 Y s 2018 824 m -8 Y s 2033 824 m -8 Y s 2047 824 m -8 Y s 2062 833 m -17 Y s 2077 824 m -8 Y s 2092 824 m -8 Y s 2106 824 m -8 Y s 2121 824 m -8 Y s 2136
 833 m -17 Y s 2151 824 m -8 Y s 2165 824 m -8 Y s 2180 824 m -8 Y s 2195 824 m -8 Y s 2210 833 m -17 Y s
 gsave  711 696 1534 739 C 1611.14 792.943 t 0 r /Helvetica findfont 22.7706 sf 0 0 m (0) show NC gr 
 gsave  711 696 1534 739 C 1671.75 792.943 t 0 r /Helvetica findfont 22.7706 sf 0 0 m (100) show NC gr 
 gsave  711 696 1534 739 C 1744.98 792.943 t 0 r /Helvetica findfont 22.7706 sf 0 0 m (200) show NC gr 
 gsave  711 696 1534 739 C 1818.21 792.943 t 0 r /Helvetica findfont 22.7706 sf 0 0 m (300) show NC gr 
 gsave  711 696 1534 739 C 1893.97 792.943 t 0 r /Helvetica findfont 22.7706 sf 0 0 m (400) show NC gr 
 gsave  711 696 1534 739 C 1967.21 792.943 t 0 r /Helvetica findfont 22.7706 sf 0 0 m (500) show NC gr 
 gsave  711 696 1534 739 C 2040.44 792.943 t 0 r /Helvetica findfont 22.7706 sf 0 0 m (600) show NC gr 
 gsave  711 696 1534 739 C 2113.67 792.943 t 0 r /Helvetica findfont 22.7706 sf 0 0 m (700) show NC gr 
 gsave  711 696 1534 739 C 2186.91 792.943 t 0 r /Helvetica findfont 22.7706 sf 0 0 m (800) show NC gr  1620 1365 m 590 X s 1620 1348 m 17 Y s 1634 1357 m 8 Y s 1649 1357 m 8 Y s 1664 1357 m 8 Y s 1679 1357 m 8 Y s 1693 1348 m 17 Y s 1708 1357 m 8 Y
 s 1723 1357 m 8 Y s 1738 1357 m 8 Y s 1752 1357 m 8 Y s 1767 1348 m 17 Y s 1782 1357 m 8 Y s 1797 1357 m 8 Y s 1811 1357 m 8 Y s 1826 1357 m 8 Y s 1841 1348 m 17 Y s 1856 1357 m 8 Y s 1870 1357 m 8 Y s 1885 1357 m 8 Y s 1900 1357 m 8 Y s 1915 1348 m
 17 Y s 1929 1357 m 8 Y s 1944 1357 m 8 Y s 1959 1357 m 8 Y s 1974 1357 m 8 Y s 1988 1348 m 17 Y s 2003 1357 m 8 Y s 2018 1357 m 8 Y s 2033 1357 m 8 Y s 2047 1357 m 8 Y s 2062 1348 m 17 Y s 2077 1357 m 8 Y s 2092 1357 m 8 Y s 2106 1357 m 8 Y s 2121
 1357 m 8 Y s 2136 1348 m 17 Y s 2151 1357 m 8 Y s 2165 1357 m 8 Y s 2180 1357 m 8 Y s 2195 1357 m 8 Y s 2210 1348 m 17 Y s 1620 816 m 549 Y s
 gsave  711 696 1534 739 C 1626.29 1237.4 t 90 r /Helvetica findfont 22.7706 sf 0 0 m (boost weight) show NC gr  1637 816 m -17 X s 1628 840 m -8 X s 1628 864 m -8 X s 1628 888 m -8 X s 1637 912 m -17 X s 1628 936 m -8 X s 1628 961 m -8 X s 1628 985
 m -8 X s 1637 1009 m -17 X s 1628 1033 m -8 X s 1628 1057 m -8 X s 1628 1081 m -8 X s 1637 1105 m -17 X s 1628 1130 m -8 X s 1628 1154 m -8 X s 1628 1178 m -8 X s 1637 1202 m -17 X s 1628 1226 m -8 X s 1628 1250 m -8 X s 1628 1274 m -8 X s 1637 1299
 m -17 X s 1637 1299 m -17 X s 1628 1323 m -8 X s 1628 1347 m -8 X s
 gsave  711 696 1534 739 C 1603.56 808.095 t 0 r /Helvetica findfont 22.7706 sf 0 0 m (0) show NC gr 
 gsave  711 696 1534 739 C 1583.36 904.056 t 0 r /Helvetica findfont 22.7706 sf 0 0 m (0.2) show NC gr 
 gsave  711 696 1534 739 C 1583.36 1000.02 t 0 r /Helvetica findfont 22.7706 sf 0 0 m (0.4) show NC gr 
 gsave  711 696 1534 739 C 1583.36 1095.98 t 0 r /Helvetica findfont 22.7706 sf 0 0 m (0.6) show NC gr 
 gsave  711 696 1534 739 C 1583.36 1194.47 t 0 r /Helvetica findfont 22.7706 sf 0 0 m (0.8) show NC gr 
 gsave  711 696 1534 739 C 1606.09 1290.43 t 0 r /Helvetica findfont 22.7706 sf 0 0 m (1) show NC gr  2210 816 m 549 Y s 2193 816 m 17 X s 2201 840 m 9 X s 2201 864 m 9 X s 2201 888 m 9 X s 2193 912 m 17 X s 2201 936 m 9 X s 2201 961 m 9 X s 2201 985
 m 9 X s 2193 1009 m 17 X s 2201 1033 m 9 X s 2201 1057 m 9 X s 2201 1081 m 9 X s 2193 1105 m 17 X s 2201 1130 m 9 X s 2201 1154 m 9 X s 2201 1178 m 9 X s 2193 1202 m 17 X s 2201 1226 m 9 X s 2201 1250 m 9 X s 2201 1274 m 9 X s 2193 1299 m 17 X s
 2193 1299 m 17 X s 2201 1323 m 9 X s 2201 1347 m 9 X s 0.490196 0.545098 0.615686 c 0.364706 0.419608 0.490196 c 355 40 1542 1392 bf 0.490196 0.545098 0.615686 c 1542 1392 m 355 X s 1897 1392 m 40 Y s 1897 1432 m -355 X s 1542 1432 m -40 Y s 1 1 1 c
 black 1 1 1 c
 gsave  711 696 1534 739 C 1560.63 1404.07 t 0 r /Helvetica-Bold findfont 30.3609 sf 0 0 m (Boost weights vs tree) show NC gr  0.490196 0.545098 0.615686 c 1 1 1 c 710 696 23 14 bf black 1 1 1 c 590 550 108 91 bf black 590 550 108 91 bl 1 1 1 c 590
 550 108 91 bf black 590 550 108 91 bl 0 0 1 c 1 1 1 c 0 0 1 c 108 220 m 1 X 93 Y 1 X 49 Y 1 X -12 Y 1 X 43 Y 1 X 12 Y 1 X -7 Y 1 X 48 Y -7 Y 1 X 33 Y 1 X -28 Y 1 X 33 Y -28 Y 1 X 14 Y 1 X 12 Y -37 Y 1 X 19 Y 1 X -1 Y 1 X -14 Y 1 X -1 Y 1 X 36 Y 1 X
 -17 Y 24 Y 1 X -52 Y 1 X 23 Y 1 X 10 Y -3 Y 1 X -8 Y 1 X 8 Y 1 X 23 Y 1 X -19 Y 1 X 13 Y 1 X -11 Y 1 X -7 Y 1 X 6 Y 1 X -22 Y 1 X 18 Y 1 X -8 Y 5 Y 1 X 23 Y 1 X 18 Y 1 X -43 Y 1 X -12 Y 1 X 4 Y 1 X 47 Y 1 X -16 Y 1 X 7 Y -5 Y 1 X -14 Y 1 X 7 Y 1 X
 32 Y -4 Y 1 X -49 Y 1 X 27 Y 1 X -24 Y 45 Y 1 X -31 Y 1 X 5 Y 1 X 1 Y -29 Y 1 X 28 Y 1 X 4 Y 1 X -14 Y 1 Y 1 X -6 Y 1 X 17 Y 1 X -13 Y 1 X 17 Y 1 X -24 Y 1 X 24 Y 1 X -16 Y 1 X -5 Y 44 Y 1 X -31 Y 1 X 16 Y 1 X -17 Y 15 Y 1 X -15 Y 1 X 24 Y 1 X -6 Y
 11 Y 1 X -10 Y 1 X -18 Y 1 X 5 Y 1 X -19 Y 1 X 39 Y 1 X -11 Y 1 X -7 Y 1 X 17 Y -12 Y 1 X -18 Y 1 X 38 Y 1 X -17 Y 1 X -6 Y 1 X 11 Y 1 X -27 Y 1 X 12 Y 1 X 9 Y 1 X 17 Y -28 Y 1 X 26 Y 1 X -15 Y 3 Y 1 X -5 Y 1 X -4 Y 1 X 22 Y 1 X -12 Y 1 X -23 Y 1 X
 32 Y -27 Y 1 X -34 Y 1 X 55 Y 1 X -37 Y 23 Y 1 X 6 Y 1 X 11 Y 1 X -14 Y 7 Y 1 X -24 Y 1 X -1 Y 10 Y 1 X 18 Y 1 X 7 Y 1 X -42 Y 1 X 22 Y 1 X -19 Y 1 X 27 Y 1 X 3 Y 1 X 7 Y 1 X -35 Y 1 X -1 Y 1 X 16 Y 1 X 13 Y -5 Y 1 X -7 Y 1 X -22 Y 24 Y 1 X 1 Y 1 X
 19 Y 1 X -10 Y 11 Y 1 X -12 Y 1 X -31 Y 1 X -21 Y 1 X 24 Y 1 X 12 Y 1 X 14 Y 1 X -3 Y 1 X -18 Y 1 X 29 Y -4 Y 1 X 2 Y 1 X 1 Y -11 Y 1 X -25 Y 1 X 14 Y 1 X 6 Y 1 X -4 Y 1 X 14 Y 1 X -4 Y 8 Y 1 X -11 Y 1 X 15 Y 1 X -6 Y 3 Y 1 X -11 Y 1 X -6 Y 1 X -8 Y
 19 Y 1 X 9 Y 1 X -38 Y 1 X 17 Y 1 X 19 Y 1 X -1 Y 2 Y 1 X -5 Y 1 X 4 Y 1 X 6 Y -15 Y 1 X -11 Y 1 X -3 Y 1 X 33 Y -1 Y 1 X -20 Y 2 X -26 Y 29 Y 1 X 4 Y 1 X -12 Y 17 Y 1 X -6 Y 1 X 6 Y 1 X -23 Y 14 Y 1 X -16 Y 1 X 11 Y 1 X 19 Y -16 Y 1 X 20 Y 1 X -20
 Y 1 X 17 Y -17 Y 1 X 19 Y 1 X -8 Y 1 X -49 Y 1 X 41 Y 1 X 12 Y 1 X -10 Y 1 X -9 Y 1 X -14 Y 12 Y 1 X 23 Y 1 X -3 Y 1 X -34 Y 1 X 4 Y 1 X 17 Y 1 X 10 Y 1 X -9 Y 1 X -5 Y 1 X 21 Y 1 X -33 Y 1 X 27 Y 1 X 10 Y 1 X -37 Y 1 X 24 Y 1 X -1 Y 1 X -6 Y 1 X -7
 Y 16 Y 1 X -6 Y 1 X 1 Y 1 X 10 Y 1 X -9 Y 1 X -6 Y 1 X 2 Y -14 Y 1 X 27 Y 1 X 1 Y 1 X -7 Y 2 X -12 Y 1 X 12 Y 1 X -8 Y 1 X 16 Y 1 X -2 Y 1 X -15 Y 1 X -11 Y 20 Y 1 X -11 Y 1 X 5 Y 1 X -30 Y 30 Y 2 X -9 Y 1 X 14 Y 1 X -3 Y 1 X -18 Y 1 X 6 Y 1 X 5 Y 1
 X -8 Y 20 Y 2 X 2 Y 1 X -8 Y 15 Y 1 X -25 Y 1 X -1 Y 1 X 5 Y -7 Y 1 X 12 Y 1 X -7 Y 1 X -16 Y 14 Y 1 X 3 Y 1 X 1 Y -10 Y 1 X 2 Y 1 X 24 Y 1 X -45 Y 1 X 39 Y 1 X -20 Y 1 X 9 Y 1 X -4 Y 1 X 15 Y 1 X -14 Y 11 Y 1 X 1 Y 1 X 11 Y 1 X 4 Y -3 Y 1 X -1 Y 1
 X -12 Y 1 X 17 Y 1 X -24 Y 1 X 6 Y -23 Y 1 X 33 Y 1 X -29 Y 1 X 14 Y 1 X 12 Y 1 X -1 Y 1 X 4 Y -24 Y 1 X -16 Y 1 X 13 Y 1 X 14 Y -9 Y 1 X 7 Y 1 X 15 Y -25 Y 1 X 8 Y 1 X 10 Y 1 X -3 Y 1 X -35 Y 1 X 32 Y 1 X -28 Y 27 Y 1 X 12 Y 1 X -15 Y 1 X -11 Y 6 Y
 1 X -8 Y 1 X -18 Y 1 X 44 Y -1 Y 1 X -3 Y 1 X 6 Y -3 Y 1 X -27 Y 1 X 30 Y 1 X -16 Y 21 Y 2 X -24 Y 1 X 20 Y 1 X -21 Y 1 X 16 Y 1 X -17 Y 20 Y 1 X -25 Y 1 X 23 Y 1 X -11 Y 10 Y 1 X 2 Y 1 X -17 Y 1 X -1 Y 7 Y 1 X 1 Y 1 X 2 Y -1 Y 1 X -12 Y 1 X 2 Y 1 X
 9 Y 1 X -1 Y 1 X -22 Y 1 X 17 Y 1 X 16 Y 1 X -14 Y 1 X -6 Y 26 Y 1 X -4 Y 2 X 5 Y -5 Y 1 X -3 Y 1 X 10 Y 1 X -27 Y 1 X -3 Y 1 X 14 Y 1 X -1 Y 1 X -11 Y 1 X 19 Y 1 X -12 Y 1 X -5 Y 1 X 15 Y 1 X -3 Y 1 X -7 Y 1 X 16 Y -28 Y 1 X 22 Y 1 X 4 Y -2 Y 1 X
 -12 Y 1 X 20 Y 1 X -2 Y 5 Y 1 X -37 Y 1 X 22 Y 1 X -6 Y 8 Y 1 X -1 Y 1 X -17 Y 1 X 30 Y -41 Y 1 X 14 Y 1 X 27 Y 1 X -31 Y 1 X 10 Y 1 X -2 Y 1 Y 1 X 3 Y 1 X -2 Y 1 X 15 Y -3 Y 1 X -5 Y 1 X -6 Y 1 X 10 Y -3 Y 1 X -3 Y 1 X 14 Y 1 X -12 Y 6 Y 1 X -6 Y 1
 X 9 Y 1 X -18 Y 1 X -3 Y 1 X 10 Y -9 Y 1 X 16 Y 1 X -7 Y 1 X -8 Y 1 X 11 Y 1 X -10 Y 1 X 25 Y 1 X -27 Y 1 X -8 Y 1 X 22 Y 1 X -22 Y 1 X 2 Y 1 X -10 Y 11 Y 1 X 3 Y 1 X 7 Y -19 Y 1 X 15 Y 1 X -5 Y 1 X 31 Y -14 Y 1 X -27 Y 1 X -4 Y 1 X 40 Y -14 Y 2 X 3
 Y 1 X -4 Y 4 Y 2 X 2 Y 1 X 1 Y 1 X -14 Y 1 X -23 Y 13 Y 1 X 12 Y 1 X -5 Y 1 X -6 Y 3 Y 1 X 10 Y 1 X -13 Y 1 X 9 Y -4 Y 1 X 14 Y 1 X 2 Y 1 X 15 Y -1 Y 1 X -8 Y 1 X 6 Y 1 X -21 Y 1 X 18 Y 1 X -11 Y 6 Y 1 X -4 Y 1 X 1 Y 1 X -8 Y 17 Y 1 X -2 Y 1 X 3 Y 1
 X -18 Y 15 Y 1 X 6 Y 1 X -3 Y 1 X -3 Y 7 Y 1 X -6 Y 1 X -11 Y 1 X -18 Y 1 X 5 Y 1 X -5 Y 1 X 3 Y -1 Y 1 X -4 Y 1 X 17 Y 1 X -12 Y 1 X 7 Y 1 X -18 Y 26 Y 1 X 14 Y 2 X -31 Y 15 Y 1 X 10 Y 1 X -2 Y 1 X 11 Y 1 X -12 Y 1 X 3 Y 2 X -6 Y 1 X -6 Y 1 X 2 Y 1
 X 10 Y 1 X -22 Y 1 X 6 Y 1 X 5 Y 1 X 6 Y -8 Y 1 X -5 Y 1 X 1 Y 1 X 12 Y -21 Y 1 X 9 Y 1 X -2 Y 1 X 28 Y 1 X -2 Y 1 X -34 Y 1 X -3 Y 1 X 16 Y 1 X -18 Y 1 X 20 Y 1 X 12 Y 1 X -34 Y 1 X 9 Y 1 X -7 Y 1 X 36 Y -9 Y 1 X 16 Y 1 X -13 Y 1 X -16 Y 1 X 20 Y 1
 X -33 Y 1 X 18 Y 1 X 24 Y 1 X -27 Y 1 X -2 Y 1 X -8 Y 1 X 27 Y 1 X -4 Y 1 X -19 Y 1 X 24 Y 1 X -10 Y 1 X -2 Y 1 X -9 Y 17 Y 1 X -6 Y 1 X -5 Y 8 Y 1 X 3 Y 1 X -2 Y 1 X 5 Y 1 X -15 Y 1 X 18 Y 1 X -12 Y 1 X -14 Y 1 X 11 Y 1 X -14 Y 1 X 13 Y 1 X -26 Y 1
 X 17 Y 1 X 13 Y 1 X -16 Y 24 Y 1 X -12 Y 1 X -13 Y 1 X 29 Y -16 Y 1 X 7 Y 1 X 15 Y 1 X -24 Y 1 X 1 Y 1 X 4 Y 1 X -8 Y 1 Y 1 X 18 Y 1 X 7 Y 1 X -18 Y 1 X 5 Y 1 X 6 Y -15 Y 1 X 7 Y 1 X 6 Y 1 X -8 Y 12 Y 1 X -3 Y 1 X -38 Y 1 X 12 Y -4 Y 1 X 3 Y 1 X 31
 Y 1 X 2 Y -22 Y 1 X 8 Y 1 X -8 Y 1 X -5 Y 23 Y 1 X 2 Y 1 X -9 Y 13 Y 1 X -24 Y 1 X 23 Y 1 X 4 Y -5 Y 1 X -10 Y 1 X -8 Y 1 X 6 Y 1 X -24 Y 1 X 3 Y 1 X 19 Y -1 Y 1 X 19 Y 1 X -36 Y 1 X -3 Y 5 Y 1 X 14 Y 1 X -16 Y 1 X 16 Y 1 X 12 Y 1 X 3 Y -4 Y 1 X 3 Y
 1 X -13 Y 1 X 6 Y -24 Y 1 X 26 Y 1 X -17 Y 1 X 16 Y 1 X 14 Y 1 X -25 Y 1 X 22 Y -24 Y 1 X -18 Y 1 X 17 Y 1 X 26 Y -18 Y 1 X -12 Y 1 X 12 Y -16 Y 1 X 20 Y 1 X 5 Y 1 X -52 Y 46 Y 1 X -7 Y 1 X 3 Y 1 X 17 Y 1 X -22 Y 1 X -9 Y 1 X 7 Y -5 Y 1 X 4 Y 1 X -3
 Y 1 X -14 Y 4 Y 1 X 7 Y 1 X 9 Y -22 Y 1 X 17 Y 2 X 10 Y -5 Y 1 X -18 Y 1 X 19 Y 1 X 23 Y -19 Y 1 X 4 Y 1 X -12 Y 1 X 22 Y 1 X -5 Y 2 X -7 Y 3 Y 1 X 4 Y 1 X -16 Y 1 X 6 Y 1 X 8 Y 1 X -15 Y 10 Y 1 X -3 Y 1 X -3 Y 1 X 24 Y 1 X -32 Y 1 X -8 Y 1 X 9 Y 1
 X 6 Y 1 X 1 Y 1 X -3 Y 7 Y 1 X -18 Y 1 X 35 Y 1 X 2 Y 1 X -30 Y 1 X 22 Y 1 X -18 Y 1 X 18 Y 1 X -24 Y 1 X 4 Y 1 X -7 Y 1 X 32 Y 1 X -4 Y 1 X -12 Y 1 X -8 Y 1 X 11 Y 1 X -26 Y 1 X 10 Y 1 X 6 Y 1 X s black 108 91 m 590 X s
 gsave  710 696 23 14 C 643.951 42.93 t 0 r /Helvetica findfont 22.7706 sf 0 0 m (#tree) show NC gr  108 108 m -17 Y s 123 100 m -9 Y s 137 100 m -9 Y s 152 100 m -9 Y s 167 100 m -9 Y s 182 108 m -17 Y s 196 100 m -9 Y s 211 100 m -9 Y s 226 100 m
 -9 Y s 241 100 m -9 Y s 255 108 m -17 Y s 270 100 m -9 Y s 285 100 m -9 Y s 300 100 m -9 Y s 314 100 m -9 Y s 329 108 m -17 Y s 344 100 m -9 Y s 359 100 m -9 Y s 373 100 m -9 Y s 388 100 m -9 Y s 403 108 m -17 Y s 418 100 m -9 Y s 432 100 m -9 Y s
 447 100 m -9 Y s 462 100 m -9 Y s 477 108 m -17 Y s 491 100 m -9 Y s 506 100 m -9 Y s 521 100 m -9 Y s 536 100 m -9 Y s 550 108 m -17 Y s 565 100 m -9 Y s 580 100 m -9 Y s 594 100 m -9 Y s 609 100 m -9 Y s 624 108 m -17 Y s 639 100 m -9 Y s 653 100
 m -9 Y s 668 100 m -9 Y s 683 100 m -9 Y s 698 108 m -17 Y s
 gsave  710 696 23 14 C 98.4866 68.183 t 0 r /Helvetica findfont 22.7706 sf 0 0 m (0) show NC gr 
 gsave  710 696 23 14 C 159.094 68.183 t 0 r /Helvetica findfont 22.7706 sf 0 0 m (100) show NC gr 
 gsave  710 696 23 14 C 234.853 68.183 t 0 r /Helvetica findfont 22.7706 sf 0 0 m (200) show NC gr 
 gsave  710 696 23 14 C 308.086 68.183 t 0 r /Helvetica findfont 22.7706 sf 0 0 m (300) show NC gr 
 gsave  710 696 23 14 C 381.32 68.183 t 0 r /Helvetica findfont 22.7706 sf 0 0 m (400) show NC gr 
 gsave  710 696 23 14 C 454.553 68.183 t 0 r /Helvetica findfont 22.7706 sf 0 0 m (500) show NC gr 
 gsave  710 696 23 14 C 527.787 68.183 t 0 r /Helvetica findfont 22.7706 sf 0 0 m (600) show NC gr 
 gsave  710 696 23 14 C 603.546 68.183 t 0 r /Helvetica findfont 22.7706 sf 0 0 m (700) show NC gr 
 gsave  710 696 23 14 C 676.78 68.183 t 0 r /Helvetica findfont 22.7706 sf 0 0 m (800) show NC gr  108 641 m 590 X s 108 623 m 18 Y s 123 632 m 9 Y s 137 632 m 9 Y s 152 632 m 9 Y s 167 632 m 9 Y s 182 623 m 18 Y s 196 632 m 9 Y s 211 632 m 9 Y s 226
 632 m 9 Y s 241 632 m 9 Y s 255 623 m 18 Y s 270 632 m 9 Y s 285 632 m 9 Y s 300 632 m 9 Y s 314 632 m 9 Y s 329 623 m 18 Y s 344 632 m 9 Y s 359 632 m 9 Y s 373 632 m 9 Y s 388 632 m 9 Y s 403 623 m 18 Y s 418 632 m 9 Y s 432 632 m 9 Y s 447 632 m
 9 Y s 462 632 m 9 Y s 477 623 m 18 Y s 491 632 m 9 Y s 506 632 m 9 Y s 521 632 m 9 Y s 536 632 m 9 Y s 550 623 m 18 Y s 565 632 m 9 Y s 580 632 m 9 Y s 594 632 m 9 Y s 609 632 m 9 Y s 624 623 m 18 Y s 639 632 m 9 Y s 653 632 m 9 Y s 668 632 m 9 Y s
 683 632 m 9 Y s 698 623 m 18 Y s 108 91 m 550 Y s
 gsave  710 696 23 14 C 116.164 512.635 t 90 r /Helvetica findfont 22.7706 sf 0 0 m (error fraction) show NC gr  125 91 m -17 X s 116 108 m -8 X s 116 126 m -8 X s 116 143 m -8 X s 116 161 m -8 X s 125 178 m -17 X s 116 196 m -8 X s 116 213 m -8 X s
 116 231 m -8 X s 116 248 m -8 X s 125 266 m -17 X s 116 283 m -8 X s 116 301 m -8 X s 116 318 m -8 X s 116 336 m -8 X s 125 353 m -17 X s 116 370 m -8 X s 116 388 m -8 X s 116 405 m -8 X s 116 423 m -8 X s 125 440 m -17 X s 116 458 m -8 X s 116 475
 m -8 X s 116 493 m -8 X s 116 510 m -8 X s 125 528 m -17 X s 116 545 m -8 X s 116 563 m -8 X s 116 580 m -8 X s 116 597 m -8 X s 125 615 m -17 X s 125 615 m -17 X s 116 632 m -8 X s
 gsave  710 696 23 14 C 90.9107 83.3348 t 0 r /Helvetica findfont 22.7706 sf 0 0 m (0) show NC gr 
 gsave  710 696 23 14 C 75.7589 169.195 t 0 r /Helvetica findfont 22.7706 sf 0 0 m (0.1) show NC gr 
 gsave  710 696 23 14 C 70.7083 257.58 t 0 r /Helvetica findfont 22.7706 sf 0 0 m (0.2) show NC gr 
 gsave  710 696 23 14 C 70.7083 343.44 t 0 r /Helvetica findfont 22.7706 sf 0 0 m (0.3) show NC gr 
 gsave  710 696 23 14 C 70.7083 431.826 t 0 r /Helvetica findfont 22.7706 sf 0 0 m (0.4) show NC gr 
 gsave  710 696 23 14 C 70.7083 517.686 t 0 r /Helvetica findfont 22.7706 sf 0 0 m (0.5) show NC gr 
 gsave  710 696 23 14 C 70.7083 606.071 t 0 r /Helvetica findfont 22.7706 sf 0 0 m (0.6) show NC gr  698 91 m 550 Y s 681 91 m 17 X s 689 108 m 9 X s 689 126 m 9 X s 689 143 m 9 X s 689 161 m 9 X s 681 178 m 17 X s 689 196 m 9 X s 689 213 m 9 X s 689
 231 m 9 X s 689 248 m 9 X s 681 266 m 17 X s 689 283 m 9 X s 689 301 m 9 X s 689 318 m 9 X s 689 336 m 9 X s 681 353 m 17 X s 689 370 m 9 X s 689 388 m 9 X s 689 405 m 9 X s 689 423 m 9 X s 681 440 m 17 X s 689 458 m 9 X s 689 475 m 9 X s 689 493 m
 9 X s 689 510 m 9 X s 681 528 m 17 X s 689 545 m 9 X s 689 563 m 9 X s 689 580 m 9 X s 689 597 m 9 X s 681 615 m 17 X s 681 615 m 17 X s 689 632 m 9 X s 0.490196 0.545098 0.615686 c 0.364706 0.419608 0.490196 c 466 36 30 671 bf 0.490196 0.545098
 0.615686 c 30 671 m 466 X s 496 671 m 36 Y s 496 707 m -466 X s 30 707 m -36 Y s 1 1 1 c black 1 1 1 c
 gsave  710 696 23 14 C 70.7083 676.78 t 0 r /Helvetica-Bold findfont 27.8308 sf 0 0 m (error fraction vs tree number) show NC gr  0.490196 0.545098 0.615686 c 1 1 1 c 710 696 779 14 bf 0.490196 0.545098 0.615686 c 1 1 1 c 711 696 1534 14 bf
 gr  gr showpage
end
%%EOF
