%!PS-Adobe-2.0 EPSF-2.0
%%BoundingBox:  0 0 567 326
%%Title: DataSet/plots/BDT_3.eps: Reading weight file: /var/clus/usera/lovell/MVATools/MVATraining/work/DataSet/output/weights/TMVATeacher_BDT.weights.xml
%%Creator: ROOT Version 6.08/06
%%CreationDate: Wed May 30 15:22:08 2018
%%DocumentNeededResources: ProcSet (FontSetInit)
%%EndComments
%%BeginProlog
80 dict begin
/s {stroke} def /l {lineto} def /m {moveto} def /t {translate} def
/r {rotate} def /rl {roll}  def /R {repeat} def
/d {rlineto} def /rm {rmoveto} def /gr {grestore} def /f {eofill} def
/c {setrgbcolor} def /black {0 setgray} def /sd {setdash} def
/cl {closepath} def /sf {scalefont setfont} def /lw {setlinewidth} def
/box {m dup 0 exch d exch 0 d 0 exch neg d cl} def
/NC{systemdict begin initclip end}def/C{NC box clip newpath}def
/bl {box s} def /bf {gsave box gsave f grestore 1 lw [] 0 sd s grestore} def /Y { 0 exch d} def /X { 0 d} def 
/K {{pop pop 0 moveto} exch kshow} bind def
/ita {/ang 15 def gsave [1 0 ang dup sin exch cos div 1 0 0] concat} def 
/mp {newpath /y exch def /x exch def} def
/side {[w .77 mul w .23 mul] .385 w mul sd w 0 l currentpoint t -144 r} def
/mr {mp x y w2 0 360 arc} def /m24 {mr s} def /m20 {mr f} def
/mb {mp x y w2 add m w2 neg 0 d 0 w neg d w 0 d 0 w d cl} def
/mt {mp x y w2 add m w2 neg w neg d w 0 d cl} def
/m21 {mb f} def /m25 {mb s} def /m22 {mt f} def /m26{mt s} def
/m23 {mp x y w2 sub m w2 w d w neg 0 d cl f} def
/m27 {mp x y w2 add m w3 neg w2 neg d w3 w2 neg d w3 w2 d cl s} def
/m28 {mp x w2 sub y w2 sub w3 add m w3 0 d  0 w3 neg d w3 0 d 0 w3 d w3 0 d  0 w3 d w3 neg 0 d 0 w3 d w3 neg 0 d 0 w3 neg d w3 neg 0 d cl s } def
/m29 {mp gsave x w2 sub y w2 add w3 sub m currentpoint t 4 {side} repeat cl fill gr} def
/m30 {mp gsave x w2 sub y w2 add w3 sub m currentpoint t 4 {side} repeat cl s gr} def
/m31 {mp x y w2 sub m 0 w d x w2 sub y m w 0 d x w2 sub y w2 add m w w neg d x w2 sub y w2 sub m w w d s} def
/m32 {mp x y w2 sub m w2 w d w neg 0 d cl s} def
/m33 {mp x y w2 add m w3 neg w2 neg d w3 w2 neg d w3 w2 d cl f} def
/m34 {mp x w2 sub y w2 sub w3 add m w3 0 d  0 w3 neg d w3 0 d 0 w3 d w3 0 d  0 w3 d w3 neg 0 d 0 w3 d w3 neg 0 d 0 w3 neg d w3 neg 0 d cl f } def
/m2 {mp x y w2 sub m 0 w d x w2 sub y m w 0 d s} def
/m5 {mp x w2 sub y w2 sub m w w d x w2 sub y w2 add m w w neg d s} def
%%IncludeResource: ProcSet (FontSetInit)
%%IncludeResource: font Times-Roman
%%IncludeResource: font Times-Italic
%%IncludeResource: font Times-Bold
%%IncludeResource: font Times-BoldItalic
%%IncludeResource: font Helvetica
%%IncludeResource: font Helvetica-Oblique
%%IncludeResource: font Helvetica-Bold
%%IncludeResource: font Helvetica-BoldOblique
%%IncludeResource: font Courier
%%IncludeResource: font Courier-Oblique
%%IncludeResource: font Courier-Bold
%%IncludeResource: font Courier-BoldOblique
%%IncludeResource: font Symbol
%%IncludeResource: font ZapfDingbats
/reEncode {exch findfont dup length dict begin {1 index /FID eq  {pop pop} {def} ifelse } forall /Encoding exch def currentdict end dup /FontName get exch definefont pop } def [/Times-Bold /Times-Italic /Times-BoldItalic /Helvetica /Helvetica-Oblique
 /Helvetica-Bold /Helvetica-BoldOblique /Courier /Courier-Oblique /Courier-Bold /Courier-BoldOblique /Times-Roman /AvantGarde-Book /AvantGarde-BookOblique /AvantGarde-Demi /AvantGarde-DemiOblique /Bookman-Demi /Bookman-DemiItalic /Bookman-Light
 /Bookman-LightItalic /Helvetica-Narrow /Helvetica-Narrow-Bold /Helvetica-Narrow-BoldOblique /Helvetica-Narrow-Oblique /NewCenturySchlbk-Roman /NewCenturySchlbk-Bold /NewCenturySchlbk-BoldItalic /NewCenturySchlbk-Italic /Palatino-Bold
 /Palatino-BoldItalic /Palatino-Italic /Palatino-Roman ] {ISOLatin1Encoding reEncode } forall
%%EndProlog
%%BeginSetup
%%EndSetup
newpath  gsave  .25 .25 scale  gsave  0 0 t 0.490196 0.545098 0.615686 c[  ] 0 sd 3 lw 1 1 1 c 2268 1304 0 0 bf 0.490196 0.545098 0.615686 c 6 lw 992 1033 m -425 -109 d s 496 706 m -213 -108 d s 3 lw 0.02 0 0.98 c 425 218 71 380 bf 0.490196 0.545098
 0.615686 c 71 380 m 425 X s 496 380 m 218 Y s 496 598 m -425 X s 71 598 m -218 Y s 1 1 1 c black
 gsave  2268 1304 0 0 C 84.0737 472.63 t 0 r /Helvetica-Bold findfont 59.0788 sf 0 0 m (S/\(S+B\)=0.982) show NC gr  0.490196 0.545098 0.615686 c 6 lw 638 706 m 212 -108 d s 815 380 m -106 -108 d s 3 lw 0.25 0 0.75 c 213 218 602 54 bf 0.490196
 0.545098 0.615686 c 602 54 m 213 X s 815 54 m 218 Y s 815 272 m -213 X s 602 272 m -218 Y s 1 1 1 c black
 gsave  2268 1304 0 0 C 606.694 154.514 t 0 r /Helvetica-Bold findfont 29.5394 sf 0 0 m (S/\(S+B\)=0.755) show NC gr  0.490196 0.545098 0.615686 c 6 lw 886 380 m 106 -108 d s 3 lw 0.58 0 0.42 c 212 218 886 54 bf 0.490196 0.545098 0.615686 c 886 54 m
 212 X s 1098 54 m 218 Y s 1098 272 m -212 X s 886 272 m -218 Y s 1 1 1 c black
 gsave  2268 1304 0 0 C 890.726 154.514 t 0 r /Helvetica-Bold findfont 29.5394 sf 0 0 m (S/\(S+B\)=0.425) show NC gr  0.490196 0.545098 0.615686 c 0.51 0 0.49 c 425 218 638 380 bf 0.490196 0.545098 0.615686 c 638 380 m 425 X s 1063 380 m 218 Y s 1063
 598 m -425 X s 638 598 m -218 Y s 1 1 1 c black
 gsave  2268 1304 0 0 C 652.139 527.165 t 0 r /Helvetica-Bold findfont 59.0788 sf 0 0 m (S/\(S+B\)=0.497) show NC gr 
 gsave  2268 1304 0 0 C 681.678 413.552 t 0 r /Helvetica-Bold findfont 59.0788 sf 0 0 m (BsPt<\2550.714) show NC gr  0.490196 0.545098 0.615686 c 0.44 0 0.56 c 454 218 340 706 bf 0.490196 0.545098 0.615686 c 340 706 m 454 X s 794 706 m 218 Y s 794
 924 m -454 X s 340 924 m -218 Y s 1 1 1 c black
 gsave  2268 1304 0 0 C 420.368 856.642 t 0 r /Helvetica-Bold findfont 43.173 sf 0 0 m (S/\(S+B\)=0.566) show NC gr 
 gsave  2268 1304 0 0 C 356.745 743.029 t 0 r /Helvetica-Bold findfont 43.173 sf 0 0 m (MinMuIPChi2<\2550.714) show NC gr  0.490196 0.545098 0.615686 c 6 lw 1276 1033 m 425 -109 d s 3 lw 0.86 0 0.14 c 454 218 1474 706 bf 0.490196 0.545098 0.615686 c
 1474 706 m 454 X s 1928 706 m 218 Y s 1928 924 m -454 X s 1474 924 m -218 Y s 1 1 1 c black
 gsave  2268 1304 0 0 C 1488.33 797.564 t 0 r /Helvetica-Bold findfont 63.6233 sf 0 0 m (S/\(S+B\)=0.146) show NC gr  0.490196 0.545098 0.615686 c 0.53 0 0.47 c 454 217 907 1033 bf 0.490196 0.545098 0.615686 c 907 1033 m 454 X s 1361 1033 m 217 Y s
 1361 1250 m -454 X s 907 1250 m -217 Y s 1 1 1 c black
 gsave  2268 1304 0 0 C 922.538 1179.3 t 0 r /Helvetica-Bold findfont 63.6233 sf 0 0 m (S/\(S+B\)=0.478) show NC gr 
 gsave  2268 1304 0 0 C 938.444 1063.42 t 0 r /Helvetica-Bold findfont 63.6233 sf 0 0 m (BsIso>\2550.619) show NC gr  0.490196 0.545098 0.615686 c 1 1 0.2 c 294 130 1928 1161 bf 0.490196 0.545098 0.615686 c 1928 1161 m 294 X s 2222 1161 m 130 Y s
 2222 1291 m -294 X s 1928 1291 m -130 Y s 1 1 1 c black
 gsave  2268 1304 0 0 C 1945.06 1215.66 t 0 r /Helvetica-Bold findfont 27.2671 sf 0 0 m (Decision Tree no.: 3) show NC gr  0.490196 0.545098 0.615686 c 0 0 1 c 295 130 45 1161 bf 0.490196 0.545098 0.615686 c 45 1161 m 295 X s 340 1161 m 130 Y s 340
 1291 m -295 X s 45 1291 m -130 Y s 1 1 1 c 0.999 0.999 0.999 c black 0.999 0.999 0.999 c
 gsave  2268 1304 0 0 C 59.0788 1217.93 t 0 r /Helvetica-Bold findfont 29.5394 sf 0 0 m (Pure Signal Nodes) show NC gr  0.490196 0.545098 0.615686 c 1 0 0 c 295 131 45 1004 bf 0.490196 0.545098 0.615686 c 45 1004 m 295 X s 340 1004 m 131 Y s 340 1135
 m -295 X s 45 1135 m -131 Y s 1 1 1 c 0.999 0.999 0.999 c black 0.999 0.999 0.999 c
 gsave  2268 1304 0 0 C 61.351 1061.15 t 0 r /Helvetica-Bold findfont 27.2671 sf 0 0 m (Pure Backgr. Nodes) show NC gr 
 gr  gr showpage
end
%%EOF
