%!PS-Adobe-2.0 EPSF-2.0
%%BoundingBox:  0 0 567 294
%%Title: DataSet/plots/correlationscatter_B_ipchi2_ownpv				__Id_c3.eps: Correlation profiles for 'Id'-transformed signal variables
%%Creator: ROOT Version 6.08/06
%%CreationDate: Wed Jun  6 12:05:28 2018
%%DocumentNeededResources: ProcSet (FontSetInit)
%%EndComments
%%BeginProlog
80 dict begin
/s {stroke} def /l {lineto} def /m {moveto} def /t {translate} def
/r {rotate} def /rl {roll}  def /R {repeat} def
/d {rlineto} def /rm {rmoveto} def /gr {grestore} def /f {eofill} def
/c {setrgbcolor} def /black {0 setgray} def /sd {setdash} def
/cl {closepath} def /sf {scalefont setfont} def /lw {setlinewidth} def
/box {m dup 0 exch d exch 0 d 0 exch neg d cl} def
/NC{systemdict begin initclip end}def/C{NC box clip newpath}def
/bl {box s} def /bf {gsave box gsave f grestore 1 lw [] 0 sd s grestore} def /Y { 0 exch d} def /X { 0 d} def 
/K {{pop pop 0 moveto} exch kshow} bind def
/ita {/ang 15 def gsave [1 0 ang dup sin exch cos div 1 0 0] concat} def 
/mp {newpath /y exch def /x exch def} def
/side {[w .77 mul w .23 mul] .385 w mul sd w 0 l currentpoint t -144 r} def
/mr {mp x y w2 0 360 arc} def /m24 {mr s} def /m20 {mr f} def
/mb {mp x y w2 add m w2 neg 0 d 0 w neg d w 0 d 0 w d cl} def
/mt {mp x y w2 add m w2 neg w neg d w 0 d cl} def
/m21 {mb f} def /m25 {mb s} def /m22 {mt f} def /m26{mt s} def
/m23 {mp x y w2 sub m w2 w d w neg 0 d cl f} def
/m27 {mp x y w2 add m w3 neg w2 neg d w3 w2 neg d w3 w2 d cl s} def
/m28 {mp x w2 sub y w2 sub w3 add m w3 0 d  0 w3 neg d w3 0 d 0 w3 d w3 0 d  0 w3 d w3 neg 0 d 0 w3 d w3 neg 0 d 0 w3 neg d w3 neg 0 d cl s } def
/m29 {mp gsave x w2 sub y w2 add w3 sub m currentpoint t 4 {side} repeat cl fill gr} def
/m30 {mp gsave x w2 sub y w2 add w3 sub m currentpoint t 4 {side} repeat cl s gr} def
/m31 {mp x y w2 sub m 0 w d x w2 sub y m w 0 d x w2 sub y w2 add m w w neg d x w2 sub y w2 sub m w w d s} def
/m32 {mp x y w2 sub m w2 w d w neg 0 d cl s} def
/m33 {mp x y w2 add m w3 neg w2 neg d w3 w2 neg d w3 w2 d cl f} def
/m34 {mp x w2 sub y w2 sub w3 add m w3 0 d  0 w3 neg d w3 0 d 0 w3 d w3 0 d  0 w3 d w3 neg 0 d 0 w3 d w3 neg 0 d 0 w3 neg d w3 neg 0 d cl f } def
/m2 {mp x y w2 sub m 0 w d x w2 sub y m w 0 d s} def
/m5 {mp x w2 sub y w2 sub m w w d x w2 sub y w2 add m w w neg d s} def
%%IncludeResource: ProcSet (FontSetInit)
%%IncludeResource: font Times-Roman
%%IncludeResource: font Times-Italic
%%IncludeResource: font Times-Bold
%%IncludeResource: font Times-BoldItalic
%%IncludeResource: font Helvetica
%%IncludeResource: font Helvetica-Oblique
%%IncludeResource: font Helvetica-Bold
%%IncludeResource: font Helvetica-BoldOblique
%%IncludeResource: font Courier
%%IncludeResource: font Courier-Oblique
%%IncludeResource: font Courier-Bold
%%IncludeResource: font Courier-BoldOblique
%%IncludeResource: font Symbol
%%IncludeResource: font ZapfDingbats
/reEncode {exch findfont dup length dict begin {1 index /FID eq  {pop pop} {def} ifelse } forall /Encoding exch def currentdict end dup /FontName get exch definefont pop } def [/Times-Bold /Times-Italic /Times-BoldItalic /Helvetica /Helvetica-Oblique
 /Helvetica-Bold /Helvetica-BoldOblique /Courier /Courier-Oblique /Courier-Bold /Courier-BoldOblique /Times-Roman /AvantGarde-Book /AvantGarde-BookOblique /AvantGarde-Demi /AvantGarde-DemiOblique /Bookman-Demi /Bookman-DemiItalic /Bookman-Light
 /Bookman-LightItalic /Helvetica-Narrow /Helvetica-Narrow-Bold /Helvetica-Narrow-BoldOblique /Helvetica-Narrow-Oblique /NewCenturySchlbk-Roman /NewCenturySchlbk-Bold /NewCenturySchlbk-BoldItalic /NewCenturySchlbk-Italic /Palatino-Bold
 /Palatino-BoldItalic /Palatino-Italic /Palatino-Roman ] {ISOLatin1Encoding reEncode } forall
%%EndProlog
%%BeginSetup
%%EndSetup
newpath  gsave  .25 .25 scale  gsave  0 0 t 0.490196 0.545098 0.615686 c[  ] 0 sd 3 lw 1 1 1 c 2268 1176 0 0 bf 0.490196 0.545098 0.615686 c 1 1 1 c 710 565 23 600 bf black 1 1 1 c 576 427 115 681 bf black 576 427 115 681 bl 1 1 1 c 576 427 115 681
 bf black 576 427 115 681 bl 0.49 0.6 0.82 c 0.8 0.78 0.67 c 2 2 122 688 bf 2 1 142 690 bf 1 2 169 691 bf 1 2 169 694 bf 1 1 121 696 bf 2 1 203 696 bf 2 1 122 697 bf 2 1 182 697 bf 1 1 192 697 bf 2 2 119 698 bf 2 1 117 700 bf 1 2 501 701 bf 2 1 136
 703 bf 2 1 188 703 bf 2 1 255 703 bf 2 2 124 704 bf 2 2 226 704 bf 2 1 132 706 bf 2 1 228 706 bf 2 1 124 707 bf 2 1 136 707 bf 2 1 213 707 bf 2 2 142 711 bf 2 2 330 711 bf 2 1 153 713 bf 2 1 165 714 bf 2 1 216 714 bf 2 1 243 714 bf 2 1 345 714 bf 2
 1 585 714 bf 2 2 245 715 bf 2 1 115 717 bf 2 1 232 717 bf 2 2 182 718 bf 2 2 355 718 bf 2 1 115 723 bf 2 1 124 723 bf 2 1 128 723 bf 2 1 161 723 bf 2 1 186 723 bf 2 2 128 725 bf 2 2 142 725 bf 2 1 136 727 bf 2 1 138 727 bf 1 1 169 727 bf 2 2 136 728
 bf 2 2 199 728 bf 1 1 121 730 bf 2 2 193 731 bf 2 2 195 731 bf 2 2 259 731 bf 2 2 299 731 bf 2 1 128 733 bf 2 1 117 734 bf 2 1 126 734 bf 2 2 161 735 bf 2 2 193 735 bf 2 1 117 737 bf 2 1 228 737 bf 2 1 270 737 bf 2 1 451 737 bf 2 2 161 738 bf 2 2
 272 738 bf 2 1 209 740 bf 2 1 261 740 bf 2 2 182 741 bf 2 2 188 741 bf 2 2 209 741 bf 2 1 132 743 bf 2 1 151 743 bf 2 1 161 743 bf 2 1 163 743 bf 2 1 136 744 bf 2 1 155 744 bf 2 1 188 744 bf 2 1 399 744 bf 2 1 117 747 bf 2 1 124 747 bf 1 1 169 747
 bf 2 1 180 747 bf 2 1 195 747 bf 2 1 405 747 bf 2 2 130 748 bf 2 2 180 748 bf 1 2 645 748 bf 2 1 126 750 bf 2 1 115 751 bf 2 1 134 751 bf 2 1 161 751 bf 2 1 270 751 bf 2 2 136 752 bf 2 2 142 752 bf 2 2 286 752 bf 2 2 330 752 bf 2 2 458 752 bf 2 1
 176 754 bf 2 1 224 754 bf 2 1 234 754 bf 2 2 130 755 bf 1 1 121 757 bf 2 1 130 757 bf 2 1 176 757 bf 2 1 207 757 bf 2 1 303 757 bf 2 2 124 758 bf 2 2 140 758 bf 2 2 280 758 bf 2 1 226 761 bf 2 2 126 762 bf 2 2 155 762 bf 2 1 190 764 bf 2 2 126 765
 bf 2 2 145 765 bf 2 2 151 765 bf 2 2 167 765 bf 2 1 165 767 bf 2 1 209 767 bf 2 1 230 767 bf 2 1 372 767 bf 2 2 117 768 bf 2 2 134 768 bf 2 2 142 768 bf 2 2 161 768 bf 1 1 263 770 bf 2 2 119 772 bf 2 2 132 772 bf 2 2 366 772 bf 2 1 128 774 bf 2 1
 145 774 bf 2 1 203 774 bf 2 1 238 774 bf 2 1 453 774 bf 2 2 320 775 bf 2 1 165 777 bf 1 1 169 777 bf 2 1 307 777 bf 2 1 385 777 bf 2 2 115 778 bf 2 2 126 778 bf 2 1 117 780 bf 2 1 119 780 bf 2 1 205 781 bf 2 2 122 782 bf 2 2 153 782 bf 2 2 159 782
 bf 2 2 209 782 bf 2 2 211 782 bf 1 2 215 782 bf 2 2 241 782 bf 2 1 159 784 bf 2 2 124 785 bf 2 2 130 785 bf 1 2 144 785 bf 2 2 157 785 bf 2 2 224 785 bf 2 1 124 787 bf 2 1 136 787 bf 2 1 138 787 bf 2 1 142 787 bf 2 1 184 787 bf 2 1 220 788 bf 1 2
 121 789 bf 2 2 165 789 bf 2 2 579 789 bf 2 1 117 791 bf 2 1 126 791 bf 2 1 140 791 bf 2 1 186 791 bf 2 1 228 791 bf 2 1 295 791 bf 2 2 157 792 bf 2 2 163 792 bf 2 2 209 792 bf 2 1 122 794 bf 2 1 124 794 bf 2 1 163 794 bf 2 1 172 794 bf 2 1 259 794
 bf 2 1 274 794 bf 2 1 351 794 bf 2 2 138 795 bf 0.53 0.4 0.34 c 1 2 192 795 bf 0.8 0.78 0.67 c 2 2 211 795 bf 2 1 117 797 bf 2 1 178 797 bf 2 1 387 797 bf 2 1 117 798 bf 2 1 124 798 bf 1 1 501 798 bf 2 2 117 799 bf 2 2 126 799 bf 2 2 163 799 bf 2 2
 211 799 bf 2 2 241 799 bf 2 2 253 799 bf 1 1 121 801 bf 2 1 126 801 bf 2 1 157 801 bf 2 1 232 801 bf 2 1 380 801 bf 2 2 126 802 bf 2 2 147 802 bf 2 2 163 802 bf 2 2 213 802 bf 2 2 243 802 bf 2 1 117 804 bf 2 1 132 804 bf 2 1 149 804 bf 2 1 216 804
 bf 2 1 424 804 bf 2 1 460 804 bf 2 1 572 804 bf 1 2 121 805 bf 2 2 126 805 bf 2 2 209 805 bf 2 2 238 805 bf 2 2 241 805 bf 2 2 293 805 bf 2 1 117 807 bf 0.53 0.4 0.34 c 2 1 134 807 bf 0.8 0.78 0.67 c 2 1 170 807 bf 2 1 174 807 bf 2 1 207 807 bf 2 1
 261 807 bf 2 1 458 807 bf 2 1 134 808 bf 2 1 151 808 bf 2 2 157 809 bf 1 2 192 809 bf 2 2 268 809 bf 2 1 117 811 bf 2 1 122 811 bf 2 1 128 811 bf 2 1 176 811 bf 2 2 115 812 bf 2 2 224 812 bf 2 2 318 812 bf 1 2 359 812 bf 2 1 117 814 bf 1 1 121 814
 bf 2 1 197 814 bf 2 1 205 814 bf 2 2 142 815 bf 2 2 149 815 bf 2 2 153 815 bf 2 2 159 815 bf 2 2 184 815 bf 2 2 188 815 bf 2 1 122 817 bf 2 1 147 817 bf 2 1 301 817 bf 2 1 167 818 bf 1 1 169 818 bf 2 1 268 818 bf 2 1 370 818 bf 2 2 124 819 bf 2 2
 149 819 bf 2 2 170 819 bf 1 2 215 819 bf 2 1 155 821 bf 1 1 169 821 bf 2 2 119 822 bf 1 2 121 822 bf 2 2 138 822 bf 2 2 161 822 bf 2 2 165 822 bf 2 2 167 822 bf 1 2 240 822 bf 2 2 245 822 bf 2 1 130 824 bf 2 1 270 824 bf 2 1 380 824 bf 2 1 117 825
 bf 2 1 174 825 bf 1 1 240 825 bf 2 1 243 825 bf 1 1 288 825 bf 2 1 433 825 bf 2 2 119 826 bf 2 2 130 826 bf 2 2 207 826 bf 2 2 280 826 bf 1 1 169 828 bf 2 1 199 828 bf 2 1 228 828 bf 2 2 153 829 bf 2 2 228 829 bf 2 2 253 829 bf 2 2 357 829 bf 2 2
 393 829 bf 2 1 119 831 bf 2 1 172 831 bf 2 1 203 831 bf 2 2 126 832 bf 2 2 128 832 bf 0.53 0.4 0.34 c 2 2 149 832 bf 0.8 0.78 0.67 c 2 2 155 832 bf 2 2 165 832 bf 2 2 176 832 bf 2 2 186 832 bf 2 2 207 832 bf 1 2 215 832 bf 2 1 119 834 bf 2 1 126 834
 bf 0.53 0.4 0.34 c 1 1 144 834 bf 0.8 0.78 0.67 c 2 1 161 834 bf 2 1 195 834 bf 2 1 213 834 bf 1 1 144 835 bf 2 1 161 835 bf 2 1 167 835 bf 2 1 184 835 bf 2 1 201 835 bf 2 1 332 835 bf 1 1 478 835 bf 2 2 132 836 bf 2 2 136 836 bf 2 2 155 836 bf 2 2
 157 836 bf 2 1 115 838 bf 2 1 126 838 bf 2 1 163 838 bf 2 2 119 839 bf 0.53 0.4 0.34 c 2 2 122 839 bf 0.8 0.78 0.67 c 2 2 142 839 bf 2 2 201 839 bf 2 2 220 839 bf 2 2 368 839 bf 2 1 128 841 bf 1 1 169 841 bf 2 1 205 841 bf 2 1 230 841 bf 2 1 238 841
 bf 2 1 293 841 bf 2 2 130 842 bf 2 2 209 842 bf 2 2 345 842 bf 2 1 122 844 bf 2 1 128 844 bf 2 1 182 844 bf 2 1 366 844 bf 2 1 119 845 bf 2 1 124 845 bf 2 1 151 845 bf 2 1 176 845 bf 2 1 178 845 bf 2 1 184 845 bf 2 2 190 846 bf 1 2 263 846 bf 2 2
 328 846 bf 2 1 119 848 bf 2 1 132 848 bf 2 1 140 848 bf 2 1 159 848 bf 2 1 197 848 bf 2 1 228 848 bf 2 1 232 848 bf 2 1 236 848 bf 2 1 243 848 bf 2 1 276 848 bf 2 1 357 848 bf 2 2 134 849 bf 2 2 136 849 bf 2 2 236 849 bf 2 2 362 849 bf 2 1 119 851
 bf 1 1 144 851 bf 2 1 176 851 bf 2 1 199 851 bf 2 1 253 851 bf 2 2 117 852 bf 2 2 128 852 bf 2 2 138 852 bf 2 2 145 852 bf 2 2 151 852 bf 2 2 184 852 bf 2 1 257 854 bf 2 1 266 854 bf 2 1 270 854 bf 2 1 293 854 bf 2 1 119 855 bf 2 1 159 855 bf 2 1
 238 855 bf 2 2 128 856 bf 2 2 132 856 bf 2 2 145 856 bf 1 2 215 856 bf 2 2 232 856 bf 2 2 241 856 bf 2 2 447 856 bf 2 1 126 858 bf 1 1 144 858 bf 2 1 518 858 bf 2 1 689 858 bf 2 2 126 859 bf 2 2 132 859 bf 2 2 149 859 bf 2 2 157 859 bf 2 2 165 859
 bf 2 2 174 859 bf 2 1 205 861 bf 2 1 211 861 bf 2 1 119 862 bf 1 1 121 862 bf 2 1 128 862 bf 2 1 147 862 bf 2 1 155 862 bf 2 1 178 862 bf 2 2 117 863 bf 2 2 128 863 bf 0.53 0.4 0.34 c 2 2 136 863 bf 0.8 0.78 0.67 c 2 2 241 863 bf 2 1 130 865 bf 0.53
 0.4 0.34 c 1 1 169 865 bf 0.8 0.78 0.67 c 1 1 192 865 bf 2 1 195 865 bf 2 1 241 865 bf 2 1 497 865 bf 2 2 126 866 bf 2 2 132 866 bf 2 2 153 866 bf 2 2 190 866 bf 1 2 311 866 bf 2 2 355 866 bf 2 1 132 868 bf 2 1 138 868 bf 1 1 169 868 bf 2 1 170 868
 bf 1 1 192 868 bf 2 1 309 868 bf 2 2 117 869 bf 2 2 145 869 bf 2 2 161 869 bf 1 2 169 869 bf 2 2 188 869 bf 1 2 311 869 bf 2 1 147 871 bf 2 1 157 871 bf 2 1 199 871 bf 2 1 232 871 bf 2 1 276 871 bf 2 1 360 871 bf 2 1 115 872 bf 2 1 172 872 bf 2 1
 197 872 bf 2 1 284 872 bf 2 2 115 873 bf 2 2 130 873 bf 2 2 176 873 bf 2 2 401 873 bf 2 1 115 875 bf 2 1 151 875 bf 2 1 157 875 bf 2 1 176 875 bf 2 1 182 875 bf 2 1 201 875 bf 2 1 282 875 bf 2 1 470 875 bf 2 2 122 876 bf 2 2 259 876 bf 2 2 161 879
 bf 2 2 174 879 bf 2 1 134 881 bf 2 1 174 881 bf 2 1 228 881 bf 2 1 255 881 bf 2 1 115 882 bf 2 1 211 882 bf 2 2 155 883 bf 2 2 236 883 bf 2 1 122 885 bf 2 1 134 885 bf 2 1 155 885 bf 2 1 226 885 bf 2 1 228 885 bf 2 2 188 886 bf 2 2 218 886 bf 2 2
 297 886 bf 1 1 121 888 bf 2 1 124 888 bf 2 1 126 888 bf 2 1 130 888 bf 2 1 257 888 bf 2 1 360 888 bf 2 2 117 889 bf 2 2 155 889 bf 2 2 243 889 bf 2 1 128 891 bf 2 1 178 891 bf 2 1 276 891 bf 2 1 122 892 bf 2 1 159 892 bf 2 1 170 892 bf 2 1 186 892
 bf 2 2 115 893 bf 2 2 119 893 bf 2 2 128 893 bf 2 2 138 893 bf 2 2 142 893 bf 2 2 182 893 bf 2 2 232 893 bf 2 2 243 893 bf 1 2 263 893 bf 2 1 119 895 bf 1 1 121 895 bf 2 1 201 895 bf 2 1 249 895 bf 2 2 132 896 bf 2 2 145 896 bf 2 2 199 896 bf 1 1
 215 898 bf 2 1 241 898 bf 2 1 274 898 bf 2 1 119 899 bf 2 1 140 899 bf 2 1 145 899 bf 2 1 157 899 bf 2 1 207 899 bf 2 1 264 899 bf 1 1 382 899 bf 2 2 115 900 bf 2 2 136 900 bf 2 2 149 900 bf 2 2 201 900 bf 2 1 155 902 bf 2 1 182 902 bf 2 1 299 902
 bf 2 1 537 902 bf 2 2 117 903 bf 2 2 124 903 bf 2 2 130 903 bf 2 2 138 903 bf 2 1 124 905 bf 2 1 226 905 bf 2 1 291 905 bf 1 2 121 906 bf 2 2 238 906 bf 2 2 303 906 bf 2 2 397 906 bf 2 1 157 908 bf 2 1 134 909 bf 2 1 216 909 bf 2 1 234 909 bf 2 1
 255 909 bf 2 1 527 909 bf 2 2 167 910 bf 1 2 192 910 bf 2 1 147 912 bf 2 1 163 912 bf 2 1 199 912 bf 2 1 278 912 bf 2 1 362 912 bf 2 2 165 913 bf 2 2 170 913 bf 2 2 264 913 bf 2 2 368 913 bf 2 1 289 915 bf 2 1 182 918 bf 0.53 0.4 0.34 c 2 1 117 919
 bf 0.8 0.78 0.67 c 2 1 126 919 bf 2 1 163 919 bf 2 1 282 919 bf 0.53 0.4 0.34 c 2 2 134 920 bf 0.8 0.78 0.67 c 2 2 138 920 bf 2 2 234 920 bf 2 2 236 920 bf 2 2 276 920 bf 2 1 170 922 bf 2 2 268 923 bf 2 1 151 925 bf 2 1 153 925 bf 2 2 176 926 bf 2 1
 161 928 bf 2 1 167 928 bf 2 1 142 929 bf 2 1 460 929 bf 2 2 140 930 bf 2 2 155 930 bf 2 2 188 930 bf 2 1 115 932 bf 2 1 249 932 bf 2 1 264 932 bf 2 1 280 932 bf 2 2 259 933 bf 2 1 124 935 bf 2 1 161 935 bf 1 2 263 937 bf 2 1 255 939 bf 2 2 320 940
 bf 2 2 368 940 bf 2 1 126 942 bf 2 1 128 942 bf 2 1 241 942 bf 2 2 132 943 bf 2 2 174 943 bf 2 2 199 943 bf 2 2 211 943 bf 2 1 142 945 bf 2 1 266 945 bf 2 1 351 945 bf 2 1 132 946 bf 2 1 195 946 bf 2 1 222 946 bf 2 1 380 946 bf 2 2 134 947 bf 2 2
 190 947 bf 2 2 397 947 bf 1 1 192 949 bf 2 1 393 949 bf 2 2 138 950 bf 2 2 145 950 bf 2 1 182 952 bf 1 1 620 952 bf 2 2 119 953 bf 2 2 161 953 bf 2 1 115 955 bf 2 1 147 956 bf 2 2 145 957 bf 2 1 138 959 bf 2 1 182 959 bf 2 1 266 959 bf 2 2 193 960
 bf 1 1 668 962 bf 2 2 126 963 bf 0.53 0.4 0.34 c 2 2 159 963 bf 0.8 0.78 0.67 c 2 1 136 965 bf 2 1 145 965 bf 2 1 195 965 bf 2 1 134 966 bf 1 1 144 966 bf 2 1 416 969 bf 2 1 172 972 bf 2 1 184 973 bf 1 2 192 974 bf 2 1 132 976 bf 2 2 176 977 bf 2 2
 184 977 bf 2 1 165 979 bf 2 2 270 980 bf 0.53 0.4 0.34 c 2 1 128 983 bf 0.8 0.78 0.67 c 2 1 180 983 bf 2 2 176 984 bf 1 1 215 986 bf 2 1 186 992 bf 1 1 240 993 bf 2 2 178 994 bf 2 1 142 996 bf 2 1 176 996 bf 2 2 136 1000 bf 2 2 193 1004 bf 2 1 165
 1006 bf 2 1 211 1009 bf 2 1 552 1009 bf 2 1 264 1010 bf 2 1 328 1010 bf 2 2 174 1011 bf 2 2 299 1014 bf 1 2 169 1017 bf 2 2 253 1017 bf 2 1 190 1019 bf 2 1 163 1023 bf 2 1 245 1029 bf 2 1 299 1060 bf 2 1 236 1070 bf 1 1 144 1073 bf 2 1 128 1100 bf
 0.49 0.6 0.82 c black 115 681 m 576 X s
 gsave  710 565 23 600 C 483.098 613.818 t 0 r /Helvetica findfont 28.5208 sf 0 0 m (B_ipchi2_ownpv				) show NC gr  172 695 m -14 Y s 187 688 m -7 Y s 201 688 m -7 Y s 216 688 m -7 Y s 230 695 m -14 Y s 244 688 m -7 Y s 259 688 m -7 Y s 273 688 m -7
 Y s 288 695 m -14 Y s 302 688 m -7 Y s 317 688 m -7 Y s 331 688 m -7 Y s 345 695 m -14 Y s 360 688 m -7 Y s 374 688 m -7 Y s 389 688 m -7 Y s 403 695 m -14 Y s 418 688 m -7 Y s 432 688 m -7 Y s 446 688 m -7 Y s 461 695 m -14 Y s 475 688 m -7 Y s 490
 688 m -7 Y s 504 688 m -7 Y s 519 695 m -14 Y s 533 688 m -7 Y s 547 688 m -7 Y s 562 688 m -7 Y s 576 695 m -14 Y s 591 688 m -7 Y s 605 688 m -7 Y s 620 688 m -7 Y s 634 695 m -14 Y s 172 695 m -14 Y s 158 688 m -7 Y s 144 688 m -7 Y s 129 688 m
 -7 Y s 634 695 m -14 Y s 648 688 m -7 Y s 663 688 m -7 Y s 677 688 m -7 Y s
 gsave  710 565 23 600 C 161.98 653.603 t 0 r /Helvetica findfont 25.6688 sf 0 0 m (2) show NC gr 
 gsave  710 565 23 600 C 218.815 653.603 t 0 r /Helvetica findfont 25.6688 sf 0 0 m (4) show NC gr 
 gsave  710 565 23 600 C 278.492 653.603 t 0 r /Helvetica findfont 25.6688 sf 0 0 m (6) show NC gr 
 gsave  710 565 23 600 C 335.327 653.603 t 0 r /Helvetica findfont 25.6688 sf 0 0 m (8) show NC gr 
 gsave  710 565 23 600 C 386.478 653.603 t 0 r /Helvetica findfont 25.6688 sf 0 0 m (10) show NC gr 
 gsave  710 565 23 600 C 446.155 653.603 t 0 r /Helvetica findfont 25.6688 sf 0 0 m (12) show NC gr 
 gsave  710 565 23 600 C 502.99 653.603 t 0 r /Helvetica findfont 25.6688 sf 0 0 m (14) show NC gr 
 gsave  710 565 23 600 C 559.825 653.603 t 0 r /Helvetica findfont 25.6688 sf 0 0 m (16) show NC gr 
 gsave  710 565 23 600 C 619.502 653.603 t 0 r /Helvetica findfont 25.6688 sf 0 0 m (18) show NC gr  115 1108 m 576 X s 172 1095 m 13 Y s 187 1101 m 7 Y s 201 1101 m 7 Y s 216 1101 m 7 Y s 230 1095 m 13 Y s 244 1101 m 7 Y s 259 1101 m 7 Y s 273 1101
 m 7 Y s 288 1095 m 13 Y s 302 1101 m 7 Y s 317 1101 m 7 Y s 331 1101 m 7 Y s 345 1095 m 13 Y s 360 1101 m 7 Y s 374 1101 m 7 Y s 389 1101 m 7 Y s 403 1095 m 13 Y s 418 1101 m 7 Y s 432 1101 m 7 Y s 446 1101 m 7 Y s 461 1095 m 13 Y s 475 1101 m 7 Y s
 490 1101 m 7 Y s 504 1101 m 7 Y s 519 1095 m 13 Y s 533 1101 m 7 Y s 547 1101 m 7 Y s 562 1101 m 7 Y s 576 1095 m 13 Y s 591 1101 m 7 Y s 605 1101 m 7 Y s 620 1101 m 7 Y s 634 1095 m 13 Y s 172 1095 m 13 Y s 158 1101 m 7 Y s 144 1101 m 7 Y s 129
 1101 m 7 Y s 634 1095 m 13 Y s 648 1101 m 7 Y s 663 1101 m 7 Y s 677 1101 m 7 Y s 115 681 m 427 Y s
 gsave  710 565 23 600 C 51.1515 977.562 t 90 r /Helvetica findfont 28.5208 sf 0 0 m (Massh2h3					) show NC gr  131 724 m -16 X s 123 742 m -8 X s 123 759 m -8 X s 123 777 m -8 X s 131 795 m -16 X s 123 812 m -8 X s 123 830 m -8 X s 123 848 m -8 X s
 131 865 m -16 X s 123 883 m -8 X s 123 901 m -8 X s 123 918 m -8 X s 131 936 m -16 X s 123 954 m -8 X s 123 971 m -8 X s 123 989 m -8 X s 131 1007 m -16 X s 123 1024 m -8 X s 123 1042 m -8 X s 123 1060 m -8 X s 131 1077 m -16 X s 131 724 m -16 X s
 123 706 m -8 X s 123 689 m -8 X s 131 1077 m -16 X s 123 1095 m -8 X s
 gsave  710 565 23 600 C 62.5185 713.279 t 0 r /Helvetica findfont 25.6688 sf 0 0 m (400) show NC gr 
 gsave  710 565 23 600 C 62.5185 784.323 t 0 r /Helvetica findfont 25.6688 sf 0 0 m (600) show NC gr 
 gsave  710 565 23 600 C 62.5185 855.367 t 0 r /Helvetica findfont 25.6688 sf 0 0 m (800) show NC gr 
 gsave  710 565 23 600 C 48.3097 926.411 t 0 r /Helvetica findfont 25.6688 sf 0 0 m (1000) show NC gr 
 gsave  710 565 23 600 C 48.3097 997.454 t 0 r /Helvetica findfont 25.6688 sf 0 0 m (1200) show NC gr 
 gsave  710 565 23 600 C 48.3097 1068.5 t 0 r /Helvetica findfont 25.6688 sf 0 0 m (1400) show NC gr  691 681 m 427 Y s 674 724 m 17 X s 683 742 m 8 X s 683 759 m 8 X s 683 777 m 8 X s 674 795 m 17 X s 683 812 m 8 X s 683 830 m 8 X s 683 848 m 8 X s
 674 865 m 17 X s 683 883 m 8 X s 683 901 m 8 X s 683 918 m 8 X s 674 936 m 17 X s 683 954 m 8 X s 683 971 m 8 X s 683 989 m 8 X s 674 1007 m 17 X s 683 1024 m 8 X s 683 1042 m 8 X s 683 1060 m 8 X s 674 1077 m 17 X s 674 724 m 17 X s 683 706 m 8 X s
 683 689 m 8 X s 674 1077 m 17 X s 683 1095 m 8 X s 6 lw 0.81 0.37 0.38 c black 122 821 m 6 Y s 122 827 m 7 Y s 115 827 m 7 X s 122 827 m 7 X s 116 821 m 12 X s 116 834 m 12 X s 115 822 m 11 Y s 129 822 m 11 Y s 3 lw /w 2 def /w2 {w 2 div} def /w3 {w
 3 div} def 122 827 m20 6 lw 136 834 m 8 Y s 136 842 m 8 Y s 129 842 m 7 X s 136 842 m 8 X s 131 834 m 11 X s 131 850 m 11 X s 129 836 m 12 Y s 144 836 m 12 Y s 3 lw 136 842 m20 6 lw 151 845 m 9 Y s 151 854 m 8 Y s 144 854 m 7 X s 151 854 m 7 X s 145
 845 m 11 X s 145 862 m 11 X s 144 848 m 11 Y s 158 848 m 11 Y s 3 lw 151 854 m20 6 lw 165 832 m 9 Y s 165 841 m 9 Y s 158 841 m 7 X s 165 841 m 7 X s 159 832 m 12 X s 159 850 m 12 X s 158 835 m 11 Y s 172 835 m 11 Y s 3 lw 165 841 m20 6 lw 180 853 m
 12 Y s 180 865 m 11 Y s 172 865 m 8 X s 180 865 m 7 X s 174 853 m 11 X s 174 876 m 11 X s 172 859 m 11 Y s 187 859 m 11 Y s 3 lw 180 865 m20 6 lw 194 841 m 13 Y s 194 854 m 12 Y s 187 854 m 7 X s 194 854 m 7 X s 188 841 m 12 X s 188 866 m 12 X s 187
 848 m 11 Y s 201 848 m 11 Y s 3 lw 194 854 m20 6 lw 208 815 m 11 Y s 208 826 m 11 Y s 201 826 m 7 X s 208 826 m 8 X s 203 815 m 11 X s 203 837 m 11 X s 201 820 m 12 Y s 216 820 m 12 Y s 3 lw 208 826 m20 6 lw 223 810 m 14 Y s 223 824 m 14 Y s 216 824
 m 7 X s 223 824 m 7 X s 217 810 m 11 X s 217 838 m 11 X s 216 818 m 11 Y s 230 818 m 11 Y s 3 lw 223 824 m20 6 lw 237 846 m 11 Y s 237 857 m 11 Y s 230 857 m 7 X s 237 857 m 7 X s 231 846 m 12 X s 231 868 m 12 X s 230 852 m 11 Y s 244 852 m 11 Y s 3
 lw 237 857 m20 6 lw 252 836 m 22 Y s 252 858 m 23 Y s 244 858 m 8 X s 252 858 m 7 X s 246 836 m 11 X s 246 881 m 11 X s 244 853 m 11 Y s 259 853 m 11 Y s 3 lw 252 858 m20 6 lw 266 846 m 16 Y s 266 862 m 16 Y s 259 862 m 7 X s 266 862 m 7 X s 260 846
 m 12 X s 260 878 m 12 X s 259 856 m 12 Y s 273 856 m 12 Y s 3 lw 266 862 m20 6 lw 280 838 m 16 Y s 280 854 m 17 Y s 273 854 m 7 X s 280 854 m 8 X s 275 838 m 11 X s 275 871 m 11 X s 273 849 m 11 Y s 288 849 m 11 Y s 3 lw 280 854 m20 6 lw 295 852 m
 26 Y s 295 878 m 25 Y s 288 878 m 7 X s 295 878 m 7 X s 289 852 m 11 X s 289 903 m 11 X s 288 872 m 12 Y s 302 872 m 12 Y s 3 lw 295 878 m20 6 lw 309 818 m 20 Y s 309 838 m 19 Y s 302 838 m 7 X s 309 838 m 7 X s 303 818 m 12 X s 303 857 m 12 X s 302
 832 m 11 Y s 316 832 m 11 Y s 3 lw 309 838 m20 6 lw 324 809 m 41 Y s 324 850 m 40 Y s 316 850 m 8 X s 324 850 m 7 X s 318 809 m 11 X s 318 890 m 11 X s 316 844 m 11 Y s 331 844 m 11 Y s 3 lw 324 850 m20 6 lw 338 765 m 30 Y s 338 795 m 29 Y s 331 795
 m 7 X s 338 795 m 7 X s 332 765 m 12 X s 332 824 m 12 X s 331 789 m 11 Y s 345 789 m 11 Y s 3 lw 338 795 m20 6 lw 352 795 m 25 Y s 352 820 m 26 Y s 345 820 m 7 X s 352 820 m 7 X s 347 795 m 11 X s 347 846 m 11 X s 345 815 m 11 Y s 359 815 m 11 Y s 3
 lw 352 820 m20 6 lw 367 838 m 15 Y s 367 853 m 15 Y s 359 853 m 8 X s 367 853 m 7 X s 361 838 m 11 X s 361 868 m 11 X s 359 847 m 12 Y s 374 847 m 12 Y s 3 lw 367 853 m20 6 lw 381 821 m 29 Y s 381 850 m 28 Y s 374 850 m 7 X s 381 850 m 7 X s 375 821
 m 12 X s 375 878 m 12 X s 374 844 m 11 Y s 388 844 m 11 Y s 3 lw 381 850 m20 6 lw 395 837 m 27 Y s 395 864 m 28 Y s 388 864 m 7 X s 395 864 m 8 X s 390 837 m 11 X s 390 892 m 11 X s 388 859 m 11 Y s 403 859 m 11 Y s 3 lw 395 864 m20 6 lw 410 781 m
 78 Y s 410 859 m 79 Y s 403 859 m 7 X s 410 859 m 7 X s 404 781 m 12 X s 404 938 m 12 X s 403 853 m 12 Y s 417 853 m 12 Y s 3 lw 410 859 m20 6 lw 417 804 m 7 X s 424 804 m 7 X s 417 798 m 12 Y s 431 798 m 12 Y s 3 lw 424 804 m20 6 lw 439 826 m s 439
 826 m s 431 826 m 8 X s 439 826 m 7 X s 433 826 m 11 X s 433 826 m 11 X s 431 821 m 11 Y s 446 821 m 11 Y s 3 lw 439 826 m20 6 lw 453 767 m 19 Y s 453 786 m 19 Y s 446 786 m 7 X s 453 786 m 7 X s 447 767 m 12 X s 447 805 m 12 X s 446 780 m 12 Y s
 460 780 m 12 Y s 3 lw 453 786 m20 6 lw 467 840 m 30 Y s 467 870 m 30 Y s 460 870 m 7 X s 467 870 m 8 X s 462 840 m 11 X s 462 900 m 11 X s 460 864 m 12 Y s 475 864 m 12 Y s 3 lw 467 870 m20 6 lw 482 836 m s 482 836 m s 475 836 m 7 X s 482 836 m 7 X
 s 476 836 m 12 X s 476 836 m 12 X s 475 831 m 11 Y s 489 831 m 11 Y s 3 lw 482 836 m20 6 lw 496 750 m 39 Y s 496 789 m 38 Y s 489 789 m 7 X s 496 789 m 7 X s 491 750 m 11 X s 491 827 m 11 X s 489 783 m 11 Y s 503 783 m 11 Y s 3 lw 496 789 m20 6 lw
 525 866 m 18 Y s 525 884 m 18 Y s 518 884 m 7 X s 525 884 m 7 X s 519 866 m 12 X s 519 902 m 12 X s 518 878 m 12 Y s 532 878 m 12 Y s 3 lw 525 884 m20 6 lw 532 902 m 7 X s 539 902 m 8 X s 532 896 m 12 Y s 547 896 m 12 Y s 3 lw 539 902 m20 6 lw 547
 1009 m 7 X s 554 1009 m 7 X s 547 1004 m 11 Y s 561 1004 m 11 Y s 3 lw 554 1009 m20 6 lw 561 804 m 7 X s 568 804 m 7 X s 561 798 m 12 Y s 575 798 m 12 Y s 3 lw 568 804 m20 6 lw 583 726 m 27 Y s 583 753 m 26 Y s 575 753 m 8 X s 583 753 m 7 X s 577
 726 m 11 X s 577 779 m 11 X s 575 747 m 11 Y s 590 747 m 11 Y s 3 lw 583 753 m20 6 lw 619 952 m 7 X s 626 952 m 7 X s 619 946 m 12 Y s 633 946 m 12 Y s 3 lw 626 952 m20 6 lw 633 750 m 7 X s 640 750 m 7 X s 633 744 m 11 Y s 647 744 m 11 Y s 3 lw 640
 750 m20 6 lw 662 962 m 7 X s 669 962 m 7 X s 662 957 m 11 Y s 676 957 m 11 Y s 3 lw 669 962 m20 6 lw 676 858 m 7 X s 683 858 m 8 X s 676 852 m 12 Y s 691 852 m 12 Y s 3 lw 683 858 m20 6 lw 3 lw 115 681 m 576 X s 172 695 m -14 Y s 187 688 m -7 Y s
 201 688 m -7 Y s 216 688 m -7 Y s 230 695 m -14 Y s 244 688 m -7 Y s 259 688 m -7 Y s 273 688 m -7 Y s 288 695 m -14 Y s 302 688 m -7 Y s 317 688 m -7 Y s 331 688 m -7 Y s 345 695 m -14 Y s 360 688 m -7 Y s 374 688 m -7 Y s 389 688 m -7 Y s 403 695
 m -14 Y s 418 688 m -7 Y s 432 688 m -7 Y s 446 688 m -7 Y s 461 695 m -14 Y s 475 688 m -7 Y s 490 688 m -7 Y s 504 688 m -7 Y s 519 695 m -14 Y s 533 688 m -7 Y s 547 688 m -7 Y s 562 688 m -7 Y s 576 695 m -14 Y s 591 688 m -7 Y s 605 688 m -7 Y
 s 620 688 m -7 Y s 634 695 m -14 Y s 172 695 m -14 Y s 158 688 m -7 Y s 144 688 m -7 Y s 129 688 m -7 Y s 634 695 m -14 Y s 648 688 m -7 Y s 663 688 m -7 Y s 677 688 m -7 Y s 115 1108 m 576 X s 172 1095 m 13 Y s 187 1101 m 7 Y s 201 1101 m 7 Y s 216
 1101 m 7 Y s 230 1095 m 13 Y s 244 1101 m 7 Y s 259 1101 m 7 Y s 273 1101 m 7 Y s 288 1095 m 13 Y s 302 1101 m 7 Y s 317 1101 m 7 Y s 331 1101 m 7 Y s 345 1095 m 13 Y s 360 1101 m 7 Y s 374 1101 m 7 Y s 389 1101 m 7 Y s 403 1095 m 13 Y s 418 1101 m
 7 Y s 432 1101 m 7 Y s 446 1101 m 7 Y s 461 1095 m 13 Y s 475 1101 m 7 Y s 490 1101 m 7 Y s 504 1101 m 7 Y s 519 1095 m 13 Y s 533 1101 m 7 Y s 547 1101 m 7 Y s 562 1101 m 7 Y s 576 1095 m 13 Y s 591 1101 m 7 Y s 605 1101 m 7 Y s 620 1101 m 7 Y s
 634 1095 m 13 Y s 172 1095 m 13 Y s 158 1101 m 7 Y s 144 1101 m 7 Y s 129 1101 m 7 Y s 634 1095 m 13 Y s 648 1101 m 7 Y s 663 1101 m 7 Y s 677 1101 m 7 Y s 115 681 m 427 Y s 131 724 m -16 X s 123 742 m -8 X s 123 759 m -8 X s 123 777 m -8 X s 131
 795 m -16 X s 123 812 m -8 X s 123 830 m -8 X s 123 848 m -8 X s 131 865 m -16 X s 123 883 m -8 X s 123 901 m -8 X s 123 918 m -8 X s 131 936 m -16 X s 123 954 m -8 X s 123 971 m -8 X s 123 989 m -8 X s 131 1007 m -16 X s 123 1024 m -8 X s 123 1042
 m -8 X s 123 1060 m -8 X s 131 1077 m -16 X s 131 724 m -16 X s 123 706 m -8 X s 123 689 m -8 X s 131 1077 m -16 X s 123 1095 m -8 X s 691 681 m 427 Y s 674 724 m 17 X s 683 742 m 8 X s 683 759 m 8 X s 683 777 m 8 X s 674 795 m 17 X s 683 812 m 8 X
 s 683 830 m 8 X s 683 848 m 8 X s 674 865 m 17 X s 683 883 m 8 X s 683 901 m 8 X s 683 918 m 8 X s 674 936 m 17 X s 683 954 m 8 X s 683 971 m 8 X s 683 989 m 8 X s 674 1007 m 17 X s 683 1024 m 8 X s 683 1042 m 8 X s 683 1060 m 8 X s 674 1077 m 17 X
 s 674 724 m 17 X s 683 706 m 8 X s 683 689 m 8 X s 674 1077 m 17 X s 683 1095 m 8 X s 0.490196 0.545098 0.615686 c 0.364706 0.419608 0.490196 c 497 38 30 1124 bf 0.490196 0.545098 0.615686 c 30 1124 m 497 X s 527 1124 m 38 Y s 527 1162 m -497 X s 30
 1162 m -38 Y s 1 1 1 c black 1 1 1 c
 gsave  710 565 23 600 C 25.5758 1136.7 t 0 r /Helvetica-Bold findfont 22.8167 sf 0 0 m (Massh2h3					 versus B_ipchi2_ownpv				 \(Signal\)_Id) show NC gr  0.490196 0.545098 0.615686 c 1 1 1 c 710 565 779 600 bf black 1 1 1 c 576 427 871 681 bf black
 576 427 871 681 bl 1 1 1 c 576 427 871 681 bf black 576 427 871 681 bl 0.49 0.6 0.82 c 0.4 0.4 0.4 c 2 2 873 681 bf 2 2 894 681 bf 0.53 0.4 0.34 c 2 2 899 681 bf 0.4 0.4 0.4 c 2 2 915 681 bf 2 2 917 681 bf 2 2 924 681 bf 0.73 0.71 0.64 c 2 2 930 681
 bf 0.4 0.4 0.4 c 1 2 946 681 bf 0.73 0.71 0.64 c 2 2 947 681 bf 0.4 0.4 0.4 c 2 2 970 681 bf 0.73 0.71 0.64 c 2 2 999 681 bf 0.4 0.4 0.4 c 2 2 1009 681 bf 2 2 1013 681 bf 2 2 1086 681 bf 2 2 1137 681 bf 1 2 1207 681 bf 2 2 1293 681 bf 0.73 0.71 0.64
 c 2 1 882 683 bf 2 1 884 683 bf 0.4 0.4 0.4 c 2 1 888 683 bf 2 1 892 683 bf 2 1 915 683 bf 2 1 924 683 bf 2 1 930 683 bf 0.73 0.71 0.64 c 2 1 932 683 bf 0.4 0.4 0.4 c 2 1 942 683 bf 2 1 959 683 bf 2 1 963 683 bf 2 1 997 683 bf 0.73 0.71 0.64 c 2 1
 1009 683 bf 0.4 0.4 0.4 c 2 1 1032 683 bf 2 1 1084 683 bf 2 1 1101 683 bf 2 1 1400 683 bf 1 2 875 684 bf 0.73 0.71 0.64 c 2 2 880 684 bf 2 2 894 684 bf 0.4 0.4 0.4 c 2 2 896 684 bf 2 2 911 684 bf 2 2 955 684 bf 2 2 957 684 bf 2 2 986 684 bf 1 2 994
 684 bf 2 2 1020 684 bf 2 2 1066 684 bf 2 2 1155 684 bf 2 2 1189 684 bf 2 2 1341 684 bf 1 1 875 686 bf 2 1 882 686 bf 2 1 884 686 bf 2 1 886 686 bf 2 1 894 686 bf 2 1 903 686 bf 2 1 905 686 bf 2 1 909 686 bf 2 1 917 686 bf 2 1 926 686 bf 2 1 938 686
 bf 0.73 0.71 0.64 c 2 1 940 686 bf 0.4 0.4 0.4 c 2 1 944 686 bf 0.73 0.71 0.64 c 2 1 951 686 bf 0.4 0.4 0.4 c 2 1 972 686 bf 2 1 997 686 bf 2 1 1059 686 bf 2 1 1118 686 bf 2 1 1423 686 bf 2 1 880 687 bf 2 1 905 687 bf 2 1 907 687 bf 0.73 0.71 0.64 c
 2 1 913 687 bf 0.4 0.4 0.4 c 2 1 926 687 bf 2 1 930 687 bf 2 1 949 687 bf 2 1 953 687 bf 2 1 955 687 bf 2 1 965 687 bf 2 1 970 687 bf 2 1 990 687 bf 2 1 995 687 bf 2 1 1018 687 bf 2 1 1022 687 bf 2 1 1030 687 bf 2 1 1055 687 bf 2 1 1216 687 bf 0.73
 0.71 0.64 c 2 2 873 688 bf 0.4 0.4 0.4 c 2 2 876 688 bf 0.73 0.71 0.64 c 2 2 899 688 bf 0.4 0.4 0.4 c 2 2 911 688 bf 2 2 932 688 bf 2 2 934 688 bf 2 2 942 688 bf 2 2 944 688 bf 2 2 949 688 bf 2 2 965 688 bf 2 2 967 688 bf 2 2 992 688 bf 2 2 997 688
 bf 2 2 1084 688 bf 1 2 1161 688 bf 2 2 1274 688 bf 2 1 876 690 bf 0.73 0.71 0.64 c 2 1 880 690 bf 0.4 0.4 0.4 c 2 1 882 690 bf 2 1 884 690 bf 2 1 892 690 bf 1 1 898 690 bf 2 1 907 690 bf 1 1 921 690 bf 2 1 926 690 bf 2 1 963 690 bf 2 1 999 690 bf 2
 1 1026 690 bf 2 1 1028 690 bf 2 1 1049 690 bf 2 1 1074 690 bf 1 1 1113 690 bf 2 2 871 691 bf 2 2 873 691 bf 0.73 0.71 0.64 c 1 2 875 691 bf 0.4 0.4 0.4 c 2 2 876 691 bf 0.73 0.71 0.64 c 2 2 884 691 bf 2 2 890 691 bf 0.4 0.4 0.4 c 2 2 892 691 bf 2 2
 903 691 bf 2 2 911 691 bf 2 2 926 691 bf 2 2 951 691 bf 2 2 967 691 bf 1 2 1017 691 bf 2 2 1032 691 bf 2 2 1049 691 bf 2 2 1180 691 bf 0.73 0.71 0.64 c 1 1 875 693 bf 0.4 0.4 0.4 c 2 1 876 693 bf 2 1 880 693 bf 2 1 884 693 bf 2 1 892 693 bf 2 1 901
 693 bf 2 1 907 693 bf 2 1 917 693 bf 2 1 922 693 bf 2 1 940 693 bf 2 1 984 693 bf 1 1 994 693 bf 2 1 1005 693 bf 2 2 878 694 bf 2 2 888 694 bf 2 2 890 694 bf 2 2 894 694 bf 2 2 901 694 bf 2 2 903 694 bf 2 2 919 694 bf 2 2 924 694 bf 2 2 965 694 bf 2
 2 967 694 bf 2 2 1022 694 bf 2 2 1032 694 bf 2 2 1157 694 bf 2 2 1233 694 bf 2 1 871 696 bf 2 1 876 696 bf 2 1 882 696 bf 2 1 894 696 bf 2 1 903 696 bf 2 1 909 696 bf 2 1 911 696 bf 2 1 913 696 bf 2 1 922 696 bf 2 1 924 696 bf 2 1 940 696 bf 2 1 942
 696 bf 1 1 946 696 bf 2 1 955 696 bf 2 1 1015 696 bf 2 1 1124 696 bf 2 1 1149 696 bf 2 1 1283 696 bf 2 1 1335 696 bf 0.73 0.71 0.64 c 2 1 873 697 bf 0.4 0.4 0.4 c 2 1 876 697 bf 2 1 878 697 bf 2 1 890 697 bf 2 1 892 697 bf 1 1 921 697 bf 2 1 926 697
 bf 2 1 930 697 bf 2 1 936 697 bf 2 1 938 697 bf 2 1 947 697 bf 2 1 957 697 bf 2 1 1015 697 bf 2 1 1024 697 bf 2 1 1055 697 bf 2 1 1216 697 bf 2 2 884 698 bf 2 2 886 698 bf 2 2 888 698 bf 2 2 924 698 bf 2 2 951 698 bf 2 2 959 698 bf 1 2 969 698 bf 1
 2 994 698 bf 2 2 1018 698 bf 2 2 1153 698 bf 2 1 873 700 bf 2 1 878 700 bf 1 1 898 700 bf 2 1 905 700 bf 2 1 938 700 bf 2 1 1049 700 bf 2 1 1124 700 bf 0.73 0.71 0.64 c 1 2 875 701 bf 0.4 0.4 0.4 c 2 2 882 701 bf 2 2 905 701 bf 2 2 909 701 bf 2 2
 1053 701 bf 2 2 1111 701 bf 2 1 871 703 bf 2 1 882 703 bf 2 1 884 703 bf 2 1 901 703 bf 2 1 942 703 bf 2 1 965 703 bf 2 1 980 703 bf 2 1 1018 703 bf 1 1 1065 703 bf 2 2 871 704 bf 1 2 875 704 bf 2 2 882 704 bf 1 2 898 704 bf 2 2 917 704 bf 1 2 921
 704 bf 2 2 984 704 bf 2 2 992 704 bf 2 2 1036 704 bf 2 2 1124 704 bf 1 2 1136 704 bf 2 1 890 706 bf 2 1 894 706 bf 2 1 917 706 bf 2 1 924 706 bf 2 1 928 706 bf 2 1 938 706 bf 2 1 953 706 bf 2 1 965 706 bf 2 1 992 706 bf 2 1 1015 706 bf 2 1 1111 706
 bf 2 1 882 707 bf 2 1 932 707 bf 1 1 946 707 bf 2 1 1020 707 bf 2 1 1038 707 bf 2 2 873 708 bf 2 2 880 708 bf 2 2 882 708 bf 2 2 886 708 bf 2 2 892 708 bf 2 2 901 708 bf 2 2 911 708 bf 2 2 940 708 bf 2 2 955 708 bf 2 2 957 708 bf 0.73 0.71 0.64 c 2
 2 970 708 bf 0.4 0.4 0.4 c 2 2 972 708 bf 2 2 984 708 bf 2 2 1118 708 bf 2 1 871 710 bf 2 1 884 710 bf 1 1 921 710 bf 2 1 922 710 bf 2 1 924 710 bf 2 1 932 710 bf 2 1 1043 710 bf 1 2 875 711 bf 2 2 882 711 bf 2 2 886 711 bf 2 2 917 711 bf 2 2 930
 711 bf 2 2 947 711 bf 2 2 1116 711 bf 2 1 871 713 bf 0.73 0.71 0.64 c 1 1 875 713 bf 0.4 0.4 0.4 c 2 1 884 713 bf 2 1 907 713 bf 2 1 909 713 bf 2 1 980 713 bf 2 1 1026 713 bf 2 1 1107 713 bf 2 1 1214 713 bf 2 1 873 714 bf 2 1 892 714 bf 2 1 947 714
 bf 2 1 1128 714 bf 2 2 878 715 bf 2 2 880 715 bf 2 2 884 715 bf 2 2 899 715 bf 2 2 913 715 bf 2 2 955 715 bf 0.73 0.71 0.64 c 2 2 982 715 bf 0.4 0.4 0.4 c 2 2 986 715 bf 2 2 999 715 bf 2 2 1214 715 bf 0.73 0.71 0.64 c 2 1 871 717 bf 0.4 0.4 0.4 c 2
 1 901 717 bf 2 1 907 717 bf 2 1 911 717 bf 1 1 921 717 bf 2 1 932 717 bf 2 1 1020 717 bf 2 2 888 718 bf 2 2 949 718 bf 2 2 1051 718 bf 2 2 1055 718 bf 2 1 888 720 bf 2 1 896 720 bf 2 1 961 720 bf 2 1 974 720 bf 2 1 976 720 bf 2 1 1026 720 bf 2 2 873
 721 bf 2 2 886 721 bf 2 2 888 721 bf 1 2 898 721 bf 2 2 901 721 bf 1 2 921 721 bf 2 2 940 721 bf 2 2 963 721 bf 0.73 0.71 0.64 c 2 1 871 723 bf 0.4 0.4 0.4 c 2 1 878 723 bf 2 1 880 723 bf 2 1 901 723 bf 2 1 947 723 bf 2 1 967 723 bf 2 1 882 724 bf 2
 1 896 724 bf 2 1 915 724 bf 2 1 947 724 bf 2 1 1011 724 bf 2 1 1018 724 bf 2 1 1203 724 bf 1 2 921 725 bf 2 2 988 725 bf 2 2 997 725 bf 2 2 1009 725 bf 2 2 1032 725 bf 2 2 1045 725 bf 2 1 876 727 bf 2 1 886 727 bf 2 1 890 727 bf 2 1 901 727 bf 2 1
 934 727 bf 2 1 942 727 bf 2 1 965 727 bf 2 1 990 727 bf 2 1 1013 727 bf 2 2 878 728 bf 2 2 892 728 bf 2 2 909 728 bf 2 2 911 728 bf 2 2 944 728 bf 2 2 1036 728 bf 2 2 1041 728 bf 0.73 0.71 0.64 c 2 1 873 730 bf 0.4 0.4 0.4 c 2 1 888 730 bf 2 1 892
 730 bf 2 1 915 730 bf 1 1 921 730 bf 2 1 944 730 bf 2 1 963 730 bf 2 1 984 730 bf 2 1 988 730 bf 2 1 1308 730 bf 2 2 873 731 bf 2 2 884 731 bf 2 2 892 731 bf 2 2 899 731 bf 2 2 911 731 bf 2 2 924 731 bf 2 2 988 731 bf 2 2 1063 731 bf 1 1 875 733 bf
 2 1 880 733 bf 2 1 890 733 bf 2 1 894 733 bf 0.73 0.71 0.64 c 2 1 919 733 bf 0.4 0.4 0.4 c 2 1 965 733 bf 2 1 988 733 bf 1 1 1017 733 bf 2 1 1020 733 bf 2 1 915 734 bf 2 1 947 734 bf 2 1 1038 734 bf 2 2 873 735 bf 0.73 0.71 0.64 c 2 2 878 735 bf 0.4
 0.4 0.4 c 2 2 886 735 bf 2 2 940 735 bf 2 2 955 735 bf 2 1 905 737 bf 2 1 913 737 bf 2 1 915 737 bf 2 1 924 737 bf 2 1 928 737 bf 2 1 938 737 bf 2 1 995 737 bf 2 1 1076 737 bf 1 2 898 738 bf 2 2 924 738 bf 2 2 957 738 bf 1 2 969 738 bf 2 2 1034 738
 bf 2 2 1057 738 bf 2 1 892 740 bf 2 1 932 740 bf 2 1 967 740 bf 2 1 992 740 bf 2 1 1141 740 bf 2 2 878 741 bf 2 2 888 741 bf 2 2 894 741 bf 2 2 924 741 bf 2 2 936 741 bf 2 2 984 741 bf 2 2 1253 741 bf 2 1 882 743 bf 2 1 959 743 bf 2 1 1030 743 bf 2
 1 886 744 bf 2 1 888 744 bf 2 1 922 744 bf 2 1 928 744 bf 2 1 932 744 bf 2 1 947 744 bf 2 1 1011 744 bf 0.73 0.71 0.64 c 2 2 919 745 bf 0.4 0.4 0.4 c 2 2 922 745 bf 2 2 944 745 bf 2 2 972 745 bf 2 2 1026 745 bf 2 2 1047 745 bf 2 2 1153 745 bf 2 1
 890 747 bf 1 1 898 747 bf 2 1 938 747 bf 2 1 961 747 bf 2 1 1208 747 bf 2 1 1375 747 bf 2 2 984 748 bf 1 1 875 750 bf 2 1 876 750 bf 2 1 878 750 bf 2 1 928 750 bf 2 1 1005 750 bf 2 1 882 751 bf 2 1 886 751 bf 2 2 997 752 bf 2 1 882 754 bf 1 1 898
 754 bf 2 1 911 754 bf 2 1 924 754 bf 2 2 909 755 bf 2 2 915 755 bf 2 1 882 757 bf 2 2 882 758 bf 1 2 898 758 bf 2 2 907 758 bf 2 2 913 758 bf 2 2 924 758 bf 2 1 878 760 bf 2 1 896 760 bf 2 1 997 760 bf 2 1 1015 760 bf 2 1 1059 760 bf 2 1 911 761 bf
 2 1 913 761 bf 2 1 932 761 bf 2 1 982 761 bf 2 1 1122 761 bf 2 1 1256 761 bf 2 2 1226 762 bf 1 1 898 764 bf 2 1 951 764 bf 1 1 969 764 bf 2 2 888 765 bf 2 2 892 765 bf 2 2 1001 765 bf 2 1 919 767 bf 2 1 934 767 bf 2 1 1122 767 bf 2 2 873 768 bf 2 2
 915 768 bf 1 2 946 768 bf 2 1 873 770 bf 2 1 936 770 bf 2 1 1001 770 bf 2 1 944 771 bf 1 1 946 771 bf 2 1 957 771 bf 2 1 1024 771 bf 1 2 875 772 bf 2 2 876 772 bf 2 2 890 772 bf 2 2 938 772 bf 2 1 913 774 bf 0.73 0.71 0.64 c 2 1 919 774 bf 0.4 0.4
 0.4 c 2 1 938 774 bf 2 1 1256 774 bf 2 1 932 777 bf 2 1 953 777 bf 2 1 961 777 bf 2 2 892 778 bf 2 2 934 778 bf 2 2 967 778 bf 2 2 1011 778 bf 2 1 871 780 bf 2 1 873 780 bf 1 1 1136 780 bf 2 1 876 781 bf 2 1 890 781 bf 2 1 894 781 bf 2 1 949 781 bf
 2 1 1116 781 bf 1 2 875 782 bf 2 2 917 782 bf 2 2 1114 782 bf 1 2 1136 782 bf 2 1 871 784 bf 2 1 876 784 bf 2 1 894 784 bf 2 1 932 784 bf 2 2 882 785 bf 2 2 1107 785 bf 0.73 0.71 0.64 c 2 1 880 787 bf 0.4 0.4 0.4 c 2 1 955 787 bf 2 1 988 787 bf 2 2
 984 789 bf 1 2 994 789 bf 2 1 890 791 bf 2 1 911 791 bf 2 1 917 791 bf 2 1 871 794 bf 2 1 982 794 bf 2 2 873 795 bf 1 2 898 795 bf 2 2 1036 795 bf 2 1 984 797 bf 2 1 873 798 bf 2 1 934 798 bf 2 1 938 798 bf 2 1 997 798 bf 2 2 880 802 bf 2 1 913 804
 bf 2 1 1066 804 bf 2 2 999 805 bf 2 1 997 807 bf 2 1 1001 807 bf 2 1 980 808 bf 2 2 905 809 bf 2 2 917 809 bf 1 2 921 809 bf 2 1 882 811 bf 2 1 899 811 bf 0.73 0.71 0.64 c 2 1 917 811 bf 0.4 0.4 0.4 c 2 2 873 812 bf 2 2 963 815 bf 1 2 1113 815 bf 1
 1 898 817 bf 2 1 901 818 bf 1 1 921 818 bf 2 1 1149 818 bf 2 1 878 824 bf 2 1 907 824 bf 2 1 924 824 bf 2 1 1026 824 bf 2 1 926 825 bf 2 1 1445 825 bf 2 2 888 826 bf 2 1 884 828 bf 2 1 890 828 bf 2 1 892 828 bf 2 2 1327 829 bf 2 2 1055 832 bf 1 1
 1040 834 bf 2 2 886 839 bf 2 1 917 841 bf 2 1 1143 841 bf 2 2 884 842 bf 2 1 1076 844 bf 2 2 873 846 bf 2 2 995 846 bf 1 2 1088 846 bf 2 2 873 849 bf 2 2 890 849 bf 2 2 990 849 bf 2 2 1011 849 bf 2 2 978 852 bf 1 1 875 854 bf 2 1 903 854 bf 2 1 999
 855 bf 2 2 884 856 bf 1 1 994 858 bf 2 2 871 859 bf 1 2 898 859 bf 2 2 992 859 bf 2 1 901 865 bf 2 2 938 866 bf 2 1 886 868 bf 2 1 896 868 bf 2 1 1126 868 bf 2 2 880 869 bf 2 2 888 869 bf 2 1 944 871 bf 2 1 932 872 bf 2 1 967 872 bf 2 2 880 873 bf 2
 2 988 873 bf 2 2 922 876 bf 2 2 970 876 bf 2 1 919 878 bf 2 2 888 879 bf 2 1 884 881 bf 2 1 884 882 bf 2 1 876 895 bf 2 2 970 896 bf 2 2 888 900 bf 2 2 917 900 bf 2 2 882 906 bf 2 1 1086 909 bf 2 1 976 922 bf 2 1 930 935 bf 2 1 1172 935 bf 2 1 917
 936 bf 2 1 903 945 bf 2 1 913 946 bf 2 2 1024 947 bf 2 1 961 959 bf 2 1 951 973 bf 2 1 1101 986 bf 2 1 905 1100 bf 0.49 0.6 0.82 c black 871 681 m 576 X s
 gsave  710 565 779 600 C 1239 613.818 t 0 r /Helvetica findfont 28.5208 sf 0 0 m (B_ipchi2_ownpv				) show NC gr  928 695 m -14 Y s 943 688 m -7 Y s 957 688 m -7 Y s 972 688 m -7 Y s 986 695 m -14 Y s 1000 688 m -7 Y s 1015 688 m -7 Y s 1029 688 m
 -7 Y s 1044 695 m -14 Y s 1058 688 m -7 Y s 1073 688 m -7 Y s 1087 688 m -7 Y s 1101 695 m -14 Y s 1116 688 m -7 Y s 1130 688 m -7 Y s 1145 688 m -7 Y s 1159 695 m -14 Y s 1173 688 m -7 Y s 1188 688 m -7 Y s 1202 688 m -7 Y s 1217 695 m -14 Y s 1231
 688 m -7 Y s 1246 688 m -7 Y s 1260 688 m -7 Y s 1274 695 m -14 Y s 1289 688 m -7 Y s 1303 688 m -7 Y s 1318 688 m -7 Y s 1332 695 m -14 Y s 1347 688 m -7 Y s 1361 688 m -7 Y s 1375 688 m -7 Y s 1390 695 m -14 Y s 928 695 m -14 Y s 914 688 m -7 Y s
 899 688 m -7 Y s 885 688 m -7 Y s 1390 695 m -14 Y s 1404 688 m -7 Y s 1419 688 m -7 Y s 1433 688 m -7 Y s
 gsave  710 565 779 600 C 917.885 653.603 t 0 r /Helvetica findfont 25.6688 sf 0 0 m (2) show NC gr 
 gsave  710 565 779 600 C 974.72 653.603 t 0 r /Helvetica findfont 25.6688 sf 0 0 m (4) show NC gr 
 gsave  710 565 779 600 C 1034.4 653.603 t 0 r /Helvetica findfont 25.6688 sf 0 0 m (6) show NC gr 
 gsave  710 565 779 600 C 1091.23 653.603 t 0 r /Helvetica findfont 25.6688 sf 0 0 m (8) show NC gr 
 gsave  710 565 779 600 C 1142.38 653.603 t 0 r /Helvetica findfont 25.6688 sf 0 0 m (10) show NC gr 
 gsave  710 565 779 600 C 1202.06 653.603 t 0 r /Helvetica findfont 25.6688 sf 0 0 m (12) show NC gr 
 gsave  710 565 779 600 C 1258.9 653.603 t 0 r /Helvetica findfont 25.6688 sf 0 0 m (14) show NC gr 
 gsave  710 565 779 600 C 1315.73 653.603 t 0 r /Helvetica findfont 25.6688 sf 0 0 m (16) show NC gr 
 gsave  710 565 779 600 C 1375.41 653.603 t 0 r /Helvetica findfont 25.6688 sf 0 0 m (18) show NC gr  871 1108 m 576 X s 928 1095 m 13 Y s 943 1101 m 7 Y s 957 1101 m 7 Y s 972 1101 m 7 Y s 986 1095 m 13 Y s 1000 1101 m 7 Y s 1015 1101 m 7 Y s 1029
 1101 m 7 Y s 1044 1095 m 13 Y s 1058 1101 m 7 Y s 1073 1101 m 7 Y s 1087 1101 m 7 Y s 1101 1095 m 13 Y s 1116 1101 m 7 Y s 1130 1101 m 7 Y s 1145 1101 m 7 Y s 1159 1095 m 13 Y s 1173 1101 m 7 Y s 1188 1101 m 7 Y s 1202 1101 m 7 Y s 1217 1095 m 13 Y
 s 1231 1101 m 7 Y s 1246 1101 m 7 Y s 1260 1101 m 7 Y s 1274 1095 m 13 Y s 1289 1101 m 7 Y s 1303 1101 m 7 Y s 1318 1101 m 7 Y s 1332 1095 m 13 Y s 1347 1101 m 7 Y s 1361 1101 m 7 Y s 1375 1101 m 7 Y s 1390 1095 m 13 Y s 928 1095 m 13 Y s 914 1101 m
 7 Y s 899 1101 m 7 Y s 885 1101 m 7 Y s 1390 1095 m 13 Y s 1404 1101 m 7 Y s 1419 1101 m 7 Y s 1433 1101 m 7 Y s 871 681 m 427 Y s
 gsave  710 565 779 600 C 807.057 798.532 t 90 r /Helvetica findfont 28.5208 sf 0 0 m (KSdau_Min_IPCHI2_PV			) show NC gr  887 757 m -16 X s 879 776 m -8 X s 879 795 m -8 X s 879 814 m -8 X s 887 833 m -16 X s 879 852 m -8 X s 879 871 m -8 X s 879
 890 m -8 X s 887 909 m -16 X s 879 928 m -8 X s 879 947 m -8 X s 879 966 m -8 X s 887 985 m -16 X s 879 1004 m -8 X s 879 1023 m -8 X s 879 1042 m -8 X s 887 1061 m -16 X s 887 757 m -16 X s 879 738 m -8 X s 879 719 m -8 X s 879 700 m -8 X s 887
 1061 m -16 X s 879 1080 m -8 X s 879 1100 m -8 X s
 gsave  710 565 779 600 C 804.215 747.38 t 0 r /Helvetica findfont 25.6688 sf 0 0 m (2000) show NC gr 
 gsave  710 565 779 600 C 804.215 824.108 t 0 r /Helvetica findfont 25.6688 sf 0 0 m (4000) show NC gr 
 gsave  710 565 779 600 C 804.215 897.993 t 0 r /Helvetica findfont 25.6688 sf 0 0 m (6000) show NC gr 
 gsave  710 565 779 600 C 804.215 974.72 t 0 r /Helvetica findfont 25.6688 sf 0 0 m (8000) show NC gr 
 gsave  710 565 779 600 C 790.007 1051.45 t 0 r /Helvetica findfont 25.6688 sf 0 0 m (10000) show NC gr  1447 681 m 427 Y s 1430 757 m 17 X s 1438 776 m 9 X s 1438 795 m 9 X s 1438 814 m 9 X s 1430 833 m 17 X s 1438 852 m 9 X s 1438 871 m 9 X s 1438
 890 m 9 X s 1430 909 m 17 X s 1438 928 m 9 X s 1438 947 m 9 X s 1438 966 m 9 X s 1430 985 m 17 X s 1438 1004 m 9 X s 1438 1023 m 9 X s 1438 1042 m 9 X s 1430 1061 m 17 X s 1430 757 m 17 X s 1438 738 m 9 X s 1438 719 m 9 X s 1438 700 m 9 X s 1430
 1061 m 17 X s 1438 1080 m 9 X s 1438 1100 m 9 X s 6 lw 0.81 0.37 0.38 c black 878 730 m 5 Y s 878 735 m 5 Y s 871 735 m 7 X s 878 735 m 7 X s 872 730 m 12 X s 872 740 m 12 X s 871 729 m 12 Y s 885 729 m 12 Y s 3 lw 878 735 m20 6 lw 892 739 m 7 Y s
 892 746 m 6 Y s 885 746 m 7 X s 892 746 m 7 X s 887 739 m 11 X s 887 752 m 11 X s 885 740 m 11 Y s 899 740 m 11 Y s 3 lw 892 746 m20 6 lw 907 724 m 9 Y s 907 733 m 9 Y s 899 733 m 8 X s 907 733 m 7 X s 901 724 m 11 X s 901 742 m 11 X s 899 727 m 12
 Y s 914 727 m 12 Y s 3 lw 907 733 m20 6 lw 921 739 m 8 Y s 921 747 m 7 Y s 914 747 m 7 X s 921 747 m 7 X s 915 739 m 12 X s 915 754 m 12 X s 914 741 m 11 Y s 928 741 m 11 Y s 3 lw 921 747 m20 6 lw 935 726 m 8 Y s 935 734 m 8 Y s 928 734 m 7 X s 935
 734 m 8 X s 930 726 m 11 X s 930 742 m 11 X s 928 728 m 12 Y s 943 728 m 12 Y s 3 lw 935 734 m20 6 lw 950 717 m 8 Y s 950 725 m 8 Y s 943 725 m 7 X s 950 725 m 7 X s 944 717 m 12 X s 944 733 m 12 X s 943 720 m 11 Y s 957 720 m 11 Y s 3 lw 950 725
 m20 6 lw 964 724 m 9 Y s 964 733 m 10 Y s 957 733 m 7 X s 964 733 m 7 X s 959 724 m 11 X s 959 743 m 11 X s 957 728 m 11 Y s 971 728 m 11 Y s 3 lw 964 733 m20 6 lw 979 741 m 13 Y s 979 754 m 13 Y s 971 754 m 8 X s 979 754 m 7 X s 973 741 m 11 X s
 973 767 m 11 X s 971 748 m 12 Y s 986 748 m 12 Y s 3 lw 979 754 m20 6 lw 993 737 m 11 Y s 993 748 m 10 Y s 986 748 m 7 X s 993 748 m 7 X s 987 737 m 12 X s 987 758 m 12 X s 986 742 m 11 Y s 1000 742 m 11 Y s 3 lw 993 748 m20 6 lw 1007 720 m 12 Y s
 1007 732 m 12 Y s 1000 732 m 7 X s 1007 732 m 8 X s 1002 720 m 11 X s 1002 744 m 11 X s 1000 726 m 12 Y s 1015 726 m 12 Y s 3 lw 1007 732 m20 6 lw 1022 723 m 19 Y s 1022 742 m 18 Y s 1015 742 m 7 X s 1022 742 m 7 X s 1016 723 m 12 X s 1016 760 m 12
 X s 1015 736 m 12 Y s 1029 736 m 12 Y s 3 lw 1022 742 m20 6 lw 1036 716 m 10 Y s 1036 726 m 11 Y s 1029 726 m 7 X s 1036 726 m 7 X s 1031 716 m 11 X s 1031 737 m 11 X s 1029 720 m 12 Y s 1043 720 m 12 Y s 3 lw 1036 726 m20 6 lw 1051 708 m 11 Y s
 1051 719 m 11 Y s 1043 719 m 8 X s 1051 719 m 7 X s 1045 708 m 11 X s 1045 730 m 11 X s 1043 713 m 11 Y s 1058 713 m 11 Y s 3 lw 1051 719 m20 6 lw 1065 715 m 15 Y s 1065 730 m 15 Y s 1058 730 m 7 X s 1065 730 m 7 X s 1059 715 m 12 X s 1059 745 m 12
 X s 1058 724 m 12 Y s 1072 724 m 12 Y s 3 lw 1065 730 m20 6 lw 1079 697 m 24 Y s 1079 721 m 24 Y s 1072 721 m 7 X s 1079 721 m 8 X s 1074 697 m 11 X s 1074 745 m 11 X s 1072 715 m 12 Y s 1087 715 m 12 Y s 3 lw 1079 721 m20 6 lw 1094 857 m 22 Y s
 1094 879 m 22 Y s 1087 879 m 7 X s 1094 879 m 7 X s 1088 857 m 11 X s 1088 901 m 11 X s 1087 873 m 11 Y s 1101 873 m 11 Y s 3 lw 1094 879 m20 6 lw 1108 727 m 34 Y s 1108 761 m 34 Y s 1101 761 m 7 X s 1108 761 m 7 X s 1103 727 m 11 X s 1103 795 m 11
 X s 1101 755 m 11 Y s 1115 755 m 11 Y s 3 lw 1108 761 m20 6 lw 1123 726 m 14 Y s 1123 740 m 15 Y s 1115 740 m 8 X s 1123 740 m 7 X s 1117 726 m 11 X s 1117 755 m 11 X s 1115 735 m 11 Y s 1130 735 m 11 Y s 3 lw 1123 740 m20 6 lw 1137 720 m 18 Y s
 1137 738 m 18 Y s 1130 738 m 7 X s 1137 738 m 7 X s 1131 720 m 12 X s 1131 756 m 12 X s 1130 733 m 11 Y s 1144 733 m 11 Y s 3 lw 1137 738 m20 6 lw 1151 718 m 22 Y s 1151 740 m 23 Y s 1144 740 m 7 X s 1151 740 m 8 X s 1146 718 m 11 X s 1146 763 m 11
 X s 1144 734 m 12 Y s 1159 734 m 12 Y s 3 lw 1151 740 m20 6 lw 1166 725 m 88 Y s 1166 813 m 87 Y s 1159 813 m 7 X s 1166 813 m 7 X s 1160 725 m 11 X s 1160 900 m 11 X s 1159 807 m 11 Y s 1173 807 m 11 Y s 3 lw 1166 813 m20 6 lw 1173 691 m 7 X s 1180
 691 m 7 X s 1173 686 m 11 Y s 1187 686 m 11 Y s 3 lw 1180 691 m20 6 lw 1187 684 m 8 X s 1195 684 m 7 X s 1187 679 m 11 Y s 1202 679 m 11 Y s 3 lw 1195 684 m20 6 lw 1209 707 m 10 Y s 1209 717 m 9 Y s 1202 717 m 7 X s 1209 717 m 7 X s 1203 707 m 12 X
 s 1203 726 m 12 X s 1202 711 m 11 Y s 1216 711 m 11 Y s 3 lw 1209 717 m20 6 lw 1223 697 m 19 Y s 1223 716 m 19 Y s 1216 716 m 7 X s 1223 716 m 8 X s 1218 697 m 11 X s 1218 735 m 11 X s 1216 711 m 11 Y s 1231 711 m 11 Y s 3 lw 1223 716 m20 6 lw 1231
 695 m 7 X s 1238 695 m 7 X s 1231 689 m 11 Y s 1245 689 m 11 Y s 3 lw 1238 695 m20 6 lw 1252 751 m 8 Y s 1252 759 m 8 Y s 1245 759 m 7 X s 1252 759 m 7 X s 1246 751 m 12 X s 1246 767 m 12 X s 1245 754 m 11 Y s 1259 754 m 11 Y s 3 lw 1252 759 m20 6
 lw 1281 690 m 3 Y s 1281 693 m 2 Y s 1274 693 m 7 X s 1281 693 m 7 X s 1275 690 m 12 X s 1275 695 m 12 X s 1274 687 m 11 Y s 1288 687 m 11 Y s 3 lw 1281 693 m20 6 lw 1288 682 m 7 X s 1295 682 m 8 X s 1288 676 m 12 Y s 1303 676 m 12 Y s 3 lw 1295 682
 m20 6 lw 1303 731 m 7 X s 1310 731 m 7 X s 1303 725 m 11 Y s 1317 725 m 11 Y s 3 lw 1310 731 m20 6 lw 1317 830 m 7 X s 1324 830 m 7 X s 1317 824 m 12 Y s 1331 824 m 12 Y s 3 lw 1324 830 m20 6 lw 1339 686 m 4 Y s 1339 690 m 4 Y s 1331 690 m 8 X s
 1339 690 m 7 X s 1333 686 m 11 X s 1333 694 m 11 X s 1331 685 m 11 Y s 1346 685 m 11 Y s 3 lw 1339 690 m20 6 lw 1375 748 m 7 X s 1382 748 m 7 X s 1375 742 m 11 Y s 1389 742 m 11 Y s 3 lw 1382 748 m20 6 lw 1389 683 m 7 X s 1396 683 m 7 X s 1389 678 m
 11 Y s 1403 678 m 11 Y s 3 lw 1396 683 m20 6 lw 1418 686 m 7 X s 1425 686 m 7 X s 1418 680 m 12 Y s 1432 680 m 12 Y s 3 lw 1425 686 m20 6 lw 1432 826 m 7 X s 1439 826 m 8 X s 1432 820 m 12 Y s 1447 820 m 12 Y s 3 lw 1439 826 m20 6 lw 3 lw 871 681 m
 576 X s 928 695 m -14 Y s 943 688 m -7 Y s 957 688 m -7 Y s 972 688 m -7 Y s 986 695 m -14 Y s 1000 688 m -7 Y s 1015 688 m -7 Y s 1029 688 m -7 Y s 1044 695 m -14 Y s 1058 688 m -7 Y s 1073 688 m -7 Y s 1087 688 m -7 Y s 1101 695 m -14 Y s 1116 688
 m -7 Y s 1130 688 m -7 Y s 1145 688 m -7 Y s 1159 695 m -14 Y s 1173 688 m -7 Y s 1188 688 m -7 Y s 1202 688 m -7 Y s 1217 695 m -14 Y s 1231 688 m -7 Y s 1246 688 m -7 Y s 1260 688 m -7 Y s 1274 695 m -14 Y s 1289 688 m -7 Y s 1303 688 m -7 Y s
 1318 688 m -7 Y s 1332 695 m -14 Y s 1347 688 m -7 Y s 1361 688 m -7 Y s 1375 688 m -7 Y s 1390 695 m -14 Y s 928 695 m -14 Y s 914 688 m -7 Y s 899 688 m -7 Y s 885 688 m -7 Y s 1390 695 m -14 Y s 1404 688 m -7 Y s 1419 688 m -7 Y s 1433 688 m -7 Y
 s 871 1108 m 576 X s 928 1095 m 13 Y s 943 1101 m 7 Y s 957 1101 m 7 Y s 972 1101 m 7 Y s 986 1095 m 13 Y s 1000 1101 m 7 Y s 1015 1101 m 7 Y s 1029 1101 m 7 Y s 1044 1095 m 13 Y s 1058 1101 m 7 Y s 1073 1101 m 7 Y s 1087 1101 m 7 Y s 1101 1095 m 13
 Y s 1116 1101 m 7 Y s 1130 1101 m 7 Y s 1145 1101 m 7 Y s 1159 1095 m 13 Y s 1173 1101 m 7 Y s 1188 1101 m 7 Y s 1202 1101 m 7 Y s 1217 1095 m 13 Y s 1231 1101 m 7 Y s 1246 1101 m 7 Y s 1260 1101 m 7 Y s 1274 1095 m 13 Y s 1289 1101 m 7 Y s 1303
 1101 m 7 Y s 1318 1101 m 7 Y s 1332 1095 m 13 Y s 1347 1101 m 7 Y s 1361 1101 m 7 Y s 1375 1101 m 7 Y s 1390 1095 m 13 Y s 928 1095 m 13 Y s 914 1101 m 7 Y s 899 1101 m 7 Y s 885 1101 m 7 Y s 1390 1095 m 13 Y s 1404 1101 m 7 Y s 1419 1101 m 7 Y s
 1433 1101 m 7 Y s 871 681 m 427 Y s 887 757 m -16 X s 879 776 m -8 X s 879 795 m -8 X s 879 814 m -8 X s 887 833 m -16 X s 879 852 m -8 X s 879 871 m -8 X s 879 890 m -8 X s 887 909 m -16 X s 879 928 m -8 X s 879 947 m -8 X s 879 966 m -8 X s 887
 985 m -16 X s 879 1004 m -8 X s 879 1023 m -8 X s 879 1042 m -8 X s 887 1061 m -16 X s 887 757 m -16 X s 879 738 m -8 X s 879 719 m -8 X s 879 700 m -8 X s 887 1061 m -16 X s 879 1080 m -8 X s 879 1100 m -8 X s 1447 681 m 427 Y s 1430 757 m 17 X s
 1438 776 m 9 X s 1438 795 m 9 X s 1438 814 m 9 X s 1430 833 m 17 X s 1438 852 m 9 X s 1438 871 m 9 X s 1438 890 m 9 X s 1430 909 m 17 X s 1438 928 m 9 X s 1438 947 m 9 X s 1438 966 m 9 X s 1430 985 m 17 X s 1438 1004 m 9 X s 1438 1023 m 9 X s 1438
 1042 m 9 X s 1430 1061 m 17 X s 1430 757 m 17 X s 1438 738 m 9 X s 1438 719 m 9 X s 1438 700 m 9 X s 1430 1061 m 17 X s 1438 1080 m 9 X s 1438 1100 m 9 X s 0.490196 0.545098 0.615686 c 0.364706 0.419608 0.490196 c 497 38 786 1124 bf 0.490196
 0.545098 0.615686 c 786 1124 m 497 X s 1283 1124 m 38 Y s 1283 1162 m -497 X s 786 1162 m -38 Y s 1 1 1 c black 1 1 1 c
 gsave  710 565 779 600 C 790.007 1139.54 t 0 r /Helvetica-Bold findfont 17.1125 sf 0 0 m (KSdau_Min_IPCHI2_PV			 versus B_ipchi2_ownpv				 \(Signal\)_Id) show NC gr  0.490196 0.545098 0.615686 c 1 1 1 c 711 565 1534 600 bf black 1 1 1 c 575 427 1627
 681 bf black 575 427 1627 681 bl 1 1 1 c 575 427 1627 681 bf black 575 427 1627 681 bl 0.49 0.6 0.82 c 0.5 0.5 0.5 c 2 2 1638 681 bf 2 2 1640 681 bf 2 2 1686 681 bf 2 2 1688 681 bf 2 2 1696 681 bf 2 2 1765 681 bf 2 2 1776 681 bf 2 2 1840 681 bf 2 2
 1857 681 bf 2 2 2097 681 bf 2 1 1628 683 bf 2 1 1638 683 bf 0.8 0.78 0.67 c 2 1 1640 683 bf 0.72 0.64 0.61 c 2 1 1650 683 bf 0.8 0.78 0.67 c 2 1 1655 683 bf 0.5 0.5 0.5 c 2 1 1669 683 bf 2 1 1671 683 bf 2 1 1673 683 bf 2 1 1676 683 bf 2 1 1688 683
 bf 2 1 1703 683 bf 2 1 1707 683 bf 2 1 1711 683 bf 0.8 0.78 0.67 c 2 1 1753 683 bf 0.5 0.5 0.5 c 2 1 1755 683 bf 2 1 1774 683 bf 2 1 1788 683 bf 2 2 1632 684 bf 2 2 1640 684 bf 2 2 1646 684 bf 2 2 1659 684 bf 2 2 1671 684 bf 1 2 1675 684 bf 0.72
 0.64 0.61 c 2 2 1680 684 bf 0.5 0.5 0.5 c 2 2 1698 684 bf 2 2 1701 684 bf 2 2 1715 684 bf 2 2 1721 684 bf 1 2 1723 684 bf 2 2 1726 684 bf 2 2 1749 684 bf 2 2 1753 684 bf 2 2 1761 684 bf 2 2 1772 684 bf 2 2 1805 684 bf 2 2 1909 684 bf 2 2 1916 684 bf
 2 2 2030 684 bf 2 1 1628 686 bf 0.53 0.4 0.34 c 2 1 1630 686 bf 0.5 0.5 0.5 c 2 1 1638 686 bf 0.8 0.78 0.67 c 2 1 1640 686 bf 0.5 0.5 0.5 c 2 1 1648 686 bf 2 1 1650 686 bf 2 1 1682 686 bf 2 1 1686 686 bf 2 1 1694 686 bf 2 1 1696 686 bf 2 1 1698 686
 bf 1 1 1700 686 bf 2 1 1703 686 bf 2 1 1707 686 bf 2 1 1721 686 bf 2 1 1728 686 bf 2 1 1751 686 bf 2 1 1820 686 bf 2 1 1822 686 bf 2 1 1972 686 bf 0.8 0.78 0.67 c 2 1 1628 687 bf 0.5 0.5 0.5 c 2 1 1640 687 bf 2 1 1642 687 bf 2 1 1653 687 bf 2 1 1657
 687 bf 2 1 1663 687 bf 2 1 1673 687 bf 2 1 1682 687 bf 2 1 1686 687 bf 2 1 1696 687 bf 2 1 1698 687 bf 2 1 1719 687 bf 2 1 1726 687 bf 1 1 1748 687 bf 2 1 1749 687 bf 2 1 1755 687 bf 1 1 1771 687 bf 1 1 1842 687 bf 1 1 1913 687 bf 1 2 1627 688 bf 2
 2 1640 688 bf 2 2 1648 688 bf 2 2 1663 688 bf 2 2 1665 688 bf 2 2 1667 688 bf 2 2 1673 688 bf 2 2 1680 688 bf 2 2 1686 688 bf 2 2 1696 688 bf 1 2 1700 688 bf 2 2 1711 688 bf 2 2 1726 688 bf 2 2 1765 688 bf 1 2 1771 688 bf 2 2 1786 688 bf 2 2 1805
 688 bf 2 2 1863 688 bf 2 2 1868 688 bf 0.8 0.78 0.67 c 2 2 1880 688 bf 0.5 0.5 0.5 c 2 2 1891 688 bf 1 1 1627 690 bf 2 1 1628 690 bf 2 1 1634 690 bf 2 1 1636 690 bf 2 1 1642 690 bf 2 1 1644 690 bf 0.8 0.78 0.67 c 2 1 1646 690 bf 0.5 0.5 0.5 c 2 1
 1648 690 bf 2 1 1657 690 bf 2 1 1673 690 bf 0.8 0.78 0.67 c 2 1 1676 690 bf 0.5 0.5 0.5 c 2 1 1703 690 bf 2 1 1721 690 bf 2 1 1742 690 bf 2 1 1830 690 bf 2 1 1905 690 bf 2 2 1632 691 bf 2 2 1634 691 bf 2 2 1638 691 bf 2 2 1648 691 bf 2 2 1655 691 bf
 2 2 1657 691 bf 2 2 1659 691 bf 2 2 1661 691 bf 0.72 0.64 0.61 c 2 2 1665 691 bf 0.5 0.5 0.5 c 2 2 1667 691 bf 2 2 1680 691 bf 2 2 1690 691 bf 2 2 1705 691 bf 2 2 1707 691 bf 2 2 1717 691 bf 2 2 1721 691 bf 1 2 1723 691 bf 1 2 1748 691 bf 2 2 1753
 691 bf 2 2 1765 691 bf 2 2 2091 691 bf 2 2 2156 691 bf 0.8 0.78 0.67 c 2 1 1628 693 bf 0.5 0.5 0.5 c 2 1 1638 693 bf 2 1 1650 693 bf 2 1 1653 693 bf 2 1 1701 693 bf 2 1 1713 693 bf 2 1 1715 693 bf 2 1 1730 693 bf 2 1 1782 693 bf 2 1 1788 693 bf 2 1
 1801 693 bf 2 1 2179 693 bf 1 2 1627 694 bf 2 2 1630 694 bf 2 2 1632 694 bf 0.8 0.78 0.67 c 2 2 1634 694 bf 2 2 1640 694 bf 0.5 0.5 0.5 c 2 2 1642 694 bf 2 2 1644 694 bf 1 2 1652 694 bf 2 2 1663 694 bf 2 2 1667 694 bf 1 2 1675 694 bf 2 2 1678 694 bf
 2 2 1703 694 bf 2 2 1707 694 bf 2 2 1711 694 bf 1 2 1723 694 bf 2 2 1728 694 bf 2 2 1732 694 bf 2 2 1736 694 bf 2 2 1744 694 bf 2 2 1809 694 bf 2 1 1630 696 bf 2 1 1634 696 bf 2 1 1640 696 bf 2 1 1644 696 bf 2 1 1646 696 bf 2 1 1657 696 bf 2 1 1661
 696 bf 2 1 1665 696 bf 2 1 1667 696 bf 2 1 1678 696 bf 2 1 1680 696 bf 2 1 1719 696 bf 2 1 1721 696 bf 2 1 1726 696 bf 2 1 1728 696 bf 2 1 1740 696 bf 2 1 1742 696 bf 2 1 1749 696 bf 1 1 1771 696 bf 2 1 1776 696 bf 2 1 1782 696 bf 2 1 1811 696 bf 2
 1 1970 696 bf 2 1 2049 696 bf 2 1 2064 696 bf 1 1 1627 697 bf 2 1 1636 697 bf 2 1 1638 697 bf 2 1 1644 697 bf 2 1 1648 697 bf 2 1 1650 697 bf 2 1 1669 697 bf 2 1 1676 697 bf 2 1 1678 697 bf 0.8 0.78 0.67 c 2 1 1680 697 bf 0.5 0.5 0.5 c 2 1 1684 697
 bf 2 1 1724 697 bf 1 1 1748 697 bf 2 1 1778 697 bf 2 1 1784 697 bf 2 1 1803 697 bf 2 1 1959 697 bf 1 2 1627 698 bf 0.8 0.78 0.67 c 2 2 1630 698 bf 0.5 0.5 0.5 c 2 2 1636 698 bf 0.8 0.78 0.67 c 2 2 1638 698 bf 0.5 0.5 0.5 c 2 2 1646 698 bf 2 2 1671
 698 bf 1 2 1675 698 bf 2 2 1680 698 bf 2 2 1682 698 bf 0.72 0.64 0.61 c 2 2 1684 698 bf 0.5 0.5 0.5 c 1 2 1700 698 bf 2 2 1701 698 bf 0.8 0.78 0.67 c 2 2 1705 698 bf 0.5 0.5 0.5 c 2 2 1724 698 bf 2 2 1736 698 bf 2 2 1740 698 bf 2 2 1813 698 bf 1 2
 1819 698 bf 2 2 1878 698 bf 2 2 1897 698 bf 2 2 1970 698 bf 2 2 2039 698 bf 0.8 0.78 0.67 c 2 1 1638 700 bf 0.5 0.5 0.5 c 1 1 1652 700 bf 2 1 1653 700 bf 2 1 1657 700 bf 2 1 1663 700 bf 0.8 0.78 0.67 c 2 1 1667 700 bf 2 1 1671 700 bf 0.5 0.5 0.5 c 2
 1 1694 700 bf 2 1 1696 700 bf 2 1 1703 700 bf 2 1 1740 700 bf 2 1 1744 700 bf 2 1 1755 700 bf 2 1 1774 700 bf 2 1 1815 700 bf 1 1 1867 700 bf 2 1 1880 700 bf 2 1 1911 700 bf 1 2 1627 701 bf 0.8 0.78 0.67 c 2 2 1628 701 bf 2 2 1630 701 bf 0.5 0.5 0.5
 c 2 2 1634 701 bf 2 2 1640 701 bf 2 2 1642 701 bf 2 2 1646 701 bf 1 2 1652 701 bf 2 2 1653 701 bf 2 2 1655 701 bf 2 2 1663 701 bf 2 2 1669 701 bf 2 2 1671 701 bf 2 2 1673 701 bf 2 2 1686 701 bf 2 2 1688 701 bf 2 2 1692 701 bf 0.8 0.78 0.67 c 1 2
 1700 701 bf 0.5 0.5 0.5 c 2 2 1711 701 bf 2 2 1719 701 bf 2 2 1721 701 bf 2 2 1740 701 bf 2 2 1780 701 bf 2 2 1909 701 bf 2 1 1628 703 bf 2 1 1636 703 bf 2 1 1657 703 bf 2 1 1698 703 bf 2 1 1713 703 bf 2 1 1724 703 bf 2 1 1740 703 bf 2 1 1757 703 bf
 2 1 1786 703 bf 2 1 1832 703 bf 2 2 1628 704 bf 0.8 0.78 0.67 c 2 2 1630 704 bf 0.5 0.5 0.5 c 2 2 1634 704 bf 2 2 1638 704 bf 2 2 1644 704 bf 2 2 1648 704 bf 2 2 1653 704 bf 2 2 1688 704 bf 2 2 1694 704 bf 2 2 1696 704 bf 2 2 1713 704 bf 2 2 1738
 704 bf 2 2 1790 704 bf 2 1 1628 706 bf 2 1 1634 706 bf 2 1 1636 706 bf 2 1 1648 706 bf 2 1 1657 706 bf 2 1 1661 706 bf 2 1 1667 706 bf 2 1 1669 706 bf 2 1 1678 706 bf 2 1 1694 706 bf 2 1 1703 706 bf 2 1 1707 706 bf 2 1 1719 706 bf 1 1 1723 706 bf 2
 1 1776 706 bf 2 1 1778 706 bf 2 1 1792 706 bf 2 1 1628 707 bf 2 1 1634 707 bf 2 1 1636 707 bf 2 1 1642 707 bf 0.8 0.78 0.67 c 2 1 1648 707 bf 0.5 0.5 0.5 c 2 1 1659 707 bf 1 1 1675 707 bf 2 1 1682 707 bf 2 1 1686 707 bf 2 1 1688 707 bf 2 1 1713 707
 bf 1 1 1723 707 bf 2 1 1738 707 bf 2 1 1744 707 bf 2 1 1780 707 bf 2 1 1792 707 bf 2 1 1878 707 bf 2 1 1945 707 bf 2 1 1989 707 bf 2 2 1632 708 bf 2 2 1646 708 bf 2 2 1655 708 bf 2 2 1661 708 bf 2 2 1663 708 bf 2 2 1673 708 bf 2 2 1688 708 bf 2 2
 1694 708 bf 2 2 1703 708 bf 2 2 1711 708 bf 2 2 1721 708 bf 1 2 1723 708 bf 2 2 1767 708 bf 2 2 1769 708 bf 2 2 1872 708 bf 2 1 1628 710 bf 2 1 1630 710 bf 2 1 1632 710 bf 2 1 1636 710 bf 2 1 1642 710 bf 2 1 1644 710 bf 2 1 1671 710 bf 2 1 1678 710
 bf 1 1 1700 710 bf 2 1 1709 710 bf 2 1 1713 710 bf 2 1 1715 710 bf 2 1 1774 710 bf 2 1 1840 710 bf 2 1 1893 710 bf 2 2 1632 711 bf 2 2 1636 711 bf 0.8 0.78 0.67 c 2 2 1638 711 bf 0.5 0.5 0.5 c 2 2 1650 711 bf 2 2 1669 711 bf 2 2 1673 711 bf 0.8 0.78
 0.67 c 2 2 1676 711 bf 0.5 0.5 0.5 c 2 2 1797 711 bf 2 2 1822 711 bf 2 1 1632 713 bf 2 1 1638 713 bf 2 1 1648 713 bf 1 1 1652 713 bf 2 1 1661 713 bf 2 1 1671 713 bf 2 1 1740 713 bf 1 1 1771 713 bf 2 1 1799 713 bf 2 1 1964 713 bf 2 1 1638 714 bf 2 1
 1661 714 bf 2 1 1682 714 bf 2 1 1688 714 bf 2 1 1692 714 bf 2 1 1738 714 bf 2 1 1740 714 bf 2 1 1769 714 bf 2 1 1772 714 bf 1 2 1627 715 bf 2 2 1630 715 bf 2 2 1640 715 bf 2 2 1644 715 bf 2 2 1676 715 bf 2 2 1694 715 bf 2 2 1717 715 bf 2 2 1767 715
 bf 2 2 1811 715 bf 2 2 1874 715 bf 2 2 1936 715 bf 1 2 2009 715 bf 0.8 0.78 0.67 c 1 1 1627 717 bf 2 1 1628 717 bf 0.5 0.5 0.5 c 2 1 1640 717 bf 2 1 1644 717 bf 2 1 1657 717 bf 2 1 1663 717 bf 2 1 1673 717 bf 2 1 1690 717 bf 2 1 1751 717 bf 2 1 1811
 717 bf 2 1 1872 717 bf 2 1 1899 717 bf 2 1 1905 717 bf 2 2 1628 718 bf 2 2 1636 718 bf 2 2 1642 718 bf 2 2 1648 718 bf 2 2 1655 718 bf 0.8 0.78 0.67 c 2 2 1667 718 bf 2 2 1669 718 bf 0.5 0.5 0.5 c 2 2 1673 718 bf 2 2 1680 718 bf 2 2 1682 718 bf 2 2
 1792 718 bf 2 1 1628 720 bf 2 1 1646 720 bf 2 1 1688 720 bf 2 1 1694 720 bf 2 1 1755 720 bf 2 1 1815 720 bf 1 2 1627 721 bf 2 2 1638 721 bf 2 2 1642 721 bf 2 2 1650 721 bf 2 2 1657 721 bf 1 2 1675 721 bf 2 2 1696 721 bf 2 2 1701 721 bf 2 2 1709 721
 bf 2 2 1717 721 bf 2 2 1782 721 bf 2 2 1788 721 bf 2 2 1891 721 bf 0.8 0.78 0.67 c 2 1 1628 723 bf 0.5 0.5 0.5 c 2 1 1644 723 bf 2 1 1653 723 bf 2 1 1667 723 bf 2 1 1680 723 bf 2 1 1709 723 bf 2 1 1746 723 bf 1 1 1748 723 bf 2 1 1807 723 bf 2 1 2200
 723 bf 2 1 1628 724 bf 2 1 1634 724 bf 2 1 1653 724 bf 2 1 1746 724 bf 0.8 0.78 0.67 c 2 1 1753 724 bf 0.5 0.5 0.5 c 2 1 1891 724 bf 1 2 1627 725 bf 2 2 1640 725 bf 2 2 1646 725 bf 2 2 1653 725 bf 2 2 1669 725 bf 2 2 1673 725 bf 1 2 1675 725 bf 2 2
 1676 725 bf 2 2 1734 725 bf 2 2 1782 725 bf 2 1 1632 727 bf 2 1 1638 727 bf 2 1 1646 727 bf 2 1 1648 727 bf 2 1 1655 727 bf 2 1 1711 727 bf 2 1 1811 727 bf 0.8 0.78 0.67 c 2 2 1653 728 bf 0.5 0.5 0.5 c 2 2 1657 728 bf 1 2 1675 728 bf 2 2 1688 728 bf
 2 2 1757 728 bf 2 2 1962 728 bf 2 1 1630 730 bf 2 1 1640 730 bf 2 1 1642 730 bf 2 1 1669 730 bf 2 1 1673 730 bf 1 1 1675 730 bf 2 1 1705 730 bf 2 1 1744 730 bf 2 1 1761 730 bf 2 1 1972 730 bf 2 1 2012 730 bf 0.8 0.78 0.67 c 2 2 1632 731 bf 0.5 0.5
 0.5 c 2 2 1638 731 bf 2 2 1667 731 bf 2 2 1673 731 bf 2 2 1678 731 bf 2 2 1749 731 bf 2 2 1753 731 bf 2 2 1868 731 bf 1 1 1627 733 bf 2 1 1680 733 bf 2 1 1690 733 bf 2 1 1701 733 bf 2 1 1719 733 bf 2 1 1676 734 bf 2 1 1736 734 bf 2 1 1746 734 bf 2 1
 1755 734 bf 2 1 2012 734 bf 2 2 1650 735 bf 1 2 1652 735 bf 2 2 1694 735 bf 2 1 1665 737 bf 2 1 1694 737 bf 2 1 1744 737 bf 2 1 1751 737 bf 2 2 1648 738 bf 2 2 1673 738 bf 1 2 1723 738 bf 1 2 1842 738 bf 2 1 1634 740 bf 1 1 1675 740 bf 0.8 0.78 0.67
 c 2 1 1680 740 bf 0.5 0.5 0.5 c 2 1 1688 740 bf 2 1 1690 740 bf 2 1 1755 740 bf 2 1 1767 740 bf 1 1 1794 740 bf 2 2 1632 741 bf 2 2 1636 741 bf 2 2 1703 741 bf 2 2 1765 741 bf 2 2 1832 741 bf 2 2 1863 741 bf 2 1 1636 743 bf 2 1 1644 743 bf 2 1 1655
 743 bf 0.8 0.78 0.67 c 2 1 1659 743 bf 0.5 0.5 0.5 c 2 1 1698 743 bf 0.8 0.78 0.67 c 2 1 1726 743 bf 0.5 0.5 0.5 c 2 1 1732 743 bf 2 1 1740 743 bf 2 1 1644 744 bf 1 2 1627 745 bf 2 2 1636 745 bf 2 2 1653 745 bf 2 2 1749 745 bf 1 2 1867 745 bf 2 2
 1928 745 bf 2 1 1628 747 bf 2 1 1738 747 bf 0.8 0.78 0.67 c 2 2 1630 748 bf 0.5 0.5 0.5 c 2 2 1636 748 bf 1 2 1700 748 bf 2 1 1642 750 bf 2 1 1711 751 bf 1 1 1748 751 bf 2 1 1753 751 bf 2 2 1636 752 bf 2 1 1692 754 bf 2 2 1644 755 bf 2 2 1788 755 bf
 0.8 0.78 0.67 c 2 1 1646 757 bf 0.5 0.5 0.5 c 2 1 1650 757 bf 2 2 1632 758 bf 2 2 1644 758 bf 2 1 1782 760 bf 2 1 1638 761 bf 2 1 1669 761 bf 2 2 1757 762 bf 2 2 1857 762 bf 2 1 1774 764 bf 2 2 1646 765 bf 2 2 1688 765 bf 2 2 1843 765 bf 2 2 1636
 768 bf 2 2 1659 768 bf 2 2 1780 768 bf 2 1 1634 770 bf 2 1 1694 770 bf 2 1 1707 771 bf 2 2 1717 772 bf 2 1 1661 774 bf 2 2 1686 775 bf 2 2 1640 778 bf 2 2 1648 778 bf 2 2 1650 778 bf 2 2 1703 778 bf 2 2 1982 778 bf 2 1 1744 780 bf 2 1 1673 781 bf 2
 1 1805 781 bf 2 1 1638 784 bf 2 2 1644 785 bf 2 2 1676 785 bf 2 2 1778 785 bf 1 2 1794 785 bf 2 2 1870 785 bf 2 1 1795 788 bf 2 2 1653 799 bf 2 2 1688 802 bf 2 2 1767 802 bf 2 1 1640 824 bf 2 2 1882 826 bf 1 1 1627 828 bf 2 1 2131 828 bf 2 2 1776
 836 bf 2 2 1642 869 bf 2 1 1884 875 bf 2 2 2083 903 bf 2 1 1690 969 bf 0.49 0.6 0.82 c black 1627 681 m 575 X s
 gsave  711 565 1534 600 C 1994.91 613.818 t 0 r /Helvetica findfont 28.5208 sf 0 0 m (B_ipchi2_ownpv				) show NC gr  1684 695 m -14 Y s 1699 688 m -7 Y s 1713 688 m -7 Y s 1727 688 m -7 Y s 1742 695 m -14 Y s 1756 688 m -7 Y s 1771 688 m -7 Y s
 1785 688 m -7 Y s 1800 695 m -14 Y s 1814 688 m -7 Y s 1828 688 m -7 Y s 1843 688 m -7 Y s 1857 695 m -14 Y s 1872 688 m -7 Y s 1886 688 m -7 Y s 1901 688 m -7 Y s 1915 695 m -14 Y s 1929 688 m -7 Y s 1944 688 m -7 Y s 1958 688 m -7 Y s 1973 695 m
 -14 Y s 1987 688 m -7 Y s 2002 688 m -7 Y s 2016 688 m -7 Y s 2030 695 m -14 Y s 2045 688 m -7 Y s 2059 688 m -7 Y s 2074 688 m -7 Y s 2088 695 m -14 Y s 2102 688 m -7 Y s 2117 688 m -7 Y s 2131 688 m -7 Y s 2146 695 m -14 Y s 1684 695 m -14 Y s
 1670 688 m -7 Y s 1655 688 m -7 Y s 1641 688 m -7 Y s 2146 695 m -14 Y s 2160 688 m -7 Y s 2175 688 m -7 Y s 2189 688 m -7 Y s
 gsave  711 565 1534 600 C 1673.79 653.603 t 0 r /Helvetica findfont 25.6688 sf 0 0 m (2) show NC gr 
 gsave  711 565 1534 600 C 1730.63 653.603 t 0 r /Helvetica findfont 25.6688 sf 0 0 m (4) show NC gr 
 gsave  711 565 1534 600 C 1790.3 653.603 t 0 r /Helvetica findfont 25.6688 sf 0 0 m (6) show NC gr 
 gsave  711 565 1534 600 C 1847.14 653.603 t 0 r /Helvetica findfont 25.6688 sf 0 0 m (8) show NC gr 
 gsave  711 565 1534 600 C 1898.29 653.603 t 0 r /Helvetica findfont 25.6688 sf 0 0 m (10) show NC gr 
 gsave  711 565 1534 600 C 1957.97 653.603 t 0 r /Helvetica findfont 25.6688 sf 0 0 m (12) show NC gr 
 gsave  711 565 1534 600 C 2014.8 653.603 t 0 r /Helvetica findfont 25.6688 sf 0 0 m (14) show NC gr 
 gsave  711 565 1534 600 C 2071.64 653.603 t 0 r /Helvetica findfont 25.6688 sf 0 0 m (16) show NC gr 
 gsave  711 565 1534 600 C 2131.31 653.603 t 0 r /Helvetica findfont 25.6688 sf 0 0 m (18) show NC gr  1627 1108 m 575 X s 1684 1095 m 13 Y s 1699 1101 m 7 Y s 1713 1101 m 7 Y s 1727 1101 m 7 Y s 1742 1095 m 13 Y s 1756 1101 m 7 Y s 1771 1101 m 7 Y s
 1785 1101 m 7 Y s 1800 1095 m 13 Y s 1814 1101 m 7 Y s 1828 1101 m 7 Y s 1843 1101 m 7 Y s 1857 1095 m 13 Y s 1872 1101 m 7 Y s 1886 1101 m 7 Y s 1901 1101 m 7 Y s 1915 1095 m 13 Y s 1929 1101 m 7 Y s 1944 1101 m 7 Y s 1958 1101 m 7 Y s 1973 1095 m
 13 Y s 1987 1101 m 7 Y s 2002 1101 m 7 Y s 2016 1101 m 7 Y s 2030 1095 m 13 Y s 2045 1101 m 7 Y s 2059 1101 m 7 Y s 2074 1101 m 7 Y s 2088 1095 m 13 Y s 2102 1101 m 7 Y s 2117 1101 m 7 Y s 2131 1101 m 7 Y s 2146 1095 m 13 Y s 1684 1095 m 13 Y s 1670
 1101 m 7 Y s 1655 1101 m 7 Y s 1641 1101 m 7 Y s 2146 1095 m 13 Y s 2160 1101 m 7 Y s 2175 1101 m 7 Y s 2189 1101 m 7 Y s 1627 681 m 427 Y s
 gsave  711 565 1534 600 C 1562.96 792.848 t 90 r /Helvetica findfont 28.5208 sf 0 0 m (KSdau_Max_IPCHI2_PV			) show NC gr  1643 766 m -16 X s 1635 782 m -8 X s 1635 799 m -8 X s 1635 816 m -8 X s 1635 833 m -8 X s 1643 850 m -16 X s 1635 867 m -8 X
 s 1635 883 m -8 X s 1635 900 m -8 X s 1635 917 m -8 X s 1643 934 m -16 X s 1635 951 m -8 X s 1635 968 m -8 X s 1635 985 m -8 X s 1635 1001 m -8 X s 1643 1018 m -16 X s 1635 1035 m -8 X s 1635 1052 m -8 X s 1635 1069 m -8 X s 1635 1086 m -8 X s 1643
 1103 m -16 X s 1643 766 m -16 X s 1635 749 m -8 X s 1635 732 m -8 X s 1635 715 m -8 X s 1635 698 m -8 X s 1643 1103 m -16 X s
 gsave  711 565 1534 600 C 1545.91 755.906 t 0 r /Helvetica findfont 25.6688 sf 0 0 m (10000) show NC gr 
 gsave  711 565 1534 600 C 1545.91 841.158 t 0 r /Helvetica findfont 25.6688 sf 0 0 m (20000) show NC gr 
 gsave  711 565 1534 600 C 1545.91 923.569 t 0 r /Helvetica findfont 25.6688 sf 0 0 m (30000) show NC gr 
 gsave  711 565 1534 600 C 1545.91 1008.82 t 0 r /Helvetica findfont 25.6688 sf 0 0 m (40000) show NC gr 
 gsave  711 565 1534 600 C 1545.91 1091.23 t 0 r /Helvetica findfont 25.6688 sf 0 0 m (50000) show NC gr  2202 681 m 427 Y s 2186 766 m 16 X s 2194 782 m 8 X s 2194 799 m 8 X s 2194 816 m 8 X s 2194 833 m 8 X s 2186 850 m 16 X s 2194 867 m 8 X s 2194
 883 m 8 X s 2194 900 m 8 X s 2194 917 m 8 X s 2186 934 m 16 X s 2194 951 m 8 X s 2194 968 m 8 X s 2194 985 m 8 X s 2194 1001 m 8 X s 2186 1018 m 16 X s 2194 1035 m 8 X s 2194 1052 m 8 X s 2194 1069 m 8 X s 2194 1086 m 8 X s 2186 1103 m 16 X s 2186
 766 m 16 X s 2194 749 m 8 X s 2194 732 m 8 X s 2194 715 m 8 X s 2194 698 m 8 X s 2186 1103 m 16 X s 6 lw 0.81 0.37 0.38 c black 1634 710 m 2 Y s 1634 712 m 2 Y s 1627 712 m 7 X s 1634 712 m 7 X s 1628 710 m 11 X s 1628 714 m 11 X s 1627 706 m 12 Y s
 1641 706 m 12 Y s 3 lw 1634 712 m20 6 lw 1648 715 m 3 Y s 1648 718 m 4 Y s 1641 718 m 7 X s 1648 718 m 7 X s 1642 715 m 12 X s 1642 722 m 12 X s 1641 712 m 12 Y s 1655 712 m 12 Y s 3 lw 1648 718 m20 6 lw 1663 705 m 2 Y s 1663 707 m 3 Y s 1655 707 m
 8 X s 1663 707 m 7 X s 1657 705 m 11 X s 1657 710 m 11 X s 1655 701 m 12 Y s 1670 701 m 12 Y s 3 lw 1663 707 m20 6 lw 1677 708 m 3 Y s 1677 711 m 2 Y s 1670 711 m 7 X s 1677 711 m 7 X s 1671 708 m 12 X s 1671 713 m 12 X s 1670 705 m 12 Y s 1684 705
 m 12 Y s 3 lw 1677 711 m20 6 lw 1691 711 m 6 Y s 1691 717 m 7 Y s 1684 717 m 7 X s 1691 717 m 8 X s 1686 711 m 11 X s 1686 724 m 11 X s 1684 712 m 11 Y s 1699 712 m 11 Y s 3 lw 1691 717 m20 6 lw 1706 704 m 4 Y s 1706 708 m 3 Y s 1699 708 m 7 X s
 1706 708 m 7 X s 1700 704 m 11 X s 1700 711 m 11 X s 1699 702 m 11 Y s 1713 702 m 11 Y s 3 lw 1706 708 m20 6 lw 1720 701 m 3 Y s 1720 704 m 3 Y s 1713 704 m 7 X s 1720 704 m 7 X s 1714 701 m 12 X s 1714 707 m 12 X s 1713 698 m 11 Y s 1727 698 m 11 Y
 s 3 lw 1720 704 m20 6 lw 1735 706 m 4 Y s 1735 710 m 4 Y s 1727 710 m 8 X s 1735 710 m 7 X s 1729 706 m 11 X s 1729 714 m 11 X s 1727 705 m 11 Y s 1742 705 m 11 Y s 3 lw 1735 710 m20 6 lw 1749 711 m 4 Y s 1749 715 m 4 Y s 1742 715 m 7 X s 1749 715 m
 7 X s 1743 711 m 12 X s 1743 719 m 12 X s 1742 709 m 12 Y s 1756 709 m 12 Y s 3 lw 1749 715 m20 6 lw 1763 709 m 8 Y s 1763 717 m 7 Y s 1756 717 m 7 X s 1763 717 m 8 X s 1758 709 m 11 X s 1758 724 m 11 X s 1756 711 m 11 Y s 1771 711 m 11 Y s 3 lw
 1763 717 m20 6 lw 1778 710 m 7 Y s 1778 717 m 8 Y s 1771 717 m 7 X s 1778 717 m 7 X s 1772 710 m 11 X s 1772 725 m 11 X s 1771 712 m 11 Y s 1785 712 m 11 Y s 3 lw 1778 717 m20 6 lw 1792 712 m 8 Y s 1792 720 m 9 Y s 1785 720 m 7 X s 1792 720 m 7 X s
 1786 712 m 12 X s 1786 729 m 12 X s 1785 715 m 11 Y s 1799 715 m 11 Y s 3 lw 1792 720 m20 6 lw 1807 704 m 7 Y s 1807 711 m 8 Y s 1799 711 m 8 X s 1807 711 m 7 X s 1801 704 m 11 X s 1801 719 m 11 X s 1799 706 m 11 Y s 1814 706 m 11 Y s 3 lw 1807 711
 m20 6 lw 1821 696 m 5 Y s 1821 701 m 4 Y s 1814 701 m 7 X s 1821 701 m 7 X s 1815 696 m 12 X s 1815 705 m 12 X s 1814 695 m 11 Y s 1828 695 m 11 Y s 3 lw 1821 701 m20 6 lw 1835 695 m 8 Y s 1835 703 m 8 Y s 1828 703 m 7 X s 1835 703 m 8 X s 1830 695
 m 11 X s 1830 711 m 11 X s 1828 697 m 12 Y s 1843 697 m 12 Y s 3 lw 1835 703 m20 6 lw 1850 742 m 10 Y s 1850 752 m 10 Y s 1843 752 m 7 X s 1850 752 m 7 X s 1844 742 m 11 X s 1844 762 m 11 X s 1843 747 m 11 Y s 1857 747 m 11 Y s 3 lw 1850 752 m20 6
 lw 1864 708 m 10 Y s 1864 718 m 11 Y s 1857 718 m 7 X s 1864 718 m 7 X s 1858 708 m 12 X s 1858 729 m 12 X s 1857 712 m 12 Y s 1871 712 m 12 Y s 3 lw 1864 718 m20 6 lw 1879 735 m 34 Y s 1879 769 m 34 Y s 1871 769 m 8 X s 1879 769 m 7 X s 1873 735 m
 11 X s 1873 803 m 11 X s 1871 763 m 12 Y s 1886 763 m 12 Y s 3 lw 1879 769 m20 6 lw 1893 703 m 6 Y s 1893 709 m 6 Y s 1886 709 m 7 X s 1893 709 m 7 X s 1887 703 m 12 X s 1887 715 m 12 X s 1886 703 m 12 Y s 1900 703 m 12 Y s 3 lw 1893 709 m20 6 lw
 1907 695 m 5 Y s 1907 700 m 5 Y s 1900 700 m 7 X s 1907 700 m 7 X s 1902 695 m 11 X s 1902 705 m 11 X s 1900 694 m 12 Y s 1914 694 m 12 Y s 3 lw 1907 700 m20 6 lw 1922 694 m 21 Y s 1922 715 m 22 Y s 1914 715 m 8 X s 1922 715 m 7 X s 1916 694 m 11 X
 s 1916 737 m 11 X s 1914 710 m 11 Y s 1929 710 m 11 Y s 3 lw 1922 715 m20 6 lw 1929 716 m 7 X s 1936 716 m 7 X s 1929 711 m 11 Y s 1943 711 m 11 Y s 3 lw 1936 716 m20 6 lw 1943 707 m 7 X s 1950 707 m 8 X s 1943 702 m 11 Y s 1958 702 m 11 Y s 3 lw
 1950 707 m20 6 lw 1965 702 m 5 Y s 1965 707 m 6 Y s 1958 707 m 7 X s 1965 707 m 7 X s 1959 702 m 12 X s 1959 713 m 12 X s 1958 701 m 12 Y s 1972 701 m 12 Y s 3 lw 1965 707 m20 6 lw 1979 710 m 22 Y s 1979 732 m 22 Y s 1972 732 m 7 X s 1979 732 m 7 X
 s 1974 710 m 11 X s 1974 754 m 11 X s 1972 726 m 12 Y s 1986 726 m 12 Y s 3 lw 1979 732 m20 6 lw 1994 708 m s 1994 708 m s 1986 708 m 8 X s 1994 708 m 7 X s 1988 708 m 11 X s 1988 708 m 11 X s 1986 703 m 11 Y s 2001 703 m 11 Y s 3 lw 1994 708 m20 6
 lw 2008 723 m 4 Y s 2008 727 m 5 Y s 2001 727 m 7 X s 2008 727 m 7 X s 2002 723 m 12 X s 2002 732 m 12 X s 2001 721 m 12 Y s 2015 721 m 12 Y s 3 lw 2008 727 m20 6 lw 2037 686 m 5 Y s 2037 691 m 5 Y s 2030 691 m 7 X s 2037 691 m 7 X s 2031 686 m 12 X
 s 2031 696 m 12 X s 2030 686 m 11 Y s 2044 686 m 11 Y s 3 lw 2037 691 m20 6 lw 2044 696 m 7 X s 2051 696 m 7 X s 2044 690 m 12 Y s 2058 690 m 12 Y s 3 lw 2051 696 m20 6 lw 2066 697 m s 2066 697 m s 2058 697 m 8 X s 2066 697 m 7 X s 2060 697 m 11 X s
 2060 697 m 11 X s 2058 691 m 12 Y s 2073 691 m 12 Y s 3 lw 2066 697 m20 6 lw 2073 904 m 7 X s 2080 904 m 7 X s 2073 898 m 11 Y s 2087 898 m 11 Y s 3 lw 2080 904 m20 6 lw 2094 684 m 3 Y s 2094 687 m 3 Y s 2087 687 m 7 X s 2094 687 m 8 X s 2089 684 m
 11 X s 2089 690 m 11 X s 2087 681 m 12 Y s 2102 681 m 12 Y s 3 lw 2094 687 m20 6 lw 2130 829 m 8 X s 2138 829 m 7 X s 2130 823 m 11 Y s 2145 823 m 11 Y s 3 lw 2138 829 m20 6 lw 2145 692 m 7 X s 2152 692 m 7 X s 2145 686 m 11 Y s 2159 686 m 11 Y s 3
 lw 2152 692 m20 6 lw 2174 694 m 7 X s 2181 694 m 7 X s 2174 688 m 12 Y s 2188 688 m 12 Y s 3 lw 2181 694 m20 6 lw 2188 723 m 7 X s 2195 723 m 7 X s 2188 718 m 11 Y s 2202 718 m 11 Y s 3 lw 2195 723 m20 6 lw 3 lw 1627 681 m 575 X s 1684 695 m -14 Y s
 1699 688 m -7 Y s 1713 688 m -7 Y s 1727 688 m -7 Y s 1742 695 m -14 Y s 1756 688 m -7 Y s 1771 688 m -7 Y s 1785 688 m -7 Y s 1800 695 m -14 Y s 1814 688 m -7 Y s 1828 688 m -7 Y s 1843 688 m -7 Y s 1857 695 m -14 Y s 1872 688 m -7 Y s 1886 688 m
 -7 Y s 1901 688 m -7 Y s 1915 695 m -14 Y s 1929 688 m -7 Y s 1944 688 m -7 Y s 1958 688 m -7 Y s 1973 695 m -14 Y s 1987 688 m -7 Y s 2002 688 m -7 Y s 2016 688 m -7 Y s 2030 695 m -14 Y s 2045 688 m -7 Y s 2059 688 m -7 Y s 2074 688 m -7 Y s 2088
 695 m -14 Y s 2102 688 m -7 Y s 2117 688 m -7 Y s 2131 688 m -7 Y s 2146 695 m -14 Y s 1684 695 m -14 Y s 1670 688 m -7 Y s 1655 688 m -7 Y s 1641 688 m -7 Y s 2146 695 m -14 Y s 2160 688 m -7 Y s 2175 688 m -7 Y s 2189 688 m -7 Y s 1627 1108 m 575
 X s 1684 1095 m 13 Y s 1699 1101 m 7 Y s 1713 1101 m 7 Y s 1727 1101 m 7 Y s 1742 1095 m 13 Y s 1756 1101 m 7 Y s 1771 1101 m 7 Y s 1785 1101 m 7 Y s 1800 1095 m 13 Y s 1814 1101 m 7 Y s 1828 1101 m 7 Y s 1843 1101 m 7 Y s 1857 1095 m 13 Y s 1872
 1101 m 7 Y s 1886 1101 m 7 Y s 1901 1101 m 7 Y s 1915 1095 m 13 Y s 1929 1101 m 7 Y s 1944 1101 m 7 Y s 1958 1101 m 7 Y s 1973 1095 m 13 Y s 1987 1101 m 7 Y s 2002 1101 m 7 Y s 2016 1101 m 7 Y s 2030 1095 m 13 Y s 2045 1101 m 7 Y s 2059 1101 m 7 Y s
 2074 1101 m 7 Y s 2088 1095 m 13 Y s 2102 1101 m 7 Y s 2117 1101 m 7 Y s 2131 1101 m 7 Y s 2146 1095 m 13 Y s 1684 1095 m 13 Y s 1670 1101 m 7 Y s 1655 1101 m 7 Y s 1641 1101 m 7 Y s 2146 1095 m 13 Y s 2160 1101 m 7 Y s 2175 1101 m 7 Y s 2189 1101 m
 7 Y s 1627 681 m 427 Y s 1643 766 m -16 X s 1635 782 m -8 X s 1635 799 m -8 X s 1635 816 m -8 X s 1635 833 m -8 X s 1643 850 m -16 X s 1635 867 m -8 X s 1635 883 m -8 X s 1635 900 m -8 X s 1635 917 m -8 X s 1643 934 m -16 X s 1635 951 m -8 X s 1635
 968 m -8 X s 1635 985 m -8 X s 1635 1001 m -8 X s 1643 1018 m -16 X s 1635 1035 m -8 X s 1635 1052 m -8 X s 1635 1069 m -8 X s 1635 1086 m -8 X s 1643 1103 m -16 X s 1643 766 m -16 X s 1635 749 m -8 X s 1635 732 m -8 X s 1635 715 m -8 X s 1635 698 m
 -8 X s 1643 1103 m -16 X s 2202 681 m 427 Y s 2186 766 m 16 X s 2194 782 m 8 X s 2194 799 m 8 X s 2194 816 m 8 X s 2194 833 m 8 X s 2186 850 m 16 X s 2194 867 m 8 X s 2194 883 m 8 X s 2194 900 m 8 X s 2194 917 m 8 X s 2186 934 m 16 X s 2194 951 m 8
 X s 2194 968 m 8 X s 2194 985 m 8 X s 2194 1001 m 8 X s 2186 1018 m 16 X s 2194 1035 m 8 X s 2194 1052 m 8 X s 2194 1069 m 8 X s 2194 1086 m 8 X s 2186 1103 m 16 X s 2186 766 m 16 X s 2194 749 m 8 X s 2194 732 m 8 X s 2194 715 m 8 X s 2194 698 m 8 X
 s 2186 1103 m 16 X s 0.490196 0.545098 0.615686 c 0.364706 0.419608 0.490196 c 497 38 1542 1124 bf 0.490196 0.545098 0.615686 c 1542 1124 m 497 X s 2039 1124 m 38 Y s 2039 1162 m -497 X s 1542 1162 m -38 Y s 1 1 1 c black 1 1 1 c
 gsave  711 565 1534 600 C 1543.07 1139.54 t 0 r /Helvetica-Bold findfont 17.1125 sf 0 0 m (KSdau_Max_IPCHI2_PV			 versus B_ipchi2_ownpv				 \(Signal\)_Id) show NC gr  0.490196 0.545098 0.615686 c 1 1 1 c 710 564 23 12 bf 0.490196 0.545098 0.615686 c
 1 1 1 c 710 564 779 12 bf 0.490196 0.545098 0.615686 c 1 1 1 c 711 564 1534 12 bf
 gr  gr showpage
end
%%EOF
