%!PS-Adobe-2.0 EPSF-2.0
%%BoundingBox:  0 0 567 294
%%Title: DataSet/plots/correlationscatter_B_PVFit_chi2_div_ndof		__Id_c3.eps: Correlation profiles for 'Id'-transformed signal variables
%%Creator: ROOT Version 6.08/06
%%CreationDate: Wed Jun  6 12:05:44 2018
%%DocumentNeededResources: ProcSet (FontSetInit)
%%EndComments
%%BeginProlog
80 dict begin
/s {stroke} def /l {lineto} def /m {moveto} def /t {translate} def
/r {rotate} def /rl {roll}  def /R {repeat} def
/d {rlineto} def /rm {rmoveto} def /gr {grestore} def /f {eofill} def
/c {setrgbcolor} def /black {0 setgray} def /sd {setdash} def
/cl {closepath} def /sf {scalefont setfont} def /lw {setlinewidth} def
/box {m dup 0 exch d exch 0 d 0 exch neg d cl} def
/NC{systemdict begin initclip end}def/C{NC box clip newpath}def
/bl {box s} def /bf {gsave box gsave f grestore 1 lw [] 0 sd s grestore} def /Y { 0 exch d} def /X { 0 d} def 
/K {{pop pop 0 moveto} exch kshow} bind def
/ita {/ang 15 def gsave [1 0 ang dup sin exch cos div 1 0 0] concat} def 
/mp {newpath /y exch def /x exch def} def
/side {[w .77 mul w .23 mul] .385 w mul sd w 0 l currentpoint t -144 r} def
/mr {mp x y w2 0 360 arc} def /m24 {mr s} def /m20 {mr f} def
/mb {mp x y w2 add m w2 neg 0 d 0 w neg d w 0 d 0 w d cl} def
/mt {mp x y w2 add m w2 neg w neg d w 0 d cl} def
/m21 {mb f} def /m25 {mb s} def /m22 {mt f} def /m26{mt s} def
/m23 {mp x y w2 sub m w2 w d w neg 0 d cl f} def
/m27 {mp x y w2 add m w3 neg w2 neg d w3 w2 neg d w3 w2 d cl s} def
/m28 {mp x w2 sub y w2 sub w3 add m w3 0 d  0 w3 neg d w3 0 d 0 w3 d w3 0 d  0 w3 d w3 neg 0 d 0 w3 d w3 neg 0 d 0 w3 neg d w3 neg 0 d cl s } def
/m29 {mp gsave x w2 sub y w2 add w3 sub m currentpoint t 4 {side} repeat cl fill gr} def
/m30 {mp gsave x w2 sub y w2 add w3 sub m currentpoint t 4 {side} repeat cl s gr} def
/m31 {mp x y w2 sub m 0 w d x w2 sub y m w 0 d x w2 sub y w2 add m w w neg d x w2 sub y w2 sub m w w d s} def
/m32 {mp x y w2 sub m w2 w d w neg 0 d cl s} def
/m33 {mp x y w2 add m w3 neg w2 neg d w3 w2 neg d w3 w2 d cl f} def
/m34 {mp x w2 sub y w2 sub w3 add m w3 0 d  0 w3 neg d w3 0 d 0 w3 d w3 0 d  0 w3 d w3 neg 0 d 0 w3 d w3 neg 0 d 0 w3 neg d w3 neg 0 d cl f } def
/m2 {mp x y w2 sub m 0 w d x w2 sub y m w 0 d s} def
/m5 {mp x w2 sub y w2 sub m w w d x w2 sub y w2 add m w w neg d s} def
%%IncludeResource: ProcSet (FontSetInit)
%%IncludeResource: font Times-Roman
%%IncludeResource: font Times-Italic
%%IncludeResource: font Times-Bold
%%IncludeResource: font Times-BoldItalic
%%IncludeResource: font Helvetica
%%IncludeResource: font Helvetica-Oblique
%%IncludeResource: font Helvetica-Bold
%%IncludeResource: font Helvetica-BoldOblique
%%IncludeResource: font Courier
%%IncludeResource: font Courier-Oblique
%%IncludeResource: font Courier-Bold
%%IncludeResource: font Courier-BoldOblique
%%IncludeResource: font Symbol
%%IncludeResource: font ZapfDingbats
/reEncode {exch findfont dup length dict begin {1 index /FID eq  {pop pop} {def} ifelse } forall /Encoding exch def currentdict end dup /FontName get exch definefont pop } def [/Times-Bold /Times-Italic /Times-BoldItalic /Helvetica /Helvetica-Oblique
 /Helvetica-Bold /Helvetica-BoldOblique /Courier /Courier-Oblique /Courier-Bold /Courier-BoldOblique /Times-Roman /AvantGarde-Book /AvantGarde-BookOblique /AvantGarde-Demi /AvantGarde-DemiOblique /Bookman-Demi /Bookman-DemiItalic /Bookman-Light
 /Bookman-LightItalic /Helvetica-Narrow /Helvetica-Narrow-Bold /Helvetica-Narrow-BoldOblique /Helvetica-Narrow-Oblique /NewCenturySchlbk-Roman /NewCenturySchlbk-Bold /NewCenturySchlbk-BoldItalic /NewCenturySchlbk-Italic /Palatino-Bold
 /Palatino-BoldItalic /Palatino-Italic /Palatino-Roman ] {ISOLatin1Encoding reEncode } forall
%%EndProlog
%%BeginSetup
%%EndSetup
newpath  gsave  .25 .25 scale  gsave  0 0 t 0.490196 0.545098 0.615686 c[  ] 0 sd 3 lw 1 1 1 c 2268 1176 0 0 bf 0.490196 0.545098 0.615686 c 1 1 1 c 710 565 23 600 bf black 1 1 1 c 576 427 115 681 bf black 576 427 115 681 bl 1 1 1 c 576 427 115 681
 bf black 576 427 115 681 bl 0.49 0.6 0.82 c 0.6 0.6 0.6 c 2 2 251 688 bf 2 1 251 690 bf 2 2 264 691 bf 2 2 251 694 bf 2 1 247 696 bf 2 1 255 696 bf 2 1 247 697 bf 0.754 0.715 0.676 c 2 1 255 697 bf 0.6 0.6 0.6 c 2 2 251 698 bf 2 1 255 700 bf 2 2 268
 701 bf 2 1 249 703 bf 2 1 257 703 bf 2 1 261 703 bf 2 2 245 704 bf 2 2 264 704 bf 2 1 253 706 bf 2 1 264 706 bf 2 1 249 707 bf 2 1 253 707 bf 2 1 266 707 bf 2 2 249 711 bf 2 2 253 711 bf 2 1 255 713 bf 2 1 251 714 bf 0.76 0.75 0.66 c 2 1 253 714 bf
 0.6 0.6 0.6 c 2 1 257 714 bf 2 2 257 715 bf 2 1 249 717 bf 2 1 251 717 bf 2 2 253 718 bf 1 2 263 718 bf 0.53 0.4 0.34 c 2 1 249 723 bf 0.6 0.6 0.6 c 2 2 255 725 bf 2 2 259 725 bf 2 1 247 727 bf 2 1 255 727 bf 2 1 264 727 bf 2 2 261 728 bf 2 2 264
 728 bf 2 1 251 730 bf 2 2 251 731 bf 2 2 255 731 bf 2 2 257 731 bf 2 2 259 731 bf 2 1 278 733 bf 2 1 249 734 bf 2 1 255 734 bf 2 2 251 735 bf 2 2 257 735 bf 2 1 257 737 bf 2 1 259 737 bf 2 1 264 737 bf 2 1 278 737 bf 2 2 255 738 bf 2 2 261 738 bf 2
 1 247 740 bf 2 1 264 740 bf 2 2 249 741 bf 2 2 255 741 bf 2 2 259 741 bf 2 1 251 743 bf 0.754 0.715 0.676 c 2 1 264 743 bf 0.6 0.6 0.6 c 2 1 266 743 bf 2 1 249 744 bf 2 1 255 744 bf 2 1 259 744 bf 2 1 270 744 bf 2 1 247 747 bf 2 1 255 747 bf 2 1 257
 747 bf 2 1 259 747 bf 2 1 261 747 bf 2 1 266 747 bf 2 2 251 748 bf 2 2 253 748 bf 2 2 268 748 bf 2 1 251 750 bf 2 1 245 751 bf 2 1 249 751 bf 2 1 253 751 bf 2 1 264 751 bf 2 2 253 752 bf 2 2 259 752 bf 1 2 263 752 bf 2 2 266 752 bf 2 2 272 752 bf 2
 1 249 754 bf 2 1 251 754 bf 2 1 261 754 bf 2 2 255 755 bf 2 1 249 757 bf 2 1 259 757 bf 2 1 264 757 bf 0.754 0.715 0.676 c 2 1 270 757 bf 0.6 0.6 0.6 c 2 2 249 758 bf 2 2 255 758 bf 2 2 276 758 bf 2 1 251 761 bf 2 2 251 762 bf 2 2 253 762 bf 2 1 259
 764 bf 2 2 249 765 bf 2 2 255 765 bf 2 2 257 765 bf 1 2 263 765 bf 2 1 255 767 bf 2 1 257 767 bf 2 1 259 767 bf 2 1 261 767 bf 2 2 249 768 bf 2 2 264 768 bf 2 2 266 768 bf 2 2 272 768 bf 2 1 249 770 bf 2 2 247 772 bf 2 2 249 772 bf 2 2 264 772 bf 2
 1 247 774 bf 2 1 251 774 bf 0.754 0.715 0.676 c 2 1 255 774 bf 0.6 0.6 0.6 c 1 1 263 774 bf 1 2 263 775 bf 2 1 253 777 bf 2 1 255 777 bf 2 1 261 777 bf 2 1 268 777 bf 2 2 249 778 bf 2 2 266 778 bf 2 1 255 780 bf 2 1 259 780 bf 2 1 259 781 bf 2 2 249
 782 bf 2 2 251 782 bf 2 2 253 782 bf 2 2 255 782 bf 0.754 0.715 0.676 c 2 2 261 782 bf 0.6 0.6 0.6 c 2 2 276 782 bf 2 1 257 784 bf 2 2 247 785 bf 2 2 249 785 bf 0.754 0.715 0.676 c 2 2 251 785 bf 0.6 0.6 0.6 c 2 2 257 785 bf 0.754 0.715 0.676 c 2 1
 251 787 bf 0.6 0.6 0.6 c 2 1 253 787 bf 2 1 259 787 bf 2 1 261 787 bf 2 1 259 788 bf 2 2 251 789 bf 2 2 257 789 bf 2 2 264 789 bf 0.68 0.6 0.55 c 2 1 253 791 bf 0.6 0.6 0.6 c 2 1 255 791 bf 2 1 257 791 bf 0.754 0.715 0.676 c 2 2 255 792 bf 0.6 0.6
 0.6 c 2 2 264 792 bf 0.754 0.715 0.676 c 2 1 247 794 bf 0.6 0.6 0.6 c 2 1 251 794 bf 2 1 253 794 bf 2 1 255 794 bf 2 1 257 794 bf 2 1 261 794 bf 2 2 253 795 bf 2 2 255 795 bf 2 2 257 795 bf 2 2 272 795 bf 2 1 251 797 bf 2 1 264 797 bf 2 1 280 797 bf
 2 1 247 798 bf 0.754 0.715 0.676 c 1 1 263 798 bf 0.6 0.6 0.6 c 2 2 249 799 bf 0.754 0.715 0.676 c 2 2 251 799 bf 0.6 0.6 0.6 c 2 2 255 799 bf 2 2 257 799 bf 2 2 286 799 bf 0.754 0.715 0.676 c 2 1 249 801 bf 0.6 0.6 0.6 c 2 1 253 801 bf 2 1 255 801
 bf 2 1 257 801 bf 2 2 249 802 bf 0.754 0.715 0.676 c 2 2 251 802 bf 0.6 0.6 0.6 c 2 2 253 802 bf 1 2 263 802 bf 2 1 249 804 bf 0.754 0.715 0.676 c 2 1 251 804 bf 0.6 0.6 0.6 c 2 1 257 804 bf 0.754 0.715 0.676 c 2 1 259 804 bf 0.6 0.6 0.6 c 2 1 278
 804 bf 0.754 0.715 0.676 c 2 2 257 805 bf 2 2 259 805 bf 0.6 0.6 0.6 c 1 2 263 805 bf 2 2 266 805 bf 0.754 0.715 0.676 c 2 1 247 807 bf 0.6 0.6 0.6 c 2 1 251 807 bf 0.754 0.715 0.676 c 2 1 255 807 bf 2 1 259 807 bf 0.6 0.6 0.6 c 1 1 263 807 bf 0.754
 0.715 0.676 c 2 1 253 808 bf 0.6 0.6 0.6 c 2 2 253 809 bf 2 2 255 809 bf 2 2 261 809 bf 2 1 251 811 bf 2 1 255 811 bf 2 1 257 811 bf 1 1 263 811 bf 2 2 251 812 bf 0.754 0.715 0.676 c 2 2 257 812 bf 0.6 0.6 0.6 c 2 2 266 812 bf 0.754 0.715 0.676 c 2
 1 249 814 bf 0.6 0.6 0.6 c 2 1 257 814 bf 2 1 259 814 bf 2 2 253 815 bf 0.754 0.715 0.676 c 2 2 255 815 bf 0.6 0.6 0.6 c 2 2 257 815 bf 0.754 0.715 0.676 c 2 2 261 815 bf 0.6 0.6 0.6 c 2 1 251 817 bf 0.754 0.715 0.676 c 2 1 257 817 bf 0.6 0.6 0.6 c
 2 1 251 818 bf 2 1 255 818 bf 2 1 274 818 bf 2 1 276 818 bf 2 2 249 819 bf 0.754 0.715 0.676 c 2 2 257 819 bf 0.6 0.6 0.6 c 2 2 266 819 bf 2 1 247 821 bf 2 1 257 821 bf 0.754 0.715 0.676 c 2 2 247 822 bf 2 2 249 822 bf 0.6 0.6 0.6 c 2 2 251 822 bf
 0.754 0.715 0.676 c 2 2 255 822 bf 0.6 0.6 0.6 c 2 2 272 822 bf 2 1 255 824 bf 2 1 257 824 bf 2 1 261 824 bf 2 1 255 825 bf 2 1 257 825 bf 2 1 261 825 bf 1 1 263 825 bf 2 1 282 825 bf 2 1 284 825 bf 2 2 245 826 bf 2 2 253 826 bf 2 2 257 826 bf 2 2
 264 826 bf 0.754 0.715 0.676 c 2 1 251 828 bf 0.6 0.6 0.6 c 2 1 253 828 bf 2 2 247 829 bf 2 2 253 829 bf 2 2 257 829 bf 2 2 259 829 bf 2 2 261 829 bf 2 1 247 831 bf 0.754 0.715 0.676 c 2 1 251 831 bf 0.6 0.6 0.6 c 2 2 247 832 bf 2 2 249 832 bf 0.754
 0.715 0.676 c 2 2 251 832 bf 2 2 253 832 bf 0.6 0.6 0.6 c 2 2 255 832 bf 2 2 259 832 bf 2 2 264 832 bf 2 2 276 832 bf 0.754 0.715 0.676 c 2 1 247 834 bf 0.6 0.6 0.6 c 2 1 249 834 bf 2 1 251 834 bf 2 1 255 834 bf 2 1 257 834 bf 2 1 259 834 bf 2 1 249
 835 bf 2 1 253 835 bf 2 1 255 835 bf 1 1 263 835 bf 0.754 0.715 0.676 c 2 1 268 835 bf 0.6 0.6 0.6 c 2 1 270 835 bf 2 2 253 836 bf 2 2 259 836 bf 2 2 266 836 bf 2 2 278 836 bf 2 1 251 838 bf 2 1 264 838 bf 2 1 274 838 bf 0.754 0.715 0.676 c 2 2 251
 839 bf 0.6 0.6 0.6 c 2 2 253 839 bf 2 2 261 839 bf 0.754 0.715 0.676 c 2 2 264 839 bf 0.6 0.6 0.6 c 2 2 278 839 bf 0.754 0.715 0.676 c 2 1 253 841 bf 2 1 255 841 bf 0.6 0.6 0.6 c 2 1 257 841 bf 2 1 284 841 bf 2 2 253 842 bf 2 2 255 842 bf 2 2 268
 842 bf 0.754 0.715 0.676 c 2 1 251 844 bf 0.6 0.6 0.6 c 2 1 253 844 bf 2 1 257 844 bf 2 1 249 845 bf 2 1 251 845 bf 2 1 253 845 bf 2 1 255 845 bf 0.754 0.715 0.676 c 2 1 264 845 bf 0.6 0.6 0.6 c 2 2 261 846 bf 1 2 263 846 bf 2 2 264 846 bf 2 1 245
 848 bf 2 1 247 848 bf 0.754 0.715 0.676 c 2 1 251 848 bf 0.6 0.6 0.6 c 2 1 253 848 bf 0.754 0.715 0.676 c 2 1 255 848 bf 0.6 0.6 0.6 c 2 1 257 848 bf 2 1 259 848 bf 0.754 0.715 0.676 c 2 1 261 848 bf 0.6 0.6 0.6 c 2 2 251 849 bf 2 2 259 849 bf 2 2
 264 849 bf 1 2 359 849 bf 2 1 247 851 bf 2 1 249 851 bf 2 1 253 851 bf 2 1 261 851 bf 1 1 263 851 bf 0.76 0.75 0.66 c 2 2 249 852 bf 0.6 0.6 0.6 c 2 2 257 852 bf 2 2 259 852 bf 2 2 261 852 bf 2 1 249 854 bf 0.754 0.715 0.676 c 2 1 251 854 bf 0.6 0.6
 0.6 c 2 1 272 854 bf 2 1 249 855 bf 2 1 251 855 bf 2 1 259 855 bf 2 2 247 856 bf 2 2 249 856 bf 2 2 251 856 bf 2 2 259 856 bf 2 2 264 856 bf 2 2 266 856 bf 2 2 272 856 bf 2 1 253 858 bf 2 1 255 858 bf 2 1 264 858 bf 2 1 270 858 bf 2 2 247 859 bf 2 2
 249 859 bf 0.754 0.715 0.676 c 2 2 251 859 bf 0.6 0.6 0.6 c 2 2 255 859 bf 2 2 257 859 bf 2 1 249 861 bf 2 1 268 861 bf 2 1 251 862 bf 0.76 0.75 0.66 c 2 1 253 862 bf 0.6 0.6 0.6 c 2 1 257 862 bf 2 1 259 862 bf 2 2 245 863 bf 2 2 251 863 bf 0.754
 0.715 0.676 c 2 2 259 863 bf 0.6 0.6 0.6 c 2 2 351 863 bf 0.754 0.715 0.676 c 2 1 247 865 bf 0.6 0.6 0.6 c 2 1 249 865 bf 0.754 0.715 0.676 c 2 1 251 865 bf 0.6 0.6 0.6 c 2 1 270 865 bf 2 1 284 865 bf 2 2 249 866 bf 0.754 0.715 0.676 c 2 2 253 866
 bf 0.6 0.6 0.6 c 2 2 259 866 bf 2 2 261 866 bf 2 2 284 866 bf 2 1 251 868 bf 2 1 253 868 bf 0.754 0.715 0.676 c 2 1 255 868 bf 0.6 0.6 0.6 c 2 1 259 868 bf 1 1 263 868 bf 2 2 247 869 bf 2 2 249 869 bf 2 2 253 869 bf 0.754 0.715 0.676 c 2 2 255 869
 bf 0.6 0.6 0.6 c 2 2 264 869 bf 2 1 249 871 bf 2 1 251 871 bf 2 1 253 871 bf 2 1 257 871 bf 2 1 259 871 bf 2 1 264 871 bf 2 1 247 872 bf 2 1 255 872 bf 1 1 263 872 bf 2 1 274 872 bf 2 2 249 873 bf 2 2 251 873 bf 2 2 255 873 bf 2 2 257 873 bf 2 1 245
 875 bf 0.754 0.715 0.676 c 2 1 249 875 bf 0.6 0.6 0.6 c 2 1 251 875 bf 2 1 253 875 bf 2 1 255 875 bf 1 1 263 875 bf 2 1 264 875 bf 2 2 249 876 bf 2 2 257 876 bf 2 2 247 879 bf 2 2 249 879 bf 0.754 0.715 0.676 c 2 1 257 881 bf 0.6 0.6 0.6 c 2 1 261
 881 bf 2 1 268 881 bf 2 1 247 882 bf 1 1 263 882 bf 2 2 251 883 bf 2 2 253 883 bf 2 1 249 885 bf 0.76 0.75 0.66 c 2 1 251 885 bf 0.6 0.6 0.6 c 1 1 263 885 bf 2 2 255 886 bf 2 2 268 886 bf 2 2 278 886 bf 2 1 251 888 bf 2 1 253 888 bf 2 1 255 888 bf 2
 1 259 888 bf 0.754 0.715 0.676 c 2 1 261 888 bf 0.6 0.6 0.6 c 2 2 249 889 bf 2 2 253 889 bf 2 2 255 889 bf 2 1 251 891 bf 2 1 259 891 bf 2 1 272 891 bf 2 1 251 892 bf 2 1 253 892 bf 2 1 257 892 bf 2 1 261 892 bf 2 2 245 893 bf 0.754 0.715 0.676 c 2
 2 249 893 bf 0.6 0.6 0.6 c 2 2 251 893 bf 0.76 0.75 0.66 c 2 2 253 893 bf 0.6 0.6 0.6 c 2 2 255 893 bf 2 2 270 893 bf 0.754 0.715 0.676 c 2 1 249 895 bf 0.6 0.6 0.6 c 2 1 253 895 bf 2 1 297 895 bf 2 2 251 896 bf 2 2 253 896 bf 2 2 259 896 bf 2 1 253
 898 bf 2 1 257 898 bf 2 1 276 898 bf 2 1 245 899 bf 2 1 249 899 bf 2 1 251 899 bf 2 1 255 899 bf 0.754 0.715 0.676 c 2 1 259 899 bf 0.6 0.6 0.6 c 2 1 261 899 bf 0.754 0.715 0.676 c 2 2 253 900 bf 0.6 0.6 0.6 c 2 2 255 900 bf 2 2 261 900 bf 2 1 249
 902 bf 2 1 253 902 bf 2 1 266 902 bf 2 1 282 902 bf 2 2 247 903 bf 0.754 0.715 0.676 c 2 2 251 903 bf 0.6 0.6 0.6 c 2 2 270 903 bf 2 1 251 905 bf 2 1 257 905 bf 1 1 263 905 bf 2 2 249 906 bf 2 2 251 906 bf 0.754 0.715 0.676 c 2 2 255 906 bf 0.6 0.6
 0.6 c 2 1 255 908 bf 2 1 251 909 bf 0.754 0.715 0.676 c 2 1 259 909 bf 0.6 0.6 0.6 c 2 1 261 909 bf 2 1 272 909 bf 2 2 251 910 bf 2 2 270 910 bf 2 1 249 912 bf 2 1 255 912 bf 1 1 263 912 bf 0.754 0.715 0.676 c 2 1 268 912 bf 0.6 0.6 0.6 c 2 2 251
 913 bf 2 2 257 913 bf 1 2 263 913 bf 2 2 264 913 bf 2 1 259 915 bf 2 1 247 918 bf 0.754 0.715 0.676 c 2 1 249 919 bf 0.6 0.6 0.6 c 2 1 253 919 bf 2 1 255 919 bf 1 1 263 919 bf 2 2 251 920 bf 0.754 0.715 0.676 c 2 2 253 920 bf 2 2 261 920 bf 0.6 0.6
 0.6 c 2 2 270 920 bf 2 1 249 922 bf 2 2 249 923 bf 2 1 253 925 bf 2 1 255 925 bf 2 2 249 926 bf 2 1 251 928 bf 2 1 255 928 bf 2 1 251 929 bf 1 1 263 929 bf 2 2 251 930 bf 2 2 253 930 bf 1 2 263 930 bf 2 1 245 932 bf 2 1 253 932 bf 0.754 0.715 0.676
 c 2 1 257 932 bf 0.6 0.6 0.6 c 2 2 253 933 bf 2 1 251 935 bf 2 1 255 935 bf 2 2 251 937 bf 1 1 263 939 bf 2 2 257 940 bf 2 2 259 940 bf 2 1 249 942 bf 0.754 0.715 0.676 c 2 1 257 942 bf 2 2 253 943 bf 0.6 0.6 0.6 c 2 2 257 943 bf 2 2 261 943 bf 2 1
 255 945 bf 2 1 257 945 bf 2 1 261 945 bf 2 1 251 946 bf 2 1 253 946 bf 2 1 255 946 bf 2 1 268 946 bf 0.754 0.715 0.676 c 2 2 255 947 bf 0.6 0.6 0.6 c 2 2 264 947 bf 2 1 253 949 bf 1 1 263 949 bf 2 2 257 950 bf 2 2 264 950 bf 2 1 259 952 bf 2 1 270
 952 bf 2 2 257 953 bf 2 2 278 953 bf 2 1 253 955 bf 2 1 253 956 bf 2 2 251 957 bf 2 1 257 959 bf 1 1 263 959 bf 2 1 264 959 bf 2 2 257 960 bf 2 1 264 962 bf 2 2 251 963 bf 2 2 259 963 bf 1 2 263 963 bf 2 1 249 965 bf 2 1 251 965 bf 2 1 257 965 bf 2
 1 251 966 bf 2 1 259 966 bf 2 1 261 969 bf 2 1 251 972 bf 2 1 253 973 bf 2 2 261 974 bf 2 1 257 976 bf 2 2 249 977 bf 2 2 257 977 bf 2 1 251 979 bf 2 2 257 980 bf 2 1 255 983 bf 2 1 259 983 bf 1 1 263 983 bf 2 2 249 984 bf 2 1 253 986 bf 2 1 264 992
 bf 2 1 259 993 bf 2 2 253 994 bf 2 1 247 996 bf 2 1 261 996 bf 2 2 251 1000 bf 2 2 266 1004 bf 2 1 251 1006 bf 2 1 259 1009 bf 2 1 278 1009 bf 2 1 255 1010 bf 2 1 266 1010 bf 2 2 253 1011 bf 2 2 259 1014 bf 2 2 251 1017 bf 2 2 261 1017 bf 2 1 249
 1019 bf 2 1 255 1023 bf 2 1 272 1029 bf 2 1 261 1060 bf 2 1 253 1070 bf 2 1 251 1073 bf 2 1 255 1100 bf 0.49 0.6 0.82 c black 115 681 m 576 X s
 gsave  710 565 23 600 C 395.003 610.976 t 0 r /Helvetica findfont 28.5208 sf 0 0 m (B_PVFit_chi2_div_ndof		) show NC gr  160 695 m -14 Y s 177 688 m -7 Y s 193 688 m -7 Y s 210 688 m -7 Y s 227 688 m -7 Y s 243 695 m -14 Y s 260 688 m -7 Y s 277 688
 m -7 Y s 293 688 m -7 Y s 310 688 m -7 Y s 327 695 m -14 Y s 343 688 m -7 Y s 360 688 m -7 Y s 377 688 m -7 Y s 393 688 m -7 Y s 410 695 m -14 Y s 427 688 m -7 Y s 443 688 m -7 Y s 460 688 m -7 Y s 477 688 m -7 Y s 493 695 m -14 Y s 510 688 m -7 Y s
 527 688 m -7 Y s 543 688 m -7 Y s 560 688 m -7 Y s 577 695 m -14 Y s 593 688 m -7 Y s 610 688 m -7 Y s 627 688 m -7 Y s 643 688 m -7 Y s 660 695 m -14 Y s 160 695 m -14 Y s 143 688 m -7 Y s 127 688 m -7 Y s 660 695 m -14 Y s 677 688 m -7 Y s
 gsave  710 565 23 600 C 150.613 653.603 t 0 r /Helvetica findfont 25.6688 sf 0 0 m (10) show NC gr 
 gsave  710 565 23 600 C 136.404 653.603 t 0 r /Symbol findfont 25.6688 sf 0 0 m (-) show NC gr 
 gsave  710 565 23 600 C 233.023 653.603 t 0 r /Helvetica findfont 25.6688 sf 0 0 m (0) show NC gr 
 gsave  710 565 23 600 C 309.751 653.603 t 0 r /Helvetica findfont 25.6688 sf 0 0 m (10) show NC gr 
 gsave  710 565 23 600 C 395.003 653.603 t 0 r /Helvetica findfont 25.6688 sf 0 0 m (20) show NC gr 
 gsave  710 565 23 600 C 477.414 653.603 t 0 r /Helvetica findfont 25.6688 sf 0 0 m (30) show NC gr 
 gsave  710 565 23 600 C 559.825 653.603 t 0 r /Helvetica findfont 25.6688 sf 0 0 m (40) show NC gr 
 gsave  710 565 23 600 C 645.077 653.603 t 0 r /Helvetica findfont 25.6688 sf 0 0 m (50) show NC gr  115 1108 m 576 X s 160 1095 m 13 Y s 177 1101 m 7 Y s 193 1101 m 7 Y s 210 1101 m 7 Y s 227 1101 m 7 Y s 243 1095 m 13 Y s 260 1101 m 7 Y s 277 1101
 m 7 Y s 293 1101 m 7 Y s 310 1101 m 7 Y s 327 1095 m 13 Y s 343 1101 m 7 Y s 360 1101 m 7 Y s 377 1101 m 7 Y s 393 1101 m 7 Y s 410 1095 m 13 Y s 427 1101 m 7 Y s 443 1101 m 7 Y s 460 1101 m 7 Y s 477 1101 m 7 Y s 493 1095 m 13 Y s 510 1101 m 7 Y s
 527 1101 m 7 Y s 543 1101 m 7 Y s 560 1101 m 7 Y s 577 1095 m 13 Y s 593 1101 m 7 Y s 610 1101 m 7 Y s 627 1101 m 7 Y s 643 1101 m 7 Y s 660 1095 m 13 Y s 160 1095 m 13 Y s 143 1101 m 7 Y s 127 1101 m 7 Y s 660 1095 m 13 Y s 677 1101 m 7 Y s 115 681
 m 427 Y s
 gsave  710 565 23 600 C 51.1515 977.562 t 90 r /Helvetica findfont 28.5208 sf 0 0 m (Massh2h3					) show NC gr  131 724 m -16 X s 123 742 m -8 X s 123 759 m -8 X s 123 777 m -8 X s 131 795 m -16 X s 123 812 m -8 X s 123 830 m -8 X s 123 848 m -8 X s
 131 865 m -16 X s 123 883 m -8 X s 123 901 m -8 X s 123 918 m -8 X s 131 936 m -16 X s 123 954 m -8 X s 123 971 m -8 X s 123 989 m -8 X s 131 1007 m -16 X s 123 1024 m -8 X s 123 1042 m -8 X s 123 1060 m -8 X s 131 1077 m -16 X s 131 724 m -16 X s
 123 706 m -8 X s 123 689 m -8 X s 131 1077 m -16 X s 123 1095 m -8 X s
 gsave  710 565 23 600 C 62.5185 713.279 t 0 r /Helvetica findfont 25.6688 sf 0 0 m (400) show NC gr 
 gsave  710 565 23 600 C 62.5185 784.323 t 0 r /Helvetica findfont 25.6688 sf 0 0 m (600) show NC gr 
 gsave  710 565 23 600 C 62.5185 855.367 t 0 r /Helvetica findfont 25.6688 sf 0 0 m (800) show NC gr 
 gsave  710 565 23 600 C 48.3097 926.411 t 0 r /Helvetica findfont 25.6688 sf 0 0 m (1000) show NC gr 
 gsave  710 565 23 600 C 48.3097 997.454 t 0 r /Helvetica findfont 25.6688 sf 0 0 m (1200) show NC gr 
 gsave  710 565 23 600 C 48.3097 1068.5 t 0 r /Helvetica findfont 25.6688 sf 0 0 m (1400) show NC gr  691 681 m 427 Y s 674 724 m 17 X s 683 742 m 8 X s 683 759 m 8 X s 683 777 m 8 X s 674 795 m 17 X s 683 812 m 8 X s 683 830 m 8 X s 683 848 m 8 X s
 674 865 m 17 X s 683 883 m 8 X s 683 901 m 8 X s 683 918 m 8 X s 674 936 m 17 X s 683 954 m 8 X s 683 971 m 8 X s 683 989 m 8 X s 674 1007 m 17 X s 683 1024 m 8 X s 683 1042 m 8 X s 683 1060 m 8 X s 674 1077 m 17 X s 674 724 m 17 X s 683 706 m 8 X s
 683 689 m 8 X s 674 1077 m 17 X s 683 1095 m 8 X s 6 lw 0.81 0.37 0.38 c black 252 840 m 3 Y s 252 843 m 4 Y s 244 843 m 8 X s 252 843 m 7 X s 246 840 m 11 X s 246 847 m 11 X s 244 838 m 11 Y s 259 838 m 11 Y s 3 lw /w 2 def /w2 {w 2 div} def /w3 {w
 3 div} def 252 843 m20 6 lw 266 840 m 5 Y s 266 845 m 6 Y s 259 845 m 7 X s 266 845 m 7 X s 260 840 m 12 X s 260 851 m 12 X s 259 839 m 12 Y s 273 839 m 12 Y s 3 lw 266 845 m20 6 lw 280 833 m 13 Y s 280 846 m 13 Y s 273 846 m 7 X s 280 846 m 8 X s
 275 833 m 11 X s 275 859 m 11 X s 273 840 m 12 Y s 288 840 m 12 Y s 3 lw 280 846 m20 6 lw 288 896 m 7 X s 295 896 m 7 X s 288 890 m 11 Y s 302 890 m 11 Y s 3 lw 295 896 m20 6 lw 345 864 m 7 X s 352 864 m 7 X s 345 858 m 12 Y s 359 858 m 12 Y s 3 lw
 352 864 m20 6 lw 359 850 m 8 X s 367 850 m 7 X s 359 844 m 12 Y s 374 844 m 12 Y s 3 lw 367 850 m20 6 lw 3 lw 115 681 m 576 X s 160 695 m -14 Y s 177 688 m -7 Y s 193 688 m -7 Y s 210 688 m -7 Y s 227 688 m -7 Y s 243 695 m -14 Y s 260 688 m -7 Y s
 277 688 m -7 Y s 293 688 m -7 Y s 310 688 m -7 Y s 327 695 m -14 Y s 343 688 m -7 Y s 360 688 m -7 Y s 377 688 m -7 Y s 393 688 m -7 Y s 410 695 m -14 Y s 427 688 m -7 Y s 443 688 m -7 Y s 460 688 m -7 Y s 477 688 m -7 Y s 493 695 m -14 Y s 510 688
 m -7 Y s 527 688 m -7 Y s 543 688 m -7 Y s 560 688 m -7 Y s 577 695 m -14 Y s 593 688 m -7 Y s 610 688 m -7 Y s 627 688 m -7 Y s 643 688 m -7 Y s 660 695 m -14 Y s 160 695 m -14 Y s 143 688 m -7 Y s 127 688 m -7 Y s 660 695 m -14 Y s 677 688 m -7 Y
 s 115 1108 m 576 X s 160 1095 m 13 Y s 177 1101 m 7 Y s 193 1101 m 7 Y s 210 1101 m 7 Y s 227 1101 m 7 Y s 243 1095 m 13 Y s 260 1101 m 7 Y s 277 1101 m 7 Y s 293 1101 m 7 Y s 310 1101 m 7 Y s 327 1095 m 13 Y s 343 1101 m 7 Y s 360 1101 m 7 Y s 377
 1101 m 7 Y s 393 1101 m 7 Y s 410 1095 m 13 Y s 427 1101 m 7 Y s 443 1101 m 7 Y s 460 1101 m 7 Y s 477 1101 m 7 Y s 493 1095 m 13 Y s 510 1101 m 7 Y s 527 1101 m 7 Y s 543 1101 m 7 Y s 560 1101 m 7 Y s 577 1095 m 13 Y s 593 1101 m 7 Y s 610 1101 m 7
 Y s 627 1101 m 7 Y s 643 1101 m 7 Y s 660 1095 m 13 Y s 160 1095 m 13 Y s 143 1101 m 7 Y s 127 1101 m 7 Y s 660 1095 m 13 Y s 677 1101 m 7 Y s 115 681 m 427 Y s 131 724 m -16 X s 123 742 m -8 X s 123 759 m -8 X s 123 777 m -8 X s 131 795 m -16 X s
 123 812 m -8 X s 123 830 m -8 X s 123 848 m -8 X s 131 865 m -16 X s 123 883 m -8 X s 123 901 m -8 X s 123 918 m -8 X s 131 936 m -16 X s 123 954 m -8 X s 123 971 m -8 X s 123 989 m -8 X s 131 1007 m -16 X s 123 1024 m -8 X s 123 1042 m -8 X s 123
 1060 m -8 X s 131 1077 m -16 X s 131 724 m -16 X s 123 706 m -8 X s 123 689 m -8 X s 131 1077 m -16 X s 123 1095 m -8 X s 691 681 m 427 Y s 674 724 m 17 X s 683 742 m 8 X s 683 759 m 8 X s 683 777 m 8 X s 674 795 m 17 X s 683 812 m 8 X s 683 830 m 8
 X s 683 848 m 8 X s 674 865 m 17 X s 683 883 m 8 X s 683 901 m 8 X s 683 918 m 8 X s 674 936 m 17 X s 683 954 m 8 X s 683 971 m 8 X s 683 989 m 8 X s 674 1007 m 17 X s 683 1024 m 8 X s 683 1042 m 8 X s 683 1060 m 8 X s 674 1077 m 17 X s 674 724 m 17
 X s 683 706 m 8 X s 683 689 m 8 X s 674 1077 m 17 X s 683 1095 m 8 X s 0.490196 0.545098 0.615686 c 0.364706 0.419608 0.490196 c 497 38 30 1124 bf 0.490196 0.545098 0.615686 c 30 1124 m 497 X s 527 1124 m 38 Y s 527 1162 m -497 X s 30 1162 m -38 Y s
 1 1 1 c black 1 1 1 c
 gsave  710 565 23 600 C 25.5758 1136.7 t 0 r /Helvetica-Bold findfont 19.9646 sf 0 0 m (Massh2h3					 versus B_PVFit_chi2_div_ndof		 \(Signal\)_Id) show NC gr  0.490196 0.545098 0.615686 c 1 1 1 c 710 565 779 600 bf black 1 1 1 c 576 427 871 681 bf
 black 576 427 871 681 bl 1 1 1 c 576 427 871 681 bf black 576 427 871 681 bl 0.49 0.6 0.82 c 0.4 0.4 0.4 c 2 2 1003 681 bf 0.7 0.7 0.7 c 2 2 1005 681 bf 2 2 1007 681 bf 0.8 0.78 0.67 c 2 2 1009 681 bf 0.68 0.6 0.55 c 2 2 1011 681 bf 0.7 0.7 0.7 c 2
 2 1013 681 bf 2 2 1015 681 bf 0.8 0.78 0.67 c 1 2 1017 681 bf 0.7 0.7 0.7 c 2 2 1018 681 bf 2 2 1022 681 bf 2 2 1026 681 bf 2 2 1034 681 bf 2 2 1038 681 bf 2 1 1003 683 bf 0.8 0.78 0.67 c 2 1 1005 683 bf 0.73 0.71 0.64 c 2 1 1007 683 bf 2 1 1009 683
 bf 0.4 0.4 0.4 c 2 1 1011 683 bf 0.7 0.7 0.7 c 2 1 1013 683 bf 0.4 0.4 0.4 c 1 1 1017 683 bf 0.7 0.7 0.7 c 2 1 1020 683 bf 2 1 1024 683 bf 2 1 1028 683 bf 2 1 1041 683 bf 0.4 0.4 0.4 c 2 2 1005 684 bf 0.7 0.7 0.7 c 2 2 1007 684 bf 2 2 1009 684 bf
 0.8 0.78 0.67 c 2 2 1011 684 bf 0.73 0.71 0.64 c 2 2 1013 684 bf 0.4 0.4 0.4 c 1 2 1017 684 bf 2 2 1018 684 bf 0.7 0.7 0.7 c 2 2 1024 684 bf 0.4 0.4 0.4 c 2 1 1003 686 bf 0.8 0.78 0.67 c 2 1 1005 686 bf 2 1 1007 686 bf 2 1 1009 686 bf 0.4 0.4 0.4 c
 2 1 1011 686 bf 2 1 1013 686 bf 0.7 0.7 0.7 c 1 1 1017 686 bf 0.4 0.4 0.4 c 2 1 1018 686 bf 0.7 0.7 0.7 c 2 1 1020 686 bf 0.4 0.4 0.4 c 2 1 1026 686 bf 2 1 1005 687 bf 2 1 1007 687 bf 0.73 0.71 0.64 c 2 1 1009 687 bf 0.8 0.78 0.67 c 2 1 1011 687 bf
 0.4 0.4 0.4 c 2 1 1013 687 bf 0.8 0.78 0.67 c 2 1 1015 687 bf 0.4 0.4 0.4 c 1 1 1017 687 bf 0.7 0.7 0.7 c 2 1 1020 687 bf 2 2 1003 688 bf 0.4 0.4 0.4 c 2 2 1005 688 bf 2 2 1007 688 bf 0.8 0.78 0.67 c 2 2 1009 688 bf 2 2 1011 688 bf 0.7 0.7 0.7 c 2 2
 1013 688 bf 0.4 0.4 0.4 c 2 2 1015 688 bf 0.7 0.7 0.7 c 1 2 1017 688 bf 2 2 1020 688 bf 0.4 0.4 0.4 c 2 2 1022 688 bf 0.7 0.7 0.7 c 2 1 1005 690 bf 0.4 0.4 0.4 c 2 1 1007 690 bf 0.73 0.71 0.64 c 2 1 1009 690 bf 0.7 0.7 0.7 c 2 1 1011 690 bf 0.73
 0.71 0.64 c 2 1 1013 690 bf 0.7 0.7 0.7 c 1 1 1017 690 bf 2 1 1018 690 bf 2 1 1020 690 bf 2 1 1022 690 bf 2 1 1034 690 bf 2 2 1001 691 bf 2 2 1003 691 bf 0.8 0.78 0.67 c 2 2 1005 691 bf 0.7 0.7 0.7 c 2 2 1007 691 bf 0.8 0.78 0.67 c 2 2 1009 691 bf
 0.4 0.4 0.4 c 2 2 1011 691 bf 0.7 0.7 0.7 c 2 2 1013 691 bf 2 2 1015 691 bf 2 2 1018 691 bf 2 2 1024 691 bf 0.4 0.4 0.4 c 2 2 1028 691 bf 0.7 0.7 0.7 c 2 2 1034 691 bf 2 2 1107 691 bf 2 1 1003 693 bf 0.73 0.71 0.64 c 2 1 1005 693 bf 0.7 0.7 0.7 c 2
 1 1007 693 bf 0.73 0.71 0.64 c 2 1 1009 693 bf 0.7 0.7 0.7 c 2 1 1011 693 bf 0.4 0.4 0.4 c 2 1 1013 693 bf 0.7 0.7 0.7 c 2 1 1015 693 bf 2 2 1001 694 bf 2 2 1005 694 bf 0.4 0.4 0.4 c 2 2 1007 694 bf 0.68 0.6 0.55 c 2 2 1009 694 bf 0.7 0.7 0.7 c 2 2
 1011 694 bf 2 2 1013 694 bf 1 2 1017 694 bf 2 2 1024 694 bf 2 2 1026 694 bf 2 1 1003 696 bf 0.4 0.4 0.4 c 2 1 1005 696 bf 2 1 1007 696 bf 0.8 0.78 0.67 c 2 1 1009 696 bf 0.4 0.4 0.4 c 2 1 1011 696 bf 2 1 1013 696 bf 2 1 1015 696 bf 0.7 0.7 0.7 c 1 1
 1017 696 bf 2 1 1018 696 bf 0.8 0.78 0.67 c 2 1 1020 696 bf 0.7 0.7 0.7 c 2 1 1003 697 bf 0.8 0.78 0.67 c 2 1 1005 697 bf 0.7 0.7 0.7 c 2 1 1007 697 bf 2 1 1009 697 bf 2 1 1011 697 bf 0.4 0.4 0.4 c 2 1 1013 697 bf 2 1 1015 697 bf 1 1 1017 697 bf 0.8
 0.78 0.67 c 2 1 1018 697 bf 0.7 0.7 0.7 c 2 1 1026 697 bf 2 2 1003 698 bf 2 2 1007 698 bf 2 2 1009 698 bf 0.4 0.4 0.4 c 2 2 1011 698 bf 2 2 1013 698 bf 0.7 0.7 0.7 c 2 2 1015 698 bf 2 2 1018 698 bf 2 2 1026 698 bf 0.4 0.4 0.4 c 2 1 1003 700 bf 0.7
 0.7 0.7 c 2 1 1007 700 bf 2 1 1009 700 bf 2 1 1011 700 bf 2 1 1015 700 bf 1 1 1040 700 bf 0.4 0.4 0.4 c 2 2 1003 701 bf 0.7 0.7 0.7 c 2 2 1005 701 bf 0.4 0.4 0.4 c 2 2 1011 701 bf 0.7 0.7 0.7 c 2 2 1018 701 bf 2 2 1024 701 bf 2 1 1001 703 bf 2 1
 1007 703 bf 0.4 0.4 0.4 c 2 1 1009 703 bf 2 1 1011 703 bf 0.7 0.7 0.7 c 2 1 1015 703 bf 1 1 1017 703 bf 2 1 1018 703 bf 0.4 0.4 0.4 c 2 2 1005 704 bf 0.8 0.78 0.67 c 2 2 1007 704 bf 0.7 0.7 0.7 c 2 2 1009 704 bf 2 2 1013 704 bf 2 2 1015 704 bf 2 2
 1020 704 bf 2 2 1024 704 bf 2 2 1032 704 bf 2 1 1005 706 bf 0.8 0.78 0.67 c 2 1 1007 706 bf 0.4 0.4 0.4 c 2 1 1009 706 bf 2 1 1011 706 bf 2 1 1015 706 bf 0.7 0.7 0.7 c 1 1 1040 706 bf 2 1 1005 707 bf 2 1 1007 707 bf 2 1 1011 707 bf 2 1 1013 707 bf 2
 1 1015 707 bf 2 2 1001 708 bf 2 2 1005 708 bf 2 2 1007 708 bf 0.53 0.4 0.34 c 2 2 1009 708 bf 0.7 0.7 0.7 c 2 2 1011 708 bf 2 2 1013 708 bf 2 2 1015 708 bf 2 2 1020 708 bf 2 2 1032 708 bf 2 2 1114 708 bf 2 1 1001 710 bf 2 1 1003 710 bf 2 1 1005 710
 bf 0.4 0.4 0.4 c 2 1 1007 710 bf 0.7 0.7 0.7 c 2 1 1011 710 bf 1 1 1017 710 bf 2 2 1003 711 bf 2 2 1007 711 bf 2 2 1009 711 bf 0.4 0.4 0.4 c 2 2 1011 711 bf 0.7 0.7 0.7 c 2 2 1015 711 bf 2 2 1034 711 bf 2 1 1003 713 bf 2 1 1005 713 bf 0.4 0.4 0.4 c
 2 1 1007 713 bf 2 1 1009 713 bf 2 1 1013 713 bf 0.7 0.7 0.7 c 2 1 1015 713 bf 2 1 1028 713 bf 2 1 1013 714 bf 2 1 1015 714 bf 2 1 1020 714 bf 2 1 1028 714 bf 0.4 0.4 0.4 c 2 2 1003 715 bf 0.7 0.7 0.7 c 2 2 1005 715 bf 2 2 1007 715 bf 0.8 0.78 0.67 c
 2 2 1011 715 bf 0.7 0.7 0.7 c 2 2 1013 715 bf 0.4 0.4 0.4 c 1 2 1017 715 bf 0.7 0.7 0.7 c 2 2 1018 715 bf 2 1 1005 717 bf 2 1 1007 717 bf 0.4 0.4 0.4 c 2 1 1011 717 bf 0.7 0.7 0.7 c 2 1 1013 717 bf 1 1 1017 717 bf 2 1 1018 717 bf 2 1 1022 717 bf 2 2
 1007 718 bf 2 2 1009 718 bf 2 2 1013 718 bf 1 2 1017 718 bf 0.4 0.4 0.4 c 2 1 1007 720 bf 0.7 0.7 0.7 c 2 1 1013 720 bf 2 1 1015 720 bf 1 1 1017 720 bf 2 1 1034 720 bf 0.8 0.78 0.67 c 2 2 1007 721 bf 0.7 0.7 0.7 c 2 2 1009 721 bf 2 2 1011 721 bf 0.4
 0.4 0.4 c 2 2 1015 721 bf 0.7 0.7 0.7 c 2 2 1020 721 bf 0.4 0.4 0.4 c 2 1 1005 723 bf 0.7 0.7 0.7 c 2 1 1007 723 bf 2 1 1011 723 bf 2 1 1013 723 bf 2 1 1020 723 bf 2 1 1024 723 bf 0.4 0.4 0.4 c 2 1 1005 724 bf 0.7 0.7 0.7 c 2 1 1007 724 bf 0.4 0.4
 0.4 c 2 1 1009 724 bf 0.7 0.7 0.7 c 2 1 1015 724 bf 1 1 1017 724 bf 2 2 1005 725 bf 2 2 1007 725 bf 0.4 0.4 0.4 c 2 2 1013 725 bf 0.7 0.7 0.7 c 2 2 1015 725 bf 2 2 1028 725 bf 2 1 1005 727 bf 2 1 1007 727 bf 2 1 1011 727 bf 0.4 0.4 0.4 c 2 1 1015
 727 bf 1 1 1017 727 bf 0.7 0.7 0.7 c 2 1 1018 727 bf 2 1 1020 727 bf 2 2 1007 728 bf 2 2 1009 728 bf 0.4 0.4 0.4 c 2 2 1011 728 bf 0.7 0.7 0.7 c 2 2 1013 728 bf 2 2 1018 728 bf 2 2 1020 728 bf 0.4 0.4 0.4 c 2 1 1005 730 bf 2 1 1007 730 bf 2 1 1013
 730 bf 0.7 0.7 0.7 c 2 1 1015 730 bf 0.8 0.78 0.67 c 2 1 1020 730 bf 0.7 0.7 0.7 c 2 1 1026 730 bf 2 2 1005 731 bf 0.4 0.4 0.4 c 2 2 1007 731 bf 0.8 0.78 0.67 c 2 2 1009 731 bf 0.7 0.7 0.7 c 2 2 1013 731 bf 2 2 1024 731 bf 0.4 0.4 0.4 c 2 1 1007 733
 bf 0.7 0.7 0.7 c 2 1 1009 733 bf 2 1 1013 733 bf 2 1 1015 733 bf 1 1 1017 733 bf 0.4 0.4 0.4 c 2 1 1020 733 bf 2 1 1022 733 bf 0.7 0.7 0.7 c 2 1 1005 734 bf 2 1 1011 734 bf 2 1 1018 734 bf 2 2 1005 735 bf 0.4 0.4 0.4 c 2 2 1007 735 bf 0.7 0.7 0.7 c
 2 2 1009 735 bf 0.4 0.4 0.4 c 2 2 1013 735 bf 0.73 0.71 0.64 c 2 1 1003 737 bf 0.7 0.7 0.7 c 2 1 1007 737 bf 2 1 1009 737 bf 2 1 1013 737 bf 2 1 1020 737 bf 0.4 0.4 0.4 c 2 2 1011 738 bf 0.7 0.7 0.7 c 2 2 1013 738 bf 2 2 1015 738 bf 1 2 1017 738 bf
 2 2 1024 738 bf 0.4 0.4 0.4 c 2 1 1005 740 bf 0.7 0.7 0.7 c 1 1 1017 740 bf 2 1 1020 740 bf 2 1 1026 740 bf 2 2 1003 741 bf 2 2 1007 741 bf 2 2 1009 741 bf 0.4 0.4 0.4 c 2 2 1020 741 bf 0.7 0.7 0.7 c 2 2 1028 741 bf 1 2 1040 741 bf 2 1 1003 743 bf 2
 1 1007 743 bf 1 1 1017 743 bf 0.4 0.4 0.4 c 2 1 1003 744 bf 0.7 0.7 0.7 c 2 1 1005 744 bf 0.4 0.4 0.4 c 2 1 1009 744 bf 0.7 0.7 0.7 c 2 1 1020 744 bf 2 1 1028 744 bf 2 2 1007 745 bf 0.8 0.78 0.67 c 2 2 1011 745 bf 0.7 0.7 0.7 c 2 2 1015 745 bf 2 2
 1018 745 bf 2 2 1020 745 bf 2 2 1030 745 bf 2 1 1005 747 bf 0.8 0.78 0.67 c 2 1 1007 747 bf 0.7 0.7 0.7 c 2 1 1011 747 bf 2 1 1026 747 bf 2 2 1007 748 bf 0.4 0.4 0.4 c 2 1 1007 750 bf 0.7 0.7 0.7 c 2 1 1009 750 bf 2 1 1020 750 bf 2 1 1026 750 bf 2 1
 1005 751 bf 2 1 1007 751 bf 2 2 1032 752 bf 2 1 1005 754 bf 2 1 1007 754 bf 0.4 0.4 0.4 c 2 1 1020 754 bf 0.7 0.7 0.7 c 2 2 1015 755 bf 1 2 1017 755 bf 2 1 1005 757 bf 0.8 0.78 0.67 c 2 2 1007 758 bf 0.7 0.7 0.7 c 2 2 1015 758 bf 2 2 1020 758 bf 2 1
 1003 760 bf 2 1 1007 760 bf 0.4 0.4 0.4 c 2 1 1009 760 bf 0.7 0.7 0.7 c 2 1 1015 760 bf 2 1 1005 761 bf 2 1 1007 761 bf 2 1 1013 761 bf 2 1 1020 761 bf 2 1 1022 761 bf 2 1 1024 761 bf 2 2 1018 762 bf 2 1 1011 764 bf 2 1 1013 764 bf 2 1 1022 764 bf 2
 2 1007 765 bf 1 2 1017 765 bf 2 2 1028 765 bf 2 1 1013 767 bf 2 1 1020 767 bf 2 1 1036 767 bf 2 2 1005 768 bf 2 2 1011 768 bf 2 2 1015 768 bf 2 1 1005 770 bf 2 1 1011 770 bf 2 1 1015 770 bf 2 1 1011 771 bf 1 1 1017 771 bf 2 1 1018 771 bf 2 1 1020
 771 bf 2 2 1001 772 bf 2 2 1013 772 bf 2 2 1015 772 bf 2 2 1018 772 bf 2 1 1001 774 bf 2 1 1005 774 bf 0.4 0.4 0.4 c 2 1 1011 774 bf 0.7 0.7 0.7 c 2 1 1018 774 bf 2 1 1005 777 bf 2 1 1011 777 bf 2 1 1015 777 bf 2 2 1009 778 bf 2 2 1013 778 bf 2 2
 1018 778 bf 2 2 1034 778 bf 2 1 1005 780 bf 2 1 1013 780 bf 1 1 1017 780 bf 2 1 1007 781 bf 0.8 0.78 0.67 c 2 1 1013 781 bf 0.7 0.7 0.7 c 1 1 1017 781 bf 2 2 1007 782 bf 2 2 1009 782 bf 2 2 1011 782 bf 2 2 1022 782 bf 2 1 1001 784 bf 2 1 1005 784 bf
 2 1 1007 784 bf 2 1 1053 784 bf 2 2 1005 785 bf 2 2 1011 785 bf 0.4 0.4 0.4 c 2 1 1007 787 bf 0.7 0.7 0.7 c 2 1 1013 787 bf 1 1 1017 787 bf 2 2 1007 789 bf 2 2 1013 789 bf 2 1 1005 791 bf 2 1 1011 791 bf 2 1 1022 791 bf 2 1 1003 794 bf 2 1 1020 794
 bf 2 2 1003 795 bf 2 2 1011 795 bf 2 2 1020 795 bf 2 1 1015 797 bf 2 1 1013 798 bf 2 1 1015 798 bf 2 1 1018 798 bf 2 1 1038 798 bf 2 2 1007 802 bf 2 1 1003 804 bf 2 1 1009 804 bf 2 2 1018 805 bf 2 1 1013 807 bf 2 1 1018 807 bf 2 1 1005 808 bf 2 2
 1003 809 bf 0.4 0.4 0.4 c 2 2 1015 809 bf 0.7 0.7 0.7 c 2 1 1007 811 bf 2 1 1013 811 bf 0.4 0.4 0.4 c 2 1 1015 811 bf 0.7 0.7 0.7 c 2 2 1007 812 bf 2 2 1011 815 bf 2 2 1032 815 bf 1 1 1017 817 bf 2 1 1005 818 bf 2 1 1007 818 bf 1 1 1017 818 bf 0.4
 0.4 0.4 c 2 1 1007 824 bf 2 1 1011 824 bf 0.7 0.7 0.7 c 2 1 1007 825 bf 2 1 1026 825 bf 2 2 1022 826 bf 0.4 0.4 0.4 c 2 1 1015 828 bf 0.7 0.7 0.7 c 2 1 1018 828 bf 2 2 1034 829 bf 2 2 1005 832 bf 2 1 1030 834 bf 2 2 1007 839 bf 2 1 1011 841 bf 2 1
 1020 841 bf 2 2 1011 842 bf 2 1 1018 844 bf 2 2 1005 846 bf 2 2 1024 846 bf 1 2 1040 846 bf 2 2 1005 849 bf 2 2 1007 849 bf 2 2 1013 849 bf 2 2 1015 849 bf 2 2 1009 852 bf 2 1 1001 854 bf 2 1 1007 854 bf 2 1 1009 855 bf 2 2 1007 856 bf 2 1 1009 858
 bf 0.4 0.4 0.4 c 2 2 1007 859 bf 0.7 0.7 0.7 c 2 2 1015 859 bf 2 1 1007 865 bf 2 2 1005 866 bf 2 1 1009 868 bf 2 1 1011 868 bf 2 1 1032 868 bf 2 2 1005 869 bf 2 2 1007 869 bf 1 1 1017 871 bf 2 1 1009 872 bf 2 1 1011 872 bf 0.4 0.4 0.4 c 2 2 1011 873
 bf 0.7 0.7 0.7 c 2 2 1009 876 bf 2 2 1011 876 bf 2 1 1011 878 bf 2 2 1018 879 bf 2 1 1007 881 bf 2 1 1034 882 bf 2 1 1007 895 bf 2 2 1022 896 bf 0.4 0.4 0.4 c 2 2 1005 900 bf 0.7 0.7 0.7 c 2 2 1011 906 bf 2 1 1022 909 bf 2 1 1015 922 bf 2 1 1009 935
 bf 1 1 1017 935 bf 2 1 1009 936 bf 2 1 1013 945 bf 2 1 1013 946 bf 2 2 1030 947 bf 2 1 1005 959 bf 2 1 1003 973 bf 2 1 1024 986 bf 2 1 1005 1100 bf 0.49 0.6 0.82 c black 871 681 m 576 X s
 gsave  710 565 779 600 C 1150.91 610.976 t 0 r /Helvetica findfont 28.5208 sf 0 0 m (B_PVFit_chi2_div_ndof		) show NC gr  916 695 m -14 Y s 932 688 m -7 Y s 949 688 m -7 Y s 966 688 m -7 Y s 982 688 m -7 Y s 999 695 m -14 Y s 1016 688 m -7 Y s 1033
 688 m -7 Y s 1049 688 m -7 Y s 1066 688 m -7 Y s 1083 695 m -14 Y s 1099 688 m -7 Y s 1116 688 m -7 Y s 1133 688 m -7 Y s 1149 688 m -7 Y s 1166 695 m -14 Y s 1183 688 m -7 Y s 1199 688 m -7 Y s 1216 688 m -7 Y s 1233 688 m -7 Y s 1249 695 m -14 Y s
 1266 688 m -7 Y s 1283 688 m -7 Y s 1299 688 m -7 Y s 1316 688 m -7 Y s 1333 695 m -14 Y s 1349 688 m -7 Y s 1366 688 m -7 Y s 1383 688 m -7 Y s 1399 688 m -7 Y s 1416 695 m -14 Y s 916 695 m -14 Y s 899 688 m -7 Y s 882 688 m -7 Y s 1416 695 m -14
 Y s 1433 688 m -7 Y s
 gsave  710 565 779 600 C 906.518 653.603 t 0 r /Helvetica findfont 25.6688 sf 0 0 m (10) show NC gr 
 gsave  710 565 779 600 C 892.31 653.603 t 0 r /Symbol findfont 25.6688 sf 0 0 m (-) show NC gr 
 gsave  710 565 779 600 C 988.929 653.603 t 0 r /Helvetica findfont 25.6688 sf 0 0 m (0) show NC gr 
 gsave  710 565 779 600 C 1065.66 653.603 t 0 r /Helvetica findfont 25.6688 sf 0 0 m (10) show NC gr 
 gsave  710 565 779 600 C 1150.91 653.603 t 0 r /Helvetica findfont 25.6688 sf 0 0 m (20) show NC gr 
 gsave  710 565 779 600 C 1233.32 653.603 t 0 r /Helvetica findfont 25.6688 sf 0 0 m (30) show NC gr 
 gsave  710 565 779 600 C 1315.73 653.603 t 0 r /Helvetica findfont 25.6688 sf 0 0 m (40) show NC gr 
 gsave  710 565 779 600 C 1400.98 653.603 t 0 r /Helvetica findfont 25.6688 sf 0 0 m (50) show NC gr  871 1108 m 576 X s 916 1095 m 13 Y s 932 1101 m 7 Y s 949 1101 m 7 Y s 966 1101 m 7 Y s 982 1101 m 7 Y s 999 1095 m 13 Y s 1016 1101 m 7 Y s 1033
 1101 m 7 Y s 1049 1101 m 7 Y s 1066 1101 m 7 Y s 1083 1095 m 13 Y s 1099 1101 m 7 Y s 1116 1101 m 7 Y s 1133 1101 m 7 Y s 1149 1101 m 7 Y s 1166 1095 m 13 Y s 1183 1101 m 7 Y s 1199 1101 m 7 Y s 1216 1101 m 7 Y s 1233 1101 m 7 Y s 1249 1095 m 13 Y s
 1266 1101 m 7 Y s 1283 1101 m 7 Y s 1299 1101 m 7 Y s 1316 1101 m 7 Y s 1333 1095 m 13 Y s 1349 1101 m 7 Y s 1366 1101 m 7 Y s 1383 1101 m 7 Y s 1399 1101 m 7 Y s 1416 1095 m 13 Y s 916 1095 m 13 Y s 899 1101 m 7 Y s 882 1101 m 7 Y s 1416 1095 m 13
 Y s 1433 1101 m 7 Y s 871 681 m 427 Y s
 gsave  710 565 779 600 C 807.057 798.532 t 90 r /Helvetica findfont 28.5208 sf 0 0 m (KSdau_Min_IPCHI2_PV			) show NC gr  887 757 m -16 X s 879 776 m -8 X s 879 795 m -8 X s 879 814 m -8 X s 887 833 m -16 X s 879 852 m -8 X s 879 871 m -8 X s 879
 890 m -8 X s 887 909 m -16 X s 879 928 m -8 X s 879 947 m -8 X s 879 966 m -8 X s 887 985 m -16 X s 879 1004 m -8 X s 879 1023 m -8 X s 879 1042 m -8 X s 887 1061 m -16 X s 887 757 m -16 X s 879 738 m -8 X s 879 719 m -8 X s 879 700 m -8 X s 887
 1061 m -16 X s 879 1080 m -8 X s 879 1100 m -8 X s
 gsave  710 565 779 600 C 804.215 747.38 t 0 r /Helvetica findfont 25.6688 sf 0 0 m (2000) show NC gr 
 gsave  710 565 779 600 C 804.215 824.108 t 0 r /Helvetica findfont 25.6688 sf 0 0 m (4000) show NC gr 
 gsave  710 565 779 600 C 804.215 897.993 t 0 r /Helvetica findfont 25.6688 sf 0 0 m (6000) show NC gr 
 gsave  710 565 779 600 C 804.215 974.72 t 0 r /Helvetica findfont 25.6688 sf 0 0 m (8000) show NC gr 
 gsave  710 565 779 600 C 790.007 1051.45 t 0 r /Helvetica findfont 25.6688 sf 0 0 m (10000) show NC gr  1447 681 m 427 Y s 1430 757 m 17 X s 1438 776 m 9 X s 1438 795 m 9 X s 1438 814 m 9 X s 1430 833 m 17 X s 1438 852 m 9 X s 1438 871 m 9 X s 1438
 890 m 9 X s 1430 909 m 17 X s 1438 928 m 9 X s 1438 947 m 9 X s 1438 966 m 9 X s 1430 985 m 17 X s 1438 1004 m 9 X s 1438 1023 m 9 X s 1438 1042 m 9 X s 1430 1061 m 17 X s 1430 757 m 17 X s 1438 738 m 9 X s 1438 719 m 9 X s 1438 700 m 9 X s 1430
 1061 m 17 X s 1438 1080 m 9 X s 1438 1100 m 9 X s 6 lw 0.81 0.37 0.38 c black 1007 734 m 3 Y s 1007 737 m 3 Y s 1000 737 m 7 X s 1007 737 m 8 X s 1002 734 m 11 X s 1002 740 m 11 X s 1000 732 m 11 Y s 1015 732 m 11 Y s 3 lw 1007 737 m20 6 lw 1022 734
 m 3 Y s 1022 737 m 4 Y s 1015 737 m 7 X s 1022 737 m 7 X s 1016 734 m 12 X s 1016 741 m 12 X s 1015 732 m 11 Y s 1029 732 m 11 Y s 3 lw 1022 737 m20 6 lw 1036 746 m 13 Y s 1036 759 m 13 Y s 1029 759 m 7 X s 1036 759 m 7 X s 1031 746 m 11 X s 1031
 772 m 11 X s 1029 753 m 11 Y s 1043 753 m 11 Y s 3 lw 1036 759 m20 6 lw 1043 785 m 8 X s 1051 785 m 7 X s 1043 779 m 12 Y s 1058 779 m 12 Y s 3 lw 1051 785 m20 6 lw 1101 693 m 7 X s 1108 693 m 7 X s 1101 687 m 11 Y s 1115 687 m 11 Y s 3 lw 1108 693
 m20 6 lw 1115 709 m 8 X s 1123 709 m 7 X s 1115 704 m 11 Y s 1130 704 m 11 Y s 3 lw 1123 709 m20 6 lw 3 lw 871 681 m 576 X s 916 695 m -14 Y s 932 688 m -7 Y s 949 688 m -7 Y s 966 688 m -7 Y s 982 688 m -7 Y s 999 695 m -14 Y s 1016 688 m -7 Y s
 1033 688 m -7 Y s 1049 688 m -7 Y s 1066 688 m -7 Y s 1083 695 m -14 Y s 1099 688 m -7 Y s 1116 688 m -7 Y s 1133 688 m -7 Y s 1149 688 m -7 Y s 1166 695 m -14 Y s 1183 688 m -7 Y s 1199 688 m -7 Y s 1216 688 m -7 Y s 1233 688 m -7 Y s 1249 695 m
 -14 Y s 1266 688 m -7 Y s 1283 688 m -7 Y s 1299 688 m -7 Y s 1316 688 m -7 Y s 1333 695 m -14 Y s 1349 688 m -7 Y s 1366 688 m -7 Y s 1383 688 m -7 Y s 1399 688 m -7 Y s 1416 695 m -14 Y s 916 695 m -14 Y s 899 688 m -7 Y s 882 688 m -7 Y s 1416
 695 m -14 Y s 1433 688 m -7 Y s 871 1108 m 576 X s 916 1095 m 13 Y s 932 1101 m 7 Y s 949 1101 m 7 Y s 966 1101 m 7 Y s 982 1101 m 7 Y s 999 1095 m 13 Y s 1016 1101 m 7 Y s 1033 1101 m 7 Y s 1049 1101 m 7 Y s 1066 1101 m 7 Y s 1083 1095 m 13 Y s
 1099 1101 m 7 Y s 1116 1101 m 7 Y s 1133 1101 m 7 Y s 1149 1101 m 7 Y s 1166 1095 m 13 Y s 1183 1101 m 7 Y s 1199 1101 m 7 Y s 1216 1101 m 7 Y s 1233 1101 m 7 Y s 1249 1095 m 13 Y s 1266 1101 m 7 Y s 1283 1101 m 7 Y s 1299 1101 m 7 Y s 1316 1101 m 7
 Y s 1333 1095 m 13 Y s 1349 1101 m 7 Y s 1366 1101 m 7 Y s 1383 1101 m 7 Y s 1399 1101 m 7 Y s 1416 1095 m 13 Y s 916 1095 m 13 Y s 899 1101 m 7 Y s 882 1101 m 7 Y s 1416 1095 m 13 Y s 1433 1101 m 7 Y s 871 681 m 427 Y s 887 757 m -16 X s 879 776 m
 -8 X s 879 795 m -8 X s 879 814 m -8 X s 887 833 m -16 X s 879 852 m -8 X s 879 871 m -8 X s 879 890 m -8 X s 887 909 m -16 X s 879 928 m -8 X s 879 947 m -8 X s 879 966 m -8 X s 887 985 m -16 X s 879 1004 m -8 X s 879 1023 m -8 X s 879 1042 m -8 X
 s 887 1061 m -16 X s 887 757 m -16 X s 879 738 m -8 X s 879 719 m -8 X s 879 700 m -8 X s 887 1061 m -16 X s 879 1080 m -8 X s 879 1100 m -8 X s 1447 681 m 427 Y s 1430 757 m 17 X s 1438 776 m 9 X s 1438 795 m 9 X s 1438 814 m 9 X s 1430 833 m 17 X
 s 1438 852 m 9 X s 1438 871 m 9 X s 1438 890 m 9 X s 1430 909 m 17 X s 1438 928 m 9 X s 1438 947 m 9 X s 1438 966 m 9 X s 1430 985 m 17 X s 1438 1004 m 9 X s 1438 1023 m 9 X s 1438 1042 m 9 X s 1430 1061 m 17 X s 1430 757 m 17 X s 1438 738 m 9 X s
 1438 719 m 9 X s 1438 700 m 9 X s 1430 1061 m 17 X s 1438 1080 m 9 X s 1438 1100 m 9 X s 0.490196 0.545098 0.615686 c 0.364706 0.419608 0.490196 c 497 38 786 1124 bf 0.490196 0.545098 0.615686 c 786 1124 m 497 X s 1283 1124 m 38 Y s 1283 1162 m -497
 X s 786 1162 m -38 Y s 1 1 1 c black 1 1 1 c
 gsave  710 565 779 600 C 807.057 1139.54 t 0 r /Helvetica-Bold findfont 14.2604 sf 0 0 m (KSdau_Min_IPCHI2_PV			 versus B_PVFit_chi2_div_ndof		 \(Signal\)_Id) show NC gr  0.490196 0.545098 0.615686 c 1 1 1 c 711 565 1534 600 bf black 1 1 1 c 575 427
 1627 681 bf black 575 427 1627 681 bl 1 1 1 c 575 427 1627 681 bf black 575 427 1627 681 bl 0.49 0.6 0.82 c 0.8 0.8 0.8 c 2 2 1761 681 bf 2 2 1763 681 bf 0.5 0.5 0.5 c 2 2 1765 681 bf 0.8 0.8 0.8 c 2 2 1769 681 bf 0.754 0.715 0.676 c 2 2 1772 681 bf
 0.8 0.8 0.8 c 2 2 1774 681 bf 2 2 1776 681 bf 0.5 0.5 0.5 c 2 1 1759 683 bf 2 1 1761 683 bf 0.754 0.715 0.676 c 2 1 1763 683 bf 0.8 0.78 0.67 c 2 1 1765 683 bf 0.7 0.65 0.59 c 2 1 1767 683 bf 0.5 0.5 0.5 c 2 1 1769 683 bf 0.8 0.8 0.8 c 1 1 1771 683
 bf 0.5 0.5 0.5 c 2 1 1772 683 bf 0.8 0.8 0.8 c 2 1 1774 683 bf 0.5 0.5 0.5 c 2 2 1759 684 bf 2 2 1761 684 bf 2 2 1763 684 bf 0.8 0.78 0.67 c 2 2 1765 684 bf 0.61 0.56 0.51 c 2 2 1767 684 bf 0.8 0.8 0.8 c 1 2 1771 684 bf 2 2 1772 684 bf 2 2 1776 684
 bf 2 2 1778 684 bf 2 2 1782 684 bf 0.5 0.5 0.5 c 2 2 1784 684 bf 0.7 0.65 0.59 c 2 1 1759 686 bf 0.8 0.78 0.67 c 2 1 1761 686 bf 0.8 0.8 0.8 c 2 1 1763 686 bf 0.754 0.715 0.676 c 2 1 1765 686 bf 2 1 1767 686 bf 0.8 0.78 0.67 c 2 1 1769 686 bf 0.5
 0.5 0.5 c 1 1 1771 686 bf 0.8 0.8 0.8 c 2 1 1782 686 bf 2 1 1863 686 bf 2 1 1759 687 bf 0.5 0.5 0.5 c 2 1 1761 687 bf 0.754 0.715 0.676 c 2 1 1763 687 bf 0.61 0.56 0.51 c 2 1 1765 687 bf 0.5 0.5 0.5 c 2 1 1767 687 bf 0.754 0.715 0.676 c 2 1 1769 687
 bf 0.8 0.8 0.8 c 1 1 1771 687 bf 2 1 1774 687 bf 2 1 1776 687 bf 2 2 1757 688 bf 0.5 0.5 0.5 c 2 2 1759 688 bf 2 2 1763 688 bf 0.8 0.78 0.67 c 2 2 1765 688 bf 2 2 1769 688 bf 0.8 0.8 0.8 c 2 2 1772 688 bf 2 2 1774 688 bf 2 2 1776 688 bf 0.5 0.5 0.5
 c 2 2 1778 688 bf 2 2 1780 688 bf 0.8 0.8 0.8 c 2 2 1782 688 bf 2 2 1788 688 bf 2 1 1757 690 bf 2 1 1759 690 bf 0.5 0.5 0.5 c 2 1 1761 690 bf 0.8 0.8 0.8 c 2 1 1763 690 bf 0.754 0.715 0.676 c 2 1 1765 690 bf 2 1 1767 690 bf 0.8 0.8 0.8 c 2 1 1769
 690 bf 1 1 1771 690 bf 0.5 0.5 0.5 c 2 1 1772 690 bf 0.8 0.8 0.8 c 2 1 1774 690 bf 2 1 1776 690 bf 2 1 1784 690 bf 2 2 1757 691 bf 0.8 0.78 0.67 c 2 2 1759 691 bf 0.754 0.715 0.676 c 2 2 1761 691 bf 0.5 0.5 0.5 c 2 2 1763 691 bf 0.8 0.8 0.8 c 2 2
 1765 691 bf 0.7 0.65 0.59 c 2 2 1767 691 bf 0.5 0.5 0.5 c 2 2 1769 691 bf 0.8 0.8 0.8 c 1 2 1771 691 bf 2 2 1774 691 bf 0.5 0.5 0.5 c 2 2 1776 691 bf 0.8 0.8 0.8 c 2 2 1778 691 bf 2 2 1780 691 bf 2 1 1759 693 bf 2 1 1761 693 bf 2 1 1763 693 bf 2 1
 1767 693 bf 0.5 0.5 0.5 c 1 1 1771 693 bf 0.8 0.8 0.8 c 2 1 1774 693 bf 0.754 0.715 0.676 c 2 1 1776 693 bf 0.8 0.8 0.8 c 2 1 1782 693 bf 2 1 1784 693 bf 2 1 1790 693 bf 0.5 0.5 0.5 c 2 2 1761 694 bf 0.53 0.4 0.34 c 2 2 1763 694 bf 0.754 0.715 0.676
 c 2 2 1765 694 bf 0.5 0.5 0.5 c 2 2 1767 694 bf 0.754 0.715 0.676 c 2 2 1769 694 bf 0.8 0.8 0.8 c 2 2 1772 694 bf 2 2 1776 694 bf 0.5 0.5 0.5 c 2 2 1780 694 bf 2 2 1790 694 bf 2 1 1761 696 bf 0.53 0.4 0.34 c 2 1 1763 696 bf 0.8 0.8 0.8 c 2 1 1765
 696 bf 0.754 0.715 0.676 c 2 1 1767 696 bf 0.7 0.65 0.59 c 2 1 1769 696 bf 0.754 0.715 0.676 c 1 1 1771 696 bf 0.8 0.8 0.8 c 2 1 1772 696 bf 2 1 1776 696 bf 2 1 1784 696 bf 1 1 1794 696 bf 0.7 0.65 0.59 c 2 1 1761 697 bf 2 1 1763 697 bf 0.8 0.8 0.8
 c 2 1 1765 697 bf 2 1 1767 697 bf 0.5 0.5 0.5 c 1 1 1771 697 bf 0.8 0.8 0.8 c 2 1 1772 697 bf 2 1 1774 697 bf 2 1 1776 697 bf 2 1 1778 697 bf 2 2 1757 698 bf 0.754 0.715 0.676 c 2 2 1759 698 bf 0.8 0.78 0.67 c 2 2 1761 698 bf 0.754 0.715 0.676 c 2 2
 1763 698 bf 2 2 1765 698 bf 0.8 0.8 0.8 c 2 2 1767 698 bf 0.8 0.78 0.67 c 2 2 1769 698 bf 0.754 0.715 0.676 c 1 2 1771 698 bf 0.5 0.5 0.5 c 2 2 1772 698 bf 0.8 0.8 0.8 c 2 2 1774 698 bf 0.5 0.5 0.5 c 2 2 1780 698 bf 0.8 0.78 0.67 c 2 1 1761 700 bf
 0.754 0.715 0.676 c 2 1 1763 700 bf 2 1 1765 700 bf 0.5 0.5 0.5 c 2 1 1767 700 bf 0.754 0.715 0.676 c 2 1 1769 700 bf 0.8 0.8 0.8 c 1 1 1771 700 bf 2 1 1774 700 bf 0.5 0.5 0.5 c 2 1 1776 700 bf 0.8 0.8 0.8 c 2 1 1784 700 bf 2 1 1795 700 bf 2 2 1759
 701 bf 0.61 0.56 0.51 c 2 2 1761 701 bf 0.5 0.5 0.5 c 2 2 1763 701 bf 0.754 0.715 0.676 c 2 2 1765 701 bf 0.8 0.78 0.67 c 2 2 1767 701 bf 0.7 0.65 0.59 c 2 2 1769 701 bf 0.8 0.8 0.8 c 1 2 1771 701 bf 0.754 0.715 0.676 c 2 2 1772 701 bf 0.8 0.8 0.8 c
 2 2 1774 701 bf 2 2 1776 701 bf 2 1 1763 703 bf 0.5 0.5 0.5 c 2 1 1765 703 bf 2 1 1769 703 bf 2 1 1772 703 bf 0.8 0.8 0.8 c 2 1 1774 703 bf 2 1 1778 703 bf 2 1 1784 703 bf 2 2 1761 704 bf 0.8 0.78 0.67 c 2 2 1763 704 bf 0.5 0.5 0.5 c 2 2 1765 704 bf
 0.754 0.715 0.676 c 2 2 1769 704 bf 0.8 0.8 0.8 c 1 2 1771 704 bf 2 2 1774 704 bf 2 2 1776 704 bf 2 2 1780 704 bf 2 1 1757 706 bf 2 1 1761 706 bf 2 1 1763 706 bf 0.61 0.56 0.51 c 2 1 1767 706 bf 0.8 0.8 0.8 c 1 1 1771 706 bf 2 1 1772 706 bf 0.8 0.78
 0.67 c 2 1 1776 706 bf 0.8 0.8 0.8 c 2 1 1782 706 bf 2 1 1788 706 bf 0.5 0.5 0.5 c 2 1 1761 707 bf 0.8 0.78 0.67 c 2 1 1763 707 bf 0.754 0.715 0.676 c 2 1 1765 707 bf 0.5 0.5 0.5 c 2 1 1767 707 bf 2 1 1769 707 bf 0.8 0.8 0.8 c 1 1 1771 707 bf 0.5
 0.5 0.5 c 2 1 1772 707 bf 2 1 1776 707 bf 0.8 0.8 0.8 c 2 1 1780 707 bf 2 1 1790 707 bf 0.5 0.5 0.5 c 2 2 1759 708 bf 0.8 0.8 0.8 c 2 2 1761 708 bf 0.754 0.715 0.676 c 2 2 1763 708 bf 0.5 0.5 0.5 c 2 2 1765 708 bf 0.8 0.8 0.8 c 2 2 1769 708 bf 0.5
 0.5 0.5 c 1 2 1771 708 bf 2 2 1772 708 bf 0.8 0.8 0.8 c 2 2 1776 708 bf 2 2 1784 708 bf 0.754 0.715 0.676 c 2 1 1759 710 bf 0.8 0.8 0.8 c 2 1 1761 710 bf 2 1 1763 710 bf 0.754 0.715 0.676 c 2 1 1767 710 bf 0.8 0.8 0.8 c 2 1 1769 710 bf 0.754 0.715
 0.676 c 1 1 1771 710 bf 0.8 0.8 0.8 c 2 1 1772 710 bf 2 1 1774 710 bf 2 1 1776 710 bf 0.5 0.5 0.5 c 2 2 1759 711 bf 2 2 1761 711 bf 2 2 1763 711 bf 0.8 0.8 0.8 c 2 2 1765 711 bf 2 2 1767 711 bf 2 2 1769 711 bf 2 2 1774 711 bf 2 2 1782 711 bf 0.5 0.5
 0.5 c 2 1 1761 713 bf 0.8 0.8 0.8 c 2 1 1763 713 bf 0.754 0.715 0.676 c 2 1 1765 713 bf 2 1 1767 713 bf 0.8 0.8 0.8 c 2 1 1769 713 bf 2 1 1761 714 bf 0.5 0.5 0.5 c 2 1 1763 714 bf 0.8 0.8 0.8 c 2 1 1769 714 bf 0.754 0.715 0.676 c 1 1 1771 714 bf 0.8
 0.8 0.8 c 2 1 1772 714 bf 2 1 1776 714 bf 2 2 1757 715 bf 2 2 1759 715 bf 0.5 0.5 0.5 c 2 2 1761 715 bf 2 2 1763 715 bf 0.8 0.8 0.8 c 2 2 1765 715 bf 2 2 1767 715 bf 1 2 1771 715 bf 2 2 1772 715 bf 2 2 1774 715 bf 2 2 1795 715 bf 0.5 0.5 0.5 c 2 1
 1761 717 bf 2 1 1763 717 bf 0.8 0.8 0.8 c 2 1 1765 717 bf 0.754 0.715 0.676 c 2 1 1767 717 bf 1 1 1771 717 bf 0.8 0.8 0.8 c 2 1 1772 717 bf 2 1 1774 717 bf 2 1 1776 717 bf 2 1 1778 717 bf 0.5 0.5 0.5 c 2 2 1763 718 bf 0.754 0.715 0.676 c 2 2 1765
 718 bf 2 2 1767 718 bf 0.8 0.8 0.8 c 1 2 1771 718 bf 0.754 0.715 0.676 c 2 2 1776 718 bf 0.8 0.8 0.8 c 2 2 1778 718 bf 2 1 1757 720 bf 2 1 1765 720 bf 2 1 1767 720 bf 2 1 1769 720 bf 1 1 1771 720 bf 2 1 1776 720 bf 2 2 1757 721 bf 0.5 0.5 0.5 c 2 2
 1761 721 bf 0.754 0.715 0.676 c 2 2 1763 721 bf 2 2 1765 721 bf 0.5 0.5 0.5 c 2 2 1767 721 bf 1 2 1771 721 bf 0.8 0.8 0.8 c 2 1 1761 723 bf 0.5 0.5 0.5 c 2 1 1763 723 bf 2 1 1765 723 bf 1 1 1771 723 bf 0.8 0.8 0.8 c 2 1 1772 723 bf 0.5 0.5 0.5 c 2 1
 1782 723 bf 0.8 0.8 0.8 c 1 1 1794 723 bf 2 1 1759 724 bf 2 1 1765 724 bf 2 1 1767 724 bf 0.754 0.715 0.676 c 2 1 1772 724 bf 0.8 0.8 0.8 c 2 1 1774 724 bf 0.5 0.5 0.5 c 2 2 1763 725 bf 0.8 0.8 0.8 c 2 2 1765 725 bf 2 2 1767 725 bf 2 2 1769 725 bf
 0.5 0.5 0.5 c 1 2 1771 725 bf 0.8 0.8 0.8 c 2 2 1774 725 bf 2 2 1778 725 bf 2 2 1786 725 bf 0.5 0.5 0.5 c 2 1 1761 727 bf 0.754 0.715 0.676 c 2 1 1763 727 bf 0.5 0.5 0.5 c 1 1 1771 727 bf 0.8 0.8 0.8 c 2 2 1761 728 bf 0.754 0.715 0.676 c 2 2 1763
 728 bf 0.8 0.8 0.8 c 2 2 1767 728 bf 2 2 1772 728 bf 2 2 1790 728 bf 2 1 1757 730 bf 2 1 1763 730 bf 0.754 0.715 0.676 c 2 1 1765 730 bf 0.5 0.5 0.5 c 2 1 1767 730 bf 2 1 1769 730 bf 0.8 0.8 0.8 c 2 1 1774 730 bf 2 1 1780 730 bf 2 2 1761 731 bf 0.5
 0.5 0.5 c 2 2 1763 731 bf 0.8 0.8 0.8 c 2 2 1765 731 bf 0.5 0.5 0.5 c 2 2 1767 731 bf 0.8 0.8 0.8 c 1 2 1771 731 bf 2 2 1788 731 bf 2 2 1809 731 bf 2 1 1763 733 bf 1 1 1771 733 bf 2 1 1772 733 bf 2 1 1776 733 bf 2 1 1788 733 bf 2 1 1761 734 bf 2 1
 1763 734 bf 2 1 1772 734 bf 0.5 0.5 0.5 c 2 1 1774 734 bf 0.8 0.8 0.8 c 2 2 1767 735 bf 2 2 1774 735 bf 2 2 1784 735 bf 2 1 1763 737 bf 2 1 1767 737 bf 2 1 1772 737 bf 2 1 1795 737 bf 0.5 0.5 0.5 c 2 2 1765 738 bf 0.8 0.8 0.8 c 1 2 1771 738 bf 2 2
 1778 738 bf 0.5 0.5 0.5 c 2 1 1761 740 bf 0.8 0.8 0.8 c 2 1 1763 740 bf 2 1 1765 740 bf 2 1 1767 740 bf 0.5 0.5 0.5 c 2 1 1769 740 bf 0.8 0.8 0.8 c 2 1 1776 740 bf 2 1 1792 740 bf 2 2 1763 741 bf 0.5 0.5 0.5 c 2 2 1767 741 bf 0.8 0.8 0.8 c 2 2 1772
 741 bf 2 2 1774 741 bf 2 2 1797 741 bf 2 1 1761 743 bf 0.5 0.5 0.5 c 2 1 1763 743 bf 0.754 0.715 0.676 c 2 1 1765 743 bf 0.8 0.8 0.8 c 2 1 1767 743 bf 1 1 1771 743 bf 2 1 1774 743 bf 2 1 1778 743 bf 2 1 1763 744 bf 0.5 0.5 0.5 c 2 2 1759 745 bf 0.8
 0.8 0.8 c 2 2 1763 745 bf 2 2 1772 745 bf 0.5 0.5 0.5 c 2 2 1774 745 bf 0.8 0.8 0.8 c 2 1 1761 747 bf 2 1 1776 747 bf 0.5 0.5 0.5 c 2 2 1761 748 bf 0.8 0.8 0.8 c 1 2 1771 748 bf 2 2 1772 748 bf 2 1 1763 750 bf 2 1 1763 751 bf 2 1 1769 751 bf 2 1
 1772 751 bf 2 2 1778 752 bf 1 1 1771 754 bf 2 2 1763 755 bf 2 2 1776 755 bf 2 1 1765 757 bf 2 1 1767 757 bf 1 1 1771 757 bf 2 2 1774 758 bf 2 2 1782 758 bf 2 1 1769 760 bf 2 1 1761 761 bf 2 1 1769 761 bf 2 2 1769 762 bf 2 2 1780 762 bf 2 1 1782 764
 bf 2 2 1767 765 bf 2 2 1774 765 bf 2 2 1780 765 bf 2 2 1763 768 bf 2 2 1769 768 bf 2 2 1786 768 bf 2 1 1761 770 bf 2 1 1763 770 bf 2 1 1759 771 bf 2 2 1761 772 bf 2 1 1761 774 bf 2 2 1765 775 bf 2 2 1763 778 bf 2 2 1765 778 bf 2 2 1769 778 bf 2 2
 1774 778 bf 2 2 1776 778 bf 2 1 1769 780 bf 2 1 1761 781 bf 2 1 1795 781 bf 2 1 1767 784 bf 2 2 1765 785 bf 2 2 1767 785 bf 0.5 0.5 0.5 c 2 2 1769 785 bf 0.8 0.8 0.8 c 2 2 1778 785 bf 2 1 1786 788 bf 2 2 1790 799 bf 2 2 1761 802 bf 2 2 1774 802 bf 2
 1 1790 824 bf 2 2 1788 826 bf 2 1 1765 828 bf 2 1 1782 828 bf 2 2 1778 836 bf 2 2 1763 869 bf 2 1 1769 875 bf 2 2 1790 903 bf 1 1 1771 969 bf 0.49 0.6 0.82 c black 1627 681 m 575 X s
 gsave  711 565 1534 600 C 1906.81 610.976 t 0 r /Helvetica findfont 28.5208 sf 0 0 m (B_PVFit_chi2_div_ndof		) show NC gr  1672 695 m -14 Y s 1688 688 m -7 Y s 1705 688 m -7 Y s 1722 688 m -7 Y s 1738 688 m -7 Y s 1755 695 m -14 Y s 1772 688 m -7 Y
 s 1788 688 m -7 Y s 1805 688 m -7 Y s 1822 688 m -7 Y s 1838 695 m -14 Y s 1855 688 m -7 Y s 1872 688 m -7 Y s 1888 688 m -7 Y s 1905 688 m -7 Y s 1922 695 m -14 Y s 1938 688 m -7 Y s 1955 688 m -7 Y s 1972 688 m -7 Y s 1989 688 m -7 Y s 2005 695 m
 -14 Y s 2022 688 m -7 Y s 2039 688 m -7 Y s 2055 688 m -7 Y s 2072 688 m -7 Y s 2089 695 m -14 Y s 2105 688 m -7 Y s 2122 688 m -7 Y s 2139 688 m -7 Y s 2155 688 m -7 Y s 2172 695 m -14 Y s 1672 695 m -14 Y s 1655 688 m -7 Y s 1638 688 m -7 Y s 2172
 695 m -14 Y s 2189 688 m -7 Y s
 gsave  711 565 1534 600 C 1662.42 653.603 t 0 r /Helvetica findfont 25.6688 sf 0 0 m (10) show NC gr 
 gsave  711 565 1534 600 C 1648.21 653.603 t 0 r /Symbol findfont 25.6688 sf 0 0 m (-) show NC gr 
 gsave  711 565 1534 600 C 1744.83 653.603 t 0 r /Helvetica findfont 25.6688 sf 0 0 m (0) show NC gr 
 gsave  711 565 1534 600 C 1821.56 653.603 t 0 r /Helvetica findfont 25.6688 sf 0 0 m (10) show NC gr 
 gsave  711 565 1534 600 C 1906.81 653.603 t 0 r /Helvetica findfont 25.6688 sf 0 0 m (20) show NC gr 
 gsave  711 565 1534 600 C 1989.22 653.603 t 0 r /Helvetica findfont 25.6688 sf 0 0 m (30) show NC gr 
 gsave  711 565 1534 600 C 2071.64 653.603 t 0 r /Helvetica findfont 25.6688 sf 0 0 m (40) show NC gr 
 gsave  711 565 1534 600 C 2156.89 653.603 t 0 r /Helvetica findfont 25.6688 sf 0 0 m (50) show NC gr  1627 1108 m 575 X s 1672 1095 m 13 Y s 1688 1101 m 7 Y s 1705 1101 m 7 Y s 1722 1101 m 7 Y s 1738 1101 m 7 Y s 1755 1095 m 13 Y s 1772 1101 m 7 Y s
 1788 1101 m 7 Y s 1805 1101 m 7 Y s 1822 1101 m 7 Y s 1838 1095 m 13 Y s 1855 1101 m 7 Y s 1872 1101 m 7 Y s 1888 1101 m 7 Y s 1905 1101 m 7 Y s 1922 1095 m 13 Y s 1938 1101 m 7 Y s 1955 1101 m 7 Y s 1972 1101 m 7 Y s 1989 1101 m 7 Y s 2005 1095 m
 13 Y s 2022 1101 m 7 Y s 2039 1101 m 7 Y s 2055 1101 m 7 Y s 2072 1101 m 7 Y s 2089 1095 m 13 Y s 2105 1101 m 7 Y s 2122 1101 m 7 Y s 2139 1101 m 7 Y s 2155 1101 m 7 Y s 2172 1095 m 13 Y s 1672 1095 m 13 Y s 1655 1101 m 7 Y s 1638 1101 m 7 Y s 2172
 1095 m 13 Y s 2189 1101 m 7 Y s 1627 681 m 427 Y s
 gsave  711 565 1534 600 C 1562.96 792.848 t 90 r /Helvetica findfont 28.5208 sf 0 0 m (KSdau_Max_IPCHI2_PV			) show NC gr  1643 766 m -16 X s 1635 782 m -8 X s 1635 799 m -8 X s 1635 816 m -8 X s 1635 833 m -8 X s 1643 850 m -16 X s 1635 867 m -8 X
 s 1635 883 m -8 X s 1635 900 m -8 X s 1635 917 m -8 X s 1643 934 m -16 X s 1635 951 m -8 X s 1635 968 m -8 X s 1635 985 m -8 X s 1635 1001 m -8 X s 1643 1018 m -16 X s 1635 1035 m -8 X s 1635 1052 m -8 X s 1635 1069 m -8 X s 1635 1086 m -8 X s 1643
 1103 m -16 X s 1643 766 m -16 X s 1635 749 m -8 X s 1635 732 m -8 X s 1635 715 m -8 X s 1635 698 m -8 X s 1643 1103 m -16 X s
 gsave  711 565 1534 600 C 1545.91 755.906 t 0 r /Helvetica findfont 25.6688 sf 0 0 m (10000) show NC gr 
 gsave  711 565 1534 600 C 1545.91 841.158 t 0 r /Helvetica findfont 25.6688 sf 0 0 m (20000) show NC gr 
 gsave  711 565 1534 600 C 1545.91 923.569 t 0 r /Helvetica findfont 25.6688 sf 0 0 m (30000) show NC gr 
 gsave  711 565 1534 600 C 1545.91 1008.82 t 0 r /Helvetica findfont 25.6688 sf 0 0 m (40000) show NC gr 
 gsave  711 565 1534 600 C 1545.91 1091.23 t 0 r /Helvetica findfont 25.6688 sf 0 0 m (50000) show NC gr  2202 681 m 427 Y s 2186 766 m 16 X s 2194 782 m 8 X s 2194 799 m 8 X s 2194 816 m 8 X s 2194 833 m 8 X s 2186 850 m 16 X s 2194 867 m 8 X s 2194
 883 m 8 X s 2194 900 m 8 X s 2194 917 m 8 X s 2186 934 m 16 X s 2194 951 m 8 X s 2194 968 m 8 X s 2194 985 m 8 X s 2194 1001 m 8 X s 2186 1018 m 16 X s 2194 1035 m 8 X s 2194 1052 m 8 X s 2194 1069 m 8 X s 2194 1086 m 8 X s 2186 1103 m 16 X s 2186
 766 m 16 X s 2194 749 m 8 X s 2194 732 m 8 X s 2194 715 m 8 X s 2194 698 m 8 X s 2186 1103 m 16 X s 6 lw 0.81 0.37 0.38 c black 1763 709 m 2 Y s 1763 711 m 1 Y s 1756 711 m 7 X s 1763 711 m 8 X s 1758 709 m 11 X s 1758 712 m 11 X s 1756 705 m 11 Y s
 1771 705 m 11 Y s 3 lw 1763 711 m20 6 lw 1778 713 m 2 Y s 1778 715 m 2 Y s 1771 715 m 7 X s 1778 715 m 7 X s 1772 713 m 11 X s 1772 717 m 11 X s 1771 709 m 12 Y s 1785 709 m 12 Y s 3 lw 1778 715 m20 6 lw 1792 730 m 9 Y s 1792 739 m 10 Y s 1785 739 m
 7 X s 1792 739 m 7 X s 1786 730 m 12 X s 1786 749 m 12 X s 1785 733 m 12 Y s 1799 733 m 12 Y s 3 lw 1792 739 m20 6 lw 1799 732 m 8 X s 1807 732 m 7 X s 1799 727 m 11 Y s 1814 727 m 11 Y s 3 lw 1807 732 m20 6 lw 1857 686 m 7 X s 1864 686 m 7 X s 1857
 680 m 12 Y s 1871 680 m 12 Y s 3 lw 1864 686 m20 6 lw 1871 1103 m 11 Y s 1886 1103 m 11 Y s 3 lw 1879 1108 m20 6 lw 3 lw 1627 681 m 575 X s 1672 695 m -14 Y s 1688 688 m -7 Y s 1705 688 m -7 Y s 1722 688 m -7 Y s 1738 688 m -7 Y s 1755 695 m -14 Y s
 1772 688 m -7 Y s 1788 688 m -7 Y s 1805 688 m -7 Y s 1822 688 m -7 Y s 1838 695 m -14 Y s 1855 688 m -7 Y s 1872 688 m -7 Y s 1888 688 m -7 Y s 1905 688 m -7 Y s 1922 695 m -14 Y s 1938 688 m -7 Y s 1955 688 m -7 Y s 1972 688 m -7 Y s 1989 688 m -7
 Y s 2005 695 m -14 Y s 2022 688 m -7 Y s 2039 688 m -7 Y s 2055 688 m -7 Y s 2072 688 m -7 Y s 2089 695 m -14 Y s 2105 688 m -7 Y s 2122 688 m -7 Y s 2139 688 m -7 Y s 2155 688 m -7 Y s 2172 695 m -14 Y s 1672 695 m -14 Y s 1655 688 m -7 Y s 1638
 688 m -7 Y s 2172 695 m -14 Y s 2189 688 m -7 Y s 1627 1108 m 575 X s 1672 1095 m 13 Y s 1688 1101 m 7 Y s 1705 1101 m 7 Y s 1722 1101 m 7 Y s 1738 1101 m 7 Y s 1755 1095 m 13 Y s 1772 1101 m 7 Y s 1788 1101 m 7 Y s 1805 1101 m 7 Y s 1822 1101 m 7 Y
 s 1838 1095 m 13 Y s 1855 1101 m 7 Y s 1872 1101 m 7 Y s 1888 1101 m 7 Y s 1905 1101 m 7 Y s 1922 1095 m 13 Y s 1938 1101 m 7 Y s 1955 1101 m 7 Y s 1972 1101 m 7 Y s 1989 1101 m 7 Y s 2005 1095 m 13 Y s 2022 1101 m 7 Y s 2039 1101 m 7 Y s 2055 1101
 m 7 Y s 2072 1101 m 7 Y s 2089 1095 m 13 Y s 2105 1101 m 7 Y s 2122 1101 m 7 Y s 2139 1101 m 7 Y s 2155 1101 m 7 Y s 2172 1095 m 13 Y s 1672 1095 m 13 Y s 1655 1101 m 7 Y s 1638 1101 m 7 Y s 2172 1095 m 13 Y s 2189 1101 m 7 Y s 1627 681 m 427 Y s
 1643 766 m -16 X s 1635 782 m -8 X s 1635 799 m -8 X s 1635 816 m -8 X s 1635 833 m -8 X s 1643 850 m -16 X s 1635 867 m -8 X s 1635 883 m -8 X s 1635 900 m -8 X s 1635 917 m -8 X s 1643 934 m -16 X s 1635 951 m -8 X s 1635 968 m -8 X s 1635 985 m
 -8 X s 1635 1001 m -8 X s 1643 1018 m -16 X s 1635 1035 m -8 X s 1635 1052 m -8 X s 1635 1069 m -8 X s 1635 1086 m -8 X s 1643 1103 m -16 X s 1643 766 m -16 X s 1635 749 m -8 X s 1635 732 m -8 X s 1635 715 m -8 X s 1635 698 m -8 X s 1643 1103 m -16
 X s 2202 681 m 427 Y s 2186 766 m 16 X s 2194 782 m 8 X s 2194 799 m 8 X s 2194 816 m 8 X s 2194 833 m 8 X s 2186 850 m 16 X s 2194 867 m 8 X s 2194 883 m 8 X s 2194 900 m 8 X s 2194 917 m 8 X s 2186 934 m 16 X s 2194 951 m 8 X s 2194 968 m 8 X s
 2194 985 m 8 X s 2194 1001 m 8 X s 2186 1018 m 16 X s 2194 1035 m 8 X s 2194 1052 m 8 X s 2194 1069 m 8 X s 2194 1086 m 8 X s 2186 1103 m 16 X s 2186 766 m 16 X s 2194 749 m 8 X s 2194 732 m 8 X s 2194 715 m 8 X s 2194 698 m 8 X s 2186 1103 m 16 X s
 0.490196 0.545098 0.615686 c 0.364706 0.419608 0.490196 c 497 38 1542 1124 bf 0.490196 0.545098 0.615686 c 1542 1124 m 497 X s 2039 1124 m 38 Y s 2039 1162 m -497 X s 1542 1162 m -38 Y s 1 1 1 c black 1 1 1 c
 gsave  711 565 1534 600 C 1562.96 1139.54 t 0 r /Helvetica-Bold findfont 14.2604 sf 0 0 m (KSdau_Max_IPCHI2_PV			 versus B_PVFit_chi2_div_ndof		 \(Signal\)_Id) show NC gr  0.490196 0.545098 0.615686 c 1 1 1 c 710 564 23 12 bf 0.490196 0.545098
 0.615686 c 1 1 1 c 710 564 779 12 bf 0.490196 0.545098 0.615686 c 1 1 1 c 711 564 1534 12 bf
 gr  gr showpage
end
%%EOF
