%!PS-Adobe-2.0 EPSF-2.0
%%BoundingBox:  0 0 567 294
%%Title: DataSet/plots/correlationscatter_B_PVFit_chi2_div_ndof		__Id_c6.eps: Correlation profiles for 'Id'-transformed background variables
%%Creator: ROOT Version 6.08/06
%%CreationDate: Wed Jun  6 12:05:46 2018
%%DocumentNeededResources: ProcSet (FontSetInit)
%%EndComments
%%BeginProlog
80 dict begin
/s {stroke} def /l {lineto} def /m {moveto} def /t {translate} def
/r {rotate} def /rl {roll}  def /R {repeat} def
/d {rlineto} def /rm {rmoveto} def /gr {grestore} def /f {eofill} def
/c {setrgbcolor} def /black {0 setgray} def /sd {setdash} def
/cl {closepath} def /sf {scalefont setfont} def /lw {setlinewidth} def
/box {m dup 0 exch d exch 0 d 0 exch neg d cl} def
/NC{systemdict begin initclip end}def/C{NC box clip newpath}def
/bl {box s} def /bf {gsave box gsave f grestore 1 lw [] 0 sd s grestore} def /Y { 0 exch d} def /X { 0 d} def 
/K {{pop pop 0 moveto} exch kshow} bind def
/ita {/ang 15 def gsave [1 0 ang dup sin exch cos div 1 0 0] concat} def 
/mp {newpath /y exch def /x exch def} def
/side {[w .77 mul w .23 mul] .385 w mul sd w 0 l currentpoint t -144 r} def
/mr {mp x y w2 0 360 arc} def /m24 {mr s} def /m20 {mr f} def
/mb {mp x y w2 add m w2 neg 0 d 0 w neg d w 0 d 0 w d cl} def
/mt {mp x y w2 add m w2 neg w neg d w 0 d cl} def
/m21 {mb f} def /m25 {mb s} def /m22 {mt f} def /m26{mt s} def
/m23 {mp x y w2 sub m w2 w d w neg 0 d cl f} def
/m27 {mp x y w2 add m w3 neg w2 neg d w3 w2 neg d w3 w2 d cl s} def
/m28 {mp x w2 sub y w2 sub w3 add m w3 0 d  0 w3 neg d w3 0 d 0 w3 d w3 0 d  0 w3 d w3 neg 0 d 0 w3 d w3 neg 0 d 0 w3 neg d w3 neg 0 d cl s } def
/m29 {mp gsave x w2 sub y w2 add w3 sub m currentpoint t 4 {side} repeat cl fill gr} def
/m30 {mp gsave x w2 sub y w2 add w3 sub m currentpoint t 4 {side} repeat cl s gr} def
/m31 {mp x y w2 sub m 0 w d x w2 sub y m w 0 d x w2 sub y w2 add m w w neg d x w2 sub y w2 sub m w w d s} def
/m32 {mp x y w2 sub m w2 w d w neg 0 d cl s} def
/m33 {mp x y w2 add m w3 neg w2 neg d w3 w2 neg d w3 w2 d cl f} def
/m34 {mp x w2 sub y w2 sub w3 add m w3 0 d  0 w3 neg d w3 0 d 0 w3 d w3 0 d  0 w3 d w3 neg 0 d 0 w3 d w3 neg 0 d 0 w3 neg d w3 neg 0 d cl f } def
/m2 {mp x y w2 sub m 0 w d x w2 sub y m w 0 d s} def
/m5 {mp x w2 sub y w2 sub m w w d x w2 sub y w2 add m w w neg d s} def
%%IncludeResource: ProcSet (FontSetInit)
%%IncludeResource: font Times-Roman
%%IncludeResource: font Times-Italic
%%IncludeResource: font Times-Bold
%%IncludeResource: font Times-BoldItalic
%%IncludeResource: font Helvetica
%%IncludeResource: font Helvetica-Oblique
%%IncludeResource: font Helvetica-Bold
%%IncludeResource: font Helvetica-BoldOblique
%%IncludeResource: font Courier
%%IncludeResource: font Courier-Oblique
%%IncludeResource: font Courier-Bold
%%IncludeResource: font Courier-BoldOblique
%%IncludeResource: font Symbol
%%IncludeResource: font ZapfDingbats
/reEncode {exch findfont dup length dict begin {1 index /FID eq  {pop pop} {def} ifelse } forall /Encoding exch def currentdict end dup /FontName get exch definefont pop } def [/Times-Bold /Times-Italic /Times-BoldItalic /Helvetica /Helvetica-Oblique
 /Helvetica-Bold /Helvetica-BoldOblique /Courier /Courier-Oblique /Courier-Bold /Courier-BoldOblique /Times-Roman /AvantGarde-Book /AvantGarde-BookOblique /AvantGarde-Demi /AvantGarde-DemiOblique /Bookman-Demi /Bookman-DemiItalic /Bookman-Light
 /Bookman-LightItalic /Helvetica-Narrow /Helvetica-Narrow-Bold /Helvetica-Narrow-BoldOblique /Helvetica-Narrow-Oblique /NewCenturySchlbk-Roman /NewCenturySchlbk-Bold /NewCenturySchlbk-BoldItalic /NewCenturySchlbk-Italic /Palatino-Bold
 /Palatino-BoldItalic /Palatino-Italic /Palatino-Roman ] {ISOLatin1Encoding reEncode } forall
%%EndProlog
%%BeginSetup
%%EndSetup
newpath  gsave  .25 .25 scale  gsave  0 0 t 0.490196 0.545098 0.615686 c[  ] 0 sd 3 lw 1 1 1 c 2268 1176 0 0 bf 0.490196 0.545098 0.615686 c 1 1 1 c 710 565 23 600 bf black 1 1 1 c 576 427 115 681 bf black 576 427 115 681 bl 1 1 1 c 576 427 115 681
 bf black 576 427 115 681 bl 0.49 0.6 0.82 c 0.5 0.5 0.5 c 2 2 255 681 bf 2 2 282 681 bf 1 2 311 681 bf 0.8 0.78 0.67 c 2 1 291 683 bf 0.5 0.5 0.5 c 2 1 362 683 bf 2 2 259 684 bf 2 2 268 684 bf 2 1 259 686 bf 2 1 261 686 bf 2 1 266 686 bf 2 2 266 688
 bf 2 2 276 688 bf 2 2 278 688 bf 2 2 280 688 bf 2 2 301 688 bf 2 2 345 688 bf 2 2 368 688 bf 2 1 284 690 bf 1 1 311 690 bf 1 2 263 691 bf 2 2 268 691 bf 2 2 272 691 bf 2 1 251 693 bf 2 1 257 693 bf 2 1 276 693 bf 2 1 278 693 bf 2 1 309 693 bf 2 2
 272 694 bf 2 2 299 694 bf 2 2 318 694 bf 2 1 259 696 bf 2 1 272 696 bf 2 1 376 696 bf 2 1 261 697 bf 2 1 266 697 bf 2 1 268 697 bf 2 1 270 697 bf 2 1 278 697 bf 1 1 430 697 bf 2 2 255 698 bf 2 2 261 698 bf 0.8 0.78 0.67 c 1 2 263 698 bf 0.5 0.5 0.5
 c 2 2 268 698 bf 2 2 278 698 bf 2 2 301 698 bf 2 2 405 698 bf 2 1 266 700 bf 0.8 0.78 0.67 c 2 1 268 700 bf 0.5 0.5 0.5 c 2 1 270 700 bf 2 1 278 700 bf 2 1 282 700 bf 2 2 261 701 bf 2 2 264 701 bf 2 2 274 701 bf 2 2 293 701 bf 0.8 0.78 0.67 c 2 2
 299 701 bf 0.5 0.5 0.5 c 2 2 312 701 bf 2 2 518 701 bf 2 1 255 703 bf 2 1 268 703 bf 2 1 274 703 bf 2 2 249 704 bf 2 2 257 704 bf 2 2 270 704 bf 2 2 272 704 bf 1 2 288 704 bf 2 2 301 704 bf 2 2 326 704 bf 2 1 261 706 bf 2 1 264 706 bf 2 1 268 706 bf
 2 1 270 706 bf 2 1 272 706 bf 2 1 312 706 bf 2 1 316 706 bf 1 1 359 706 bf 2 1 257 707 bf 2 1 282 707 bf 2 1 378 707 bf 2 2 249 708 bf 2 2 278 708 bf 2 2 282 708 bf 2 2 512 708 bf 0.8 0.78 0.67 c 2 1 268 710 bf 0.5 0.5 0.5 c 2 1 276 710 bf 2 1 278
 710 bf 1 1 288 710 bf 0.8 0.78 0.67 c 2 1 291 710 bf 0.5 0.5 0.5 c 2 1 316 710 bf 2 1 324 710 bf 1 1 334 710 bf 1 2 263 711 bf 2 2 264 711 bf 2 2 266 711 bf 2 2 293 711 bf 2 2 337 711 bf 2 1 251 713 bf 2 1 257 713 bf 2 1 261 713 bf 1 1 263 713 bf 2
 1 270 713 bf 2 1 274 713 bf 2 1 282 713 bf 0.8 0.78 0.67 c 2 1 284 713 bf 0.5 0.5 0.5 c 1 1 288 713 bf 2 1 307 713 bf 2 1 326 713 bf 2 1 272 714 bf 2 1 286 714 bf 1 1 288 714 bf 0.8 0.78 0.67 c 2 1 289 714 bf 0.5 0.5 0.5 c 2 1 309 714 bf 2 1 341 714
 bf 2 2 251 715 bf 2 2 257 715 bf 2 2 261 715 bf 1 2 263 715 bf 2 2 280 715 bf 2 2 299 715 bf 2 2 312 715 bf 2 1 261 717 bf 2 1 270 717 bf 2 1 272 717 bf 2 1 274 717 bf 2 1 293 717 bf 2 1 309 717 bf 2 1 355 717 bf 2 2 278 718 bf 0.8 0.78 0.67 c 2 2
 284 718 bf 0.5 0.5 0.5 c 2 2 291 718 bf 2 2 295 718 bf 2 2 301 718 bf 2 2 376 718 bf 2 1 257 720 bf 0.8 0.78 0.67 c 2 1 261 720 bf 0.5 0.5 0.5 c 1 1 263 720 bf 2 1 268 720 bf 0.8 0.78 0.67 c 2 1 276 720 bf 0.5 0.5 0.5 c 2 1 278 720 bf 0.8 0.78 0.67
 c 2 1 284 720 bf 0.5 0.5 0.5 c 2 1 286 720 bf 1 1 288 720 bf 1 1 311 720 bf 2 1 428 720 bf 2 2 264 721 bf 2 2 270 721 bf 2 2 278 721 bf 2 2 293 721 bf 2 2 303 721 bf 1 2 311 721 bf 2 1 253 723 bf 2 1 272 723 bf 2 1 286 723 bf 2 1 289 723 bf 1 1 334
 723 bf 2 1 370 723 bf 2 1 255 724 bf 2 1 257 724 bf 2 1 259 724 bf 0.72 0.64 0.61 c 1 1 263 724 bf 0.8 0.78 0.67 c 2 1 266 724 bf 0.5 0.5 0.5 c 2 1 268 724 bf 2 1 272 724 bf 2 1 276 724 bf 2 1 278 724 bf 2 1 280 724 bf 2 1 295 724 bf 1 2 263 725 bf
 2 2 264 725 bf 2 2 266 725 bf 2 2 280 725 bf 2 2 297 725 bf 1 2 311 725 bf 2 2 318 725 bf 2 2 339 725 bf 2 1 268 727 bf 2 1 270 727 bf 0.8 0.78 0.67 c 2 1 274 727 bf 0.5 0.5 0.5 c 2 1 293 727 bf 2 1 305 727 bf 1 1 407 727 bf 2 2 253 728 bf 0.8 0.78
 0.67 c 2 2 266 728 bf 0.5 0.5 0.5 c 2 2 272 728 bf 2 2 276 728 bf 2 2 278 728 bf 2 2 282 728 bf 0.8 0.78 0.67 c 2 2 295 728 bf 0.5 0.5 0.5 c 2 2 303 728 bf 2 1 255 730 bf 2 1 259 730 bf 0.8 0.78 0.67 c 2 1 261 730 bf 0.5 0.5 0.5 c 2 1 268 730 bf 2 1
 274 730 bf 2 1 286 730 bf 2 1 291 730 bf 2 1 320 730 bf 2 1 322 730 bf 2 1 328 730 bf 2 2 257 731 bf 2 2 282 731 bf 2 2 295 731 bf 2 2 303 731 bf 2 2 307 731 bf 2 2 309 731 bf 2 1 289 733 bf 2 1 297 733 bf 2 1 255 734 bf 0.8 0.78 0.67 c 2 1 266 734
 bf 2 1 272 734 bf 0.5 0.5 0.5 c 2 1 274 734 bf 2 1 280 734 bf 2 1 289 734 bf 2 1 316 734 bf 2 2 257 735 bf 0.8 0.78 0.67 c 1 2 263 735 bf 0.5 0.5 0.5 c 2 2 266 735 bf 2 2 276 735 bf 2 2 280 735 bf 2 2 297 735 bf 2 2 299 735 bf 2 2 305 735 bf 2 2 314
 735 bf 2 2 322 735 bf 2 2 362 735 bf 2 2 368 735 bf 2 1 251 737 bf 2 1 261 737 bf 2 1 268 737 bf 2 1 276 737 bf 2 1 280 737 bf 2 1 282 737 bf 2 1 360 737 bf 2 2 253 738 bf 1 2 263 738 bf 2 2 270 738 bf 2 1 266 740 bf 2 1 289 740 bf 2 1 299 740 bf 2
 1 301 740 bf 1 1 311 740 bf 2 1 330 740 bf 2 1 349 740 bf 2 2 264 741 bf 2 2 272 741 bf 2 2 280 741 bf 2 2 297 741 bf 2 2 303 741 bf 2 2 385 741 bf 2 1 261 743 bf 0.72 0.64 0.61 c 2 1 264 743 bf 0.5 0.5 0.5 c 2 1 280 743 bf 2 1 282 744 bf 2 1 284
 744 bf 2 1 301 744 bf 2 1 332 744 bf 2 1 345 744 bf 2 1 349 744 bf 1 2 263 745 bf 2 2 266 745 bf 2 2 291 745 bf 2 2 293 745 bf 0.8 0.78 0.67 c 1 2 311 745 bf 2 1 270 747 bf 0.5 0.5 0.5 c 2 1 282 747 bf 2 1 312 747 bf 2 1 316 747 bf 2 1 351 747 bf 2
 2 255 748 bf 2 2 266 748 bf 0.8 0.78 0.67 c 2 2 268 748 bf 2 2 270 748 bf 0.5 0.5 0.5 c 2 2 272 748 bf 2 2 278 748 bf 2 2 280 748 bf 2 2 282 748 bf 2 2 284 748 bf 2 2 301 748 bf 2 2 316 748 bf 1 1 263 750 bf 2 1 264 750 bf 2 1 266 750 bf 2 1 272 750
 bf 2 1 280 750 bf 2 1 282 750 bf 2 1 314 750 bf 1 1 334 750 bf 0.8 0.78 0.67 c 2 1 266 751 bf 2 1 274 751 bf 0.5 0.5 0.5 c 2 1 278 751 bf 2 1 280 751 bf 2 1 289 751 bf 2 1 299 751 bf 2 1 364 751 bf 2 2 247 752 bf 2 2 257 752 bf 1 2 263 752 bf 2 2
 266 752 bf 2 2 305 752 bf 2 2 332 752 bf 0.8 0.78 0.67 c 2 1 264 754 bf 0.5 0.5 0.5 c 2 1 270 754 bf 2 1 276 754 bf 0.8 0.78 0.67 c 2 1 282 754 bf 0.5 0.5 0.5 c 1 1 288 754 bf 2 1 301 754 bf 2 1 305 754 bf 2 1 320 754 bf 2 1 364 754 bf 2 1 466 754
 bf 2 2 266 755 bf 2 2 270 755 bf 2 2 272 755 bf 2 2 286 755 bf 2 1 257 757 bf 2 1 264 757 bf 2 1 266 757 bf 0.8 0.78 0.67 c 2 1 291 757 bf 0.5 0.5 0.5 c 2 1 322 757 bf 2 1 326 757 bf 2 1 360 757 bf 0.8 0.78 0.67 c 2 2 266 758 bf 0.5 0.5 0.5 c 2 2
 282 758 bf 1 2 288 758 bf 2 2 291 758 bf 2 2 366 758 bf 2 1 247 760 bf 2 1 257 760 bf 2 1 261 760 bf 2 1 266 760 bf 0.8 0.78 0.67 c 2 1 268 760 bf 0.5 0.5 0.5 c 2 1 276 760 bf 2 1 280 760 bf 2 1 289 760 bf 2 1 318 760 bf 2 1 261 761 bf 0.8 0.78 0.67
 c 2 1 266 761 bf 0.5 0.5 0.5 c 2 1 270 761 bf 2 1 274 761 bf 2 1 286 761 bf 2 1 291 761 bf 2 2 257 762 bf 2 2 270 762 bf 2 2 276 762 bf 2 2 291 762 bf 2 1 251 764 bf 0.8 0.78 0.67 c 2 1 259 764 bf 1 1 263 764 bf 0.5 0.5 0.5 c 2 1 266 764 bf 2 1 274
 764 bf 2 1 278 764 bf 2 1 284 764 bf 2 1 295 764 bf 2 1 328 764 bf 2 2 261 765 bf 1 2 263 765 bf 2 2 266 765 bf 0.8 0.78 0.67 c 2 2 270 765 bf 0.5 0.5 0.5 c 1 2 288 765 bf 2 2 295 765 bf 2 2 299 765 bf 2 2 301 765 bf 2 2 312 765 bf 2 2 322 765 bf 2
 1 257 767 bf 1 1 263 767 bf 2 1 282 767 bf 2 1 286 767 bf 2 1 312 767 bf 2 2 253 768 bf 2 2 261 768 bf 1 2 263 768 bf 2 2 268 768 bf 2 2 276 768 bf 2 2 284 768 bf 2 2 293 768 bf 2 2 303 768 bf 2 1 253 770 bf 2 1 255 770 bf 2 1 257 770 bf 2 1 261 770
 bf 2 1 268 770 bf 2 1 270 770 bf 2 1 272 770 bf 2 1 274 770 bf 2 1 276 770 bf 2 1 282 770 bf 2 1 347 770 bf 2 1 259 771 bf 0.8 0.78 0.67 c 2 1 264 771 bf 2 1 272 771 bf 0.5 0.5 0.5 c 2 1 276 771 bf 2 1 307 771 bf 2 2 253 772 bf 2 2 261 772 bf 0.8
 0.78 0.67 c 2 2 266 772 bf 0.5 0.5 0.5 c 2 2 270 772 bf 2 2 272 772 bf 2 2 276 772 bf 0.8 0.78 0.67 c 2 2 278 772 bf 0.5 0.5 0.5 c 2 2 284 772 bf 1 2 288 772 bf 2 2 297 772 bf 2 2 316 772 bf 1 2 359 772 bf 2 1 255 774 bf 1 1 263 774 bf 2 1 276 774
 bf 0.8 0.78 0.67 c 2 1 286 774 bf 0.5 0.5 0.5 c 1 1 288 774 bf 0.8 0.78 0.67 c 2 1 303 774 bf 0.5 0.5 0.5 c 2 2 280 775 bf 2 2 291 775 bf 2 2 337 775 bf 2 1 259 777 bf 2 1 261 777 bf 2 1 264 777 bf 2 1 272 777 bf 1 1 288 777 bf 2 2 255 778 bf 2 2
 257 778 bf 1 2 263 778 bf 2 2 276 778 bf 2 2 280 778 bf 2 2 282 778 bf 2 1 259 780 bf 2 1 264 780 bf 2 1 270 780 bf 2 1 276 780 bf 2 1 295 780 bf 2 1 314 780 bf 2 1 318 780 bf 2 1 270 781 bf 1 1 288 781 bf 2 1 289 781 bf 2 2 253 782 bf 0.8 0.78 0.67
 c 2 2 257 782 bf 0.5 0.5 0.5 c 2 2 276 782 bf 2 2 291 782 bf 2 2 391 782 bf 2 1 270 784 bf 2 1 274 784 bf 2 1 289 784 bf 2 1 303 784 bf 2 1 309 784 bf 2 1 374 784 bf 0.8 0.78 0.67 c 2 2 257 785 bf 0.5 0.5 0.5 c 2 2 278 785 bf 2 2 284 785 bf 2 2 286
 785 bf 2 2 289 785 bf 2 2 301 785 bf 2 2 347 785 bf 0.8 0.78 0.67 c 2 1 261 787 bf 0.5 0.5 0.5 c 1 1 263 787 bf 0.8 0.78 0.67 c 2 1 264 787 bf 0.5 0.5 0.5 c 2 1 266 787 bf 2 1 268 787 bf 2 1 272 787 bf 2 1 282 787 bf 1 1 288 787 bf 2 1 289 787 bf 2
 1 295 787 bf 2 1 299 787 bf 2 1 261 788 bf 2 1 268 788 bf 2 1 270 788 bf 2 1 274 788 bf 2 1 278 788 bf 2 1 284 788 bf 2 1 374 788 bf 2 2 259 789 bf 2 2 261 789 bf 0.8 0.78 0.67 c 1 2 263 789 bf 0.5 0.5 0.5 c 2 2 270 789 bf 2 2 284 789 bf 2 2 286 789
 bf 2 1 249 791 bf 2 1 276 791 bf 2 1 286 791 bf 0.8 0.78 0.67 c 1 1 288 791 bf 0.5 0.5 0.5 c 2 1 289 791 bf 1 1 311 791 bf 2 1 318 791 bf 2 2 257 792 bf 2 2 259 792 bf 2 2 274 792 bf 2 2 276 792 bf 2 2 280 792 bf 2 2 295 792 bf 2 2 303 792 bf 2 2
 312 792 bf 2 1 257 794 bf 1 1 263 794 bf 2 1 266 794 bf 2 1 272 794 bf 2 1 320 794 bf 2 1 332 794 bf 2 2 259 795 bf 2 2 286 795 bf 1 2 288 795 bf 2 2 289 795 bf 2 2 309 795 bf 2 1 247 797 bf 2 1 259 797 bf 2 1 261 797 bf 2 1 276 797 bf 1 1 288 797
 bf 2 1 289 797 bf 2 1 266 798 bf 2 1 272 798 bf 2 1 278 798 bf 2 1 284 798 bf 2 1 295 798 bf 2 1 309 798 bf 2 1 326 798 bf 2 1 510 798 bf 2 2 255 799 bf 2 2 259 799 bf 2 2 268 799 bf 1 2 288 799 bf 2 1 259 801 bf 2 1 266 801 bf 2 1 268 801 bf 2 1
 282 801 bf 2 1 293 801 bf 2 1 295 801 bf 2 1 303 801 bf 2 2 264 802 bf 0.8 0.78 0.67 c 2 2 268 802 bf 0.5 0.5 0.5 c 2 2 270 802 bf 2 2 272 802 bf 2 2 278 802 bf 2 2 297 802 bf 2 1 253 804 bf 2 1 257 804 bf 2 1 259 804 bf 2 1 268 804 bf 2 1 270 804
 bf 2 1 276 804 bf 2 1 278 804 bf 2 1 316 804 bf 2 2 261 805 bf 2 2 264 805 bf 2 2 266 805 bf 2 2 268 805 bf 2 2 274 805 bf 2 2 280 805 bf 2 2 284 805 bf 2 2 314 805 bf 2 2 347 805 bf 2 1 249 807 bf 2 1 270 807 bf 2 1 280 807 bf 2 1 316 807 bf 2 1
 330 807 bf 2 1 255 808 bf 2 1 257 808 bf 2 1 261 808 bf 2 1 282 808 bf 2 2 249 809 bf 2 2 251 809 bf 2 2 259 809 bf 2 2 264 809 bf 2 2 272 809 bf 2 2 274 809 bf 1 2 288 809 bf 2 2 303 809 bf 0.8 0.78 0.67 c 2 1 257 811 bf 0.5 0.5 0.5 c 2 1 266 811
 bf 2 1 270 811 bf 2 1 284 811 bf 2 1 291 811 bf 2 1 301 811 bf 2 1 314 811 bf 2 2 257 812 bf 0.8 0.78 0.67 c 2 2 266 812 bf 0.5 0.5 0.5 c 2 2 272 812 bf 2 2 278 812 bf 2 2 284 812 bf 2 2 286 812 bf 0.8 0.78 0.67 c 2 2 305 812 bf 0.5 0.5 0.5 c 2 2
 387 812 bf 2 1 255 814 bf 2 1 261 814 bf 2 1 270 814 bf 2 1 284 814 bf 2 1 289 814 bf 0.8 0.78 0.67 c 2 2 257 815 bf 0.5 0.5 0.5 c 2 2 268 815 bf 2 2 274 815 bf 2 2 289 815 bf 2 2 293 815 bf 2 2 312 815 bf 2 2 330 815 bf 2 1 280 817 bf 2 1 286 817
 bf 1 1 288 817 bf 2 1 301 817 bf 2 1 312 817 bf 2 1 330 817 bf 2 1 345 817 bf 2 1 249 818 bf 2 1 251 818 bf 2 1 257 818 bf 2 1 268 818 bf 2 1 278 818 bf 2 1 280 818 bf 2 1 312 818 bf 2 2 264 819 bf 2 2 270 819 bf 2 2 278 819 bf 2 2 284 819 bf 2 2
 328 819 bf 1 2 382 819 bf 2 1 247 821 bf 0.72 0.64 0.61 c 2 1 259 821 bf 2 1 261 821 bf 0.5 0.5 0.5 c 2 1 268 821 bf 2 1 270 821 bf 2 1 282 821 bf 2 1 291 821 bf 2 1 305 821 bf 2 2 249 822 bf 2 2 253 822 bf 2 2 255 822 bf 2 2 261 822 bf 2 2 270 822
 bf 2 2 272 822 bf 2 1 270 824 bf 2 1 272 824 bf 1 1 288 824 bf 2 1 297 824 bf 0.8 0.78 0.67 c 2 1 257 825 bf 0.5 0.5 0.5 c 2 1 259 825 bf 2 1 264 825 bf 0.8 0.78 0.67 c 2 1 274 825 bf 0.5 0.5 0.5 c 1 1 288 825 bf 2 1 299 825 bf 2 1 303 825 bf 2 1
 422 825 bf 2 2 251 826 bf 2 2 255 826 bf 2 2 261 826 bf 2 2 268 826 bf 0.8 0.78 0.67 c 2 2 280 826 bf 0.5 0.5 0.5 c 2 2 284 826 bf 2 2 286 826 bf 2 2 291 826 bf 2 2 293 826 bf 2 2 307 826 bf 2 2 312 826 bf 2 2 318 826 bf 2 1 255 828 bf 2 1 257 828
 bf 0.72 0.64 0.61 c 2 1 259 828 bf 0.5 0.5 0.5 c 2 1 261 828 bf 2 1 272 828 bf 2 1 309 828 bf 2 1 318 828 bf 2 1 424 828 bf 2 1 451 828 bf 0.8 0.78 0.67 c 2 2 255 829 bf 0.5 0.5 0.5 c 2 2 257 829 bf 1 2 263 829 bf 2 2 264 829 bf 2 2 266 829 bf 2 2
 268 829 bf 2 2 274 829 bf 2 2 280 829 bf 2 2 282 829 bf 2 2 284 829 bf 2 2 286 829 bf 2 2 307 829 bf 2 2 312 829 bf 1 1 263 831 bf 2 1 268 831 bf 2 1 274 831 bf 2 1 282 831 bf 2 1 286 831 bf 2 1 314 831 bf 2 1 343 831 bf 2 2 255 832 bf 0.72 0.64
 0.61 c 2 2 268 832 bf 0.5 0.5 0.5 c 2 2 278 832 bf 2 2 280 832 bf 2 2 318 832 bf 2 2 328 832 bf 2 2 343 832 bf 2 1 259 834 bf 2 1 270 834 bf 2 1 280 834 bf 2 1 297 834 bf 2 1 253 835 bf 2 1 257 835 bf 2 1 261 835 bf 1 1 263 835 bf 2 1 264 835 bf
 0.72 0.64 0.61 c 2 1 268 835 bf 0.5 0.5 0.5 c 2 1 278 835 bf 2 1 280 835 bf 1 1 288 835 bf 2 1 297 835 bf 0.8 0.78 0.67 c 2 1 305 835 bf 0.5 0.5 0.5 c 1 2 263 836 bf 2 2 266 836 bf 2 2 274 836 bf 2 2 276 836 bf 0.8 0.78 0.67 c 1 2 288 836 bf 0.5 0.5
 0.5 c 2 2 328 836 bf 2 2 339 836 bf 2 1 249 838 bf 0.8 0.78 0.67 c 2 1 251 838 bf 0.5 0.5 0.5 c 2 1 259 838 bf 2 1 264 838 bf 2 1 268 838 bf 2 1 276 838 bf 2 1 280 838 bf 2 1 282 838 bf 2 1 284 838 bf 1 1 288 838 bf 2 1 295 838 bf 2 1 314 838 bf 2 1
 326 838 bf 2 1 328 838 bf 2 2 259 839 bf 1 2 263 839 bf 2 2 276 839 bf 1 2 288 839 bf 2 2 324 839 bf 2 2 347 839 bf 2 2 351 839 bf 2 2 443 839 bf 0.8 0.78 0.67 c 2 1 249 841 bf 0.5 0.5 0.5 c 2 1 253 841 bf 0.8 0.78 0.67 c 2 1 257 841 bf 0.5 0.5 0.5
 c 2 1 261 841 bf 1 1 263 841 bf 2 1 264 841 bf 2 1 268 841 bf 2 1 280 841 bf 2 1 286 841 bf 2 2 253 842 bf 2 2 255 842 bf 2 2 257 842 bf 2 2 270 842 bf 0.8 0.78 0.67 c 2 2 274 842 bf 0.5 0.5 0.5 c 2 2 278 842 bf 2 2 284 842 bf 2 2 337 842 bf 2 1 268
 844 bf 2 1 270 844 bf 2 1 282 844 bf 2 1 284 844 bf 2 1 295 844 bf 2 1 314 844 bf 2 1 247 845 bf 2 1 249 845 bf 2 1 253 845 bf 2 1 257 845 bf 2 1 259 845 bf 2 1 272 845 bf 2 1 278 845 bf 2 1 293 845 bf 2 1 330 845 bf 2 1 391 845 bf 2 2 247 846 bf 2
 2 257 846 bf 2 2 268 846 bf 2 2 278 846 bf 2 2 289 846 bf 2 1 257 848 bf 2 1 261 848 bf 1 1 263 848 bf 0.8 0.78 0.67 c 2 1 268 848 bf 2 1 272 848 bf 0.5 0.5 0.5 c 2 1 278 848 bf 2 1 289 848 bf 2 1 291 848 bf 2 1 303 848 bf 2 1 309 848 bf 2 1 318 848
 bf 2 1 337 848 bf 2 2 255 849 bf 2 2 259 849 bf 2 2 282 849 bf 2 2 284 849 bf 1 2 288 849 bf 2 2 299 849 bf 2 1 249 851 bf 2 1 255 851 bf 2 1 259 851 bf 2 1 261 851 bf 1 1 263 851 bf 2 1 264 851 bf 0.8 0.78 0.67 c 2 1 266 851 bf 0.5 0.5 0.5 c 2 1
 272 851 bf 2 1 276 851 bf 2 1 305 851 bf 1 1 382 851 bf 2 2 249 852 bf 2 2 261 852 bf 1 2 263 852 bf 0.8 0.78 0.67 c 2 2 264 852 bf 0.5 0.5 0.5 c 2 2 270 852 bf 2 2 272 852 bf 2 2 305 852 bf 2 1 251 854 bf 2 1 259 854 bf 2 1 264 854 bf 2 1 272 854
 bf 2 1 276 854 bf 2 1 255 855 bf 2 1 261 855 bf 2 1 264 855 bf 2 1 270 855 bf 2 1 280 855 bf 2 1 295 855 bf 2 2 251 856 bf 2 2 261 856 bf 1 2 263 856 bf 2 2 264 856 bf 2 2 266 856 bf 2 2 274 856 bf 2 2 282 856 bf 2 2 291 856 bf 2 2 307 856 bf 2 2
 343 856 bf 2 2 357 856 bf 2 1 259 858 bf 1 1 263 858 bf 2 1 286 858 bf 1 1 288 858 bf 2 1 291 858 bf 2 1 309 858 bf 1 1 311 858 bf 2 1 337 858 bf 2 1 339 858 bf 2 2 257 859 bf 2 2 261 859 bf 2 2 268 859 bf 2 2 270 859 bf 2 2 274 859 bf 2 2 318 859
 bf 2 1 264 861 bf 2 1 274 861 bf 0.8 0.78 0.67 c 2 1 276 861 bf 0.5 0.5 0.5 c 2 1 280 861 bf 0.8 0.78 0.67 c 1 1 288 861 bf 0.5 0.5 0.5 c 2 1 335 861 bf 2 1 357 861 bf 2 1 368 861 bf 2 1 255 862 bf 2 1 257 862 bf 2 1 261 862 bf 2 1 276 862 bf 0.8
 0.78 0.67 c 2 1 282 862 bf 0.5 0.5 0.5 c 1 1 288 862 bf 2 1 328 862 bf 2 2 257 863 bf 2 2 280 863 bf 2 2 282 863 bf 0.8 0.78 0.67 c 2 2 286 863 bf 0.5 0.5 0.5 c 2 2 337 863 bf 2 1 255 865 bf 0.72 0.64 0.61 c 2 1 259 865 bf 0.5 0.5 0.5 c 1 1 263 865
 bf 2 1 278 865 bf 2 1 364 865 bf 2 2 259 866 bf 2 2 261 866 bf 1 2 263 866 bf 2 2 264 866 bf 2 2 270 866 bf 2 2 274 866 bf 2 2 284 866 bf 2 2 289 866 bf 2 2 293 866 bf 2 2 295 866 bf 2 1 257 868 bf 2 1 264 868 bf 2 1 280 868 bf 2 1 282 868 bf 2 1
 303 868 bf 2 1 339 868 bf 2 2 247 869 bf 2 2 255 869 bf 2 2 259 869 bf 2 2 261 869 bf 1 2 263 869 bf 2 2 266 869 bf 2 2 268 869 bf 2 2 274 869 bf 2 2 282 869 bf 2 2 291 869 bf 2 2 349 869 bf 2 1 255 871 bf 2 1 257 871 bf 0.8 0.78 0.67 c 2 1 259 871
 bf 0.5 0.5 0.5 c 2 1 261 871 bf 1 1 288 871 bf 2 1 289 871 bf 2 1 291 871 bf 2 1 293 871 bf 2 1 295 871 bf 2 1 305 871 bf 1 1 311 871 bf 2 1 253 872 bf 1 1 263 872 bf 2 1 264 872 bf 2 1 274 872 bf 2 1 282 872 bf 2 1 291 872 bf 2 2 247 873 bf 2 2 259
 873 bf 2 2 264 873 bf 2 2 276 873 bf 2 2 280 873 bf 2 2 282 873 bf 2 2 284 873 bf 2 2 289 873 bf 2 2 291 873 bf 2 2 309 873 bf 2 2 330 873 bf 2 1 251 875 bf 2 1 259 875 bf 2 1 266 875 bf 2 1 276 875 bf 2 1 280 875 bf 0.8 0.78 0.67 c 2 1 286 875 bf
 0.5 0.5 0.5 c 2 1 293 875 bf 2 2 264 876 bf 2 2 276 876 bf 2 2 282 876 bf 2 2 284 876 bf 2 2 303 876 bf 2 2 345 876 bf 2 1 251 878 bf 2 1 261 878 bf 2 1 278 878 bf 2 1 280 878 bf 2 1 286 878 bf 2 1 291 878 bf 2 1 295 878 bf 2 1 309 878 bf 1 1 334
 878 bf 2 2 266 879 bf 2 2 268 879 bf 2 2 270 879 bf 2 2 276 879 bf 2 2 289 879 bf 2 2 316 879 bf 2 1 251 881 bf 2 1 259 881 bf 1 1 263 881 bf 0.8 0.78 0.67 c 2 1 266 881 bf 2 1 272 881 bf 0.5 0.5 0.5 c 1 1 288 881 bf 2 1 289 881 bf 0.8 0.78 0.67 c 2
 1 314 881 bf 0.5 0.5 0.5 c 1 1 430 881 bf 2 1 255 882 bf 0.8 0.78 0.67 c 2 1 270 882 bf 2 1 272 882 bf 0.5 0.5 0.5 c 2 1 274 882 bf 2 1 276 882 bf 2 1 280 882 bf 2 1 284 882 bf 1 1 288 882 bf 2 1 301 882 bf 1 1 311 882 bf 0.8 0.78 0.67 c 2 2 264 883
 bf 2 2 268 883 bf 0.5 0.5 0.5 c 2 2 270 883 bf 2 2 293 883 bf 2 2 443 883 bf 2 1 259 885 bf 2 1 264 885 bf 2 1 266 885 bf 2 1 268 885 bf 2 2 115 886 bf 2 2 249 886 bf 2 2 266 886 bf 2 2 268 886 bf 2 2 274 886 bf 2 2 276 886 bf 2 2 280 886 bf 2 2 291
 886 bf 2 2 299 886 bf 1 1 263 888 bf 2 1 266 888 bf 2 1 270 888 bf 2 1 282 888 bf 2 1 286 888 bf 2 2 272 889 bf 2 2 274 889 bf 2 2 276 889 bf 0.8 0.78 0.67 c 2 2 280 889 bf 0.5 0.5 0.5 c 2 2 282 889 bf 2 2 305 889 bf 2 2 326 889 bf 2 1 257 891 bf 1
 1 263 891 bf 2 1 268 891 bf 2 1 282 891 bf 2 1 284 891 bf 2 1 305 891 bf 2 1 314 891 bf 2 1 324 891 bf 1 1 359 891 bf 2 1 251 892 bf 2 1 257 892 bf 2 2 257 893 bf 2 2 259 893 bf 2 2 266 893 bf 2 2 278 893 bf 0.8 0.78 0.67 c 2 2 282 893 bf 0.5 0.5
 0.5 c 2 2 297 893 bf 0.8 0.78 0.67 c 2 1 251 895 bf 0.5 0.5 0.5 c 2 1 261 895 bf 1 1 263 895 bf 2 1 266 895 bf 2 1 270 895 bf 2 1 320 895 bf 2 1 345 895 bf 2 1 349 895 bf 2 1 391 895 bf 2 2 270 896 bf 2 2 282 896 bf 0.8 0.78 0.67 c 2 1 249 898 bf
 0.5 0.5 0.5 c 2 1 259 898 bf 2 1 261 898 bf 1 1 263 898 bf 2 1 264 898 bf 2 1 270 898 bf 2 1 272 898 bf 2 1 276 898 bf 2 1 293 898 bf 2 1 370 898 bf 2 1 261 899 bf 2 1 264 899 bf 2 1 270 899 bf 0.8 0.78 0.67 c 2 2 261 900 bf 0.5 0.5 0.5 c 1 2 263
 900 bf 0.72 0.64 0.61 c 2 2 264 900 bf 0.5 0.5 0.5 c 2 1 261 902 bf 2 1 266 902 bf 2 1 268 902 bf 2 1 278 902 bf 2 1 303 902 bf 2 1 341 902 bf 2 2 259 903 bf 2 2 266 903 bf 2 1 276 905 bf 2 1 322 905 bf 2 2 253 906 bf 2 2 264 906 bf 2 2 270 906 bf 2
 2 280 906 bf 2 2 286 906 bf 2 2 291 906 bf 2 2 293 906 bf 2 2 303 906 bf 2 2 376 906 bf 2 1 255 908 bf 0.8 0.78 0.67 c 2 1 261 908 bf 0.5 0.5 0.5 c 2 1 266 908 bf 2 1 272 908 bf 0.8 0.78 0.67 c 2 1 278 908 bf 0.5 0.5 0.5 c 1 1 288 908 bf 2 1 291 908
 bf 2 1 297 908 bf 2 1 249 909 bf 2 1 268 909 bf 2 1 272 909 bf 2 1 274 909 bf 2 1 286 909 bf 0.8 0.78 0.67 c 2 1 289 909 bf 0.5 0.5 0.5 c 2 1 293 909 bf 2 1 309 909 bf 2 1 330 909 bf 2 1 433 909 bf 2 2 261 910 bf 1 2 263 910 bf 2 2 270 910 bf 2 2
 282 910 bf 2 2 289 910 bf 2 2 301 910 bf 2 1 257 912 bf 0.8 0.78 0.67 c 2 1 261 912 bf 0.5 0.5 0.5 c 2 1 270 912 bf 2 1 291 912 bf 2 1 312 912 bf 2 1 324 912 bf 2 2 255 913 bf 2 2 261 913 bf 2 2 268 913 bf 2 2 276 913 bf 2 2 289 913 bf 2 2 316 913
 bf 2 1 257 915 bf 1 1 263 915 bf 2 1 276 915 bf 0.8 0.78 0.67 c 2 1 282 915 bf 0.5 0.5 0.5 c 2 1 284 915 bf 2 1 305 915 bf 2 1 383 915 bf 1 1 407 915 bf 2 2 257 916 bf 2 2 259 916 bf 2 2 284 916 bf 2 2 303 916 bf 2 1 261 918 bf 1 1 263 918 bf 0.8
 0.78 0.67 c 2 1 264 918 bf 0.5 0.5 0.5 c 2 1 266 918 bf 2 1 280 918 bf 2 1 295 918 bf 1 1 359 918 bf 2 1 259 919 bf 2 1 261 919 bf 2 1 266 919 bf 2 1 270 919 bf 2 2 261 920 bf 1 2 263 920 bf 2 2 301 920 bf 2 2 322 920 bf 2 1 264 922 bf 0.8 0.78 0.67
 c 2 1 266 922 bf 0.5 0.5 0.5 c 2 1 268 922 bf 2 1 276 922 bf 2 1 286 922 bf 2 1 289 922 bf 2 1 320 922 bf 2 2 268 923 bf 2 2 272 923 bf 2 2 291 923 bf 2 2 293 923 bf 2 2 337 923 bf 2 2 343 923 bf 2 2 351 923 bf 2 1 264 925 bf 2 1 286 925 bf 0.53 0.4
 0.34 c 2 2 261 926 bf 0.5 0.5 0.5 c 2 2 266 926 bf 2 2 268 926 bf 2 2 270 926 bf 2 2 274 926 bf 2 2 282 926 bf 2 2 291 926 bf 2 1 253 928 bf 2 1 266 928 bf 2 1 280 928 bf 2 1 301 928 bf 2 1 257 929 bf 2 1 261 929 bf 2 1 274 929 bf 0.8 0.78 0.67 c 2
 1 284 929 bf 0.5 0.5 0.5 c 2 1 286 929 bf 2 1 364 929 bf 2 2 257 930 bf 2 2 259 930 bf 2 2 270 930 bf 2 2 276 930 bf 2 2 278 930 bf 2 2 280 930 bf 2 1 257 932 bf 2 1 261 932 bf 2 1 314 932 bf 2 2 261 933 bf 2 2 268 933 bf 2 2 270 933 bf 2 2 276 933
 bf 2 2 289 933 bf 2 2 351 933 bf 0.8 0.78 0.67 c 2 1 268 935 bf 0.5 0.5 0.5 c 2 1 280 935 bf 2 1 320 935 bf 2 1 266 936 bf 2 1 272 936 bf 2 1 276 936 bf 2 1 345 936 bf 2 2 253 937 bf 2 2 282 937 bf 0.8 0.78 0.67 c 2 1 261 939 bf 0.72 0.64 0.61 c 1 1
 263 939 bf 0.5 0.5 0.5 c 2 1 278 939 bf 1 1 288 939 bf 0.8 0.78 0.67 c 2 2 257 940 bf 0.5 0.5 0.5 c 1 2 263 940 bf 2 2 266 940 bf 0.8 0.78 0.67 c 2 2 272 940 bf 0.5 0.5 0.5 c 2 2 274 940 bf 1 2 288 940 bf 2 2 289 940 bf 2 1 249 942 bf 2 1 251 942 bf
 2 1 257 942 bf 2 1 276 942 bf 2 1 278 942 bf 1 1 288 942 bf 2 1 289 942 bf 2 2 261 943 bf 0.8 0.78 0.67 c 2 2 276 943 bf 0.5 0.5 0.5 c 2 2 280 943 bf 2 2 286 943 bf 2 2 357 943 bf 2 1 253 945 bf 2 1 255 945 bf 2 1 261 945 bf 0.8 0.78 0.67 c 2 1 270
 945 bf 2 1 274 945 bf 0.5 0.5 0.5 c 2 1 278 945 bf 2 1 249 946 bf 1 1 263 946 bf 2 1 268 946 bf 2 1 270 946 bf 2 1 272 946 bf 1 1 288 946 bf 2 1 295 946 bf 2 1 297 946 bf 2 1 335 946 bf 2 2 253 947 bf 1 2 263 947 bf 2 2 289 947 bf 2 2 337 947 bf 2 1
 249 949 bf 2 1 257 949 bf 2 1 261 949 bf 2 1 272 949 bf 2 1 282 949 bf 1 1 288 949 bf 2 1 305 949 bf 2 1 349 949 bf 2 2 253 950 bf 2 2 278 950 bf 1 2 311 950 bf 2 2 362 950 bf 2 2 397 950 bf 2 1 268 952 bf 2 1 293 952 bf 2 1 297 952 bf 2 2 264 953
 bf 2 2 266 953 bf 2 2 274 953 bf 2 2 282 953 bf 2 2 297 953 bf 2 1 270 955 bf 2 1 297 955 bf 2 1 322 955 bf 1 1 263 956 bf 2 1 278 956 bf 1 2 263 957 bf 2 2 280 957 bf 2 2 282 957 bf 2 2 286 957 bf 1 2 288 957 bf 2 2 291 957 bf 2 2 297 957 bf 2 2
 301 957 bf 2 1 268 959 bf 2 2 264 960 bf 2 2 268 960 bf 2 2 270 960 bf 2 2 312 960 bf 2 2 326 960 bf 2 1 280 962 bf 2 1 301 962 bf 2 2 272 963 bf 2 2 276 963 bf 2 2 278 963 bf 2 2 284 963 bf 2 2 301 963 bf 2 2 318 963 bf 2 1 266 965 bf 2 1 270 965
 bf 2 1 272 965 bf 2 1 282 965 bf 2 1 286 965 bf 2 1 372 965 bf 2 1 259 966 bf 2 1 270 966 bf 2 1 276 966 bf 2 1 280 966 bf 2 2 251 967 bf 2 2 266 967 bf 2 2 268 967 bf 2 1 264 969 bf 2 1 272 969 bf 2 1 322 969 bf 2 2 247 970 bf 2 2 253 970 bf 2 2
 264 970 bf 2 2 270 970 bf 2 2 274 970 bf 2 2 278 970 bf 0.8 0.78 0.67 c 2 1 251 972 bf 0.5 0.5 0.5 c 2 1 261 972 bf 2 1 274 972 bf 2 1 297 972 bf 1 1 311 972 bf 2 1 259 973 bf 2 1 261 973 bf 2 1 301 973 bf 2 1 391 973 bf 2 2 261 974 bf 2 2 264 974
 bf 2 2 268 974 bf 2 2 270 974 bf 2 2 276 974 bf 1 2 288 974 bf 2 2 307 974 bf 2 2 309 974 bf 2 1 259 976 bf 2 1 264 976 bf 2 1 266 976 bf 2 1 278 976 bf 2 1 282 976 bf 0.8 0.78 0.67 c 2 1 284 976 bf 0.5 0.5 0.5 c 2 1 291 976 bf 2 1 299 976 bf 2 2
 266 977 bf 2 2 272 977 bf 2 2 286 977 bf 2 2 297 977 bf 2 2 309 977 bf 2 1 270 979 bf 0.8 0.78 0.67 c 2 1 286 979 bf 0.5 0.5 0.5 c 2 1 372 979 bf 0.8 0.78 0.67 c 2 2 257 980 bf 0.5 0.5 0.5 c 2 2 261 980 bf 2 2 272 980 bf 2 2 282 980 bf 1 2 288 980
 bf 2 2 297 980 bf 2 1 266 982 bf 2 1 276 982 bf 2 1 280 982 bf 2 1 297 982 bf 2 1 299 982 bf 2 1 320 982 bf 2 1 268 983 bf 2 1 276 983 bf 2 1 280 983 bf 2 1 289 983 bf 2 1 316 983 bf 2 1 320 983 bf 2 1 353 983 bf 2 1 405 983 bf 1 2 288 984 bf 2 2
 291 984 bf 2 2 307 984 bf 2 1 261 986 bf 2 1 264 986 bf 2 1 266 986 bf 2 1 299 986 bf 0.8 0.78 0.67 c 2 2 268 987 bf 0.5 0.5 0.5 c 2 2 274 987 bf 2 2 280 987 bf 2 2 305 987 bf 2 1 249 989 bf 2 1 278 989 bf 2 1 320 989 bf 2 2 253 990 bf 2 2 259 990
 bf 0.8 0.78 0.67 c 2 2 264 990 bf 0.5 0.5 0.5 c 2 2 266 990 bf 2 2 268 990 bf 2 2 272 990 bf 2 2 276 990 bf 2 2 289 990 bf 2 1 270 992 bf 2 1 289 992 bf 2 1 353 992 bf 2 1 253 993 bf 2 1 259 993 bf 2 1 261 993 bf 2 1 272 993 bf 2 1 297 993 bf 2 2
 249 994 bf 2 2 261 994 bf 2 2 272 994 bf 2 2 282 994 bf 2 1 261 996 bf 1 1 359 996 bf 2 2 257 997 bf 2 2 270 997 bf 2 2 332 997 bf 2 1 253 999 bf 2 1 299 999 bf 2 2 259 1000 bf 1 2 263 1000 bf 0.8 0.78 0.67 c 2 2 266 1000 bf 0.5 0.5 0.5 c 2 2 270
 1000 bf 2 2 284 1000 bf 2 1 295 1002 bf 2 1 332 1002 bf 2 1 266 1003 bf 2 1 284 1003 bf 2 1 291 1003 bf 1 2 263 1004 bf 0.8 0.78 0.67 c 2 2 272 1004 bf 0.5 0.5 0.5 c 2 2 274 1004 bf 2 1 253 1006 bf 2 1 266 1006 bf 2 1 272 1006 bf 2 1 316 1009 bf 2 1
 337 1009 bf 2 1 266 1010 bf 2 1 270 1010 bf 2 1 297 1010 bf 2 1 303 1010 bf 2 2 251 1011 bf 2 2 259 1011 bf 2 2 276 1011 bf 2 2 318 1011 bf 2 1 257 1013 bf 2 1 274 1013 bf 2 2 247 1014 bf 2 2 270 1014 bf 2 2 274 1014 bf 2 2 307 1014 bf 2 2 309 1014
 bf 2 1 257 1016 bf 1 1 263 1016 bf 2 1 274 1016 bf 2 1 293 1016 bf 2 2 266 1017 bf 2 2 276 1017 bf 1 2 288 1017 bf 2 2 328 1017 bf 2 1 270 1019 bf 2 1 272 1019 bf 2 1 280 1019 bf 2 1 291 1020 bf 2 1 305 1020 bf 1 1 311 1020 bf 0.8 0.78 0.67 c 2 1
 324 1020 bf 0.5 0.5 0.5 c 2 2 272 1021 bf 2 1 257 1023 bf 2 1 291 1023 bf 2 1 299 1023 bf 2 2 264 1024 bf 2 2 274 1024 bf 0.8 0.78 0.67 c 2 2 276 1024 bf 0.5 0.5 0.5 c 2 2 280 1024 bf 2 2 284 1024 bf 0.8 0.78 0.67 c 2 1 261 1026 bf 0.5 0.5 0.5 c 2 1
 276 1026 bf 2 1 324 1026 bf 2 2 268 1027 bf 2 2 278 1027 bf 2 1 259 1029 bf 0.8 0.78 0.67 c 2 1 264 1029 bf 0.5 0.5 0.5 c 2 1 268 1029 bf 2 1 347 1029 bf 2 1 253 1030 bf 2 1 268 1030 bf 2 1 270 1030 bf 2 1 280 1030 bf 2 1 303 1030 bf 1 1 311 1030 bf
 2 2 318 1031 bf 2 1 272 1033 bf 2 1 274 1033 bf 2 1 282 1033 bf 2 2 309 1034 bf 2 2 257 1037 bf 2 2 261 1037 bf 2 2 274 1037 bf 2 2 278 1037 bf 2 2 293 1037 bf 2 2 301 1037 bf 2 2 303 1037 bf 1 1 334 1039 bf 2 2 293 1041 bf 2 1 272 1043 bf 1 1 311
 1043 bf 2 1 314 1043 bf 2 2 257 1044 bf 2 2 261 1044 bf 1 2 288 1044 bf 2 1 253 1046 bf 0.8 0.78 0.67 c 2 1 266 1046 bf 0.5 0.5 0.5 c 1 1 288 1046 bf 2 1 316 1046 bf 1 1 263 1047 bf 2 1 266 1047 bf 2 1 270 1047 bf 2 1 305 1047 bf 2 2 253 1048 bf 2 2
 303 1048 bf 2 1 284 1050 bf 2 1 286 1050 bf 2 1 303 1050 bf 1 1 311 1050 bf 2 1 366 1050 bf 2 1 266 1053 bf 2 1 282 1053 bf 2 1 295 1053 bf 2 2 276 1054 bf 2 1 257 1056 bf 2 1 266 1056 bf 2 1 284 1056 bf 2 2 266 1058 bf 2 2 274 1058 bf 2 1 293 1060
 bf 2 2 255 1061 bf 2 2 274 1061 bf 2 1 266 1063 bf 2 2 257 1064 bf 2 2 284 1064 bf 2 1 278 1067 bf 2 1 309 1067 bf 2 2 259 1068 bf 2 2 268 1068 bf 2 2 284 1068 bf 2 2 289 1068 bf 2 2 291 1068 bf 2 1 268 1070 bf 2 1 272 1070 bf 2 1 282 1070 bf 2 1
 264 1073 bf 2 1 301 1073 bf 1 1 334 1076 bf 2 1 314 1077 bf 2 1 272 1080 bf 2 2 266 1081 bf 2 1 266 1090 bf 2 1 249 1093 bf 2 1 284 1093 bf 2 1 376 1093 bf 1 1 263 1103 bf 0.49 0.6 0.82 c black 115 681 m 576 X s
 gsave  710 565 23 600 C 395.003 610.976 t 0 r /Helvetica findfont 28.5208 sf 0 0 m (B_PVFit_chi2_div_ndof		) show NC gr  160 695 m -14 Y s 177 688 m -7 Y s 193 688 m -7 Y s 210 688 m -7 Y s 227 688 m -7 Y s 243 695 m -14 Y s 260 688 m -7 Y s 277 688
 m -7 Y s 293 688 m -7 Y s 310 688 m -7 Y s 327 695 m -14 Y s 343 688 m -7 Y s 360 688 m -7 Y s 377 688 m -7 Y s 393 688 m -7 Y s 410 695 m -14 Y s 427 688 m -7 Y s 443 688 m -7 Y s 460 688 m -7 Y s 477 688 m -7 Y s 493 695 m -14 Y s 510 688 m -7 Y s
 527 688 m -7 Y s 543 688 m -7 Y s 560 688 m -7 Y s 577 695 m -14 Y s 593 688 m -7 Y s 610 688 m -7 Y s 627 688 m -7 Y s 643 688 m -7 Y s 660 695 m -14 Y s 160 695 m -14 Y s 143 688 m -7 Y s 127 688 m -7 Y s 660 695 m -14 Y s 677 688 m -7 Y s
 gsave  710 565 23 600 C 150.613 653.603 t 0 r /Helvetica findfont 25.6688 sf 0 0 m (10) show NC gr 
 gsave  710 565 23 600 C 136.404 653.603 t 0 r /Symbol findfont 25.6688 sf 0 0 m (-) show NC gr 
 gsave  710 565 23 600 C 233.023 653.603 t 0 r /Helvetica findfont 25.6688 sf 0 0 m (0) show NC gr 
 gsave  710 565 23 600 C 309.751 653.603 t 0 r /Helvetica findfont 25.6688 sf 0 0 m (10) show NC gr 
 gsave  710 565 23 600 C 395.003 653.603 t 0 r /Helvetica findfont 25.6688 sf 0 0 m (20) show NC gr 
 gsave  710 565 23 600 C 477.414 653.603 t 0 r /Helvetica findfont 25.6688 sf 0 0 m (30) show NC gr 
 gsave  710 565 23 600 C 559.825 653.603 t 0 r /Helvetica findfont 25.6688 sf 0 0 m (40) show NC gr 
 gsave  710 565 23 600 C 645.077 653.603 t 0 r /Helvetica findfont 25.6688 sf 0 0 m (50) show NC gr  115 1108 m 576 X s 160 1095 m 13 Y s 177 1101 m 7 Y s 193 1101 m 7 Y s 210 1101 m 7 Y s 227 1101 m 7 Y s 243 1095 m 13 Y s 260 1101 m 7 Y s 277 1101
 m 7 Y s 293 1101 m 7 Y s 310 1101 m 7 Y s 327 1095 m 13 Y s 343 1101 m 7 Y s 360 1101 m 7 Y s 377 1101 m 7 Y s 393 1101 m 7 Y s 410 1095 m 13 Y s 427 1101 m 7 Y s 443 1101 m 7 Y s 460 1101 m 7 Y s 477 1101 m 7 Y s 493 1095 m 13 Y s 510 1101 m 7 Y s
 527 1101 m 7 Y s 543 1101 m 7 Y s 560 1101 m 7 Y s 577 1095 m 13 Y s 593 1101 m 7 Y s 610 1101 m 7 Y s 627 1101 m 7 Y s 643 1101 m 7 Y s 660 1095 m 13 Y s 160 1095 m 13 Y s 143 1101 m 7 Y s 127 1101 m 7 Y s 660 1095 m 13 Y s 677 1101 m 7 Y s 115 681
 m 427 Y s
 gsave  710 565 23 600 C 51.1515 977.562 t 90 r /Helvetica findfont 28.5208 sf 0 0 m (Massh2h3					) show NC gr  131 724 m -16 X s 123 742 m -8 X s 123 759 m -8 X s 123 777 m -8 X s 131 795 m -16 X s 123 812 m -8 X s 123 830 m -8 X s 123 848 m -8 X s
 131 865 m -16 X s 123 883 m -8 X s 123 901 m -8 X s 123 918 m -8 X s 131 936 m -16 X s 123 954 m -8 X s 123 971 m -8 X s 123 989 m -8 X s 131 1007 m -16 X s 123 1024 m -8 X s 123 1042 m -8 X s 123 1060 m -8 X s 131 1077 m -16 X s 131 724 m -16 X s
 123 706 m -8 X s 123 689 m -8 X s 131 1077 m -16 X s 123 1095 m -8 X s
 gsave  710 565 23 600 C 62.5185 713.279 t 0 r /Helvetica findfont 25.6688 sf 0 0 m (400) show NC gr 
 gsave  710 565 23 600 C 62.5185 784.323 t 0 r /Helvetica findfont 25.6688 sf 0 0 m (600) show NC gr 
 gsave  710 565 23 600 C 62.5185 855.367 t 0 r /Helvetica findfont 25.6688 sf 0 0 m (800) show NC gr 
 gsave  710 565 23 600 C 48.3097 926.411 t 0 r /Helvetica findfont 25.6688 sf 0 0 m (1000) show NC gr 
 gsave  710 565 23 600 C 48.3097 997.454 t 0 r /Helvetica findfont 25.6688 sf 0 0 m (1200) show NC gr 
 gsave  710 565 23 600 C 48.3097 1068.5 t 0 r /Helvetica findfont 25.6688 sf 0 0 m (1400) show NC gr  691 681 m 427 Y s 674 724 m 17 X s 683 742 m 8 X s 683 759 m 8 X s 683 777 m 8 X s 674 795 m 17 X s 683 812 m 8 X s 683 830 m 8 X s 683 848 m 8 X s
 674 865 m 17 X s 683 883 m 8 X s 683 901 m 8 X s 683 918 m 8 X s 674 936 m 17 X s 683 954 m 8 X s 683 971 m 8 X s 683 989 m 8 X s 674 1007 m 17 X s 683 1024 m 8 X s 683 1042 m 8 X s 683 1060 m 8 X s 674 1077 m 17 X s 674 724 m 17 X s 683 706 m 8 X s
 683 689 m 8 X s 674 1077 m 17 X s 683 1095 m 8 X s 6 lw 0.81 0.37 0.38 c black 115 887 m 7 X s 122 887 m 7 X s 115 882 m 11 Y s 129 882 m 11 Y s 3 lw /w 2 def /w2 {w 2 div} def /w3 {w 3 div} def 122 887 m20 6 lw 252 848 m 7 Y s 252 855 m 7 Y s 244
 855 m 8 X s 252 855 m 7 X s 246 848 m 11 X s 246 862 m 11 X s 244 849 m 12 Y s 259 849 m 12 Y s 3 lw 252 855 m20 6 lw 266 851 m 4 Y s 266 855 m 4 Y s 259 855 m 7 X s 266 855 m 7 X s 260 851 m 12 X s 260 859 m 12 X s 259 850 m 11 Y s 273 850 m 11 Y s
 3 lw 266 855 m20 6 lw 280 849 m 5 Y s 280 854 m 5 Y s 273 854 m 7 X s 280 854 m 8 X s 275 849 m 11 X s 275 859 m 11 X s 273 848 m 11 Y s 288 848 m 11 Y s 3 lw 280 854 m20 6 lw 295 843 m 7 Y s 295 850 m 6 Y s 288 850 m 7 X s 295 850 m 7 X s 289 843 m
 11 X s 289 856 m 11 X s 288 844 m 11 Y s 302 844 m 11 Y s 3 lw 295 850 m20 6 lw 309 842 m 9 Y s 309 851 m 10 Y s 302 851 m 7 X s 309 851 m 7 X s 303 842 m 12 X s 303 861 m 12 X s 302 846 m 11 Y s 316 846 m 11 Y s 3 lw 309 851 m20 6 lw 324 842 m 12 Y
 s 324 854 m 13 Y s 316 854 m 8 X s 324 854 m 7 X s 318 842 m 11 X s 318 867 m 11 X s 316 849 m 11 Y s 331 849 m 11 Y s 3 lw 324 854 m20 6 lw 338 837 m 17 Y s 338 854 m 16 Y s 331 854 m 7 X s 338 854 m 7 X s 332 837 m 12 X s 332 870 m 12 X s 331 848
 m 11 Y s 345 848 m 11 Y s 3 lw 338 854 m20 6 lw 352 831 m 17 Y s 352 848 m 17 Y s 345 848 m 7 X s 352 848 m 7 X s 347 831 m 11 X s 347 865 m 11 X s 345 842 m 12 Y s 359 842 m 12 Y s 3 lw 352 848 m20 6 lw 367 811 m 25 Y s 367 836 m 25 Y s 359 836 m 8
 X s 367 836 m 7 X s 361 811 m 11 X s 361 861 m 11 X s 359 830 m 11 Y s 374 830 m 11 Y s 3 lw 367 836 m20 6 lw 381 789 m 31 Y s 381 820 m 31 Y s 374 820 m 7 X s 381 820 m 7 X s 375 789 m 12 X s 375 851 m 12 X s 374 814 m 12 Y s 388 814 m 12 Y s 3 lw
 381 820 m20 6 lw 395 859 m 31 Y s 395 890 m 31 Y s 388 890 m 7 X s 395 890 m 8 X s 390 859 m 11 X s 390 921 m 11 X s 388 884 m 11 Y s 403 884 m 11 Y s 3 lw 395 890 m20 6 lw 410 771 m 61 Y s 410 832 m 60 Y s 403 832 m 7 X s 410 832 m 7 X s 404 771 m
 12 X s 404 892 m 12 X s 403 826 m 11 Y s 417 826 m 11 Y s 3 lw 410 832 m20 6 lw 424 759 m 32 Y s 424 791 m 31 Y s 417 791 m 7 X s 424 791 m 7 X s 419 759 m 11 X s 419 822 m 11 X s 417 785 m 11 Y s 431 785 m 11 Y s 3 lw 424 791 m20 6 lw 439 862 m 16
 Y s 439 878 m 16 Y s 431 878 m 8 X s 439 878 m 7 X s 433 862 m 11 X s 433 894 m 11 X s 431 872 m 12 Y s 446 872 m 12 Y s 3 lw 439 878 m20 6 lw 453 829 m s 453 829 m s 446 829 m 7 X s 453 829 m 7 X s 447 829 m 12 X s 447 829 m 12 X s 446 823 m 11 Y s
 460 823 m 11 Y s 3 lw 453 829 m20 6 lw 467 754 m s 467 754 m s 460 754 m 7 X s 467 754 m 8 X s 462 754 m 11 X s 462 754 m 11 X s 460 749 m 11 Y s 475 749 m 11 Y s 3 lw 467 754 m20 6 lw 511 722 m 31 Y s 511 753 m 32 Y s 503 753 m 8 X s 511 753 m 7 X
 s 505 722 m 11 X s 505 785 m 11 X s 503 748 m 11 Y s 518 748 m 11 Y s 3 lw 511 753 m20 6 lw 518 702 m 7 X s 525 702 m 7 X s 518 696 m 11 Y s 532 696 m 11 Y s 3 lw 525 702 m20 6 lw 3 lw 115 681 m 576 X s 160 695 m -14 Y s 177 688 m -7 Y s 193 688 m
 -7 Y s 210 688 m -7 Y s 227 688 m -7 Y s 243 695 m -14 Y s 260 688 m -7 Y s 277 688 m -7 Y s 293 688 m -7 Y s 310 688 m -7 Y s 327 695 m -14 Y s 343 688 m -7 Y s 360 688 m -7 Y s 377 688 m -7 Y s 393 688 m -7 Y s 410 695 m -14 Y s 427 688 m -7 Y s
 443 688 m -7 Y s 460 688 m -7 Y s 477 688 m -7 Y s 493 695 m -14 Y s 510 688 m -7 Y s 527 688 m -7 Y s 543 688 m -7 Y s 560 688 m -7 Y s 577 695 m -14 Y s 593 688 m -7 Y s 610 688 m -7 Y s 627 688 m -7 Y s 643 688 m -7 Y s 660 695 m -14 Y s 160 695
 m -14 Y s 143 688 m -7 Y s 127 688 m -7 Y s 660 695 m -14 Y s 677 688 m -7 Y s 115 1108 m 576 X s 160 1095 m 13 Y s 177 1101 m 7 Y s 193 1101 m 7 Y s 210 1101 m 7 Y s 227 1101 m 7 Y s 243 1095 m 13 Y s 260 1101 m 7 Y s 277 1101 m 7 Y s 293 1101 m 7
 Y s 310 1101 m 7 Y s 327 1095 m 13 Y s 343 1101 m 7 Y s 360 1101 m 7 Y s 377 1101 m 7 Y s 393 1101 m 7 Y s 410 1095 m 13 Y s 427 1101 m 7 Y s 443 1101 m 7 Y s 460 1101 m 7 Y s 477 1101 m 7 Y s 493 1095 m 13 Y s 510 1101 m 7 Y s 527 1101 m 7 Y s 543
 1101 m 7 Y s 560 1101 m 7 Y s 577 1095 m 13 Y s 593 1101 m 7 Y s 610 1101 m 7 Y s 627 1101 m 7 Y s 643 1101 m 7 Y s 660 1095 m 13 Y s 160 1095 m 13 Y s 143 1101 m 7 Y s 127 1101 m 7 Y s 660 1095 m 13 Y s 677 1101 m 7 Y s 115 681 m 427 Y s 131 724 m
 -16 X s 123 742 m -8 X s 123 759 m -8 X s 123 777 m -8 X s 131 795 m -16 X s 123 812 m -8 X s 123 830 m -8 X s 123 848 m -8 X s 131 865 m -16 X s 123 883 m -8 X s 123 901 m -8 X s 123 918 m -8 X s 131 936 m -16 X s 123 954 m -8 X s 123 971 m -8 X s
 123 989 m -8 X s 131 1007 m -16 X s 123 1024 m -8 X s 123 1042 m -8 X s 123 1060 m -8 X s 131 1077 m -16 X s 131 724 m -16 X s 123 706 m -8 X s 123 689 m -8 X s 131 1077 m -16 X s 123 1095 m -8 X s 691 681 m 427 Y s 674 724 m 17 X s 683 742 m 8 X s
 683 759 m 8 X s 683 777 m 8 X s 674 795 m 17 X s 683 812 m 8 X s 683 830 m 8 X s 683 848 m 8 X s 674 865 m 17 X s 683 883 m 8 X s 683 901 m 8 X s 683 918 m 8 X s 674 936 m 17 X s 683 954 m 8 X s 683 971 m 8 X s 683 989 m 8 X s 674 1007 m 17 X s 683
 1024 m 8 X s 683 1042 m 8 X s 683 1060 m 8 X s 674 1077 m 17 X s 674 724 m 17 X s 683 706 m 8 X s 683 689 m 8 X s 674 1077 m 17 X s 683 1095 m 8 X s 0.490196 0.545098 0.615686 c 0.364706 0.419608 0.490196 c 497 38 30 1124 bf 0.490196 0.545098
 0.615686 c 30 1124 m 497 X s 527 1124 m 38 Y s 527 1162 m -497 X s 30 1162 m -38 Y s 1 1 1 c black 1 1 1 c
 gsave  710 565 23 600 C 36.9427 1139.54 t 0 r /Helvetica-Bold findfont 17.1125 sf 0 0 m (Massh2h3					 versus B_PVFit_chi2_div_ndof		 \(Background\)_Id) show NC gr  0.490196 0.545098 0.615686 c 1 1 1 c 710 565 779 600 bf black 1 1 1 c 576 427 871
 681 bf black 576 427 871 681 bl 1 1 1 c 576 427 871 681 bf black 576 427 871 681 bl 0.49 0.6 0.82 c 0.95 0.95 0.95 c 2 2 1009 681 bf 2 2 1011 681 bf 0.7 0.7 0.7 c 2 2 1013 681 bf 2 2 1015 681 bf 0.754 0.715 0.676 c 1 2 1017 681 bf 0.4 0.4 0.4 c 2 2
 1018 681 bf 0.754 0.715 0.676 c 2 2 1020 681 bf 0.8 0.78 0.67 c 2 2 1022 681 bf 0.73 0.71 0.64 c 2 2 1024 681 bf 2 2 1026 681 bf 0.68 0.6 0.55 c 2 2 1028 681 bf 0.76 0.75 0.66 c 2 2 1030 681 bf 0.53 0.4 0.34 c 2 2 1032 681 bf 0.8 0.78 0.67 c 2 2
 1034 681 bf 0.53 0.4 0.34 c 2 2 1036 681 bf 0.68 0.6 0.55 c 2 2 1038 681 bf 1 2 1040 681 bf 0.73 0.71 0.64 c 2 2 1041 681 bf 0.53 0.4 0.34 c 2 2 1043 681 bf 0.68 0.6 0.55 c 2 2 1045 681 bf 0.72 0.64 0.61 c 2 2 1047 681 bf 0.754 0.715 0.676 c 2 2
 1049 681 bf 0.8 0.78 0.67 c 2 2 1051 681 bf 0.754 0.715 0.676 c 2 2 1053 681 bf 0.5 0.5 0.5 c 2 2 1055 681 bf 0.754 0.715 0.676 c 2 2 1057 681 bf 0.8 0.78 0.67 c 2 2 1059 681 bf 0.754 0.715 0.676 c 2 2 1061 681 bf 0.7 0.7 0.7 c 2 2 1063 681 bf 0.3
 0.3 0.3 c 1 2 1065 681 bf 2 2 1066 681 bf 0.6 0.6 0.6 c 2 2 1068 681 bf 0.4 0.4 0.4 c 2 2 1070 681 bf 0.6 0.6 0.6 c 2 2 1072 681 bf 0.4 0.4 0.4 c 2 2 1074 681 bf 0.6 0.6 0.6 c 2 2 1076 681 bf 0.7 0.7 0.7 c 2 2 1078 681 bf 0.8 0.8 0.8 c 2 2 1080 681
 bf 0.9 0.9 0.9 c 2 2 1082 681 bf 0.8 0.8 0.8 c 2 2 1084 681 bf 0.9 0.9 0.9 c 2 2 1086 681 bf 0.8 0.8 0.8 c 1 2 1088 681 bf 0.7 0.7 0.7 c 2 2 1089 681 bf 0.8 0.8 0.8 c 2 2 1093 681 bf 0.9 0.9 0.9 c 2 2 1095 681 bf 0.95 0.95 0.95 c 2 2 1097 681 bf 0.9
 0.9 0.9 c 2 2 1099 681 bf 0.8 0.8 0.8 c 2 2 1101 681 bf 0.7 0.7 0.7 c 2 2 1103 681 bf 0.9 0.9 0.9 c 2 2 1105 681 bf 0.8 0.8 0.8 c 2 2 1107 681 bf 0.9 0.9 0.9 c 2 2 1109 681 bf 0.95 0.95 0.95 c 2 2 1111 681 bf 0.9 0.9 0.9 c 1 2 1113 681 bf 2 2 1114
 681 bf 0.95 0.95 0.95 c 2 2 1116 681 bf 2 2 1118 681 bf 0.9 0.9 0.9 c 2 2 1120 681 bf 2 2 1122 681 bf 2 2 1124 681 bf 0.95 0.95 0.95 c 2 2 1126 681 bf 2 2 1128 681 bf 0.9 0.9 0.9 c 2 2 1130 681 bf 2 2 1132 681 bf 0.95 0.95 0.95 c 2 2 1137 681 bf 2 2
 1139 681 bf 2 2 1141 681 bf 2 2 1143 681 bf 0.9 0.9 0.9 c 2 2 1147 681 bf 0.95 0.95 0.95 c 2 2 1153 681 bf 0.9 0.9 0.9 c 1 2 1161 681 bf 2 2 1162 681 bf 0.95 0.95 0.95 c 2 2 1178 681 bf 2 2 1180 681 bf 1 2 1184 681 bf 0.9 0.9 0.9 c 2 2 1185 681 bf
 0.95 0.95 0.95 c 2 2 1189 681 bf 0.9 0.9 0.9 c 2 2 1199 681 bf 0.95 0.95 0.95 c 1 2 1207 681 bf 2 2 1266 681 bf 2 2 1268 681 bf 2 2 1274 681 bf 2 1 1003 683 bf 0.9 0.9 0.9 c 2 1 1005 683 bf 0.95 0.95 0.95 c 2 1 1007 683 bf 0.9 0.9 0.9 c 2 1 1009 683
 bf 2 1 1011 683 bf 2 1 1013 683 bf 0.95 0.95 0.95 c 2 1 1015 683 bf 0.9 0.9 0.9 c 1 1 1017 683 bf 0.8 0.8 0.8 c 2 1 1018 683 bf 0.6 0.6 0.6 c 2 1 1020 683 bf 2 1 1022 683 bf 0.8 0.8 0.8 c 2 1 1024 683 bf 0.9 0.9 0.9 c 2 1 1026 683 bf 0.8 0.8 0.8 c 2
 1 1028 683 bf 0.7 0.7 0.7 c 2 1 1030 683 bf 2 1 1032 683 bf 0.9 0.9 0.9 c 2 1 1034 683 bf 0.8 0.8 0.8 c 2 1 1036 683 bf 0.7 0.7 0.7 c 2 1 1038 683 bf 1 1 1040 683 bf 0.9 0.9 0.9 c 2 1 1041 683 bf 0.8 0.8 0.8 c 2 1 1043 683 bf 0.95 0.95 0.95 c 2 1
 1045 683 bf 0.9 0.9 0.9 c 2 1 1047 683 bf 0.95 0.95 0.95 c 2 1 1049 683 bf 2 1 1051 683 bf 0.8 0.8 0.8 c 2 1 1053 683 bf 0.95 0.95 0.95 c 2 1 1055 683 bf 2 1 1057 683 bf 0.9 0.9 0.9 c 2 1 1061 683 bf 0.95 0.95 0.95 c 2 1 1063 683 bf 0.9 0.9 0.9 c 1
 1 1065 683 bf 2 1 1066 683 bf 2 1 1068 683 bf 0.95 0.95 0.95 c 2 1 1070 683 bf 0.8 0.8 0.8 c 2 1 1072 683 bf 0.9 0.9 0.9 c 2 1 1078 683 bf 2 1 1080 683 bf 0.95 0.95 0.95 c 2 1 1082 683 bf 0.9 0.9 0.9 c 2 1 1084 683 bf 0.95 0.95 0.95 c 2 1 1086 683
 bf 0.9 0.9 0.9 c 2 1 1093 683 bf 0.95 0.95 0.95 c 2 1 1095 683 bf 2 1 1099 683 bf 2 1 1101 683 bf 2 1 1105 683 bf 2 1 1120 683 bf 2 1 1128 683 bf 2 1 1132 683 bf 2 1 1134 683 bf 2 1 1137 683 bf 0.9 0.9 0.9 c 2 2 1005 684 bf 0.95 0.95 0.95 c 2 2 1007
 684 bf 0.9 0.9 0.9 c 2 2 1009 684 bf 0.95 0.95 0.95 c 2 2 1011 684 bf 2 2 1013 684 bf 2 2 1015 684 bf 0.7 0.7 0.7 c 1 2 1017 684 bf 0.9 0.9 0.9 c 2 2 1018 684 bf 2 2 1020 684 bf 0.6 0.6 0.6 c 2 2 1022 684 bf 0.7 0.7 0.7 c 2 2 1024 684 bf 0.9 0.9 0.9
 c 2 2 1026 684 bf 2 2 1028 684 bf 2 2 1030 684 bf 2 2 1032 684 bf 2 2 1034 684 bf 0.95 0.95 0.95 c 2 2 1036 684 bf 0.9 0.9 0.9 c 2 2 1038 684 bf 1 2 1040 684 bf 2 2 1041 684 bf 2 2 1043 684 bf 2 2 1047 684 bf 0.95 0.95 0.95 c 2 2 1055 684 bf 2 2
 1061 684 bf 2 2 1066 684 bf 2 2 1068 684 bf 2 2 1070 684 bf 2 2 1074 684 bf 2 2 1082 684 bf 2 2 1084 684 bf 2 2 1091 684 bf 2 2 1093 684 bf 1 2 1113 684 bf 2 2 1114 684 bf 2 2 1118 684 bf 2 1 1003 686 bf 2 1 1005 686 bf 0.9 0.9 0.9 c 2 1 1009 686 bf
 2 1 1011 686 bf 2 1 1013 686 bf 0.95 0.95 0.95 c 2 1 1015 686 bf 0.7 0.7 0.7 c 1 1 1017 686 bf 0.9 0.9 0.9 c 2 1 1018 686 bf 0.95 0.95 0.95 c 2 1 1020 686 bf 0.9 0.9 0.9 c 2 1 1022 686 bf 2 1 1024 686 bf 0.7 0.7 0.7 c 2 1 1026 686 bf 0.95 0.95 0.95
 c 2 1 1030 686 bf 0.9 0.9 0.9 c 2 1 1032 686 bf 0.7 0.7 0.7 c 2 1 1034 686 bf 0.8 0.8 0.8 c 2 1 1038 686 bf 0.95 0.95 0.95 c 1 1 1040 686 bf 0.9 0.9 0.9 c 2 1 1041 686 bf 2 1 1043 686 bf 2 1 1045 686 bf 2 1 1047 686 bf 0.95 0.95 0.95 c 2 1 1055 686
 bf 2 1 1057 686 bf 0.9 0.9 0.9 c 2 1 1059 686 bf 0.95 0.95 0.95 c 2 1 1066 686 bf 2 1 1072 686 bf 2 1 1074 686 bf 2 1 1076 686 bf 2 1 1080 686 bf 2 1 1082 686 bf 2 1 1093 686 bf 0.9 0.9 0.9 c 2 1 1147 686 bf 0.95 0.95 0.95 c 2 1 871 687 bf 2 1 1007
 687 bf 0.7 0.7 0.7 c 2 1 1013 687 bf 0.95 0.95 0.95 c 1 1 1017 687 bf 0.9 0.9 0.9 c 2 1 1018 687 bf 2 1 1028 687 bf 0.95 0.95 0.95 c 2 1 1030 687 bf 2 1 1034 687 bf 0.9 0.9 0.9 c 1 1 1040 687 bf 2 1 1041 687 bf 0.95 0.95 0.95 c 2 1 1045 687 bf 2 1
 1057 687 bf 2 1 1059 687 bf 2 1 1063 687 bf 1 1 1065 687 bf 2 1 1068 687 bf 2 1 1078 687 bf 2 1 1082 687 bf 2 1 1095 687 bf 2 2 1003 688 bf 2 2 1005 688 bf 2 2 1007 688 bf 2 2 1009 688 bf 0.9 0.9 0.9 c 2 2 1013 688 bf 2 2 1015 688 bf 0.7 0.7 0.7 c 1
 2 1017 688 bf 0.9 0.9 0.9 c 2 2 1018 688 bf 2 2 1020 688 bf 2 2 1022 688 bf 0.95 0.95 0.95 c 2 2 1024 688 bf 2 2 1026 688 bf 2 2 1028 688 bf 2 2 1030 688 bf 0.9 0.9 0.9 c 2 2 1032 688 bf 0.95 0.95 0.95 c 2 2 1043 688 bf 2 2 1045 688 bf 2 2 1049 688
 bf 2 2 1057 688 bf 2 2 1061 688 bf 2 2 1072 688 bf 0.9 0.9 0.9 c 2 1 1003 690 bf 0.95 0.95 0.95 c 2 1 1009 690 bf 2 1 1011 690 bf 2 1 1013 690 bf 0.8 0.8 0.8 c 2 1 1015 690 bf 0.95 0.95 0.95 c 1 1 1017 690 bf 0.8 0.8 0.8 c 2 1 1018 690 bf 0.95 0.95
 0.95 c 2 1 1020 690 bf 0.9 0.9 0.9 c 2 1 1022 690 bf 2 1 1024 690 bf 2 1 1026 690 bf 0.95 0.95 0.95 c 2 1 1028 690 bf 0.9 0.9 0.9 c 2 1 1034 690 bf 0.95 0.95 0.95 c 2 1 1036 690 bf 0.9 0.9 0.9 c 2 1 1038 690 bf 0.95 0.95 0.95 c 2 1 1041 690 bf 2 1
 1047 690 bf 2 1 1053 690 bf 2 1 1086 690 bf 1 1 1088 690 bf 2 2 1007 691 bf 2 2 1011 691 bf 0.9 0.9 0.9 c 2 2 1015 691 bf 1 2 1017 691 bf 0.95 0.95 0.95 c 2 2 1018 691 bf 2 2 1020 691 bf 2 2 1022 691 bf 0.9 0.9 0.9 c 2 2 1024 691 bf 2 2 1026 691 bf
 0.95 0.95 0.95 c 2 2 1028 691 bf 2 2 1032 691 bf 2 2 1034 691 bf 1 2 1040 691 bf 2 2 1043 691 bf 2 2 1045 691 bf 2 2 1051 691 bf 2 2 1055 691 bf 2 1 1005 693 bf 2 1 1009 693 bf 0.9 0.9 0.9 c 2 1 1011 693 bf 2 1 1013 693 bf 0.95 0.95 0.95 c 2 1 1015
 693 bf 0.9 0.9 0.9 c 1 1 1017 693 bf 0.95 0.95 0.95 c 2 1 1018 693 bf 0.9 0.9 0.9 c 2 1 1020 693 bf 0.95 0.95 0.95 c 2 1 1022 693 bf 0.9 0.9 0.9 c 2 1 1024 693 bf 2 1 1026 693 bf 0.95 0.95 0.95 c 2 1 1028 693 bf 0.9 0.9 0.9 c 2 1 1030 693 bf 0.95
 0.95 0.95 c 2 1 1032 693 bf 2 1 1034 693 bf 0.9 0.9 0.9 c 2 1 1038 693 bf 2 1 1055 693 bf 0.95 0.95 0.95 c 2 1 1057 693 bf 0.9 0.9 0.9 c 1 1 1065 693 bf 0.95 0.95 0.95 c 2 1 1084 693 bf 0.9 0.9 0.9 c 2 1 1086 693 bf 0.95 0.95 0.95 c 2 1 1116 693 bf
 0.9 0.9 0.9 c 2 2 1011 694 bf 2 2 1015 694 bf 1 2 1017 694 bf 2 2 1018 694 bf 0.95 0.95 0.95 c 2 2 1020 694 bf 0.9 0.9 0.9 c 2 2 1022 694 bf 2 2 1024 694 bf 0.95 0.95 0.95 c 2 2 1026 694 bf 0.9 0.9 0.9 c 2 2 1028 694 bf 0.95 0.95 0.95 c 2 2 1030 694
 bf 2 2 1036 694 bf 2 2 1038 694 bf 2 2 1041 694 bf 2 2 1045 694 bf 2 2 1091 694 bf 2 2 1101 694 bf 2 1 1011 696 bf 0.9 0.9 0.9 c 2 1 1013 696 bf 0.7 0.7 0.7 c 2 1 1015 696 bf 0.9 0.9 0.9 c 1 1 1017 696 bf 2 1 1018 696 bf 0.7 0.7 0.7 c 2 1 1022 696
 bf 0.95 0.95 0.95 c 2 1 1024 696 bf 0.9 0.9 0.9 c 2 1 1026 696 bf 0.95 0.95 0.95 c 2 1 1028 696 bf 2 1 1030 696 bf 2 1 1032 696 bf 2 1 1034 696 bf 2 1 1038 696 bf 2 1 1053 696 bf 2 1 1118 696 bf 2 1 1126 696 bf 2 1 1009 697 bf 2 1 1011 697 bf 2 1
 1015 697 bf 1 1 1017 697 bf 2 1 1018 697 bf 2 1 1020 697 bf 2 1 1026 697 bf 2 1 1034 697 bf 0.9 0.9 0.9 c 2 1 1036 697 bf 0.95 0.95 0.95 c 1 1 1040 697 bf 2 1 1043 697 bf 2 1 1059 697 bf 2 1 1074 697 bf 2 1 1114 697 bf 2 2 1003 698 bf 2 2 1007 698
 bf 2 2 1009 698 bf 2 2 1011 698 bf 0.9 0.9 0.9 c 1 2 1017 698 bf 2 2 1018 698 bf 0.95 0.95 0.95 c 2 2 1020 698 bf 0.9 0.9 0.9 c 2 2 1026 698 bf 0.95 0.95 0.95 c 2 2 1028 698 bf 2 2 1032 698 bf 2 2 1043 698 bf 2 2 1045 698 bf 2 2 1047 698 bf 0.9 0.9
 0.9 c 2 2 1049 698 bf 0.95 0.95 0.95 c 2 1 1005 700 bf 0.9 0.9 0.9 c 2 1 1009 700 bf 2 1 1013 700 bf 2 1 1015 700 bf 0.95 0.95 0.95 c 2 1 1018 700 bf 2 1 1020 700 bf 2 1 1022 700 bf 2 1 1030 700 bf 2 1 1034 700 bf 2 1 1036 700 bf 1 1 1040 700 bf 2 1
 1041 700 bf 2 1 1043 700 bf 2 1 1049 700 bf 2 1 1063 700 bf 2 2 1009 701 bf 0.9 0.9 0.9 c 2 2 1013 701 bf 0.95 0.95 0.95 c 2 2 1015 701 bf 0.9 0.9 0.9 c 2 2 1018 701 bf 2 2 1020 701 bf 2 2 1022 701 bf 0.95 0.95 0.95 c 2 2 1024 701 bf 0.9 0.9 0.9 c 2
 2 1026 701 bf 2 2 1028 701 bf 2 2 1030 701 bf 0.95 0.95 0.95 c 2 2 1032 701 bf 0.9 0.9 0.9 c 2 2 1036 701 bf 0.95 0.95 0.95 c 2 2 1041 701 bf 2 2 1043 701 bf 2 2 1049 701 bf 2 1 1007 703 bf 2 1 1013 703 bf 2 1 1020 703 bf 2 1 1024 703 bf 2 1 1032
 703 bf 2 1 1038 703 bf 2 1 1053 703 bf 2 2 1013 704 bf 0.9 0.9 0.9 c 1 2 1017 704 bf 2 2 1018 704 bf 0.95 0.95 0.95 c 2 2 1022 704 bf 2 2 1026 704 bf 0.9 0.9 0.9 c 2 2 1032 704 bf 0.95 0.95 0.95 c 2 2 1034 704 bf 2 2 1051 704 bf 2 2 1222 704 bf 2 1
 1005 706 bf 2 1 1007 706 bf 2 1 1011 706 bf 2 1 1013 706 bf 0.9 0.9 0.9 c 2 1 1015 706 bf 0.95 0.95 0.95 c 2 1 1022 706 bf 2 1 1028 706 bf 2 1 1030 706 bf 2 1 1034 706 bf 2 1 1041 706 bf 2 1 1005 707 bf 0.9 0.9 0.9 c 2 1 1011 707 bf 2 1 1013 707 bf
 1 1 1017 707 bf 0.95 0.95 0.95 c 2 1 1018 707 bf 2 1 1024 707 bf 2 1 1026 707 bf 2 1 1028 707 bf 2 1 1057 707 bf 2 1 1068 707 bf 2 1 1097 707 bf 0.9 0.9 0.9 c 2 2 1015 708 bf 1 2 1017 708 bf 0.95 0.95 0.95 c 2 2 1020 708 bf 0.9 0.9 0.9 c 2 2 1022
 708 bf 0.95 0.95 0.95 c 2 2 1024 708 bf 0.9 0.9 0.9 c 2 2 1026 708 bf 0.95 0.95 0.95 c 2 2 1028 708 bf 2 2 1034 708 bf 1 2 1040 708 bf 1 1 1017 710 bf 2 1 1018 710 bf 2 1 1022 710 bf 2 1 1024 710 bf 2 1 1028 710 bf 2 1 1047 710 bf 2 1 1068 710 bf 1
 2 1017 711 bf 0.9 0.9 0.9 c 2 2 1026 711 bf 0.95 0.95 0.95 c 2 2 1034 711 bf 2 2 1080 711 bf 2 2 1120 711 bf 2 1 1007 713 bf 0.9 0.9 0.9 c 2 1 1015 713 bf 0.95 0.95 0.95 c 1 1 1017 713 bf 2 1 1018 713 bf 2 1 1022 713 bf 2 1 1024 713 bf 2 1 1032 713
 bf 2 1 1005 714 bf 2 1 1013 714 bf 2 1 1015 714 bf 0.9 0.9 0.9 c 2 1 1022 714 bf 0.95 0.95 0.95 c 2 1 1026 714 bf 0.9 0.9 0.9 c 2 1 1032 714 bf 0.95 0.95 0.95 c 2 1 1066 714 bf 2 2 1005 715 bf 0.8 0.8 0.8 c 2 2 1007 715 bf 0.9 0.9 0.9 c 2 2 1011 715
 bf 0.95 0.95 0.95 c 2 2 1013 715 bf 2 2 1015 715 bf 2 2 1020 715 bf 2 2 1022 715 bf 0.9 0.9 0.9 c 2 2 1024 715 bf 0.95 0.95 0.95 c 2 2 1026 715 bf 2 2 1045 715 bf 2 1 1011 717 bf 0.9 0.9 0.9 c 2 1 1013 717 bf 0.95 0.95 0.95 c 1 1 1017 717 bf 0.9 0.9
 0.9 c 2 1 1020 717 bf 0.95 0.95 0.95 c 2 1 1024 717 bf 2 1 1026 717 bf 2 1 1030 717 bf 0.9 0.9 0.9 c 2 1 1032 717 bf 0.95 0.95 0.95 c 2 1 1034 717 bf 2 1 1041 717 bf 2 1 1047 717 bf 2 2 1005 718 bf 2 2 1007 718 bf 1 2 1017 718 bf 2 2 1018 718 bf 2 2
 1020 718 bf 2 2 1022 718 bf 2 2 1024 718 bf 2 2 1026 718 bf 2 2 1028 718 bf 2 2 1105 718 bf 1 1 1017 720 bf 2 1 1022 720 bf 0.9 0.9 0.9 c 2 1 1024 720 bf 0.95 0.95 0.95 c 2 1 1026 720 bf 2 1 1028 720 bf 0.9 0.9 0.9 c 2 1 1030 720 bf 0.95 0.95 0.95 c
 2 1 1032 720 bf 0.9 0.9 0.9 c 2 1 1036 720 bf 0.95 0.95 0.95 c 2 2 1013 721 bf 1 2 1017 721 bf 2 2 1020 721 bf 2 2 1022 721 bf 0.9 0.9 0.9 c 2 2 1024 721 bf 2 1 1015 723 bf 1 1 1017 723 bf 0.95 0.95 0.95 c 2 1 1022 723 bf 2 1 1024 723 bf 2 1 1026
 723 bf 2 1 1028 723 bf 2 1 1047 723 bf 2 1 1049 723 bf 2 1 1055 723 bf 2 1 1005 724 bf 2 1 1007 724 bf 2 1 1015 724 bf 2 1 1018 724 bf 2 1 1020 724 bf 2 1 1024 724 bf 0.9 0.9 0.9 c 2 1 1030 724 bf 0.95 0.95 0.95 c 2 2 1015 725 bf 1 2 1017 725 bf 2 2
 1020 725 bf 2 2 1022 725 bf 2 2 1024 725 bf 2 2 1030 725 bf 2 2 1036 725 bf 2 2 1038 725 bf 0.9 0.9 0.9 c 2 1 1015 727 bf 1 1 1017 727 bf 0.95 0.95 0.95 c 2 1 1018 727 bf 2 1 1020 727 bf 2 2 1007 728 bf 2 2 1009 728 bf 2 2 1015 728 bf 0.9 0.9 0.9 c
 1 2 1017 728 bf 2 2 1022 728 bf 0.95 0.95 0.95 c 2 2 1024 728 bf 2 2 1026 728 bf 2 2 1028 728 bf 2 2 1032 728 bf 2 2 1036 728 bf 1 2 1040 728 bf 2 1 1007 730 bf 0.9 0.9 0.9 c 2 1 1013 730 bf 0.95 0.95 0.95 c 1 1 1017 730 bf 2 1 1018 730 bf 2 1 1020
 730 bf 2 1 1032 730 bf 2 1 1038 730 bf 2 2 1009 731 bf 2 2 1011 731 bf 2 2 1013 731 bf 1 2 1017 731 bf 2 2 1020 731 bf 1 1 1017 733 bf 2 1 1018 733 bf 2 1 1020 733 bf 2 1 1032 733 bf 2 1 1034 733 bf 2 1 1036 733 bf 2 1 1011 734 bf 2 1 1013 734 bf 2
 1 1018 734 bf 2 1 1020 734 bf 2 1 1024 734 bf 1 1 1040 734 bf 2 1 1043 734 bf 0.9 0.9 0.9 c 2 2 1007 735 bf 2 2 1013 735 bf 0.95 0.95 0.95 c 1 2 1017 735 bf 2 2 1024 735 bf 2 1 1013 737 bf 1 1 1017 737 bf 0.9 0.9 0.9 c 2 1 1018 737 bf 0.95 0.95 0.95
 c 2 1 1020 737 bf 2 1 1022 737 bf 2 2 1013 738 bf 1 2 1017 738 bf 2 2 1038 738 bf 2 2 1041 738 bf 2 1 1124 740 bf 0.9 0.9 0.9 c 2 2 1011 741 bf 0.95 0.95 0.95 c 2 2 1015 741 bf 2 2 1018 741 bf 2 2 1049 741 bf 2 1 1007 743 bf 2 1 1015 743 bf 2 1 1022
 743 bf 2 1 1028 743 bf 0.9 0.9 0.9 c 2 1 1034 743 bf 0.95 0.95 0.95 c 2 1 1038 743 bf 2 1 1005 744 bf 2 1 1013 744 bf 2 1 1015 744 bf 2 1 1034 744 bf 0.9 0.9 0.9 c 2 2 1018 745 bf 0.95 0.95 0.95 c 2 2 1030 745 bf 2 1 1013 747 bf 1 1 1017 747 bf 2 1
 1020 747 bf 0.9 0.9 0.9 c 2 1 1026 747 bf 0.95 0.95 0.95 c 2 1 1030 747 bf 2 2 1009 748 bf 2 2 1022 748 bf 2 2 1024 748 bf 2 2 1028 748 bf 2 2 1045 748 bf 0.9 0.9 0.9 c 2 1 1007 750 bf 0.95 0.95 0.95 c 2 1 1009 750 bf 2 1 1015 750 bf 2 1 1057 750 bf
 2 1 1009 751 bf 2 1 1015 751 bf 1 1 1017 751 bf 2 1 1018 751 bf 2 2 1009 752 bf 2 2 1018 752 bf 2 2 1024 752 bf 2 1 1013 754 bf 2 1 1022 754 bf 2 2 1015 755 bf 2 2 1018 755 bf 2 2 1020 755 bf 2 2 1032 755 bf 2 2 1053 755 bf 2 1 1024 757 bf 2 2 1030
 758 bf 1 1 1017 760 bf 2 1 1022 760 bf 2 1 1009 761 bf 2 1 1013 761 bf 2 1 1030 761 bf 2 2 1005 762 bf 2 2 1009 762 bf 2 2 1028 762 bf 2 2 1038 762 bf 1 2 1040 762 bf 2 1 1005 764 bf 2 1 1020 764 bf 2 1 1047 764 bf 2 2 1011 765 bf 1 2 1017 765 bf
 0.9 0.9 0.9 c 2 2 1024 765 bf 0.95 0.95 0.95 c 2 2 1026 765 bf 2 2 1028 765 bf 2 1 1026 767 bf 2 1 1028 767 bf 1 1 1040 767 bf 2 2 1026 768 bf 2 1 1022 770 bf 2 1 1011 771 bf 2 1 1070 771 bf 2 1 1082 771 bf 2 1 1093 771 bf 2 2 1009 772 bf 0.9 0.9
 0.9 c 2 2 1013 772 bf 0.95 0.95 0.95 c 1 2 1017 772 bf 1 1 1017 774 bf 2 1 1038 774 bf 2 2 1005 775 bf 2 2 1013 775 bf 2 2 1015 775 bf 2 1 1009 777 bf 2 1 1020 777 bf 2 1 1026 777 bf 2 2 1013 778 bf 2 2 1022 778 bf 2 2 1024 778 bf 2 1 1013 781 bf 1
 1 1040 781 bf 0.9 0.9 0.9 c 2 2 1020 782 bf 2 2 1022 782 bf 0.95 0.95 0.95 c 2 2 1028 782 bf 2 2 1036 782 bf 2 1 1015 784 bf 1 1 1017 784 bf 2 1 1022 784 bf 2 2 1026 785 bf 2 1 1020 787 bf 2 1 1022 787 bf 2 1 1028 787 bf 2 2 1036 789 bf 2 1 1015 791
 bf 2 2 1005 792 bf 2 1 1015 794 bf 2 2 1003 795 bf 2 2 1013 795 bf 2 2 1015 795 bf 1 2 1017 795 bf 2 2 1024 795 bf 2 2 1026 795 bf 0.9 0.9 0.9 c 2 2 1038 795 bf 0.95 0.95 0.95 c 2 1 1020 798 bf 2 1 1036 798 bf 2 2 1038 799 bf 2 1 1009 801 bf 2 2
 1011 802 bf 2 2 1022 802 bf 2 2 1030 802 bf 2 2 1105 802 bf 2 1 1026 804 bf 2 2 1020 805 bf 2 1 1022 808 bf 0.9 0.9 0.9 c 2 1 1024 808 bf 0.95 0.95 0.95 c 2 1 1034 808 bf 2 2 1005 809 bf 2 1 1007 811 bf 2 2 1018 812 bf 2 2 1020 815 bf 2 1 1026 817
 bf 2 1 1026 825 bf 1 2 1017 826 bf 2 2 1034 826 bf 2 1 1015 828 bf 2 1 1032 828 bf 2 1 1005 831 bf 2 1 1030 831 bf 2 1 1038 831 bf 1 1 1040 831 bf 2 2 1013 832 bf 0.9 0.9 0.9 c 2 2 1028 832 bf 0.95 0.95 0.95 c 2 1 1018 834 bf 2 2 1028 839 bf 2 2
 1013 842 bf 0.9 0.9 0.9 c 2 1 1005 845 bf 0.95 0.95 0.95 c 2 1 1026 845 bf 2 2 1013 846 bf 2 2 1026 846 bf 2 1 1013 851 bf 2 1 1018 851 bf 2 1 1022 851 bf 2 1 1024 851 bf 2 1 1018 854 bf 2 1 1013 855 bf 1 1 1017 855 bf 2 2 1022 856 bf 1 1 1017 858
 bf 2 1 1003 861 bf 2 1 1022 862 bf 2 2 1003 863 bf 2 1 1013 865 bf 2 1 1047 865 bf 2 1 1011 871 bf 1 1 1017 871 bf 2 1 1022 872 bf 2 1 1026 872 bf 2 2 1013 873 bf 2 1 1024 882 bf 2 1 1030 888 bf 2 1 1036 888 bf 2 1 1015 891 bf 2 1 1011 902 bf 2 1
 1015 912 bf 2 1 1030 912 bf 2 2 1013 913 bf 1 1 1017 915 bf 2 1 1028 919 bf 2 1 1022 928 bf 2 2 1009 957 bf 2 2 1038 957 bf 2 1 1013 962 bf 2 2 1013 967 bf 2 1 1055 1020 bf 2 2 1028 1071 bf 0.49 0.6 0.82 c black 871 681 m 576 X s
 gsave  710 565 779 600 C 1150.91 610.976 t 0 r /Helvetica findfont 28.5208 sf 0 0 m (B_PVFit_chi2_div_ndof		) show NC gr  916 695 m -14 Y s 932 688 m -7 Y s 949 688 m -7 Y s 966 688 m -7 Y s 982 688 m -7 Y s 999 695 m -14 Y s 1016 688 m -7 Y s 1033
 688 m -7 Y s 1049 688 m -7 Y s 1066 688 m -7 Y s 1083 695 m -14 Y s 1099 688 m -7 Y s 1116 688 m -7 Y s 1133 688 m -7 Y s 1149 688 m -7 Y s 1166 695 m -14 Y s 1183 688 m -7 Y s 1199 688 m -7 Y s 1216 688 m -7 Y s 1233 688 m -7 Y s 1249 695 m -14 Y s
 1266 688 m -7 Y s 1283 688 m -7 Y s 1299 688 m -7 Y s 1316 688 m -7 Y s 1333 695 m -14 Y s 1349 688 m -7 Y s 1366 688 m -7 Y s 1383 688 m -7 Y s 1399 688 m -7 Y s 1416 695 m -14 Y s 916 695 m -14 Y s 899 688 m -7 Y s 882 688 m -7 Y s 1416 695 m -14
 Y s 1433 688 m -7 Y s
 gsave  710 565 779 600 C 906.518 653.603 t 0 r /Helvetica findfont 25.6688 sf 0 0 m (10) show NC gr 
 gsave  710 565 779 600 C 892.31 653.603 t 0 r /Symbol findfont 25.6688 sf 0 0 m (-) show NC gr 
 gsave  710 565 779 600 C 988.929 653.603 t 0 r /Helvetica findfont 25.6688 sf 0 0 m (0) show NC gr 
 gsave  710 565 779 600 C 1065.66 653.603 t 0 r /Helvetica findfont 25.6688 sf 0 0 m (10) show NC gr 
 gsave  710 565 779 600 C 1150.91 653.603 t 0 r /Helvetica findfont 25.6688 sf 0 0 m (20) show NC gr 
 gsave  710 565 779 600 C 1233.32 653.603 t 0 r /Helvetica findfont 25.6688 sf 0 0 m (30) show NC gr 
 gsave  710 565 779 600 C 1315.73 653.603 t 0 r /Helvetica findfont 25.6688 sf 0 0 m (40) show NC gr 
 gsave  710 565 779 600 C 1400.98 653.603 t 0 r /Helvetica findfont 25.6688 sf 0 0 m (50) show NC gr  871 1108 m 576 X s 916 1095 m 13 Y s 932 1101 m 7 Y s 949 1101 m 7 Y s 966 1101 m 7 Y s 982 1101 m 7 Y s 999 1095 m 13 Y s 1016 1101 m 7 Y s 1033
 1101 m 7 Y s 1049 1101 m 7 Y s 1066 1101 m 7 Y s 1083 1095 m 13 Y s 1099 1101 m 7 Y s 1116 1101 m 7 Y s 1133 1101 m 7 Y s 1149 1101 m 7 Y s 1166 1095 m 13 Y s 1183 1101 m 7 Y s 1199 1101 m 7 Y s 1216 1101 m 7 Y s 1233 1101 m 7 Y s 1249 1095 m 13 Y s
 1266 1101 m 7 Y s 1283 1101 m 7 Y s 1299 1101 m 7 Y s 1316 1101 m 7 Y s 1333 1095 m 13 Y s 1349 1101 m 7 Y s 1366 1101 m 7 Y s 1383 1101 m 7 Y s 1399 1101 m 7 Y s 1416 1095 m 13 Y s 916 1095 m 13 Y s 899 1101 m 7 Y s 882 1101 m 7 Y s 1416 1095 m 13
 Y s 1433 1101 m 7 Y s 871 681 m 427 Y s
 gsave  710 565 779 600 C 807.057 798.532 t 90 r /Helvetica findfont 28.5208 sf 0 0 m (KSdau_Min_IPCHI2_PV			) show NC gr  887 757 m -16 X s 879 776 m -8 X s 879 795 m -8 X s 879 814 m -8 X s 887 833 m -16 X s 879 852 m -8 X s 879 871 m -8 X s 879
 890 m -8 X s 887 909 m -16 X s 879 928 m -8 X s 879 947 m -8 X s 879 966 m -8 X s 887 985 m -16 X s 879 1004 m -8 X s 879 1023 m -8 X s 879 1042 m -8 X s 887 1061 m -16 X s 887 757 m -16 X s 879 738 m -8 X s 879 719 m -8 X s 879 700 m -8 X s 887
 1061 m -16 X s 879 1080 m -8 X s 879 1100 m -8 X s
 gsave  710 565 779 600 C 804.215 747.38 t 0 r /Helvetica findfont 25.6688 sf 0 0 m (2000) show NC gr 
 gsave  710 565 779 600 C 804.215 824.108 t 0 r /Helvetica findfont 25.6688 sf 0 0 m (4000) show NC gr 
 gsave  710 565 779 600 C 804.215 897.993 t 0 r /Helvetica findfont 25.6688 sf 0 0 m (6000) show NC gr 
 gsave  710 565 779 600 C 804.215 974.72 t 0 r /Helvetica findfont 25.6688 sf 0 0 m (8000) show NC gr 
 gsave  710 565 779 600 C 790.007 1051.45 t 0 r /Helvetica findfont 25.6688 sf 0 0 m (10000) show NC gr  1447 681 m 427 Y s 1430 757 m 17 X s 1438 776 m 9 X s 1438 795 m 9 X s 1438 814 m 9 X s 1430 833 m 17 X s 1438 852 m 9 X s 1438 871 m 9 X s 1438
 890 m 9 X s 1430 909 m 17 X s 1438 928 m 9 X s 1438 947 m 9 X s 1438 966 m 9 X s 1430 985 m 17 X s 1438 1004 m 9 X s 1438 1023 m 9 X s 1438 1042 m 9 X s 1430 1061 m 17 X s 1430 757 m 17 X s 1438 738 m 9 X s 1438 719 m 9 X s 1438 700 m 9 X s 1430
 1061 m 17 X s 1438 1080 m 9 X s 1438 1100 m 9 X s 6 lw 0.81 0.37 0.38 c black 871 688 m 7 X s 878 688 m 7 X s 871 683 m 11 Y s 885 683 m 11 Y s 3 lw 878 688 m20 6 lw 1007 727 m 4 Y s 1007 731 m 5 Y s 1000 731 m 7 X s 1007 731 m 8 X s 1002 727 m 11 X
 s 1002 736 m 11 X s 1000 726 m 11 Y s 1015 726 m 11 Y s 3 lw 1007 731 m20 6 lw 1022 711 m 2 Y s 1022 713 m 2 Y s 1015 713 m 7 X s 1022 713 m 7 X s 1016 711 m 12 X s 1016 715 m 12 X s 1015 707 m 12 Y s 1029 707 m 12 Y s 3 lw 1022 713 m20 6 lw 1036
 698 m 2 Y s 1036 700 m 2 Y s 1029 700 m 7 X s 1036 700 m 7 X s 1031 698 m 11 X s 1031 702 m 11 X s 1029 694 m 12 Y s 1043 694 m 12 Y s 3 lw 1036 700 m20 6 lw 1051 687 m 2 Y s 1051 689 m 2 Y s 1043 689 m 8 X s 1051 689 m 7 X s 1045 687 m 11 X s 1045
 691 m 11 X s 1043 683 m 11 Y s 1058 683 m 11 Y s 3 lw 1051 689 m20 6 lw 1065 684 m 1 Y s 1065 685 m 1 Y s 1058 685 m 7 X s 1065 685 m 7 X s 1059 684 m 12 X s 1059 686 m 12 X s 1058 679 m 12 Y s 1072 679 m 12 Y s 3 lw 1065 685 m20 6 lw 1079 684 m 1 Y
 s 1079 685 m 1 Y s 1072 685 m 7 X s 1079 685 m 8 X s 1074 684 m 11 X s 1074 686 m 11 X s 1072 679 m 12 Y s 1087 679 m 12 Y s 3 lw 1079 685 m20 6 lw 1094 684 m 3 Y s 1094 687 m 3 Y s 1087 687 m 7 X s 1094 687 m 7 X s 1088 684 m 11 X s 1088 690 m 11 X
 s 1087 681 m 12 Y s 1101 681 m 12 Y s 3 lw 1094 687 m20 6 lw 1108 684 m 5 Y s 1108 689 m 4 Y s 1101 689 m 7 X s 1108 689 m 7 X s 1103 684 m 11 X s 1103 693 m 11 X s 1101 683 m 11 Y s 1115 683 m 11 Y s 3 lw 1108 689 m20 6 lw 1123 685 m 3 Y s 1123 688
 m 4 Y s 1115 688 m 8 X s 1123 688 m 7 X s 1117 685 m 11 X s 1117 692 m 11 X s 1115 683 m 11 Y s 1130 683 m 11 Y s 3 lw 1123 688 m20 6 lw 1137 682 m s 1137 682 m s 1130 682 m 7 X s 1137 682 m 7 X s 1131 682 m 12 X s 1131 682 m 12 X s 1130 676 m 12 Y
 s 1144 676 m 12 Y s 3 lw 1137 682 m20 6 lw 1151 683 m 1 Y s 1151 684 m 1 Y s 1144 684 m 7 X s 1151 684 m 8 X s 1146 683 m 11 X s 1146 685 m 11 X s 1144 678 m 12 Y s 1159 678 m 12 Y s 3 lw 1151 684 m20 6 lw 1166 682 m s 1166 682 m s 1159 682 m 7 X s
 1166 682 m 7 X s 1160 682 m 11 X s 1160 682 m 11 X s 1159 676 m 11 Y s 1173 676 m 11 Y s 3 lw 1166 682 m20 6 lw 1180 681 m 1 Y s 1180 682 m s 1173 682 m 7 X s 1180 682 m 7 X s 1174 681 m 12 X s 1174 682 m 12 X s 1173 676 m 11 Y s 1187 676 m 11 Y s 3
 lw 1180 682 m20 6 lw 1195 681 m s 1195 681 m s 1187 681 m 8 X s 1195 681 m 7 X s 1189 681 m 11 X s 1189 681 m 11 X s 1187 676 m 11 Y s 1202 676 m 11 Y s 3 lw 1195 681 m20 6 lw 1202 682 m 7 X s 1209 682 m 7 X s 1202 677 m 11 Y s 1216 677 m 11 Y s 3
 lw 1209 682 m20 6 lw 1216 705 m 7 X s 1223 705 m 8 X s 1216 699 m 11 Y s 1231 699 m 11 Y s 3 lw 1223 705 m20 6 lw 1259 682 m 8 X s 1267 682 m 7 X s 1259 676 m 11 Y s 1274 676 m 11 Y s 3 lw 1267 682 m20 6 lw 1274 682 m 7 X s 1281 682 m 7 X s 1274 676
 m 11 Y s 1288 676 m 11 Y s 3 lw 1281 682 m20 6 lw 3 lw 871 681 m 576 X s 916 695 m -14 Y s 932 688 m -7 Y s 949 688 m -7 Y s 966 688 m -7 Y s 982 688 m -7 Y s 999 695 m -14 Y s 1016 688 m -7 Y s 1033 688 m -7 Y s 1049 688 m -7 Y s 1066 688 m -7 Y s
 1083 695 m -14 Y s 1099 688 m -7 Y s 1116 688 m -7 Y s 1133 688 m -7 Y s 1149 688 m -7 Y s 1166 695 m -14 Y s 1183 688 m -7 Y s 1199 688 m -7 Y s 1216 688 m -7 Y s 1233 688 m -7 Y s 1249 695 m -14 Y s 1266 688 m -7 Y s 1283 688 m -7 Y s 1299 688 m
 -7 Y s 1316 688 m -7 Y s 1333 695 m -14 Y s 1349 688 m -7 Y s 1366 688 m -7 Y s 1383 688 m -7 Y s 1399 688 m -7 Y s 1416 695 m -14 Y s 916 695 m -14 Y s 899 688 m -7 Y s 882 688 m -7 Y s 1416 695 m -14 Y s 1433 688 m -7 Y s 871 1108 m 576 X s 916
 1095 m 13 Y s 932 1101 m 7 Y s 949 1101 m 7 Y s 966 1101 m 7 Y s 982 1101 m 7 Y s 999 1095 m 13 Y s 1016 1101 m 7 Y s 1033 1101 m 7 Y s 1049 1101 m 7 Y s 1066 1101 m 7 Y s 1083 1095 m 13 Y s 1099 1101 m 7 Y s 1116 1101 m 7 Y s 1133 1101 m 7 Y s 1149
 1101 m 7 Y s 1166 1095 m 13 Y s 1183 1101 m 7 Y s 1199 1101 m 7 Y s 1216 1101 m 7 Y s 1233 1101 m 7 Y s 1249 1095 m 13 Y s 1266 1101 m 7 Y s 1283 1101 m 7 Y s 1299 1101 m 7 Y s 1316 1101 m 7 Y s 1333 1095 m 13 Y s 1349 1101 m 7 Y s 1366 1101 m 7 Y s
 1383 1101 m 7 Y s 1399 1101 m 7 Y s 1416 1095 m 13 Y s 916 1095 m 13 Y s 899 1101 m 7 Y s 882 1101 m 7 Y s 1416 1095 m 13 Y s 1433 1101 m 7 Y s 871 681 m 427 Y s 887 757 m -16 X s 879 776 m -8 X s 879 795 m -8 X s 879 814 m -8 X s 887 833 m -16 X s
 879 852 m -8 X s 879 871 m -8 X s 879 890 m -8 X s 887 909 m -16 X s 879 928 m -8 X s 879 947 m -8 X s 879 966 m -8 X s 887 985 m -16 X s 879 1004 m -8 X s 879 1023 m -8 X s 879 1042 m -8 X s 887 1061 m -16 X s 887 757 m -16 X s 879 738 m -8 X s 879
 719 m -8 X s 879 700 m -8 X s 887 1061 m -16 X s 879 1080 m -8 X s 879 1100 m -8 X s 1447 681 m 427 Y s 1430 757 m 17 X s 1438 776 m 9 X s 1438 795 m 9 X s 1438 814 m 9 X s 1430 833 m 17 X s 1438 852 m 9 X s 1438 871 m 9 X s 1438 890 m 9 X s 1430
 909 m 17 X s 1438 928 m 9 X s 1438 947 m 9 X s 1438 966 m 9 X s 1430 985 m 17 X s 1438 1004 m 9 X s 1438 1023 m 9 X s 1438 1042 m 9 X s 1430 1061 m 17 X s 1430 757 m 17 X s 1438 738 m 9 X s 1438 719 m 9 X s 1438 700 m 9 X s 1430 1061 m 17 X s 1438
 1080 m 9 X s 1438 1100 m 9 X s 0.490196 0.545098 0.615686 c 0.364706 0.419608 0.490196 c 497 38 786 1124 bf 0.490196 0.545098 0.615686 c 786 1124 m 497 X s 1283 1124 m 38 Y s 1283 1162 m -497 X s 786 1162 m -38 Y s 1 1 1 c black 1 1 1 c
 gsave  710 565 779 600 C 787.165 1139.54 t 0 r /Helvetica-Bold findfont 14.2604 sf 0 0 m (KSdau_Min_IPCHI2_PV			 versus B_PVFit_chi2_div_ndof		 \(Background\)_Id) show NC gr  0.490196 0.545098 0.615686 c 1 1 1 c 711 565 1534 600 bf black 1 1 1 c 575
 427 1627 681 bf black 575 427 1627 681 bl 1 1 1 c 575 427 1627 681 bf black 575 427 1627 681 bl 0.49 0.6 0.82 c 0.9 0.9 0.9 c 2 2 1761 681 bf 0.95 0.95 0.95 c 2 2 1763 681 bf 2 2 1765 681 bf 2 2 1767 681 bf 0.6 0.6 0.6 c 2 2 1769 681 bf 0.7 0.7 0.7
 c 1 2 1771 681 bf 0.3 0.3 0.3 c 2 2 1772 681 bf 0.4 0.4 0.4 c 2 2 1774 681 bf 0.8 0.78 0.67 c 2 2 1776 681 bf 2 2 1778 681 bf 0.7 0.65 0.59 c 2 2 1780 681 bf 0.76 0.75 0.66 c 2 2 1782 681 bf 0.72 0.64 0.61 c 2 2 1784 681 bf 0.7 0.65 0.59 c 2 2 1786
 681 bf 0.68 0.6 0.55 c 2 2 1788 681 bf 0.8 0.78 0.67 c 2 2 1790 681 bf 0.53 0.4 0.34 c 2 2 1792 681 bf 0.72 0.64 0.61 c 1 2 1794 681 bf 2 2 1795 681 bf 0.73 0.71 0.64 c 2 2 1797 681 bf 0.72 0.64 0.61 c 2 2 1799 681 bf 2 2 1801 681 bf 0.8 0.78 0.67 c
 2 2 1803 681 bf 0.754 0.715 0.676 c 2 2 1805 681 bf 0.8 0.78 0.67 c 2 2 1807 681 bf 0.754 0.715 0.676 c 2 2 1809 681 bf 0.5 0.5 0.5 c 2 2 1811 681 bf 0.3 0.3 0.3 c 2 2 1813 681 bf 0.754 0.715 0.676 c 2 2 1815 681 bf 2 2 1817 681 bf 0.8 0.8 0.8 c 1 2
 1819 681 bf 0.4 0.4 0.4 c 2 2 1820 681 bf 2 2 1822 681 bf 2 2 1824 681 bf 0.3 0.3 0.3 c 2 2 1826 681 bf 0.7 0.7 0.7 c 2 2 1828 681 bf 0.6 0.6 0.6 c 2 2 1830 681 bf 0.7 0.7 0.7 c 2 2 1832 681 bf 0.8 0.8 0.8 c 2 2 1834 681 bf 0.95 0.95 0.95 c 2 2 1836
 681 bf 0.8 0.8 0.8 c 2 2 1838 681 bf 0.7 0.7 0.7 c 2 2 1840 681 bf 0.8 0.8 0.8 c 1 2 1842 681 bf 0.9 0.9 0.9 c 2 2 1843 681 bf 0.6 0.6 0.6 c 2 2 1845 681 bf 0.95 0.95 0.95 c 2 2 1847 681 bf 0.6 0.6 0.6 c 2 2 1849 681 bf 0.8 0.8 0.8 c 2 2 1851 681 bf
 2 2 1855 681 bf 0.9 0.9 0.9 c 2 2 1857 681 bf 2 2 1859 681 bf 0.95 0.95 0.95 c 2 2 1861 681 bf 2 2 1863 681 bf 2 2 1865 681 bf 1 2 1867 681 bf 0.9 0.9 0.9 c 2 2 1868 681 bf 0.8 0.8 0.8 c 2 2 1870 681 bf 0.95 0.95 0.95 c 2 2 1874 681 bf 2 2 1876 681
 bf 0.9 0.9 0.9 c 2 2 1878 681 bf 0.95 0.95 0.95 c 2 2 1880 681 bf 2 2 1882 681 bf 2 2 1884 681 bf 0.9 0.9 0.9 c 2 2 1886 681 bf 0.8 0.8 0.8 c 2 2 1888 681 bf 0.95 0.95 0.95 c 1 2 1890 681 bf 2 2 1893 681 bf 2 2 1895 681 bf 2 2 1899 681 bf 2 2 1903
 681 bf 0.9 0.9 0.9 c 2 2 1916 681 bf 0.95 0.95 0.95 c 2 2 1918 681 bf 2 2 1934 681 bf 2 2 1936 681 bf 2 2 1939 681 bf 2 2 1941 681 bf 2 2 1945 681 bf 0.9 0.9 0.9 c 2 2 1955 681 bf 0.95 0.95 0.95 c 2 2 2022 681 bf 2 2 2024 681 bf 2 2 2030 681 bf 1 1
 1627 683 bf 0.9 0.9 0.9 c 2 1 1761 683 bf 0.95 0.95 0.95 c 2 1 1763 683 bf 0.8 0.8 0.8 c 2 1 1765 683 bf 0.9 0.9 0.9 c 2 1 1767 683 bf 2 1 1769 683 bf 1 1 1771 683 bf 2 1 1772 683 bf 2 1 1774 683 bf 0.6 0.6 0.6 c 2 1 1776 683 bf 0.5 0.5 0.5 c 2 1
 1778 683 bf 0.7 0.7 0.7 c 2 1 1780 683 bf 0.8 0.8 0.8 c 2 1 1782 683 bf 0.7 0.7 0.7 c 2 1 1784 683 bf 0.6 0.6 0.6 c 2 1 1786 683 bf 2 1 1788 683 bf 2 1 1790 683 bf 0.7 0.7 0.7 c 2 1 1792 683 bf 0.6 0.6 0.6 c 1 1 1794 683 bf 2 1 1795 683 bf 0.7 0.7
 0.7 c 2 1 1797 683 bf 0.6 0.6 0.6 c 2 1 1799 683 bf 2 1 1801 683 bf 0.5 0.5 0.5 c 2 1 1803 683 bf 0.95 0.95 0.95 c 2 1 1805 683 bf 0.9 0.9 0.9 c 2 1 1807 683 bf 0.95 0.95 0.95 c 2 1 1809 683 bf 0.9 0.9 0.9 c 2 1 1811 683 bf 2 1 1813 683 bf 0.95 0.95
 0.95 c 2 1 1815 683 bf 0.8 0.8 0.8 c 2 1 1817 683 bf 1 1 1819 683 bf 2 1 1820 683 bf 2 1 1822 683 bf 0.9 0.9 0.9 c 2 1 1824 683 bf 0.95 0.95 0.95 c 2 1 1826 683 bf 0.7 0.7 0.7 c 2 1 1828 683 bf 0.9 0.9 0.9 c 2 1 1830 683 bf 0.95 0.95 0.95 c 2 1 1832
 683 bf 0.8 0.8 0.8 c 2 1 1834 683 bf 0.7 0.7 0.7 c 2 1 1836 683 bf 0.9 0.9 0.9 c 2 1 1838 683 bf 0.95 0.95 0.95 c 1 1 1842 683 bf 0.9 0.9 0.9 c 2 1 1857 683 bf 2 1 1859 683 bf 0.95 0.95 0.95 c 2 1 1861 683 bf 2 1 1863 683 bf 2 1 1865 683 bf 2 1 1872
 683 bf 2 1 1874 683 bf 2 1 1876 683 bf 2 1 1880 683 bf 2 1 1893 683 bf 2 1 1897 683 bf 0.9 0.9 0.9 c 2 1 1903 683 bf 0.95 0.95 0.95 c 2 1 1909 683 bf 2 1 1918 683 bf 0.9 0.9 0.9 c 2 2 1759 684 bf 2 2 1761 684 bf 2 2 1765 684 bf 0.8 0.8 0.8 c 2 2
 1767 684 bf 2 2 1769 684 bf 0.9 0.9 0.9 c 1 2 1771 684 bf 0.95 0.95 0.95 c 2 2 1772 684 bf 0.5 0.5 0.5 c 2 2 1774 684 bf 0.7 0.7 0.7 c 2 2 1776 684 bf 0.6 0.6 0.6 c 2 2 1778 684 bf 0.7 0.7 0.7 c 2 2 1780 684 bf 0.6 0.6 0.6 c 2 2 1782 684 bf 0.9 0.9
 0.9 c 2 2 1784 684 bf 0.8 0.8 0.8 c 2 2 1786 684 bf 0.9 0.9 0.9 c 2 2 1788 684 bf 0.7 0.7 0.7 c 2 2 1790 684 bf 0.9 0.9 0.9 c 2 2 1792 684 bf 0.6 0.6 0.6 c 1 2 1794 684 bf 0.8 0.8 0.8 c 2 2 1795 684 bf 0.6 0.6 0.6 c 2 2 1797 684 bf 0.7 0.7 0.7 c 2 2
 1799 684 bf 0.95 0.95 0.95 c 2 2 1801 684 bf 0.8 0.8 0.8 c 2 2 1803 684 bf 0.95 0.95 0.95 c 2 2 1805 684 bf 0.9 0.9 0.9 c 2 2 1807 684 bf 0.8 0.8 0.8 c 2 2 1809 684 bf 2 2 1811 684 bf 0.9 0.9 0.9 c 2 2 1813 684 bf 0.95 0.95 0.95 c 2 2 1815 684 bf
 0.8 0.8 0.8 c 2 2 1820 684 bf 0.95 0.95 0.95 c 2 2 1822 684 bf 2 2 1826 684 bf 2 2 1828 684 bf 2 2 1830 684 bf 2 2 1836 684 bf 1 2 1842 684 bf 2 2 1843 684 bf 2 2 1853 684 bf 2 2 1855 684 bf 2 2 1857 684 bf 2 2 1859 684 bf 2 2 1863 684 bf 2 2 1872
 684 bf 2 2 1884 684 bf 2 2 1903 684 bf 2 2 1962 684 bf 0.9 0.9 0.9 c 2 1 1759 686 bf 0.95 0.95 0.95 c 2 1 1765 686 bf 0.8 0.8 0.8 c 2 1 1767 686 bf 0.9 0.9 0.9 c 2 1 1769 686 bf 0.7 0.7 0.7 c 1 1 1771 686 bf 0.9 0.9 0.9 c 2 1 1772 686 bf 0.7 0.7 0.7
 c 2 1 1774 686 bf 0.9 0.9 0.9 c 2 1 1776 686 bf 0.8 0.8 0.8 c 2 1 1780 686 bf 0.7 0.7 0.7 c 2 1 1782 686 bf 0.9 0.9 0.9 c 2 1 1784 686 bf 0.8 0.8 0.8 c 2 1 1786 686 bf 2 1 1788 686 bf 2 1 1790 686 bf 2 1 1792 686 bf 0.95 0.95 0.95 c 1 1 1794 686 bf
 0.8 0.8 0.8 c 2 1 1795 686 bf 0.95 0.95 0.95 c 2 1 1797 686 bf 0.6 0.6 0.6 c 2 1 1799 686 bf 0.9 0.9 0.9 c 2 1 1801 686 bf 2 1 1803 686 bf 2 1 1805 686 bf 2 1 1809 686 bf 0.95 0.95 0.95 c 2 1 1813 686 bf 2 1 1815 686 bf 2 1 1817 686 bf 0.9 0.9 0.9 c
 1 1 1819 686 bf 0.95 0.95 0.95 c 2 1 1820 686 bf 2 1 1834 686 bf 2 1 1838 686 bf 1 1 1842 686 bf 2 1 1863 686 bf 2 1 1876 686 bf 2 1 1941 686 bf 2 1 1763 687 bf 2 1 1765 687 bf 0.8 0.8 0.8 c 2 1 1769 687 bf 0.9 0.9 0.9 c 1 1 1771 687 bf 0.6 0.6 0.6
 c 2 1 1772 687 bf 0.7 0.7 0.7 c 2 1 1774 687 bf 2 1 1776 687 bf 2 1 1778 687 bf 0.8 0.8 0.8 c 2 1 1780 687 bf 0.7 0.7 0.7 c 2 1 1782 687 bf 0.9 0.9 0.9 c 2 1 1784 687 bf 2 1 1786 687 bf 0.8 0.8 0.8 c 2 1 1788 687 bf 0.9 0.9 0.9 c 2 1 1790 687 bf
 0.95 0.95 0.95 c 1 1 1794 687 bf 0.8 0.8 0.8 c 2 1 1795 687 bf 0.95 0.95 0.95 c 2 1 1797 687 bf 0.9 0.9 0.9 c 2 1 1803 687 bf 0.95 0.95 0.95 c 2 1 1805 687 bf 0.9 0.9 0.9 c 2 1 1807 687 bf 2 1 1813 687 bf 0.95 0.95 0.95 c 2 1 1828 687 bf 2 1 1840
 687 bf 2 1 1843 687 bf 2 1 1849 687 bf 2 2 1759 688 bf 2 2 1763 688 bf 2 2 1765 688 bf 0.7 0.7 0.7 c 2 2 1769 688 bf 0.6 0.6 0.6 c 1 2 1771 688 bf 2 2 1772 688 bf 0.8 0.8 0.8 c 2 2 1774 688 bf 0.95 0.95 0.95 c 2 2 1776 688 bf 0.6 0.6 0.6 c 2 2 1778
 688 bf 0.8 0.8 0.8 c 2 2 1780 688 bf 0.95 0.95 0.95 c 2 2 1782 688 bf 0.8 0.8 0.8 c 2 2 1784 688 bf 0.95 0.95 0.95 c 2 2 1786 688 bf 0.8 0.8 0.8 c 2 2 1788 688 bf 2 2 1790 688 bf 0.9 0.9 0.9 c 1 2 1794 688 bf 0.95 0.95 0.95 c 2 2 1797 688 bf 2 2
 1799 688 bf 0.8 0.8 0.8 c 2 2 1801 688 bf 0.95 0.95 0.95 c 2 2 1803 688 bf 0.9 0.9 0.9 c 2 2 1805 688 bf 0.95 0.95 0.95 c 2 2 1807 688 bf 2 2 1815 688 bf 2 2 1824 688 bf 2 2 1828 688 bf 1 2 1842 688 bf 2 2 1851 688 bf 0.8 0.8 0.8 c 2 1 1761 690 bf
 0.95 0.95 0.95 c 2 1 1763 690 bf 0.9 0.9 0.9 c 2 1 1767 690 bf 2 1 1769 690 bf 0.95 0.95 0.95 c 1 1 1771 690 bf 0.7 0.7 0.7 c 2 1 1772 690 bf 0.95 0.95 0.95 c 2 1 1774 690 bf 2 1 1776 690 bf 0.7 0.7 0.7 c 2 1 1778 690 bf 0.8 0.8 0.8 c 2 1 1780 690
 bf 2 1 1782 690 bf 0.95 0.95 0.95 c 2 1 1784 690 bf 0.8 0.8 0.8 c 2 1 1788 690 bf 0.95 0.95 0.95 c 2 1 1790 690 bf 0.8 0.8 0.8 c 2 1 1792 690 bf 0.95 0.95 0.95 c 1 1 1794 690 bf 2 1 1797 690 bf 2 1 1799 690 bf 2 1 1801 690 bf 0.9 0.9 0.9 c 2 1 1809
 690 bf 0.95 0.95 0.95 c 2 1 1811 690 bf 2 1 1813 690 bf 0.9 0.9 0.9 c 2 1 1815 690 bf 0.95 0.95 0.95 c 2 1 1822 690 bf 2 1 1832 690 bf 2 1 1840 690 bf 2 1 1853 690 bf 2 2 1759 691 bf 0.9 0.9 0.9 c 2 2 1761 691 bf 0.8 0.8 0.8 c 2 2 1765 691 bf 0.9
 0.9 0.9 c 2 2 1767 691 bf 0.95 0.95 0.95 c 1 2 1771 691 bf 0.9 0.9 0.9 c 2 2 1772 691 bf 0.8 0.8 0.8 c 2 2 1774 691 bf 0.9 0.9 0.9 c 2 2 1776 691 bf 0.6 0.6 0.6 c 2 2 1778 691 bf 0.9 0.9 0.9 c 2 2 1780 691 bf 0.7 0.7 0.7 c 2 2 1782 691 bf 0.9 0.9
 0.9 c 2 2 1784 691 bf 0.95 0.95 0.95 c 2 2 1786 691 bf 0.9 0.9 0.9 c 2 2 1788 691 bf 0.95 0.95 0.95 c 2 2 1790 691 bf 0.9 0.9 0.9 c 1 2 1794 691 bf 0.95 0.95 0.95 c 2 2 1803 691 bf 0.9 0.9 0.9 c 2 2 1815 691 bf 0.95 0.95 0.95 c 2 2 1822 691 bf 2 2
 1832 691 bf 2 2 1836 691 bf 2 2 1857 691 bf 2 1 1763 693 bf 2 1 1765 693 bf 0.9 0.9 0.9 c 2 1 1767 693 bf 2 1 1769 693 bf 1 1 1771 693 bf 0.7 0.7 0.7 c 2 1 1772 693 bf 0.95 0.95 0.95 c 2 1 1774 693 bf 0.8 0.8 0.8 c 2 1 1776 693 bf 0.9 0.9 0.9 c 2 1
 1780 693 bf 2 1 1790 693 bf 0.95 0.95 0.95 c 2 1 1792 693 bf 2 1 1801 693 bf 2 1 1803 693 bf 0.9 0.9 0.9 c 2 1 1815 693 bf 2 1 1830 693 bf 0.95 0.95 0.95 c 2 1 1870 693 bf 0.9 0.9 0.9 c 2 2 1763 694 bf 0.8 0.8 0.8 c 2 2 1767 694 bf 0.9 0.9 0.9 c 2 2
 1769 694 bf 1 2 1771 694 bf 0.6 0.6 0.6 c 2 2 1772 694 bf 0.8 0.8 0.8 c 2 2 1774 694 bf 2 2 1776 694 bf 2 2 1778 694 bf 2 2 1780 694 bf 0.95 0.95 0.95 c 2 2 1782 694 bf 0.8 0.8 0.8 c 2 2 1784 694 bf 0.95 0.95 0.95 c 2 2 1788 694 bf 2 2 1790 694 bf 1
 2 1794 694 bf 0.9 0.9 0.9 c 2 2 1813 694 bf 0.95 0.95 0.95 c 2 2 1847 694 bf 2 2 1874 694 bf 2 2 1882 694 bf 0.8 0.8 0.8 c 2 1 1763 696 bf 0.95 0.95 0.95 c 2 1 1765 696 bf 2 1 1767 696 bf 2 1 1769 696 bf 1 1 1771 696 bf 0.7 0.7 0.7 c 2 1 1772 696 bf
 0.8 0.8 0.8 c 2 1 1774 696 bf 0.9 0.9 0.9 c 2 1 1776 696 bf 0.95 0.95 0.95 c 2 1 1778 696 bf 2 1 1780 696 bf 2 1 1784 696 bf 0.9 0.9 0.9 c 2 1 1786 696 bf 0.95 0.95 0.95 c 2 1 1788 696 bf 2 1 1795 696 bf 0.9 0.9 0.9 c 2 1 1799 696 bf 0.95 0.95 0.95
 c 2 1 1824 696 bf 2 1 1763 697 bf 0.9 0.9 0.9 c 1 1 1771 697 bf 2 1 1772 697 bf 2 1 1774 697 bf 2 1 1776 697 bf 0.95 0.95 0.95 c 2 1 1780 697 bf 2 1 1782 697 bf 0.8 0.8 0.8 c 2 1 1784 697 bf 0.95 0.95 0.95 c 2 1 1786 697 bf 2 1 1788 697 bf 2 1 1803
 697 bf 2 1 1805 697 bf 2 1 1811 697 bf 2 1 1840 697 bf 2 1 1843 697 bf 2 2 1761 698 bf 0.8 0.8 0.8 c 2 2 1763 698 bf 0.95 0.95 0.95 c 2 2 1769 698 bf 0.8 0.8 0.8 c 1 2 1771 698 bf 0.9 0.9 0.9 c 2 2 1772 698 bf 0.95 0.95 0.95 c 2 2 1774 698 bf 0.8
 0.8 0.8 c 2 2 1778 698 bf 0.9 0.9 0.9 c 2 2 1780 698 bf 0.95 0.95 0.95 c 2 2 1782 698 bf 2 2 1799 698 bf 2 2 1803 698 bf 2 2 1817 698 bf 0.9 0.9 0.9 c 2 2 1822 698 bf 0.95 0.95 0.95 c 2 2 1861 698 bf 2 2 1868 698 bf 0.9 0.9 0.9 c 2 1 1765 700 bf 2 1
 1767 700 bf 0.8 0.8 0.8 c 2 1 1769 700 bf 0.95 0.95 0.95 c 1 1 1771 700 bf 2 1 1772 700 bf 0.9 0.9 0.9 c 2 1 1774 700 bf 2 1 1776 700 bf 0.8 0.8 0.8 c 2 1 1778 700 bf 2 1 1780 700 bf 0.9 0.9 0.9 c 2 1 1782 700 bf 0.8 0.8 0.8 c 2 1 1784 700 bf 0.9
 0.9 0.9 c 2 1 1788 700 bf 0.95 0.95 0.95 c 2 1 1795 700 bf 2 1 1824 700 bf 2 2 1759 701 bf 0.9 0.9 0.9 c 2 2 1765 701 bf 0.95 0.95 0.95 c 2 2 1767 701 bf 2 2 1769 701 bf 0.8 0.8 0.8 c 1 2 1771 701 bf 0.9 0.9 0.9 c 2 2 1772 701 bf 0.95 0.95 0.95 c 2
 2 1776 701 bf 0.9 0.9 0.9 c 2 2 1778 701 bf 0.95 0.95 0.95 c 2 2 1782 701 bf 2 2 1784 701 bf 2 2 1786 701 bf 0.9 0.9 0.9 c 2 2 1790 701 bf 0.95 0.95 0.95 c 2 2 1795 701 bf 2 1 1761 703 bf 2 1 1769 703 bf 0.9 0.9 0.9 c 2 1 1772 703 bf 0.95 0.95 0.95
 c 2 1 1774 703 bf 2 1 1776 703 bf 2 1 1778 703 bf 2 1 1780 703 bf 2 1 1782 703 bf 2 1 1784 703 bf 2 1 1788 703 bf 2 1 1790 703 bf 0.9 0.9 0.9 c 2 1 1803 703 bf 0.95 0.95 0.95 c 2 1 1826 703 bf 2 1 1830 703 bf 2 1 1838 703 bf 2 1 1849 703 bf 2 1 1978
 703 bf 2 2 1769 704 bf 1 2 1771 704 bf 2 2 1772 704 bf 0.8 0.8 0.8 c 2 2 1774 704 bf 0.95 0.95 0.95 c 2 2 1778 704 bf 2 2 1780 704 bf 0.9 0.9 0.9 c 2 2 1782 704 bf 0.95 0.95 0.95 c 2 2 1784 704 bf 0.9 0.9 0.9 c 2 2 1786 704 bf 2 2 1790 704 bf 0.95
 0.95 0.95 c 2 2 1792 704 bf 1 2 1794 704 bf 0.9 0.9 0.9 c 2 2 1795 704 bf 0.95 0.95 0.95 c 2 2 1799 704 bf 2 2 1809 704 bf 2 1 1765 706 bf 2 1 1769 706 bf 0.9 0.9 0.9 c 1 1 1771 706 bf 0.8 0.8 0.8 c 2 1 1772 706 bf 0.95 0.95 0.95 c 2 1 1774 706 bf
 0.9 0.9 0.9 c 2 1 1778 706 bf 0.95 0.95 0.95 c 2 1 1780 706 bf 2 1 1782 706 bf 2 1 1784 706 bf 2 1 1786 706 bf 2 1 1792 706 bf 1 1 1794 706 bf 0.9 0.9 0.9 c 2 1 1763 707 bf 0.95 0.95 0.95 c 2 1 1765 707 bf 2 1 1772 707 bf 2 1 1776 707 bf 2 1 1778
 707 bf 2 1 1780 707 bf 2 1 1786 707 bf 2 1 1788 707 bf 1 1 1794 707 bf 2 1 1861 707 bf 0.9 0.9 0.9 c 2 2 1767 708 bf 0.95 0.95 0.95 c 2 2 1774 708 bf 2 2 1776 708 bf 2 2 1778 708 bf 0.8 0.8 0.8 c 2 2 1780 708 bf 2 2 1782 708 bf 0.95 0.95 0.95 c 2 2
 1784 708 bf 2 2 1786 708 bf 2 2 1788 708 bf 2 2 1797 708 bf 2 2 1811 708 bf 2 2 1813 708 bf 2 2 1832 708 bf 0.9 0.9 0.9 c 2 1 1761 710 bf 0.95 0.95 0.95 c 2 1 1765 710 bf 2 1 1769 710 bf 0.9 0.9 0.9 c 1 1 1771 710 bf 0.95 0.95 0.95 c 2 1 1774 710 bf
 2 1 1778 710 bf 2 1 1782 710 bf 2 1 1792 710 bf 2 2 1767 711 bf 2 2 1769 711 bf 1 2 1771 711 bf 0.9 0.9 0.9 c 2 2 1772 711 bf 0.95 0.95 0.95 c 2 2 1782 711 bf 2 2 1790 711 bf 2 2 1795 711 bf 2 2 1799 711 bf 2 2 1880 711 bf 2 1 1761 713 bf 2 1 1769
 713 bf 0.9 0.9 0.9 c 2 1 1772 713 bf 2 1 1774 713 bf 0.95 0.95 0.95 c 2 1 1780 713 bf 2 1 1784 713 bf 2 1 1792 713 bf 0.9 0.9 0.9 c 2 1 1769 714 bf 0.8 0.8 0.8 c 1 1 1771 714 bf 0.95 0.95 0.95 c 2 1 1772 714 bf 0.9 0.9 0.9 c 2 1 1776 714 bf 0.95
 0.95 0.95 c 2 1 1778 714 bf 0.9 0.9 0.9 c 2 1 1782 714 bf 0.95 0.95 0.95 c 2 1 1792 714 bf 2 1 1795 714 bf 0.8 0.8 0.8 c 2 2 1763 715 bf 0.95 0.95 0.95 c 2 2 1765 715 bf 2 2 1767 715 bf 0.9 0.9 0.9 c 2 2 1769 715 bf 1 2 1771 715 bf 0.95 0.95 0.95 c
 2 2 1772 715 bf 2 2 1774 715 bf 2 2 1782 715 bf 0.9 0.9 0.9 c 2 2 1784 715 bf 0.95 0.95 0.95 c 2 2 1786 715 bf 2 2 1792 715 bf 0.8 0.8 0.8 c 1 2 1794 715 bf 0.95 0.95 0.95 c 2 2 1801 715 bf 2 1 1765 717 bf 0.9 0.9 0.9 c 1 1 1771 717 bf 2 1 1776 717
 bf 0.95 0.95 0.95 c 2 1 1778 717 bf 2 1 1786 717 bf 2 1 1788 717 bf 0.9 0.9 0.9 c 2 1 1792 717 bf 0.95 0.95 0.95 c 2 1 1797 717 bf 0.9 0.9 0.9 c 2 2 1761 718 bf 0.8 0.8 0.8 c 2 2 1769 718 bf 0.95 0.95 0.95 c 2 2 1774 718 bf 2 2 1778 718 bf 0.9 0.9
 0.9 c 2 2 1780 718 bf 0.95 0.95 0.95 c 2 2 1782 718 bf 2 2 1790 718 bf 1 2 1794 718 bf 2 1 1761 720 bf 2 1 1765 720 bf 0.8 0.8 0.8 c 2 1 1769 720 bf 0.9 0.9 0.9 c 2 1 1772 720 bf 0.95 0.95 0.95 c 2 1 1774 720 bf 2 1 1780 720 bf 2 1 1784 720 bf 2 1
 1797 720 bf 2 1 1799 720 bf 0.8 0.8 0.8 c 2 2 1769 721 bf 0.9 0.9 0.9 c 1 2 1771 721 bf 2 2 1772 721 bf 2 2 1776 721 bf 2 2 1778 721 bf 0.95 0.95 0.95 c 2 2 1780 721 bf 1 2 1794 721 bf 2 1 1761 723 bf 0.8 0.8 0.8 c 2 1 1769 723 bf 0.95 0.95 0.95 c 1
 1 1771 723 bf 2 1 1778 723 bf 2 1 1876 723 bf 2 2 1761 725 bf 2 2 1763 725 bf 2 2 1765 725 bf 2 2 1776 725 bf 2 2 1782 725 bf 2 2 1784 725 bf 2 1 1763 727 bf 2 1 1767 727 bf 2 1 1772 727 bf 2 1 1778 727 bf 2 1 1784 727 bf 2 1 1792 727 bf 2 2 1767
 728 bf 0.9 0.9 0.9 c 2 2 1786 728 bf 0.95 0.95 0.95 c 1 2 1794 728 bf 2 2 1805 728 bf 0.9 0.9 0.9 c 2 1 1772 730 bf 0.95 0.95 0.95 c 2 1 1778 730 bf 2 1 1782 730 bf 2 1 1786 730 bf 2 1 1795 730 bf 2 2 1774 731 bf 2 2 1786 731 bf 2 1 1769 733 bf 2 1
 1772 733 bf 1 1 1771 734 bf 2 1 1780 734 bf 2 1 1782 734 bf 2 1 1795 734 bf 0.9 0.9 0.9 c 2 2 1759 735 bf 0.95 0.95 0.95 c 2 2 1769 735 bf 2 2 1774 735 bf 2 2 1784 735 bf 2 1 1776 737 bf 2 1 1780 737 bf 2 2 1774 738 bf 2 2 1776 738 bf 2 1 1769 740
 bf 2 1 1778 740 bf 2 1 1784 740 bf 2 1 1788 740 bf 2 1 1790 740 bf 2 2 1759 741 bf 2 2 1772 741 bf 1 2 1794 741 bf 2 2 1795 741 bf 2 2 1803 741 bf 2 1 1769 743 bf 2 1 1772 743 bf 2 1 1870 743 bf 2 1 1761 744 bf 2 1 1769 744 bf 1 1 1771 744 bf 2 1
 1772 744 bf 2 1 1778 744 bf 2 2 1780 745 bf 2 1 1772 747 bf 1 1 1794 747 bf 2 2 1769 748 bf 2 1 1769 750 bf 2 1 1780 750 bf 2 1 1782 751 bf 2 1 1786 751 bf 2 2 1761 752 bf 1 1 1771 754 bf 2 1 1792 754 bf 2 2 1769 755 bf 2 2 1772 755 bf 2 2 1780 755
 bf 2 2 1790 755 bf 2 1 1769 757 bf 2 1 1782 757 bf 2 1 1788 757 bf 2 2 1767 758 bf 0.9 0.9 0.9 c 2 2 1778 758 bf 0.95 0.95 0.95 c 2 2 1780 758 bf 2 1 1784 760 bf 2 1 1769 761 bf 2 1 1788 761 bf 1 1 1794 761 bf 2 1 1767 764 bf 2 1 1776 764 bf 2 2
 1772 765 bf 2 2 1782 765 bf 1 2 1794 765 bf 2 1 1782 770 bf 2 1 1769 771 bf 2 2 1782 772 bf 2 2 1792 772 bf 2 2 1811 778 bf 1 2 1771 782 bf 2 1 1805 784 bf 2 2 1769 785 bf 2 2 1784 785 bf 2 1 1765 788 bf 2 2 1778 799 bf 2 2 1782 802 bf 2 2 1788 889
 bf 2 1 1861 1029 bf 0.49 0.6 0.82 c black 1627 681 m 575 X s
 gsave  711 565 1534 600 C 1906.81 610.976 t 0 r /Helvetica findfont 28.5208 sf 0 0 m (B_PVFit_chi2_div_ndof		) show NC gr  1672 695 m -14 Y s 1688 688 m -7 Y s 1705 688 m -7 Y s 1722 688 m -7 Y s 1738 688 m -7 Y s 1755 695 m -14 Y s 1772 688 m -7 Y
 s 1788 688 m -7 Y s 1805 688 m -7 Y s 1822 688 m -7 Y s 1838 695 m -14 Y s 1855 688 m -7 Y s 1872 688 m -7 Y s 1888 688 m -7 Y s 1905 688 m -7 Y s 1922 695 m -14 Y s 1938 688 m -7 Y s 1955 688 m -7 Y s 1972 688 m -7 Y s 1989 688 m -7 Y s 2005 695 m
 -14 Y s 2022 688 m -7 Y s 2039 688 m -7 Y s 2055 688 m -7 Y s 2072 688 m -7 Y s 2089 695 m -14 Y s 2105 688 m -7 Y s 2122 688 m -7 Y s 2139 688 m -7 Y s 2155 688 m -7 Y s 2172 695 m -14 Y s 1672 695 m -14 Y s 1655 688 m -7 Y s 1638 688 m -7 Y s 2172
 695 m -14 Y s 2189 688 m -7 Y s
 gsave  711 565 1534 600 C 1662.42 653.603 t 0 r /Helvetica findfont 25.6688 sf 0 0 m (10) show NC gr 
 gsave  711 565 1534 600 C 1648.21 653.603 t 0 r /Symbol findfont 25.6688 sf 0 0 m (-) show NC gr 
 gsave  711 565 1534 600 C 1744.83 653.603 t 0 r /Helvetica findfont 25.6688 sf 0 0 m (0) show NC gr 
 gsave  711 565 1534 600 C 1821.56 653.603 t 0 r /Helvetica findfont 25.6688 sf 0 0 m (10) show NC gr 
 gsave  711 565 1534 600 C 1906.81 653.603 t 0 r /Helvetica findfont 25.6688 sf 0 0 m (20) show NC gr 
 gsave  711 565 1534 600 C 1989.22 653.603 t 0 r /Helvetica findfont 25.6688 sf 0 0 m (30) show NC gr 
 gsave  711 565 1534 600 C 2071.64 653.603 t 0 r /Helvetica findfont 25.6688 sf 0 0 m (40) show NC gr 
 gsave  711 565 1534 600 C 2156.89 653.603 t 0 r /Helvetica findfont 25.6688 sf 0 0 m (50) show NC gr  1627 1108 m 575 X s 1672 1095 m 13 Y s 1688 1101 m 7 Y s 1705 1101 m 7 Y s 1722 1101 m 7 Y s 1738 1101 m 7 Y s 1755 1095 m 13 Y s 1772 1101 m 7 Y s
 1788 1101 m 7 Y s 1805 1101 m 7 Y s 1822 1101 m 7 Y s 1838 1095 m 13 Y s 1855 1101 m 7 Y s 1872 1101 m 7 Y s 1888 1101 m 7 Y s 1905 1101 m 7 Y s 1922 1095 m 13 Y s 1938 1101 m 7 Y s 1955 1101 m 7 Y s 1972 1101 m 7 Y s 1989 1101 m 7 Y s 2005 1095 m
 13 Y s 2022 1101 m 7 Y s 2039 1101 m 7 Y s 2055 1101 m 7 Y s 2072 1101 m 7 Y s 2089 1095 m 13 Y s 2105 1101 m 7 Y s 2122 1101 m 7 Y s 2139 1101 m 7 Y s 2155 1101 m 7 Y s 2172 1095 m 13 Y s 1672 1095 m 13 Y s 1655 1101 m 7 Y s 1638 1101 m 7 Y s 2172
 1095 m 13 Y s 2189 1101 m 7 Y s 1627 681 m 427 Y s
 gsave  711 565 1534 600 C 1562.96 792.848 t 90 r /Helvetica findfont 28.5208 sf 0 0 m (KSdau_Max_IPCHI2_PV			) show NC gr  1643 766 m -16 X s 1635 782 m -8 X s 1635 799 m -8 X s 1635 816 m -8 X s 1635 833 m -8 X s 1643 850 m -16 X s 1635 867 m -8 X
 s 1635 883 m -8 X s 1635 900 m -8 X s 1635 917 m -8 X s 1643 934 m -16 X s 1635 951 m -8 X s 1635 968 m -8 X s 1635 985 m -8 X s 1635 1001 m -8 X s 1643 1018 m -16 X s 1635 1035 m -8 X s 1635 1052 m -8 X s 1635 1069 m -8 X s 1635 1086 m -8 X s 1643
 1103 m -16 X s 1643 766 m -16 X s 1635 749 m -8 X s 1635 732 m -8 X s 1635 715 m -8 X s 1635 698 m -8 X s 1643 1103 m -16 X s
 gsave  711 565 1534 600 C 1545.91 755.906 t 0 r /Helvetica findfont 25.6688 sf 0 0 m (10000) show NC gr 
 gsave  711 565 1534 600 C 1545.91 841.158 t 0 r /Helvetica findfont 25.6688 sf 0 0 m (20000) show NC gr 
 gsave  711 565 1534 600 C 1545.91 923.569 t 0 r /Helvetica findfont 25.6688 sf 0 0 m (30000) show NC gr 
 gsave  711 565 1534 600 C 1545.91 1008.82 t 0 r /Helvetica findfont 25.6688 sf 0 0 m (40000) show NC gr 
 gsave  711 565 1534 600 C 1545.91 1091.23 t 0 r /Helvetica findfont 25.6688 sf 0 0 m (50000) show NC gr  2202 681 m 427 Y s 2186 766 m 16 X s 2194 782 m 8 X s 2194 799 m 8 X s 2194 816 m 8 X s 2194 833 m 8 X s 2186 850 m 16 X s 2194 867 m 8 X s 2194
 883 m 8 X s 2194 900 m 8 X s 2194 917 m 8 X s 2186 934 m 16 X s 2194 951 m 8 X s 2194 968 m 8 X s 2194 985 m 8 X s 2194 1001 m 8 X s 2186 1018 m 16 X s 2194 1035 m 8 X s 2194 1052 m 8 X s 2194 1069 m 8 X s 2194 1086 m 8 X s 2186 1103 m 16 X s 2186
 766 m 16 X s 2194 749 m 8 X s 2194 732 m 8 X s 2194 715 m 8 X s 2194 698 m 8 X s 2186 1103 m 16 X s 6 lw 0.81 0.37 0.38 c black 1627 683 m 7 X s 1634 683 m 7 X s 1627 678 m 11 Y s 1641 678 m 11 Y s 3 lw 1634 683 m20 6 lw 1763 703 m 1 Y s 1763 704 m
 2 Y s 1756 704 m 7 X s 1763 704 m 8 X s 1758 703 m 11 X s 1758 706 m 11 X s 1756 699 m 11 Y s 1771 699 m 11 Y s 3 lw 1763 704 m20 6 lw 1778 697 m s 1778 697 m 1 Y s 1771 697 m 7 X s 1778 697 m 7 X s 1772 697 m 11 X s 1772 698 m 11 X s 1771 692 m 11
 Y s 1785 692 m 11 Y s 3 lw 1778 697 m20 6 lw 1792 691 m 1 Y s 1792 692 m 1 Y s 1785 692 m 7 X s 1792 692 m 7 X s 1786 691 m 12 X s 1786 693 m 12 X s 1785 686 m 12 Y s 1799 686 m 12 Y s 3 lw 1792 692 m20 6 lw 1807 685 m 1 Y s 1807 686 m 1 Y s 1799
 686 m 8 X s 1807 686 m 7 X s 1801 685 m 11 X s 1801 687 m 11 X s 1799 681 m 11 Y s 1814 681 m 11 Y s 3 lw 1807 686 m20 6 lw 1821 684 m 1 Y s 1821 685 m s 1814 685 m 7 X s 1821 685 m 7 X s 1815 684 m 12 X s 1815 685 m 12 X s 1814 679 m 11 Y s 1828
 679 m 11 Y s 3 lw 1821 685 m20 6 lw 1835 684 m 1 Y s 1835 685 m 1 Y s 1828 685 m 7 X s 1835 685 m 8 X s 1830 684 m 11 X s 1830 686 m 11 X s 1828 679 m 12 Y s 1843 679 m 12 Y s 3 lw 1835 685 m20 6 lw 1850 684 m 1 Y s 1850 685 m s 1843 685 m 7 X s
 1850 685 m 7 X s 1844 684 m 11 X s 1844 685 m 11 X s 1843 679 m 11 Y s 1857 679 m 11 Y s 3 lw 1850 685 m20 6 lw 1864 688 m 12 Y s 1864 700 m 11 Y s 1857 700 m 7 X s 1864 700 m 7 X s 1858 688 m 12 X s 1858 711 m 12 X s 1857 694 m 11 Y s 1871 694 m 11
 Y s 3 lw 1864 700 m20 6 lw 1879 685 m 2 Y s 1879 687 m 3 Y s 1871 687 m 8 X s 1879 687 m 7 X s 1873 685 m 11 X s 1873 690 m 11 X s 1871 682 m 11 Y s 1886 682 m 11 Y s 3 lw 1879 687 m20 6 lw 1893 682 m s 1893 682 m s 1886 682 m 7 X s 1893 682 m 7 X s
 1887 682 m 12 X s 1887 682 m 12 X s 1886 676 m 12 Y s 1900 676 m 12 Y s 3 lw 1893 682 m20 6 lw 1907 683 m 1 Y s 1907 684 m s 1900 684 m 7 X s 1907 684 m 7 X s 1902 683 m 11 X s 1902 684 m 11 X s 1900 678 m 11 Y s 1914 678 m 11 Y s 3 lw 1907 684 m20
 6 lw 1922 682 m s 1922 682 m 1 Y s 1914 682 m 8 X s 1922 682 m 7 X s 1916 682 m 11 X s 1916 683 m 11 X s 1914 676 m 12 Y s 1929 676 m 12 Y s 3 lw 1922 682 m20 6 lw 1936 682 m s 1936 682 m 1 Y s 1929 682 m 7 X s 1936 682 m 7 X s 1930 682 m 12 X s
 1930 683 m 12 X s 1929 677 m 11 Y s 1943 677 m 11 Y s 3 lw 1936 682 m20 6 lw 1950 681 m 1 Y s 1950 682 m s 1943 682 m 7 X s 1950 682 m 8 X s 1945 681 m 11 X s 1945 682 m 11 X s 1943 676 m 11 Y s 1958 676 m 11 Y s 3 lw 1950 682 m20 6 lw 1958 685 m 7
 X s 1965 685 m 7 X s 1958 680 m 11 Y s 1972 680 m 11 Y s 3 lw 1965 685 m20 6 lw 1972 703 m 7 X s 1979 703 m 7 X s 1972 698 m 11 Y s 1986 698 m 11 Y s 3 lw 1979 703 m20 6 lw 2022 681 m s 2022 681 m s 2015 681 m 7 X s 2022 681 m 8 X s 2017 681 m 11 X
 s 2017 681 m 11 X s 2015 676 m 11 Y s 2030 676 m 11 Y s 3 lw 2022 681 m20 6 lw 2037 681 m s 2037 681 m s 2030 681 m 7 X s 2037 681 m 7 X s 2031 681 m 12 X s 2031 681 m 12 X s 2030 676 m 11 Y s 2044 676 m 11 Y s 3 lw 2037 681 m20 6 lw 3 lw 1627 681 m
 575 X s 1672 695 m -14 Y s 1688 688 m -7 Y s 1705 688 m -7 Y s 1722 688 m -7 Y s 1738 688 m -7 Y s 1755 695 m -14 Y s 1772 688 m -7 Y s 1788 688 m -7 Y s 1805 688 m -7 Y s 1822 688 m -7 Y s 1838 695 m -14 Y s 1855 688 m -7 Y s 1872 688 m -7 Y s 1888
 688 m -7 Y s 1905 688 m -7 Y s 1922 695 m -14 Y s 1938 688 m -7 Y s 1955 688 m -7 Y s 1972 688 m -7 Y s 1989 688 m -7 Y s 2005 695 m -14 Y s 2022 688 m -7 Y s 2039 688 m -7 Y s 2055 688 m -7 Y s 2072 688 m -7 Y s 2089 695 m -14 Y s 2105 688 m -7 Y s
 2122 688 m -7 Y s 2139 688 m -7 Y s 2155 688 m -7 Y s 2172 695 m -14 Y s 1672 695 m -14 Y s 1655 688 m -7 Y s 1638 688 m -7 Y s 2172 695 m -14 Y s 2189 688 m -7 Y s 1627 1108 m 575 X s 1672 1095 m 13 Y s 1688 1101 m 7 Y s 1705 1101 m 7 Y s 1722 1101
 m 7 Y s 1738 1101 m 7 Y s 1755 1095 m 13 Y s 1772 1101 m 7 Y s 1788 1101 m 7 Y s 1805 1101 m 7 Y s 1822 1101 m 7 Y s 1838 1095 m 13 Y s 1855 1101 m 7 Y s 1872 1101 m 7 Y s 1888 1101 m 7 Y s 1905 1101 m 7 Y s 1922 1095 m 13 Y s 1938 1101 m 7 Y s 1955
 1101 m 7 Y s 1972 1101 m 7 Y s 1989 1101 m 7 Y s 2005 1095 m 13 Y s 2022 1101 m 7 Y s 2039 1101 m 7 Y s 2055 1101 m 7 Y s 2072 1101 m 7 Y s 2089 1095 m 13 Y s 2105 1101 m 7 Y s 2122 1101 m 7 Y s 2139 1101 m 7 Y s 2155 1101 m 7 Y s 2172 1095 m 13 Y s
 1672 1095 m 13 Y s 1655 1101 m 7 Y s 1638 1101 m 7 Y s 2172 1095 m 13 Y s 2189 1101 m 7 Y s 1627 681 m 427 Y s 1643 766 m -16 X s 1635 782 m -8 X s 1635 799 m -8 X s 1635 816 m -8 X s 1635 833 m -8 X s 1643 850 m -16 X s 1635 867 m -8 X s 1635 883 m
 -8 X s 1635 900 m -8 X s 1635 917 m -8 X s 1643 934 m -16 X s 1635 951 m -8 X s 1635 968 m -8 X s 1635 985 m -8 X s 1635 1001 m -8 X s 1643 1018 m -16 X s 1635 1035 m -8 X s 1635 1052 m -8 X s 1635 1069 m -8 X s 1635 1086 m -8 X s 1643 1103 m -16 X
 s 1643 766 m -16 X s 1635 749 m -8 X s 1635 732 m -8 X s 1635 715 m -8 X s 1635 698 m -8 X s 1643 1103 m -16 X s 2202 681 m 427 Y s 2186 766 m 16 X s 2194 782 m 8 X s 2194 799 m 8 X s 2194 816 m 8 X s 2194 833 m 8 X s 2186 850 m 16 X s 2194 867 m 8
 X s 2194 883 m 8 X s 2194 900 m 8 X s 2194 917 m 8 X s 2186 934 m 16 X s 2194 951 m 8 X s 2194 968 m 8 X s 2194 985 m 8 X s 2194 1001 m 8 X s 2186 1018 m 16 X s 2194 1035 m 8 X s 2194 1052 m 8 X s 2194 1069 m 8 X s 2194 1086 m 8 X s 2186 1103 m 16 X
 s 2186 766 m 16 X s 2194 749 m 8 X s 2194 732 m 8 X s 2194 715 m 8 X s 2194 698 m 8 X s 2186 1103 m 16 X s 0.490196 0.545098 0.615686 c 0.364706 0.419608 0.490196 c 497 38 1542 1124 bf 0.490196 0.545098 0.615686 c 1542 1124 m 497 X s 2039 1124 m 38
 Y s 2039 1162 m -497 X s 1542 1162 m -38 Y s 1 1 1 c black 1 1 1 c
 gsave  711 565 1534 600 C 1543.07 1139.54 t 0 r /Helvetica-Bold findfont 14.2604 sf 0 0 m (KSdau_Max_IPCHI2_PV			 versus B_PVFit_chi2_div_ndof		 \(Background\)_Id) show NC gr  0.490196 0.545098 0.615686 c 1 1 1 c 710 564 23 12 bf 0.490196 0.545098
 0.615686 c 1 1 1 c 710 564 779 12 bf 0.490196 0.545098 0.615686 c 1 1 1 c 711 564 1534 12 bf
 gr  gr showpage
end
%%EOF
