%!PS-Adobe-2.0 EPSF-2.0
%%BoundingBox:  0 0 567 544
%%Title: DataSet/plots/CorrelationMatrixB.eps: Correlations between MVA input variables (background)
%%Creator: ROOT Version 6.08/06
%%CreationDate: Thu Jul 26 15:55:33 2018
%%DocumentNeededResources: ProcSet (FontSetInit)
%%EndComments
%%BeginProlog
80 dict begin
/s {stroke} def /l {lineto} def /m {moveto} def /t {translate} def
/r {rotate} def /rl {roll}  def /R {repeat} def
/d {rlineto} def /rm {rmoveto} def /gr {grestore} def /f {eofill} def
/c {setrgbcolor} def /black {0 setgray} def /sd {setdash} def
/cl {closepath} def /sf {scalefont setfont} def /lw {setlinewidth} def
/box {m dup 0 exch d exch 0 d 0 exch neg d cl} def
/NC{systemdict begin initclip end}def/C{NC box clip newpath}def
/bl {box s} def /bf {gsave box gsave f grestore 1 lw [] 0 sd s grestore} def /Y { 0 exch d} def /X { 0 d} def 
/K {{pop pop 0 moveto} exch kshow} bind def
/ita {/ang 15 def gsave [1 0 ang dup sin exch cos div 1 0 0] concat} def 
/mp {newpath /y exch def /x exch def} def
/side {[w .77 mul w .23 mul] .385 w mul sd w 0 l currentpoint t -144 r} def
/mr {mp x y w2 0 360 arc} def /m24 {mr s} def /m20 {mr f} def
/mb {mp x y w2 add m w2 neg 0 d 0 w neg d w 0 d 0 w d cl} def
/mt {mp x y w2 add m w2 neg w neg d w 0 d cl} def
/m21 {mb f} def /m25 {mb s} def /m22 {mt f} def /m26{mt s} def
/m23 {mp x y w2 sub m w2 w d w neg 0 d cl f} def
/m27 {mp x y w2 add m w3 neg w2 neg d w3 w2 neg d w3 w2 d cl s} def
/m28 {mp x w2 sub y w2 sub w3 add m w3 0 d  0 w3 neg d w3 0 d 0 w3 d w3 0 d  0 w3 d w3 neg 0 d 0 w3 d w3 neg 0 d 0 w3 neg d w3 neg 0 d cl s } def
/m29 {mp gsave x w2 sub y w2 add w3 sub m currentpoint t 4 {side} repeat cl fill gr} def
/m30 {mp gsave x w2 sub y w2 add w3 sub m currentpoint t 4 {side} repeat cl s gr} def
/m31 {mp x y w2 sub m 0 w d x w2 sub y m w 0 d x w2 sub y w2 add m w w neg d x w2 sub y w2 sub m w w d s} def
/m32 {mp x y w2 sub m w2 w d w neg 0 d cl s} def
/m33 {mp x y w2 add m w3 neg w2 neg d w3 w2 neg d w3 w2 d cl f} def
/m34 {mp x w2 sub y w2 sub w3 add m w3 0 d  0 w3 neg d w3 0 d 0 w3 d w3 0 d  0 w3 d w3 neg 0 d 0 w3 d w3 neg 0 d 0 w3 neg d w3 neg 0 d cl f } def
/m2 {mp x y w2 sub m 0 w d x w2 sub y m w 0 d s} def
/m5 {mp x w2 sub y w2 sub m w w d x w2 sub y w2 add m w w neg d s} def
%%IncludeResource: ProcSet (FontSetInit)
%%IncludeResource: font Times-Roman
%%IncludeResource: font Times-Italic
%%IncludeResource: font Times-Bold
%%IncludeResource: font Times-BoldItalic
%%IncludeResource: font Helvetica
%%IncludeResource: font Helvetica-Oblique
%%IncludeResource: font Helvetica-Bold
%%IncludeResource: font Helvetica-BoldOblique
%%IncludeResource: font Courier
%%IncludeResource: font Courier-Oblique
%%IncludeResource: font Courier-Bold
%%IncludeResource: font Courier-BoldOblique
%%IncludeResource: font Symbol
%%IncludeResource: font ZapfDingbats
/reEncode {exch findfont dup length dict begin {1 index /FID eq  {pop pop} {def} ifelse } forall /Encoding exch def currentdict end dup /FontName get exch definefont pop } def [/Times-Bold /Times-Italic /Times-BoldItalic /Helvetica /Helvetica-Oblique
 /Helvetica-Bold /Helvetica-BoldOblique /Courier /Courier-Oblique /Courier-Bold /Courier-BoldOblique /Times-Roman /AvantGarde-Book /AvantGarde-BookOblique /AvantGarde-Demi /AvantGarde-DemiOblique /Bookman-Demi /Bookman-DemiItalic /Bookman-Light
 /Bookman-LightItalic /Helvetica-Narrow /Helvetica-Narrow-Bold /Helvetica-Narrow-BoldOblique /Helvetica-Narrow-Oblique /NewCenturySchlbk-Roman /NewCenturySchlbk-Bold /NewCenturySchlbk-BoldItalic /NewCenturySchlbk-Italic /Palatino-Bold
 /Palatino-BoldItalic /Palatino-Italic /Palatino-Roman ] {ISOLatin1Encoding reEncode } forall
%%EndProlog
%%BeginSetup
%%EndSetup
newpath  gsave  .25 .25 scale  gsave  0 0 t 0.490196 0.545098 0.615686 c[  ] 0 sd 3 lw 1 1 1 c 2268 2177 0 0 bf black 1 1 1 c 1678 1611 295 283 bf black 1678 1611 295 283 bl 1 1 1 c 1678 1611 295 283 bf black 1678 1611 295 283 bl 1 1 1 c 1 0 0 c 105
 101 295 283 bf 0 1 0.0533333 c 105 101 400 283 bf 0.133333 1 0 c 104 101 505 283 bf 0 1 0.333333 c 105 101 609 283 bf 0 1 0.0533333 c 105 101 714 283 bf 105 101 819 283 bf 105 101 924 283 bf 105 101 1029 283 bf 105 101 1134 283 bf 105 101 1239 283
 bf 105 101 1344 283 bf 104 101 1449 283 bf 105 101 1553 283 bf 0 1 0.333333 c 105 101 1658 283 bf 105 101 1763 283 bf 105 101 1868 283 bf 0 1 0.0533333 c 105 100 295 384 bf 1 0 0 c 105 100 400 384 bf 0 1 0.0533333 c 104 100 505 384 bf 0 1 0.333333 c
 105 100 609 384 bf 1 0.653333 0 c 105 100 714 384 bf 0 1 0.333333 c 105 100 819 384 bf 105 100 924 384 bf 1 0.933333 0 c 105 100 1029 384 bf 0 1 0.333333 c 105 100 1134 384 bf 0.413333 1 0 c 105 100 1239 384 bf 0.88 1 0 c 105 100 1344 384 bf 0 1
 0.0533333 c 104 100 1449 384 bf 105 100 1553 384 bf 0 1 0.333333 c 105 100 1658 384 bf 0.133333 1 0 c 105 100 1763 384 bf 105 100 1868 384 bf 105 101 295 484 bf 0 1 0.0533333 c 105 101 400 484 bf 1 0 0 c 104 101 505 484 bf 0 1 0.52 c 105 101 609 484
 bf 0 1 0.333333 c 105 101 714 484 bf 0 1 0.0533333 c 105 101 819 484 bf 0 1 0.333333 c 105 101 924 484 bf 105 101 1029 484 bf 0 1 0.0533333 c 105 101 1134 484 bf 0 1 0.333333 c 105 101 1239 484 bf 105 101 1344 484 bf 104 101 1449 484 bf 105 101 1553
 484 bf 105 101 1658 484 bf 0 1 0.8 c 105 101 1763 484 bf 105 101 1868 484 bf 0 1 0.333333 c 105 101 295 585 bf 105 101 400 585 bf 0 1 0.52 c 104 101 505 585 bf 1 0 0 c 105 101 609 585 bf 0 1 0.0533333 c 105 101 714 585 bf 105 101 819 585 bf 0.133333
 1 0 c 105 101 924 585 bf 0 1 0.0533333 c 105 101 1029 585 bf 105 101 1134 585 bf 105 101 1239 585 bf 105 101 1344 585 bf 0.413333 1 0 c 104 101 1449 585 bf 0 1 0.0533333 c 105 101 1553 585 bf 105 101 1658 585 bf 0.133333 1 0 c 105 101 1763 585 bf
 105 101 1868 585 bf 0 1 0.0533333 c 105 100 295 686 bf 1 0.653333 0 c 105 100 400 686 bf 0 1 0.333333 c 104 100 505 686 bf 0 1 0.0533333 c 105 100 609 686 bf 1 0 0 c 105 100 714 686 bf 0 1 0.333333 c 105 100 819 686 bf 105 100 924 686 bf 1 0.653333
 0 c 105 100 1029 686 bf 0 1 0.0533333 c 105 100 1134 686 bf 0.413333 1 0 c 105 100 1239 686 bf 1 0.466667 0 c 105 100 1344 686 bf 0 1 0.333333 c 104 100 1449 686 bf 0 1 0.0533333 c 105 100 1553 686 bf 0 1 0.333333 c 105 100 1658 686 bf 0.133333 1 0
 c 105 100 1763 686 bf 105 100 1868 686 bf 0 1 0.0533333 c 105 101 295 786 bf 0 1 0.333333 c 105 101 400 786 bf 0 1 0.0533333 c 104 101 505 786 bf 105 101 609 786 bf 0 1 0.333333 c 105 101 714 786 bf 1 0 0 c 105 101 819 786 bf 0 1 0.0533333 c 105 101
 924 786 bf 0 1 0.333333 c 105 101 1029 786 bf 105 101 1134 786 bf 105 101 1239 786 bf 105 101 1344 786 bf 0 1 0.0533333 c 104 101 1449 786 bf 0 1 0.333333 c 105 101 1553 786 bf 0 1 0.0533333 c 105 101 1658 786 bf 105 101 1763 786 bf 0 1 0.333333 c
 105 101 1868 786 bf 0 1 0.0533333 c 105 101 295 887 bf 0 1 0.333333 c 105 101 400 887 bf 104 101 505 887 bf 0.133333 1 0 c 105 101 609 887 bf 0 1 0.333333 c 105 101 714 887 bf 0 1 0.0533333 c 105 101 819 887 bf 1 0 0 c 105 101 924 887 bf 0 1
 0.333333 c 105 101 1029 887 bf 105 101 1134 887 bf 0.413333 1 0 c 105 101 1239 887 bf 105 101 1344 887 bf 0 1 0.0533333 c 104 101 1449 887 bf 105 101 1553 887 bf 105 101 1658 887 bf 105 101 1763 887 bf 0.133333 1 0 c 105 101 1868 887 bf 0 1
 0.0533333 c 105 100 295 988 bf 1 0.933333 0 c 105 100 400 988 bf 0 1 0.333333 c 104 100 505 988 bf 0 1 0.0533333 c 105 100 609 988 bf 1 0.653333 0 c 105 100 714 988 bf 0 1 0.333333 c 105 100 819 988 bf 105 100 924 988 bf 1 0 0 c 105 100 1029 988 bf
 0 1 0.0533333 c 105 100 1134 988 bf 0.6 1 0 c 105 100 1239 988 bf 0.88 1 0 c 105 100 1344 988 bf 0 1 0.333333 c 104 100 1449 988 bf 0 1 0.0533333 c 105 100 1553 988 bf 0 1 0.333333 c 105 100 1658 988 bf 0 1 0.0533333 c 105 100 1763 988 bf 0.133333 1
 0 c 105 100 1868 988 bf 0 1 0.0533333 c 105 101 295 1088 bf 0 1 0.333333 c 105 101 400 1088 bf 0 1 0.0533333 c 104 101 505 1088 bf 105 101 609 1088 bf 105 101 714 1088 bf 0 1 0.333333 c 105 101 819 1088 bf 105 101 924 1088 bf 0 1 0.0533333 c 105 101
 1029 1088 bf 1 0 0 c 105 101 1134 1088 bf 0 1 0.0533333 c 105 101 1239 1088 bf 105 101 1344 1088 bf 0 1 0.333333 c 104 101 1449 1088 bf 0 1 0.0533333 c 105 101 1553 1088 bf 0 1 0.333333 c 105 101 1658 1088 bf 0 1 0.0533333 c 105 101 1763 1088 bf 105
 101 1868 1088 bf 105 101 295 1189 bf 0.413333 1 0 c 105 101 400 1189 bf 0 1 0.333333 c 104 101 505 1189 bf 0 1 0.0533333 c 105 101 609 1189 bf 0.413333 1 0 c 105 101 714 1189 bf 0 1 0.333333 c 105 101 819 1189 bf 0.413333 1 0 c 105 101 924 1189 bf
 0.6 1 0 c 105 101 1029 1189 bf 0 1 0.0533333 c 105 101 1134 1189 bf 1 0 0 c 105 101 1239 1189 bf 0.88 1 0 c 105 101 1344 1189 bf 0 1 0.333333 c 104 101 1449 1189 bf 0 1 0.0533333 c 105 101 1553 1189 bf 105 101 1658 1189 bf 0.133333 1 0 c 105 101
 1763 1189 bf 105 101 1868 1189 bf 0 1 0.0533333 c 105 100 295 1290 bf 0.88 1 0 c 105 100 400 1290 bf 0 1 0.333333 c 104 100 505 1290 bf 0 1 0.0533333 c 105 100 609 1290 bf 1 0.466667 0 c 105 100 714 1290 bf 0 1 0.333333 c 105 100 819 1290 bf
 0.413333 1 0 c 105 100 924 1290 bf 0.88 1 0 c 105 100 1029 1290 bf 0 1 0.0533333 c 105 100 1134 1290 bf 0.88 1 0 c 105 100 1239 1290 bf 1 0 0 c 105 100 1344 1290 bf 0 1 0.333333 c 104 100 1449 1290 bf 0 1 0.0533333 c 105 100 1553 1290 bf 0 1
 0.333333 c 105 100 1658 1290 bf 0.133333 1 0 c 105 100 1763 1290 bf 0.413333 1 0 c 105 100 1868 1290 bf 0 1 0.0533333 c 105 101 295 1390 bf 105 101 400 1390 bf 0 1 0.333333 c 104 101 505 1390 bf 0.413333 1 0 c 105 101 609 1390 bf 0 1 0.333333 c 105
 101 714 1390 bf 0 1 0.0533333 c 105 101 819 1390 bf 105 101 924 1390 bf 0 1 0.333333 c 105 101 1029 1390 bf 105 101 1134 1390 bf 105 101 1239 1390 bf 105 101 1344 1390 bf 1 0 0 c 104 101 1449 1390 bf 0 1 0.0533333 c 105 101 1553 1390 bf 0.133333 1 0
 c 105 101 1658 1390 bf 0 1 0.333333 c 105 101 1763 1390 bf 0 1 0.52 c 105 101 1868 1390 bf 0 1 0.0533333 c 105 101 295 1491 bf 105 101 400 1491 bf 0 1 0.333333 c 104 101 505 1491 bf 0 1 0.0533333 c 105 101 609 1491 bf 105 101 714 1491 bf 0 1
 0.333333 c 105 101 819 1491 bf 0 1 0.0533333 c 105 101 924 1491 bf 105 101 1029 1491 bf 105 101 1134 1491 bf 105 101 1239 1491 bf 105 101 1344 1491 bf 104 101 1449 1491 bf 1 0 0 c 105 101 1553 1491 bf 0 1 0.0533333 c 105 101 1658 1491 bf 105 101
 1763 1491 bf 105 101 1868 1491 bf 0 1 0.333333 c 105 100 295 1592 bf 105 100 400 1592 bf 104 100 505 1592 bf 0 1 0.0533333 c 105 100 609 1592 bf 0 1 0.333333 c 105 100 714 1592 bf 0 1 0.0533333 c 105 100 819 1592 bf 105 100 924 1592 bf 0 1 0.333333
 c 105 100 1029 1592 bf 105 100 1134 1592 bf 0 1 0.0533333 c 105 100 1239 1592 bf 0 1 0.333333 c 105 100 1344 1592 bf 0.133333 1 0 c 104 100 1449 1592 bf 0 1 0.0533333 c 105 100 1553 1592 bf 1 0 0 c 105 100 1658 1592 bf 0 1 0.333333 c 105 100 1763
 1592 bf 105 100 1868 1592 bf 105 101 295 1692 bf 0.133333 1 0 c 105 101 400 1692 bf 0 1 0.8 c 104 101 505 1692 bf 0.133333 1 0 c 105 101 609 1692 bf 105 101 714 1692 bf 0 1 0.0533333 c 105 101 819 1692 bf 105 101 924 1692 bf 105 101 1029 1692 bf 105
 101 1134 1692 bf 0.133333 1 0 c 105 101 1239 1692 bf 105 101 1344 1692 bf 0 1 0.333333 c 104 101 1449 1692 bf 0 1 0.0533333 c 105 101 1553 1692 bf 0 1 0.333333 c 105 101 1658 1692 bf 1 0 0 c 105 101 1763 1692 bf 1 0.466667 0 c 105 101 1868 1692 bf 0
 1 0.333333 c 105 101 295 1793 bf 0.133333 1 0 c 105 101 400 1793 bf 0 1 0.8 c 104 101 505 1793 bf 0.133333 1 0 c 105 101 609 1793 bf 105 101 714 1793 bf 0 1 0.333333 c 105 101 819 1793 bf 0.133333 1 0 c 105 101 924 1793 bf 105 101 1029 1793 bf 0 1
 0.0533333 c 105 101 1134 1793 bf 0.133333 1 0 c 105 101 1239 1793 bf 0.413333 1 0 c 105 101 1344 1793 bf 0 1 0.52 c 104 101 1449 1793 bf 0 1 0.0533333 c 105 101 1553 1793 bf 0 1 0.333333 c 105 101 1658 1793 bf 1 0.466667 0 c 105 101 1763 1793 bf 1 0
 0 c 105 101 1868 1793 bf 0.386667 0 1 c 102 81 1984 283 bf 0.2 0 1 c 102 80 1984 364 bf 0 0.0800001 1 c 102 81 1984 444 bf 0 0.266667 1 c 102 80 1984 525 bf 0 0.546666 1 c 102 81 1984 605 bf 0 0.733333 1 c 102 80 1984 686 bf 0 1 0.986667 c 102 81
 1984 766 bf 0 1 0.8 c 102 80 1984 847 bf 0 1 0.52 c 102 81 1984 927 bf 0 1 0.333333 c 102 80 1984 1008 bf 0 1 0.0533333 c 102 81 1984 1088 bf 0.133333 1 0 c 102 80 1984 1169 bf 0.413333 1 0 c 102 81 1984 1249 bf 0.6 1 0 c 102 81 1984 1330 bf 0.88 1
 0 c 102 80 1984 1411 bf 1 0.933333 0 c 102 81 1984 1491 bf 1 0.653333 0 c 102 80 1984 1572 bf 1 0.466667 0 c 102 81 1984 1652 bf 1 0.186667 0 c 102 80 1984 1733 bf 1 0 0 c 102 81 1984 1813 bf black 2086 283 m 1611 Y s 2036 283 m 50 X s 2036 444 m 50
 X s 2036 605 m 50 X s 2036 766 m 50 X s 2036 927 m 50 X s 2036 1088 m 50 X s 2036 1249 m 50 X s 2036 1411 m 50 X s 2036 1572 m 50 X s 2036 1733 m 50 X s 2036 1894 m 50 X s
 gsave  2268 2177 0 0 C 2134.99 257.867 t 0 r /Helvetica findfont 72.0512 sf 0 0 m (100) show NC gr 
 gsave  2268 2177 0 0 C 2097.07 257.867 t 0 r /Symbol findfont 72.0512 sf 0 0 m (-) show NC gr 
 gsave  2268 2177 0 0 C 2134.99 420.931 t 0 r /Helvetica findfont 72.0512 sf 0 0 m (80) show NC gr 
 gsave  2268 2177 0 0 C 2097.07 420.931 t 0 r /Symbol findfont 72.0512 sf 0 0 m (-) show NC gr 
 gsave  2268 2177 0 0 C 2134.99 580.202 t 0 r /Helvetica findfont 72.0512 sf 0 0 m (60) show NC gr 
 gsave  2268 2177 0 0 C 2097.07 580.202 t 0 r /Symbol findfont 72.0512 sf 0 0 m (-) show NC gr 
 gsave  2268 2177 0 0 C 2134.99 743.265 t 0 r /Helvetica findfont 72.0512 sf 0 0 m (40) show NC gr 
 gsave  2268 2177 0 0 C 2097.07 743.265 t 0 r /Symbol findfont 72.0512 sf 0 0 m (-) show NC gr 
 gsave  2268 2177 0 0 C 2134.99 902.536 t 0 r /Helvetica findfont 72.0512 sf 0 0 m (20) show NC gr 
 gsave  2268 2177 0 0 C 2097.07 902.536 t 0 r /Symbol findfont 72.0512 sf 0 0 m (-) show NC gr 
 gsave  2268 2177 0 0 C 2097.07 1061.81 t 0 r /Helvetica findfont 72.0512 sf 0 0 m (0) show NC gr 
 gsave  2268 2177 0 0 C 2097.07 1224.87 t 0 r /Helvetica findfont 72.0512 sf 0 0 m (20) show NC gr 
 gsave  2268 2177 0 0 C 2097.07 1384.14 t 0 r /Helvetica findfont 72.0512 sf 0 0 m (40) show NC gr 
 gsave  2268 2177 0 0 C 2097.07 1547.2 t 0 r /Helvetica findfont 72.0512 sf 0 0 m (60) show NC gr 
 gsave  2268 2177 0 0 C 2097.07 1706.48 t 0 r /Helvetica findfont 72.0512 sf 0 0 m (80) show NC gr 
 gsave  2268 2177 0 0 C 2097.07 1869.54 t 0 r /Helvetica findfont 72.0512 sf 0 0 m (100) show NC gr  1 1 1 c black 295 283 m 1678 X s
 gsave  2268 2177 0 0 C 337.503 216.154 t -19 r /Helvetica findfont 53.0904 sf 0 0 m (B_ipchi2_ownpv				) show NC gr 
 gsave  2268 2177 0 0 C 443.684 216.154 t -19 r /Helvetica findfont 53.0904 sf 0 0 m (B_fdchi2_ownpv				) show NC gr 
 gsave  2268 2177 0 0 C 546.072 216.154 t -19 r /Helvetica findfont 53.0904 sf 0 0 m (B_PVFit_chi2_div_ndof		) show NC gr 
 gsave  2268 2177 0 0 C 652.253 216.154 t -19 r /Helvetica findfont 53.0904 sf 0 0 m (B_PT_ASYMMETRY				) show NC gr 
 gsave  2268 2177 0 0 C 758.434 216.154 t -19 r /Helvetica findfont 53.0904 sf 0 0 m (K_1_1270_ipchi2_ownpv		) show NC gr 
 gsave  2268 2177 0 0 C 860.822 216.154 t -19 r /Helvetica findfont 53.0904 sf 0 0 m (K_1_1270_plus_VERTEX		) show NC gr 
 gsave  2268 2177 0 0 C 967.003 216.154 t -19 r /Helvetica findfont 53.0904 sf 0 0 m (Z_D_minus_Z_B_div_error		) show NC gr 
 gsave  2268 2177 0 0 C 1073.18 216.154 t -19 r /Helvetica findfont 53.0904 sf 0 0 m (Bach_Min_IPCHI2_PV			) show NC gr 
 gsave  2268 2177 0 0 C 1175.57 216.154 t -19 r /Helvetica findfont 53.0904 sf 0 0 m (Bach_Min_PT					) show NC gr 
 gsave  2268 2177 0 0 C 1281.75 216.154 t -19 r /Helvetica findfont 53.0904 sf 0 0 m (DdauPi_Min_IPCHI2_PV		) show NC gr 
 gsave  2268 2177 0 0 C 1387.93 216.154 t -19 r /Helvetica findfont 53.0904 sf 0 0 m (DdauPi_Max_IPCHI2_PV		) show NC gr 
 gsave  2268 2177 0 0 C 1490.32 216.154 t -19 r /Helvetica findfont 53.0904 sf 0 0 m (Max_cos_phi_D0_bach			) show NC gr 
 gsave  2268 2177 0 0 C 1592.71 212.361 t -19 r /Helvetica findfont 53.0904 sf 0 0 m (Massh1h2					) show NC gr 
 gsave  2268 2177 0 0 C 1698.89 212.361 t -19 r /Helvetica findfont 53.0904 sf 0 0 m (Massh2h3					) show NC gr 
 gsave  2268 2177 0 0 C 1805.07 216.154 t -19 r /Helvetica findfont 53.0904 sf 0 0 m (KSdau_Min_IPCHI2_PV			) show NC gr 
 gsave  2268 2177 0 0 C 1911.25 216.154 t -19 r /Helvetica findfont 53.0904 sf 0 0 m (KSdau_Max_IPCHI2_PV			) show NC gr  295 331 m -48 Y s[ 4 8] 0 sd 295 1894 m -1611 Y s[  ] 0 sd 400 331 m -48 Y s[ 4 8] 0 sd 400 1894 m -1611 Y s[  ] 0 sd 505 331 m
 -48 Y s[ 4 8] 0 sd 505 1894 m -1611 Y s[  ] 0 sd 609 331 m -48 Y s[ 4 8] 0 sd 609 1894 m -1611 Y s[  ] 0 sd 714 331 m -48 Y s[ 4 8] 0 sd 714 1894 m -1611 Y s[  ] 0 sd 819 331 m -48 Y s[ 4 8] 0 sd 819 1894 m -1611 Y s[  ] 0 sd 924 331 m -48 Y s[ 4 8]
 0 sd 924 1894 m -1611 Y s[  ] 0 sd 1029 331 m -48 Y s[ 4 8] 0 sd 1029 1894 m -1611 Y s[  ] 0 sd 1134 331 m -48 Y s[ 4 8] 0 sd 1134 1894 m -1611 Y s[  ] 0 sd 1239 331 m -48 Y s[ 4 8] 0 sd 1239 1894 m -1611 Y s[  ] 0 sd 1344 331 m -48 Y s[ 4 8] 0 sd
 1344 1894 m -1611 Y s[  ] 0 sd 1449 331 m -48 Y s[ 4 8] 0 sd 1449 1894 m -1611 Y s[  ] 0 sd 1553 331 m -48 Y s[ 4 8] 0 sd 1553 1894 m -1611 Y s[  ] 0 sd 1658 331 m -48 Y s[ 4 8] 0 sd 1658 1894 m -1611 Y s[  ] 0 sd 1763 331 m -48 Y s[ 4 8] 0 sd 1763
 1894 m -1611 Y s[  ] 0 sd 1868 331 m -48 Y s[ 4 8] 0 sd 1868 1894 m -1611 Y s[  ] 0 sd 1973 331 m -48 Y s[ 4 8] 0 sd 1973 1894 m -1611 Y s[  ] 0 sd 295 1894 m 1678 X s 295 1845 m 49 Y s 400 1845 m 49 Y s 505 1845 m 49 Y s 609 1845 m 49 Y s 714 1845
 m 49 Y s 819 1845 m 49 Y s 924 1845 m 49 Y s 1029 1845 m 49 Y s 1134 1845 m 49 Y s 1239 1845 m 49 Y s 1344 1845 m 49 Y s 1449 1845 m 49 Y s 1553 1845 m 49 Y s 1658 1845 m 49 Y s 1763 1845 m 49 Y s 1868 1845 m 49 Y s 1973 1845 m 49 Y s 295 283 m 1611
 Y s
 gsave  2268 2177 0 0 C -117.557 318.542 t 0 r /Helvetica findfont 53.0904 sf 0 0 m (B_ipchi2_ownpv				) show NC gr 
 gsave  2268 2177 0 0 C -121.349 420.931 t 0 r /Helvetica findfont 53.0904 sf 0 0 m (B_fdchi2_ownpv				) show NC gr 
 gsave  2268 2177 0 0 C -284.413 515.735 t 0 r /Helvetica findfont 53.0904 sf 0 0 m (B_PVFit_chi2_div_ndof		) show NC gr 
 gsave  2268 2177 0 0 C -231.322 618.123 t 0 r /Helvetica findfont 53.0904 sf 0 0 m (B_PT_ASYMMETRY				) show NC gr 
 gsave  2268 2177 0 0 C -326.126 724.304 t 0 r /Helvetica findfont 53.0904 sf 0 0 m (K_1_1270_ipchi2_ownpv		) show NC gr 
 gsave  2268 2177 0 0 C -341.295 822.901 t 0 r /Helvetica findfont 53.0904 sf 0 0 m (K_1_1270_plus_VERTEX		) show NC gr 
 gsave  2268 2177 0 0 C -367.84 921.497 t 0 r /Helvetica findfont 53.0904 sf 0 0 m (Z_D_minus_Z_B_div_error		) show NC gr 
 gsave  2268 2177 0 0 C -269.244 1020.09 t 0 r /Helvetica findfont 53.0904 sf 0 0 m (Bach_Min_IPCHI2_PV			) show NC gr 
 gsave  2268 2177 0 0 C -64.4669 1122.48 t 0 r /Helvetica findfont 53.0904 sf 0 0 m (Bach_Min_PT					) show NC gr 
 gsave  2268 2177 0 0 C -322.334 1221.08 t 0 r /Helvetica findfont 53.0904 sf 0 0 m (DdauPi_Min_IPCHI2_PV		) show NC gr 
 gsave  2268 2177 0 0 C -337.503 1323.47 t 0 r /Helvetica findfont 53.0904 sf 0 0 m (DdauPi_Max_IPCHI2_PV		) show NC gr 
 gsave  2268 2177 0 0 C -284.413 1425.86 t 0 r /Helvetica findfont 53.0904 sf 0 0 m (Max_cos_phi_D0_bach			) show NC gr 
 gsave  2268 2177 0 0 C 26.5452 1520.66 t 0 r /Helvetica findfont 53.0904 sf 0 0 m (Massh1h2					) show NC gr 
 gsave  2268 2177 0 0 C 26.5452 1623.05 t 0 r /Helvetica findfont 53.0904 sf 0 0 m (Massh2h3					) show NC gr 
 gsave  2268 2177 0 0 C -307.166 1725.44 t 0 r /Helvetica findfont 53.0904 sf 0 0 m (KSdau_Min_IPCHI2_PV			) show NC gr 
 gsave  2268 2177 0 0 C -322.334 1827.83 t 0 r /Helvetica findfont 53.0904 sf 0 0 m (KSdau_Max_IPCHI2_PV			) show NC gr  345 283 m -50 X s[ 4 8] 0 sd 1973 283 m -1678 X s[  ] 0 sd 345 384 m -50 X s[ 4 8] 0 sd 1973 384 m -1678 X s[  ] 0 sd 345 484 m
 -50 X s[ 4 8] 0 sd 1973 484 m -1678 X s[  ] 0 sd 345 585 m -50 X s[ 4 8] 0 sd 1973 585 m -1678 X s[  ] 0 sd 345 686 m -50 X s[ 4 8] 0 sd 1973 686 m -1678 X s[  ] 0 sd 345 786 m -50 X s[ 4 8] 0 sd 1973 786 m -1678 X s[  ] 0 sd 345 887 m -50 X s[ 4 8]
 0 sd 1973 887 m -1678 X s[  ] 0 sd 345 988 m -50 X s[ 4 8] 0 sd 1973 988 m -1678 X s[  ] 0 sd 345 1088 m -50 X s[ 4 8] 0 sd 1973 1088 m -1678 X s[  ] 0 sd 345 1189 m -50 X s[ 4 8] 0 sd 1973 1189 m -1678 X s[  ] 0 sd 345 1290 m -50 X s[ 4 8] 0 sd
 1973 1290 m -1678 X s[  ] 0 sd 345 1390 m -50 X s[ 4 8] 0 sd 1973 1390 m -1678 X s[  ] 0 sd 345 1491 m -50 X s[ 4 8] 0 sd 1973 1491 m -1678 X s[  ] 0 sd 345 1592 m -50 X s[ 4 8] 0 sd 1973 1592 m -1678 X s[  ] 0 sd 345 1692 m -50 X s[ 4 8] 0 sd 1973
 1692 m -1678 X s[  ] 0 sd 345 1793 m -50 X s[ 4 8] 0 sd 1973 1793 m -1678 X s[  ] 0 sd 345 1894 m -50 X s[ 4 8] 0 sd 1973 1894 m -1678 X s[  ] 0 sd 1973 283 m 1611 Y s 1923 283 m 50 X s 1923 384 m 50 X s 1923 484 m 50 X s 1923 585 m 50 X s 1923 686
 m 50 X s 1923 786 m 50 X s 1923 887 m 50 X s 1923 988 m 50 X s 1923 1088 m 50 X s 1923 1189 m 50 X s 1923 1290 m 50 X s 1923 1390 m 50 X s 1923 1491 m 50 X s 1923 1592 m 50 X s 1923 1692 m 50 X s 1923 1793 m 50 X s 1923 1894 m 50 X s 0.490196
 0.545098 0.615686 c 0.364706 0.419608 0.490196 c 1587 128 23 2038 bf 0.490196 0.545098 0.615686 c 23 2038 m 1587 X s 1610 2038 m 128 Y s 1610 2166 m -1587 X s 23 2166 m -128 Y s 1 1 1 c black 1 1 1 c
 gsave  2268 2177 0 0 C 94.8042 2078.11 t 0 r /Helvetica-Bold findfont 94.8042 sf 0 0 m (Correlation Matrix \(background\)) show NC gr  black 1 1 1 c
 gsave  2268 2177 0 0 C 291.997 310.958 t 0 r /Helvetica-Bold findfont 60.6747 sf 0 0 m (100) show NC gr  black 1 1 1 c
 gsave  2268 2177 0 0 C 417.138 307.166 t 0 r /Helvetica-Bold findfont 60.6747 sf 0 0 m (  2) show NC gr  black 1 1 1 c
 gsave  2268 2177 0 0 C 511.943 310.958 t 0 r /Helvetica-Bold findfont 60.6747 sf 0 0 m ( 13) show NC gr  black 1 1 1 c
 gsave  2268 2177 0 0 C 621.916 310.958 t 0 r /Helvetica-Bold findfont 60.6747 sf 0 0 m ( \2555) show NC gr  black 1 1 1 c
 gsave  2268 2177 0 0 C 731.888 307.166 t 0 r /Helvetica-Bold findfont 60.6747 sf 0 0 m (  2) show NC gr  black 1 1 1 c
 gsave  2268 2177 0 0 C 834.277 307.166 t 0 r /Helvetica-Bold findfont 60.6747 sf 0 0 m (  2) show NC gr  black 1 1 1 c
 gsave  2268 2177 0 0 C 944.25 307.166 t 0 r /Helvetica-Bold findfont 60.6747 sf 0 0 m (  1) show NC gr  black 1 1 1 c
 gsave  2268 2177 0 0 C 1046.64 307.166 t 0 r /Helvetica-Bold findfont 60.6747 sf 0 0 m (  2) show NC gr  black 1 1 1 c
 gsave  2268 2177 0 0 C 1149.03 310.958 t 0 r /Helvetica-Bold findfont 60.6747 sf 0 0 m (  3) show NC gr  black 1 1 1 c
 gsave  2268 2177 0 0 C 1259 307.166 t 0 r /Helvetica-Bold findfont 60.6747 sf 0 0 m (  1) show NC gr  black 1 1 1 c
 gsave  2268 2177 0 0 C 1365.18 307.166 t 0 r /Helvetica-Bold findfont 60.6747 sf 0 0 m (  1) show NC gr  black 1 1 1 c
 gsave  2268 2177 0 0 C 1463.78 310.958 t 0 r /Helvetica-Bold findfont 60.6747 sf 0 0 m (  9) show NC gr  black 1 1 1 c
 gsave  2268 2177 0 0 C 1573.75 307.166 t 0 r /Helvetica-Bold findfont 60.6747 sf 0 0 m (  1) show NC gr  black 1 1 1 c
 gsave  2268 2177 0 0 C 1679.93 307.166 t 0 r /Helvetica-Bold findfont 60.6747 sf 0 0 m ( \2551) show NC gr  black 1 1 1 c
 gsave  2268 2177 0 0 C 1774.73 310.958 t 0 r /Helvetica-Bold findfont 60.6747 sf 0 0 m ( \2556) show NC gr  black 1 1 1 c
 gsave  2268 2177 0 0 C 1880.92 310.958 t 0 r /Helvetica-Bold findfont 60.6747 sf 0 0 m ( \2555) show NC gr  black 1 1 1 c
 gsave  2268 2177 0 0 C 310.958 409.554 t 0 r /Helvetica-Bold findfont 60.6747 sf 0 0 m (  2) show NC gr  black 1 1 1 c
 gsave  2268 2177 0 0 C 398.178 413.346 t 0 r /Helvetica-Bold findfont 60.6747 sf 0 0 m (100) show NC gr  black 1 1 1 c
 gsave  2268 2177 0 0 C 523.319 409.554 t 0 r /Helvetica-Bold findfont 60.6747 sf 0 0 m (  1) show NC gr  black 1 1 1 c
 gsave  2268 2177 0 0 C 621.916 409.554 t 0 r /Helvetica-Bold findfont 60.6747 sf 0 0 m ( \2557) show NC gr  black 1 1 1 c
 gsave  2268 2177 0 0 C 724.304 413.346 t 0 r /Helvetica-Bold findfont 60.6747 sf 0 0 m ( 64) show NC gr  black 1 1 1 c
 gsave  2268 2177 0 0 C 830.485 413.346 t 0 r /Helvetica-Bold findfont 60.6747 sf 0 0 m ( \2553) show NC gr  black 1 1 1 c
 gsave  2268 2177 0 0 C 936.666 409.554 t 0 r /Helvetica-Bold findfont 60.6747 sf 0 0 m ( \2554) show NC gr  black 1 1 1 c
 gsave  2268 2177 0 0 C 1039.05 413.346 t 0 r /Helvetica-Bold findfont 60.6747 sf 0 0 m ( 54) show NC gr  black 1 1 1 c
 gsave  2268 2177 0 0 C 1152.82 409.554 t 0 r /Helvetica-Bold findfont 60.6747 sf 0 0 m ( \2551) show NC gr  black 1 1 1 c
 gsave  2268 2177 0 0 C 1247.62 409.554 t 0 r /Helvetica-Bold findfont 60.6747 sf 0 0 m ( 22) show NC gr  black 1 1 1 c
 gsave  2268 2177 0 0 C 1353.8 409.554 t 0 r /Helvetica-Bold findfont 60.6747 sf 0 0 m ( 42) show NC gr  black 1 1 1 c
 gsave  2268 2177 0 0 C 1463.78 413.346 t 0 r /Helvetica-Bold findfont 60.6747 sf 0 0 m (  3) show NC gr  black 1 1 1 c
 gsave  2268 2177 0 0 C 1573.75 409.554 t 0 r /Helvetica-Bold findfont 60.6747 sf 0 0 m (  1) show NC gr  black 1 1 1 c
 gsave  2268 2177 0 0 C 1672.35 409.554 t 0 r /Helvetica-Bold findfont 60.6747 sf 0 0 m ( \2552) show NC gr  black 1 1 1 c
 gsave  2268 2177 0 0 C 1770.94 413.346 t 0 r /Helvetica-Bold findfont 60.6747 sf 0 0 m ( 10) show NC gr  black 1 1 1 c
 gsave  2268 2177 0 0 C 1877.12 409.554 t 0 r /Helvetica-Bold findfont 60.6747 sf 0 0 m ( 12) show NC gr  black 1 1 1 c
 gsave  2268 2177 0 0 C 303.373 511.943 t 0 r /Helvetica-Bold findfont 60.6747 sf 0 0 m ( 13) show NC gr  black 1 1 1 c
 gsave  2268 2177 0 0 C 420.931 508.151 t 0 r /Helvetica-Bold findfont 60.6747 sf 0 0 m (  1) show NC gr  black 1 1 1 c
 gsave  2268 2177 0 0 C 500.566 511.943 t 0 r /Helvetica-Bold findfont 60.6747 sf 0 0 m (100) show NC gr  black 1 1 1 c
 gsave  2268 2177 0 0 C 614.331 511.943 t 0 r /Helvetica-Bold findfont 60.6747 sf 0 0 m (\25515) show NC gr  black 1 1 1 c
 gsave  2268 2177 0 0 C 728.096 511.943 t 0 r /Helvetica-Bold findfont 60.6747 sf 0 0 m ( \2553) show NC gr  black 1 1 1 c
 gsave  2268 2177 0 0 C 834.277 511.943 t 0 r /Helvetica-Bold findfont 60.6747 sf 0 0 m (  8) show NC gr  black 1 1 1 c
 gsave  2268 2177 0 0 C 944.25 508.151 t 0 r /Helvetica-Bold findfont 60.6747 sf 0 0 m ( \2551) show NC gr  black 1 1 1 c
 gsave  2268 2177 0 0 C 1042.85 508.151 t 0 r /Helvetica-Bold findfont 60.6747 sf 0 0 m ( \2554) show NC gr  black 1 1 1 c
 gsave  2268 2177 0 0 C 1149.03 511.943 t 0 r /Helvetica-Bold findfont 60.6747 sf 0 0 m (  5) show NC gr  black 1 1 1 c
 gsave  2268 2177 0 0 C 1251.42 511.943 t 0 r /Helvetica-Bold findfont 60.6747 sf 0 0 m ( \2555) show NC gr  black 1 1 1 c
 gsave  2268 2177 0 0 C 1357.6 508.151 t 0 r /Helvetica-Bold findfont 60.6747 sf 0 0 m ( \2554) show NC gr  black 1 1 1 c
 gsave  2268 2177 0 0 C 1467.57 508.151 t 0 r /Helvetica-Bold findfont 60.6747 sf 0 0 m ( \2551) show NC gr  black 1 1 1 c
 gsave  2268 2177 0 0 C 1566.17 511.943 t 0 r /Helvetica-Bold findfont 60.6747 sf 0 0 m ( \2555) show NC gr  black 1 1 1 c
 gsave  2268 2177 0 0 C 1672.35 511.943 t 0 r /Helvetica-Bold findfont 60.6747 sf 0 0 m ( \2555) show NC gr  black 1 1 1 c
 gsave  2268 2177 0 0 C 1767.15 508.151 t 0 r /Helvetica-Bold findfont 60.6747 sf 0 0 m (\25524) show NC gr  black 1 1 1 c
 gsave  2268 2177 0 0 C 1877.12 508.151 t 0 r /Helvetica-Bold findfont 60.6747 sf 0 0 m (\25521) show NC gr  black 1 1 1 c
 gsave  2268 2177 0 0 C 307.166 614.331 t 0 r /Helvetica-Bold findfont 60.6747 sf 0 0 m ( \2555) show NC gr  black 1 1 1 c
 gsave  2268 2177 0 0 C 413.346 610.539 t 0 r /Helvetica-Bold findfont 60.6747 sf 0 0 m ( \2557) show NC gr  black 1 1 1 c
 gsave  2268 2177 0 0 C 508.151 614.331 t 0 r /Helvetica-Bold findfont 60.6747 sf 0 0 m (\25515) show NC gr  black 1 1 1 c
 gsave  2268 2177 0 0 C 606.747 614.331 t 0 r /Helvetica-Bold findfont 60.6747 sf 0 0 m (100) show NC gr  black 1 1 1 c
 gsave  2268 2177 0 0 C 834.277 610.539 t 0 r /Helvetica-Bold findfont 60.6747 sf 0 0 m (  4) show NC gr  black 1 1 1 c
 gsave  2268 2177 0 0 C 932.873 614.331 t 0 r /Helvetica-Bold findfont 60.6747 sf 0 0 m ( 13) show NC gr  black 1 1 1 c
 gsave  2268 2177 0 0 C 1050.43 610.539 t 0 r /Helvetica-Bold findfont 60.6747 sf 0 0 m (  1) show NC gr  black 1 1 1 c
 gsave  2268 2177 0 0 C 1149.03 614.331 t 0 r /Helvetica-Bold findfont 60.6747 sf 0 0 m (  3) show NC gr  black 1 1 1 c
 gsave  2268 2177 0 0 C 1255.21 614.331 t 0 r /Helvetica-Bold findfont 60.6747 sf 0 0 m (  9) show NC gr  black 1 1 1 c
 gsave  2268 2177 0 0 C 1361.39 614.331 t 0 r /Helvetica-Bold findfont 60.6747 sf 0 0 m (  3) show NC gr  black 1 1 1 c
 gsave  2268 2177 0 0 C 1459.98 610.539 t 0 r /Helvetica-Bold findfont 60.6747 sf 0 0 m ( 21) show NC gr  black 1 1 1 c
 gsave  2268 2177 0 0 C 1569.96 614.331 t 0 r /Helvetica-Bold findfont 60.6747 sf 0 0 m (  3) show NC gr  black 1 1 1 c
 gsave  2268 2177 0 0 C 1676.14 614.331 t 0 r /Helvetica-Bold findfont 60.6747 sf 0 0 m (  6) show NC gr  black 1 1 1 c
 gsave  2268 2177 0 0 C 1770.94 614.331 t 0 r /Helvetica-Bold findfont 60.6747 sf 0 0 m ( 18) show NC gr  black 1 1 1 c
 gsave  2268 2177 0 0 C 1877.12 614.331 t 0 r /Helvetica-Bold findfont 60.6747 sf 0 0 m ( 16) show NC gr  black 1 1 1 c
 gsave  2268 2177 0 0 C 310.958 712.928 t 0 r /Helvetica-Bold findfont 60.6747 sf 0 0 m (  2) show NC gr  black 1 1 1 c
 gsave  2268 2177 0 0 C 409.554 716.72 t 0 r /Helvetica-Bold findfont 60.6747 sf 0 0 m ( 64) show NC gr  black 1 1 1 c
 gsave  2268 2177 0 0 C 515.735 716.72 t 0 r /Helvetica-Bold findfont 60.6747 sf 0 0 m ( \2553) show NC gr  black 1 1 1 c
 gsave  2268 2177 0 0 C 712.928 716.72 t 0 r /Helvetica-Bold findfont 60.6747 sf 0 0 m (100) show NC gr  black 1 1 1 c
 gsave  2268 2177 0 0 C 830.485 712.928 t 0 r /Helvetica-Bold findfont 60.6747 sf 0 0 m ( \2554) show NC gr  black 1 1 1 c
 gsave  2268 2177 0 0 C 936.666 716.72 t 0 r /Helvetica-Bold findfont 60.6747 sf 0 0 m ( \2553) show NC gr  black 1 1 1 c
 gsave  2268 2177 0 0 C 1039.05 716.72 t 0 r /Helvetica-Bold findfont 60.6747 sf 0 0 m ( 69) show NC gr  black 1 1 1 c
 gsave  2268 2177 0 0 C 1149.03 712.928 t 0 r /Helvetica-Bold findfont 60.6747 sf 0 0 m (  2) show NC gr  black 1 1 1 c
 gsave  2268 2177 0 0 C 1247.62 716.72 t 0 r /Helvetica-Bold findfont 60.6747 sf 0 0 m ( 25) show NC gr  black 1 1 1 c
 gsave  2268 2177 0 0 C 1353.8 716.72 t 0 r /Helvetica-Bold findfont 60.6747 sf 0 0 m ( 76) show NC gr  black 1 1 1 c
 gsave  2268 2177 0 0 C 1467.57 712.928 t 0 r /Helvetica-Bold findfont 60.6747 sf 0 0 m ( \2551) show NC gr  black 1 1 1 c
 gsave  2268 2177 0 0 C 1672.35 716.72 t 0 r /Helvetica-Bold findfont 60.6747 sf 0 0 m ( \2553) show NC gr  black 1 1 1 c
 gsave  2268 2177 0 0 C 1770.94 712.928 t 0 r /Helvetica-Bold findfont 60.6747 sf 0 0 m ( 14) show NC gr  black 1 1 1 c
 gsave  2268 2177 0 0 C 1877.12 712.928 t 0 r /Helvetica-Bold findfont 60.6747 sf 0 0 m ( 17) show NC gr  black 1 1 1 c
 gsave  2268 2177 0 0 C 310.958 811.524 t 0 r /Helvetica-Bold findfont 60.6747 sf 0 0 m (  2) show NC gr  black 1 1 1 c
 gsave  2268 2177 0 0 C 413.346 815.316 t 0 r /Helvetica-Bold findfont 60.6747 sf 0 0 m ( \2553) show NC gr  black 1 1 1 c
 gsave  2268 2177 0 0 C 519.527 815.316 t 0 r /Helvetica-Bold findfont 60.6747 sf 0 0 m (  8) show NC gr  black 1 1 1 c
 gsave  2268 2177 0 0 C 625.708 811.524 t 0 r /Helvetica-Bold findfont 60.6747 sf 0 0 m (  4) show NC gr  black 1 1 1 c
 gsave  2268 2177 0 0 C 728.096 811.524 t 0 r /Helvetica-Bold findfont 60.6747 sf 0 0 m ( \2554) show NC gr  black 1 1 1 c
 gsave  2268 2177 0 0 C 815.316 815.316 t 0 r /Helvetica-Bold findfont 60.6747 sf 0 0 m (100) show NC gr  black 1 1 1 c
 gsave  2268 2177 0 0 C 940.458 815.316 t 0 r /Helvetica-Bold findfont 60.6747 sf 0 0 m (  8) show NC gr  black 1 1 1 c
 gsave  2268 2177 0 0 C 1042.85 815.316 t 0 r /Helvetica-Bold findfont 60.6747 sf 0 0 m ( \2556) show NC gr  black 1 1 1 c
 gsave  2268 2177 0 0 C 1145.23 815.316 t 0 r /Helvetica-Bold findfont 60.6747 sf 0 0 m ( \2556) show NC gr  black 1 1 1 c
 gsave  2268 2177 0 0 C 1259 811.524 t 0 r /Helvetica-Bold findfont 60.6747 sf 0 0 m ( \2551) show NC gr  black 1 1 1 c
 gsave  2268 2177 0 0 C 1357.6 815.316 t 0 r /Helvetica-Bold findfont 60.6747 sf 0 0 m ( \2553) show NC gr  black 1 1 1 c
 gsave  2268 2177 0 0 C 1463.78 815.316 t 0 r /Helvetica-Bold findfont 60.6747 sf 0 0 m (  9) show NC gr  black 1 1 1 c
 gsave  2268 2177 0 0 C 1566.17 811.524 t 0 r /Helvetica-Bold findfont 60.6747 sf 0 0 m ( \2552) show NC gr  black 1 1 1 c
 gsave  2268 2177 0 0 C 1679.93 811.524 t 0 r /Helvetica-Bold findfont 60.6747 sf 0 0 m (  1) show NC gr  black 1 1 1 c
 gsave  2268 2177 0 0 C 1888.5 811.524 t 0 r /Helvetica-Bold findfont 60.6747 sf 0 0 m ( \2551) show NC gr  black 1 1 1 c
 gsave  2268 2177 0 0 C 314.75 913.913 t 0 r /Helvetica-Bold findfont 60.6747 sf 0 0 m (  1) show NC gr  black 1 1 1 c
 gsave  2268 2177 0 0 C 413.346 913.913 t 0 r /Helvetica-Bold findfont 60.6747 sf 0 0 m ( \2554) show NC gr  black 1 1 1 c
 gsave  2268 2177 0 0 C 523.319 913.913 t 0 r /Helvetica-Bold findfont 60.6747 sf 0 0 m ( \2551) show NC gr  black 1 1 1 c
 gsave  2268 2177 0 0 C 618.123 917.705 t 0 r /Helvetica-Bold findfont 60.6747 sf 0 0 m ( 13) show NC gr  black 1 1 1 c
 gsave  2268 2177 0 0 C 728.096 917.705 t 0 r /Helvetica-Bold findfont 60.6747 sf 0 0 m ( \2553) show NC gr  black 1 1 1 c
 gsave  2268 2177 0 0 C 834.277 917.705 t 0 r /Helvetica-Bold findfont 60.6747 sf 0 0 m (  8) show NC gr  black 1 1 1 c
 gsave  2268 2177 0 0 C 921.497 917.705 t 0 r /Helvetica-Bold findfont 60.6747 sf 0 0 m (100) show NC gr  black 1 1 1 c
 gsave  2268 2177 0 0 C 1042.85 917.705 t 0 r /Helvetica-Bold findfont 60.6747 sf 0 0 m ( \2553) show NC gr  black 1 1 1 c
 gsave  2268 2177 0 0 C 1145.23 917.705 t 0 r /Helvetica-Bold findfont 60.6747 sf 0 0 m ( \2558) show NC gr  black 1 1 1 c
 gsave  2268 2177 0 0 C 1247.62 917.705 t 0 r /Helvetica-Bold findfont 60.6747 sf 0 0 m ( 29) show NC gr  black 1 1 1 c
 gsave  2268 2177 0 0 C 1357.6 913.913 t 0 r /Helvetica-Bold findfont 60.6747 sf 0 0 m ( 21) show NC gr  black 1 1 1 c
 gsave  2268 2177 0 0 C 1463.78 917.705 t 0 r /Helvetica-Bold findfont 60.6747 sf 0 0 m (  9) show NC gr  black 1 1 1 c
 gsave  2268 2177 0 0 C 1573.75 913.913 t 0 r /Helvetica-Bold findfont 60.6747 sf 0 0 m (  1) show NC gr  black 1 1 1 c
 gsave  2268 2177 0 0 C 1782.32 913.913 t 0 r /Helvetica-Bold findfont 60.6747 sf 0 0 m (  1) show NC gr  black 1 1 1 c
 gsave  2268 2177 0 0 C 1877.12 917.705 t 0 r /Helvetica-Bold findfont 60.6747 sf 0 0 m ( 13) show NC gr  black 1 1 1 c
 gsave  2268 2177 0 0 C 310.958 1012.51 t 0 r /Helvetica-Bold findfont 60.6747 sf 0 0 m (  2) show NC gr  black 1 1 1 c
 gsave  2268 2177 0 0 C 409.554 1016.3 t 0 r /Helvetica-Bold findfont 60.6747 sf 0 0 m ( 54) show NC gr  black 1 1 1 c
 gsave  2268 2177 0 0 C 515.735 1012.51 t 0 r /Helvetica-Bold findfont 60.6747 sf 0 0 m ( \2554) show NC gr  black 1 1 1 c
 gsave  2268 2177 0 0 C 629.5 1012.51 t 0 r /Helvetica-Bold findfont 60.6747 sf 0 0 m (  1) show NC gr  black 1 1 1 c
 gsave  2268 2177 0 0 C 724.304 1016.3 t 0 r /Helvetica-Bold findfont 60.6747 sf 0 0 m ( 69) show NC gr  black 1 1 1 c
 gsave  2268 2177 0 0 C 830.485 1016.3 t 0 r /Helvetica-Bold findfont 60.6747 sf 0 0 m ( \2556) show NC gr  black 1 1 1 c
 gsave  2268 2177 0 0 C 936.666 1016.3 t 0 r /Helvetica-Bold findfont 60.6747 sf 0 0 m ( \2553) show NC gr  black 1 1 1 c
 gsave  2268 2177 0 0 C 1027.68 1016.3 t 0 r /Helvetica-Bold findfont 60.6747 sf 0 0 m (100) show NC gr  black 1 1 1 c
 gsave  2268 2177 0 0 C 1149.03 1016.3 t 0 r /Helvetica-Bold findfont 60.6747 sf 0 0 m (  9) show NC gr  black 1 1 1 c
 gsave  2268 2177 0 0 C 1247.62 1016.3 t 0 r /Helvetica-Bold findfont 60.6747 sf 0 0 m ( 36) show NC gr  black 1 1 1 c
 gsave  2268 2177 0 0 C 1357.6 1012.51 t 0 r /Helvetica-Bold findfont 60.6747 sf 0 0 m ( 41) show NC gr  black 1 1 1 c
 gsave  2268 2177 0 0 C 1459.98 1016.3 t 0 r /Helvetica-Bold findfont 60.6747 sf 0 0 m ( \2553) show NC gr  black 1 1 1 c
 gsave  2268 2177 0 0 C 1672.35 1012.51 t 0 r /Helvetica-Bold findfont 60.6747 sf 0 0 m ( \2554) show NC gr  black 1 1 1 c
 gsave  2268 2177 0 0 C 1778.53 1012.51 t 0 r /Helvetica-Bold findfont 60.6747 sf 0 0 m (  7) show NC gr  black 1 1 1 c
 gsave  2268 2177 0 0 C 1877.12 1012.51 t 0 r /Helvetica-Bold findfont 60.6747 sf 0 0 m ( 14) show NC gr  black 1 1 1 c
 gsave  2268 2177 0 0 C 310.958 1118.69 t 0 r /Helvetica-Bold findfont 60.6747 sf 0 0 m (  3) show NC gr  black 1 1 1 c
 gsave  2268 2177 0 0 C 420.931 1114.9 t 0 r /Helvetica-Bold findfont 60.6747 sf 0 0 m ( \2551) show NC gr  black 1 1 1 c
 gsave  2268 2177 0 0 C 519.527 1118.69 t 0 r /Helvetica-Bold findfont 60.6747 sf 0 0 m (  5) show NC gr  black 1 1 1 c
 gsave  2268 2177 0 0 C 625.708 1118.69 t 0 r /Helvetica-Bold findfont 60.6747 sf 0 0 m (  3) show NC gr  black 1 1 1 c
 gsave  2268 2177 0 0 C 731.888 1114.9 t 0 r /Helvetica-Bold findfont 60.6747 sf 0 0 m (  2) show NC gr  black 1 1 1 c
 gsave  2268 2177 0 0 C 830.485 1118.69 t 0 r /Helvetica-Bold findfont 60.6747 sf 0 0 m ( \2556) show NC gr  black 1 1 1 c
 gsave  2268 2177 0 0 C 936.666 1118.69 t 0 r /Helvetica-Bold findfont 60.6747 sf 0 0 m ( \2558) show NC gr  black 1 1 1 c
 gsave  2268 2177 0 0 C 1046.64 1118.69 t 0 r /Helvetica-Bold findfont 60.6747 sf 0 0 m (  9) show NC gr  black 1 1 1 c
 gsave  2268 2177 0 0 C 1130.07 1118.69 t 0 r /Helvetica-Bold findfont 60.6747 sf 0 0 m (100) show NC gr  black 1 1 1 c
 gsave  2268 2177 0 0 C 1255.21 1118.69 t 0 r /Helvetica-Bold findfont 60.6747 sf 0 0 m (  3) show NC gr  black 1 1 1 c
 gsave  2268 2177 0 0 C 1361.39 1114.9 t 0 r /Helvetica-Bold findfont 60.6747 sf 0 0 m (  2) show NC gr  black 1 1 1 c
 gsave  2268 2177 0 0 C 1459.98 1118.69 t 0 r /Helvetica-Bold findfont 60.6747 sf 0 0 m ( \2555) show NC gr  black 1 1 1 c
 gsave  2268 2177 0 0 C 1573.75 1114.9 t 0 r /Helvetica-Bold findfont 60.6747 sf 0 0 m (  1) show NC gr  black 1 1 1 c
 gsave  2268 2177 0 0 C 1672.35 1118.69 t 0 r /Helvetica-Bold findfont 60.6747 sf 0 0 m ( \2553) show NC gr  black 1 1 1 c
 gsave  2268 2177 0 0 C 1778.53 1114.9 t 0 r /Helvetica-Bold findfont 60.6747 sf 0 0 m (  2) show NC gr  black 1 1 1 c
 gsave  2268 2177 0 0 C 1884.71 1114.9 t 0 r /Helvetica-Bold findfont 60.6747 sf 0 0 m (  2) show NC gr  black 1 1 1 c
 gsave  2268 2177 0 0 C 314.75 1213.49 t 0 r /Helvetica-Bold findfont 60.6747 sf 0 0 m (  1) show NC gr  black 1 1 1 c
 gsave  2268 2177 0 0 C 409.554 1213.49 t 0 r /Helvetica-Bold findfont 60.6747 sf 0 0 m ( 22) show NC gr  black 1 1 1 c
 gsave  2268 2177 0 0 C 515.735 1217.29 t 0 r /Helvetica-Bold findfont 60.6747 sf 0 0 m ( \2555) show NC gr  black 1 1 1 c
 gsave  2268 2177 0 0 C 625.708 1217.29 t 0 r /Helvetica-Bold findfont 60.6747 sf 0 0 m (  9) show NC gr  black 1 1 1 c
 gsave  2268 2177 0 0 C 724.304 1217.29 t 0 r /Helvetica-Bold findfont 60.6747 sf 0 0 m ( 25) show NC gr  black 1 1 1 c
 gsave  2268 2177 0 0 C 838.069 1213.49 t 0 r /Helvetica-Bold findfont 60.6747 sf 0 0 m ( \2551) show NC gr  black 1 1 1 c
 gsave  2268 2177 0 0 C 932.873 1217.29 t 0 r /Helvetica-Bold findfont 60.6747 sf 0 0 m ( 29) show NC gr  black 1 1 1 c
 gsave  2268 2177 0 0 C 1039.05 1217.29 t 0 r /Helvetica-Bold findfont 60.6747 sf 0 0 m ( 36) show NC gr  black 1 1 1 c
 gsave  2268 2177 0 0 C 1149.03 1217.29 t 0 r /Helvetica-Bold findfont 60.6747 sf 0 0 m (  3) show NC gr  black 1 1 1 c
 gsave  2268 2177 0 0 C 1236.25 1217.29 t 0 r /Helvetica-Bold findfont 60.6747 sf 0 0 m (100) show NC gr  black 1 1 1 c
 gsave  2268 2177 0 0 C 1353.8 1217.29 t 0 r /Helvetica-Bold findfont 60.6747 sf 0 0 m ( 45) show NC gr  black 1 1 1 c
 gsave  2268 2177 0 0 C 1459.98 1213.49 t 0 r /Helvetica-Bold findfont 60.6747 sf 0 0 m ( \2552) show NC gr  black 1 1 1 c
 gsave  2268 2177 0 0 C 1569.96 1213.49 t 0 r /Helvetica-Bold findfont 60.6747 sf 0 0 m (  2) show NC gr  black 1 1 1 c
 gsave  2268 2177 0 0 C 1770.94 1213.49 t 0 r /Helvetica-Bold findfont 60.6747 sf 0 0 m ( 14) show NC gr  black 1 1 1 c
 gsave  2268 2177 0 0 C 1877.12 1217.29 t 0 r /Helvetica-Bold findfont 60.6747 sf 0 0 m ( 19) show NC gr  black 1 1 1 c
 gsave  2268 2177 0 0 C 314.75 1315.88 t 0 r /Helvetica-Bold findfont 60.6747 sf 0 0 m (  1) show NC gr  black 1 1 1 c
 gsave  2268 2177 0 0 C 409.554 1315.88 t 0 r /Helvetica-Bold findfont 60.6747 sf 0 0 m ( 42) show NC gr  black 1 1 1 c
 gsave  2268 2177 0 0 C 515.735 1315.88 t 0 r /Helvetica-Bold findfont 60.6747 sf 0 0 m ( \2554) show NC gr  black 1 1 1 c
 gsave  2268 2177 0 0 C 625.708 1319.67 t 0 r /Helvetica-Bold findfont 60.6747 sf 0 0 m (  3) show NC gr  black 1 1 1 c
 gsave  2268 2177 0 0 C 724.304 1319.67 t 0 r /Helvetica-Bold findfont 60.6747 sf 0 0 m ( 76) show NC gr  black 1 1 1 c
 gsave  2268 2177 0 0 C 830.485 1319.67 t 0 r /Helvetica-Bold findfont 60.6747 sf 0 0 m ( \2553) show NC gr  black 1 1 1 c
 gsave  2268 2177 0 0 C 936.666 1315.88 t 0 r /Helvetica-Bold findfont 60.6747 sf 0 0 m ( 21) show NC gr  black 1 1 1 c
 gsave  2268 2177 0 0 C 1042.85 1315.88 t 0 r /Helvetica-Bold findfont 60.6747 sf 0 0 m ( 41) show NC gr  black 1 1 1 c
 gsave  2268 2177 0 0 C 1149.03 1315.88 t 0 r /Helvetica-Bold findfont 60.6747 sf 0 0 m (  2) show NC gr  black 1 1 1 c
 gsave  2268 2177 0 0 C 1247.62 1319.67 t 0 r /Helvetica-Bold findfont 60.6747 sf 0 0 m ( 45) show NC gr  black 1 1 1 c
 gsave  2268 2177 0 0 C 1342.43 1319.67 t 0 r /Helvetica-Bold findfont 60.6747 sf 0 0 m (100) show NC gr  black 1 1 1 c
 gsave  2268 2177 0 0 C 1459.98 1319.67 t 0 r /Helvetica-Bold findfont 60.6747 sf 0 0 m ( \2555) show NC gr  black 1 1 1 c
 gsave  2268 2177 0 0 C 1569.96 1315.88 t 0 r /Helvetica-Bold findfont 60.6747 sf 0 0 m (  2) show NC gr  black 1 1 1 c
 gsave  2268 2177 0 0 C 1679.93 1315.88 t 0 r /Helvetica-Bold findfont 60.6747 sf 0 0 m ( \2551) show NC gr  black 1 1 1 c
 gsave  2268 2177 0 0 C 1770.94 1319.67 t 0 r /Helvetica-Bold findfont 60.6747 sf 0 0 m ( 18) show NC gr  black 1 1 1 c
 gsave  2268 2177 0 0 C 1877.12 1315.88 t 0 r /Helvetica-Bold findfont 60.6747 sf 0 0 m ( 22) show NC gr  black 1 1 1 c
 gsave  2268 2177 0 0 C 310.958 1418.27 t 0 r /Helvetica-Bold findfont 60.6747 sf 0 0 m (  9) show NC gr  black 1 1 1 c
 gsave  2268 2177 0 0 C 417.138 1418.27 t 0 r /Helvetica-Bold findfont 60.6747 sf 0 0 m (  3) show NC gr  black 1 1 1 c
 gsave  2268 2177 0 0 C 523.319 1414.48 t 0 r /Helvetica-Bold findfont 60.6747 sf 0 0 m ( \2551) show NC gr  black 1 1 1 c
 gsave  2268 2177 0 0 C 621.916 1414.48 t 0 r /Helvetica-Bold findfont 60.6747 sf 0 0 m ( 21) show NC gr  black 1 1 1 c
 gsave  2268 2177 0 0 C 735.681 1414.48 t 0 r /Helvetica-Bold findfont 60.6747 sf 0 0 m ( \2551) show NC gr  black 1 1 1 c
 gsave  2268 2177 0 0 C 834.277 1418.27 t 0 r /Helvetica-Bold findfont 60.6747 sf 0 0 m (  9) show NC gr  black 1 1 1 c
 gsave  2268 2177 0 0 C 940.458 1418.27 t 0 r /Helvetica-Bold findfont 60.6747 sf 0 0 m (  9) show NC gr  black 1 1 1 c
 gsave  2268 2177 0 0 C 1042.85 1418.27 t 0 r /Helvetica-Bold findfont 60.6747 sf 0 0 m ( \2553) show NC gr  black 1 1 1 c
 gsave  2268 2177 0 0 C 1145.23 1418.27 t 0 r /Helvetica-Bold findfont 60.6747 sf 0 0 m ( \2555) show NC gr  black 1 1 1 c
 gsave  2268 2177 0 0 C 1251.42 1414.48 t 0 r /Helvetica-Bold findfont 60.6747 sf 0 0 m ( \2552) show NC gr  black 1 1 1 c
 gsave  2268 2177 0 0 C 1357.6 1418.27 t 0 r /Helvetica-Bold findfont 60.6747 sf 0 0 m ( \2555) show NC gr  black 1 1 1 c
 gsave  2268 2177 0 0 C 1444.82 1418.27 t 0 r /Helvetica-Bold findfont 60.6747 sf 0 0 m (100) show NC gr  black 1 1 1 c
 gsave  2268 2177 0 0 C 1569.96 1418.27 t 0 r /Helvetica-Bold findfont 60.6747 sf 0 0 m (  3) show NC gr  black 1 1 1 c
 gsave  2268 2177 0 0 C 1668.55 1418.27 t 0 r /Helvetica-Bold findfont 60.6747 sf 0 0 m ( 18) show NC gr  black 1 1 1 c
 gsave  2268 2177 0 0 C 1767.15 1418.27 t 0 r /Helvetica-Bold findfont 60.6747 sf 0 0 m (\25510) show NC gr  black 1 1 1 c
 gsave  2268 2177 0 0 C 1877.12 1414.48 t 0 r /Helvetica-Bold findfont 60.6747 sf 0 0 m (\25511) show NC gr  black 1 1 1 c
 gsave  2268 2177 0 0 C 314.75 1516.87 t 0 r /Helvetica-Bold findfont 60.6747 sf 0 0 m (  1) show NC gr  black 1 1 1 c
 gsave  2268 2177 0 0 C 420.931 1516.87 t 0 r /Helvetica-Bold findfont 60.6747 sf 0 0 m (  1) show NC gr  black 1 1 1 c
 gsave  2268 2177 0 0 C 515.735 1520.66 t 0 r /Helvetica-Bold findfont 60.6747 sf 0 0 m ( \2555) show NC gr  black 1 1 1 c
 gsave  2268 2177 0 0 C 625.708 1520.66 t 0 r /Helvetica-Bold findfont 60.6747 sf 0 0 m (  3) show NC gr  black 1 1 1 c
 gsave  2268 2177 0 0 C 830.485 1516.87 t 0 r /Helvetica-Bold findfont 60.6747 sf 0 0 m ( \2552) show NC gr  black 1 1 1 c
 gsave  2268 2177 0 0 C 944.25 1516.87 t 0 r /Helvetica-Bold findfont 60.6747 sf 0 0 m (  1) show NC gr  black 1 1 1 c
 gsave  2268 2177 0 0 C 1152.82 1516.87 t 0 r /Helvetica-Bold findfont 60.6747 sf 0 0 m (  1) show NC gr  black 1 1 1 c
 gsave  2268 2177 0 0 C 1255.21 1516.87 t 0 r /Helvetica-Bold findfont 60.6747 sf 0 0 m (  2) show NC gr  black 1 1 1 c
 gsave  2268 2177 0 0 C 1361.39 1516.87 t 0 r /Helvetica-Bold findfont 60.6747 sf 0 0 m (  2) show NC gr  black 1 1 1 c
 gsave  2268 2177 0 0 C 1463.78 1520.66 t 0 r /Helvetica-Bold findfont 60.6747 sf 0 0 m (  3) show NC gr  black 1 1 1 c
 gsave  2268 2177 0 0 C 1551 1520.66 t 0 r /Helvetica-Bold findfont 60.6747 sf 0 0 m (100) show NC gr  black 1 1 1 c
 gsave  2268 2177 0 0 C 1676.14 1516.87 t 0 r /Helvetica-Bold findfont 60.6747 sf 0 0 m (  4) show NC gr  black 1 1 1 c
 gsave  2268 2177 0 0 C 1778.53 1516.87 t 0 r /Helvetica-Bold findfont 60.6747 sf 0 0 m (  4) show NC gr  black 1 1 1 c
 gsave  2268 2177 0 0 C 1884.71 1516.87 t 0 r /Helvetica-Bold findfont 60.6747 sf 0 0 m (  4) show NC gr  black 1 1 1 c
 gsave  2268 2177 0 0 C 314.75 1619.26 t 0 r /Helvetica-Bold findfont 60.6747 sf 0 0 m ( \2551) show NC gr  black 1 1 1 c
 gsave  2268 2177 0 0 C 413.346 1619.26 t 0 r /Helvetica-Bold findfont 60.6747 sf 0 0 m ( \2552) show NC gr  black 1 1 1 c
 gsave  2268 2177 0 0 C 515.735 1623.05 t 0 r /Helvetica-Bold findfont 60.6747 sf 0 0 m ( \2555) show NC gr  black 1 1 1 c
 gsave  2268 2177 0 0 C 625.708 1623.05 t 0 r /Helvetica-Bold findfont 60.6747 sf 0 0 m (  6) show NC gr  black 1 1 1 c
 gsave  2268 2177 0 0 C 728.096 1623.05 t 0 r /Helvetica-Bold findfont 60.6747 sf 0 0 m ( \2553) show NC gr  black 1 1 1 c
 gsave  2268 2177 0 0 C 838.069 1619.26 t 0 r /Helvetica-Bold findfont 60.6747 sf 0 0 m (  1) show NC gr  black 1 1 1 c
 gsave  2268 2177 0 0 C 1042.85 1619.26 t 0 r /Helvetica-Bold findfont 60.6747 sf 0 0 m ( \2554) show NC gr  black 1 1 1 c
 gsave  2268 2177 0 0 C 1145.23 1623.05 t 0 r /Helvetica-Bold findfont 60.6747 sf 0 0 m ( \2553) show NC gr  black 1 1 1 c
 gsave  2268 2177 0 0 C 1365.18 1619.26 t 0 r /Helvetica-Bold findfont 60.6747 sf 0 0 m ( \2551) show NC gr  black 1 1 1 c
 gsave  2268 2177 0 0 C 1456.19 1623.05 t 0 r /Helvetica-Bold findfont 60.6747 sf 0 0 m ( 18) show NC gr  black 1 1 1 c
 gsave  2268 2177 0 0 C 1569.96 1619.26 t 0 r /Helvetica-Bold findfont 60.6747 sf 0 0 m (  4) show NC gr  black 1 1 1 c
 gsave  2268 2177 0 0 C 1657.18 1623.05 t 0 r /Helvetica-Bold findfont 60.6747 sf 0 0 m (100) show NC gr  black 1 1 1 c
 gsave  2268 2177 0 0 C 1774.73 1619.26 t 0 r /Helvetica-Bold findfont 60.6747 sf 0 0 m ( \2552) show NC gr  black 1 1 1 c
 gsave  2268 2177 0 0 C 1888.5 1619.26 t 0 r /Helvetica-Bold findfont 60.6747 sf 0 0 m ( \2551) show NC gr  black 1 1 1 c
 gsave  2268 2177 0 0 C 307.166 1721.64 t 0 r /Helvetica-Bold findfont 60.6747 sf 0 0 m ( \2556) show NC gr  black 1 1 1 c
 gsave  2268 2177 0 0 C 409.554 1721.64 t 0 r /Helvetica-Bold findfont 60.6747 sf 0 0 m ( 10) show NC gr  black 1 1 1 c
 gsave  2268 2177 0 0 C 508.151 1717.85 t 0 r /Helvetica-Bold findfont 60.6747 sf 0 0 m (\25524) show NC gr  black 1 1 1 c
 gsave  2268 2177 0 0 C 618.123 1721.64 t 0 r /Helvetica-Bold findfont 60.6747 sf 0 0 m ( 18) show NC gr  black 1 1 1 c
 gsave  2268 2177 0 0 C 724.304 1717.85 t 0 r /Helvetica-Bold findfont 60.6747 sf 0 0 m ( 14) show NC gr  black 1 1 1 c
 gsave  2268 2177 0 0 C 944.25 1717.85 t 0 r /Helvetica-Bold findfont 60.6747 sf 0 0 m (  1) show NC gr  black 1 1 1 c
 gsave  2268 2177 0 0 C 1046.64 1717.85 t 0 r /Helvetica-Bold findfont 60.6747 sf 0 0 m (  7) show NC gr  black 1 1 1 c
 gsave  2268 2177 0 0 C 1149.03 1717.85 t 0 r /Helvetica-Bold findfont 60.6747 sf 0 0 m (  2) show NC gr  black 1 1 1 c
 gsave  2268 2177 0 0 C 1247.62 1717.85 t 0 r /Helvetica-Bold findfont 60.6747 sf 0 0 m ( 14) show NC gr  black 1 1 1 c
 gsave  2268 2177 0 0 C 1353.8 1721.64 t 0 r /Helvetica-Bold findfont 60.6747 sf 0 0 m ( 18) show NC gr  black 1 1 1 c
 gsave  2268 2177 0 0 C 1452.4 1721.64 t 0 r /Helvetica-Bold findfont 60.6747 sf 0 0 m (\25510) show NC gr  black 1 1 1 c
 gsave  2268 2177 0 0 C 1569.96 1717.85 t 0 r /Helvetica-Bold findfont 60.6747 sf 0 0 m (  4) show NC gr  black 1 1 1 c
 gsave  2268 2177 0 0 C 1672.35 1717.85 t 0 r /Helvetica-Bold findfont 60.6747 sf 0 0 m ( \2552) show NC gr  black 1 1 1 c
 gsave  2268 2177 0 0 C 1759.57 1721.64 t 0 r /Helvetica-Bold findfont 60.6747 sf 0 0 m (100) show NC gr  black 1 1 1 c
 gsave  2268 2177 0 0 C 1877.12 1717.85 t 0 r /Helvetica-Bold findfont 60.6747 sf 0 0 m ( 72) show NC gr  black 1 1 1 c
 gsave  2268 2177 0 0 C 307.166 1824.03 t 0 r /Helvetica-Bold findfont 60.6747 sf 0 0 m ( \2555) show NC gr  black 1 1 1 c
 gsave  2268 2177 0 0 C 409.554 1820.24 t 0 r /Helvetica-Bold findfont 60.6747 sf 0 0 m ( 12) show NC gr  black 1 1 1 c
 gsave  2268 2177 0 0 C 511.943 1820.24 t 0 r /Helvetica-Bold findfont 60.6747 sf 0 0 m (\25521) show NC gr  black 1 1 1 c
 gsave  2268 2177 0 0 C 618.123 1824.03 t 0 r /Helvetica-Bold findfont 60.6747 sf 0 0 m ( 16) show NC gr  black 1 1 1 c
 gsave  2268 2177 0 0 C 724.304 1820.24 t 0 r /Helvetica-Bold findfont 60.6747 sf 0 0 m ( 17) show NC gr  black 1 1 1 c
 gsave  2268 2177 0 0 C 838.069 1820.24 t 0 r /Helvetica-Bold findfont 60.6747 sf 0 0 m ( \2551) show NC gr  black 1 1 1 c
 gsave  2268 2177 0 0 C 932.873 1824.03 t 0 r /Helvetica-Bold findfont 60.6747 sf 0 0 m ( 13) show NC gr  black 1 1 1 c
 gsave  2268 2177 0 0 C 1039.05 1820.24 t 0 r /Helvetica-Bold findfont 60.6747 sf 0 0 m ( 14) show NC gr  black 1 1 1 c
 gsave  2268 2177 0 0 C 1149.03 1820.24 t 0 r /Helvetica-Bold findfont 60.6747 sf 0 0 m (  2) show NC gr  black 1 1 1 c
 gsave  2268 2177 0 0 C 1247.62 1824.03 t 0 r /Helvetica-Bold findfont 60.6747 sf 0 0 m ( 19) show NC gr  black 1 1 1 c
 gsave  2268 2177 0 0 C 1353.8 1820.24 t 0 r /Helvetica-Bold findfont 60.6747 sf 0 0 m ( 22) show NC gr  black 1 1 1 c
 gsave  2268 2177 0 0 C 1456.19 1820.24 t 0 r /Helvetica-Bold findfont 60.6747 sf 0 0 m (\25511) show NC gr  black 1 1 1 c
 gsave  2268 2177 0 0 C 1569.96 1820.24 t 0 r /Helvetica-Bold findfont 60.6747 sf 0 0 m (  4) show NC gr  black 1 1 1 c
 gsave  2268 2177 0 0 C 1679.93 1820.24 t 0 r /Helvetica-Bold findfont 60.6747 sf 0 0 m ( \2551) show NC gr  black 1 1 1 c
 gsave  2268 2177 0 0 C 1770.94 1820.24 t 0 r /Helvetica-Bold findfont 60.6747 sf 0 0 m ( 72) show NC gr  black 1 1 1 c
 gsave  2268 2177 0 0 C 1865.75 1824.03 t 0 r /Helvetica-Bold findfont 60.6747 sf 0 0 m (100) show NC gr  black
 gsave  2268 2177 0 0 C 1201.89 1915.5 t 0 r /Helvetica-Bold findfont 53.0904 sf 0 0 m (Linear correlation coefficients in %) show NC gr 
 gr  gr showpage
end
%%EOF
