%!PS-Adobe-2.0 EPSF-2.0
%%BoundingBox:  0 0 567 419
%%Title: DataSet/plots/mva_PDERS.eps: TMVA response PDERS
%%Creator: ROOT Version 6.08/06
%%CreationDate: Fri Jun  1 10:06:38 2018
%%DocumentNeededResources: ProcSet (FontSetInit)
%%EndComments
%%BeginProlog
80 dict begin
/s {stroke} def /l {lineto} def /m {moveto} def /t {translate} def
/r {rotate} def /rl {roll}  def /R {repeat} def
/d {rlineto} def /rm {rmoveto} def /gr {grestore} def /f {eofill} def
/c {setrgbcolor} def /black {0 setgray} def /sd {setdash} def
/cl {closepath} def /sf {scalefont setfont} def /lw {setlinewidth} def
/box {m dup 0 exch d exch 0 d 0 exch neg d cl} def
/NC{systemdict begin initclip end}def/C{NC box clip newpath}def
/bl {box s} def /bf {gsave box gsave f grestore 1 lw [] 0 sd s grestore} def /Y { 0 exch d} def /X { 0 d} def 
/K {{pop pop 0 moveto} exch kshow} bind def
/ita {/ang 15 def gsave [1 0 ang dup sin exch cos div 1 0 0] concat} def 
/mp {newpath /y exch def /x exch def} def
/side {[w .77 mul w .23 mul] .385 w mul sd w 0 l currentpoint t -144 r} def
/mr {mp x y w2 0 360 arc} def /m24 {mr s} def /m20 {mr f} def
/mb {mp x y w2 add m w2 neg 0 d 0 w neg d w 0 d 0 w d cl} def
/mt {mp x y w2 add m w2 neg w neg d w 0 d cl} def
/m21 {mb f} def /m25 {mb s} def /m22 {mt f} def /m26{mt s} def
/m23 {mp x y w2 sub m w2 w d w neg 0 d cl f} def
/m27 {mp x y w2 add m w3 neg w2 neg d w3 w2 neg d w3 w2 d cl s} def
/m28 {mp x w2 sub y w2 sub w3 add m w3 0 d  0 w3 neg d w3 0 d 0 w3 d w3 0 d  0 w3 d w3 neg 0 d 0 w3 d w3 neg 0 d 0 w3 neg d w3 neg 0 d cl s } def
/m29 {mp gsave x w2 sub y w2 add w3 sub m currentpoint t 4 {side} repeat cl fill gr} def
/m30 {mp gsave x w2 sub y w2 add w3 sub m currentpoint t 4 {side} repeat cl s gr} def
/m31 {mp x y w2 sub m 0 w d x w2 sub y m w 0 d x w2 sub y w2 add m w w neg d x w2 sub y w2 sub m w w d s} def
/m32 {mp x y w2 sub m w2 w d w neg 0 d cl s} def
/m33 {mp x y w2 add m w3 neg w2 neg d w3 w2 neg d w3 w2 d cl f} def
/m34 {mp x w2 sub y w2 sub w3 add m w3 0 d  0 w3 neg d w3 0 d 0 w3 d w3 0 d  0 w3 d w3 neg 0 d 0 w3 d w3 neg 0 d 0 w3 neg d w3 neg 0 d cl f } def
/m2 {mp x y w2 sub m 0 w d x w2 sub y m w 0 d s} def
/m5 {mp x w2 sub y w2 sub m w w d x w2 sub y w2 add m w w neg d s} def
%%IncludeResource: ProcSet (FontSetInit)
%%IncludeResource: font Times-Roman
%%IncludeResource: font Times-Italic
%%IncludeResource: font Times-Bold
%%IncludeResource: font Times-BoldItalic
%%IncludeResource: font Helvetica
%%IncludeResource: font Helvetica-Oblique
%%IncludeResource: font Helvetica-Bold
%%IncludeResource: font Helvetica-BoldOblique
%%IncludeResource: font Courier
%%IncludeResource: font Courier-Oblique
%%IncludeResource: font Courier-Bold
%%IncludeResource: font Courier-BoldOblique
%%IncludeResource: font Symbol
%%IncludeResource: font ZapfDingbats
/reEncode {exch findfont dup length dict begin {1 index /FID eq  {pop pop} {def} ifelse } forall /Encoding exch def currentdict end dup /FontName get exch definefont pop } def [/Times-Bold /Times-Italic /Times-BoldItalic /Helvetica /Helvetica-Oblique
 /Helvetica-Bold /Helvetica-BoldOblique /Courier /Courier-Oblique /Courier-Bold /Courier-BoldOblique /Times-Roman /AvantGarde-Book /AvantGarde-BookOblique /AvantGarde-Demi /AvantGarde-DemiOblique /Bookman-Demi /Bookman-DemiItalic /Bookman-Light
 /Bookman-LightItalic /Helvetica-Narrow /Helvetica-Narrow-Bold /Helvetica-Narrow-BoldOblique /Helvetica-Narrow-Oblique /NewCenturySchlbk-Roman /NewCenturySchlbk-Bold /NewCenturySchlbk-BoldItalic /NewCenturySchlbk-Italic /Palatino-Bold
 /Palatino-BoldItalic /Palatino-Italic /Palatino-Roman ] {ISOLatin1Encoding reEncode } forall
%%EndProlog
%%BeginSetup
%%EndSetup
newpath  gsave  .25 .25 scale  gsave  0 0 t 0.490196 0.545098 0.615686 c[  ] 0 sd 3 lw 1 1 1 c 2268 1676 0 0 bf black 1 1 1 c 1916 1308 238 201 bf black 1916 1308 238 201 bl 1 1 1 c 1916 1308 238 201 bf black 1916 1308 238 201 bl 238 201 m 1916 X s
 gsave  2268 1676 0 0 C 1566.17 30.3373 t 0 r /Helvetica-Bold findfont 72.0512 sf 0 0 m (PDERS response) show NC gr  435 244 m -43 Y s 476 222 m -21 Y s 517 222 m -21 Y s 558 222 m -21 Y s 599 222 m -21 Y s 640 244 m -43 Y s 681 222 m -21 Y s 722 222
 m -21 Y s 763 222 m -21 Y s 804 222 m -21 Y s 845 244 m -43 Y s 886 222 m -21 Y s 927 222 m -21 Y s 968 222 m -21 Y s 1009 222 m -21 Y s 1050 244 m -43 Y s 1091 222 m -21 Y s 1132 222 m -21 Y s 1173 222 m -21 Y s 1214 222 m -21 Y s 1255 244 m -43 Y
 s 1296 222 m -21 Y s 1337 222 m -21 Y s 1378 222 m -21 Y s 1419 222 m -21 Y s 1460 244 m -43 Y s 1501 222 m -21 Y s 1542 222 m -21 Y s 1583 222 m -21 Y s 1624 222 m -21 Y s 1665 244 m -43 Y s 1706 222 m -21 Y s 1747 222 m -21 Y s 1788 222 m -21 Y s
 1829 222 m -21 Y s 1870 244 m -43 Y s 1911 222 m -21 Y s 1952 222 m -21 Y s 1994 222 m -21 Y s 2035 222 m -21 Y s 2076 244 m -43 Y s 435 244 m -43 Y s 394 222 m -21 Y s 353 222 m -21 Y s 312 222 m -21 Y s 271 222 m -21 Y s 2076 244 m -43 Y s 2117
 222 m -21 Y s
 gsave  2268 1676 0 0 C 390.593 128.934 t 0 r /Helvetica-Bold findfont 64.4669 sf 0 0 m (0.1) show NC gr 
 gsave  2268 1676 0 0 C 591.578 128.934 t 0 r /Helvetica-Bold findfont 64.4669 sf 0 0 m (0.2) show NC gr 
 gsave  2268 1676 0 0 C 796.355 128.934 t 0 r /Helvetica-Bold findfont 64.4669 sf 0 0 m (0.3) show NC gr 
 gsave  2268 1676 0 0 C 1001.13 128.934 t 0 r /Helvetica-Bold findfont 64.4669 sf 0 0 m (0.4) show NC gr 
 gsave  2268 1676 0 0 C 1205.91 128.934 t 0 r /Helvetica-Bold findfont 64.4669 sf 0 0 m (0.5) show NC gr 
 gsave  2268 1676 0 0 C 1414.48 128.934 t 0 r /Helvetica-Bold findfont 64.4669 sf 0 0 m (0.6) show NC gr 
 gsave  2268 1676 0 0 C 1619.26 128.934 t 0 r /Helvetica-Bold findfont 64.4669 sf 0 0 m (0.7) show NC gr 
 gsave  2268 1676 0 0 C 1824.03 128.934 t 0 r /Helvetica-Bold findfont 64.4669 sf 0 0 m (0.8) show NC gr 
 gsave  2268 1676 0 0 C 2028.81 128.934 t 0 r /Helvetica-Bold findfont 64.4669 sf 0 0 m (0.9) show NC gr  238 1509 m 1916 X s 435 1466 m 43 Y s 476 1487 m 22 Y s 517 1487 m 22 Y s 558 1487 m 22 Y s 599 1487 m 22 Y s 640 1466 m 43 Y s 681 1487 m 22 Y
 s 722 1487 m 22 Y s 763 1487 m 22 Y s 804 1487 m 22 Y s 845 1466 m 43 Y s 886 1487 m 22 Y s 927 1487 m 22 Y s 968 1487 m 22 Y s 1009 1487 m 22 Y s 1050 1466 m 43 Y s 1091 1487 m 22 Y s 1132 1487 m 22 Y s 1173 1487 m 22 Y s 1214 1487 m 22 Y s 1255
 1466 m 43 Y s 1296 1487 m 22 Y s 1337 1487 m 22 Y s 1378 1487 m 22 Y s 1419 1487 m 22 Y s 1460 1466 m 43 Y s 1501 1487 m 22 Y s 1542 1487 m 22 Y s 1583 1487 m 22 Y s 1624 1487 m 22 Y s 1665 1466 m 43 Y s 1706 1487 m 22 Y s 1747 1487 m 22 Y s 1788
 1487 m 22 Y s 1829 1487 m 22 Y s 1870 1466 m 43 Y s 1911 1487 m 22 Y s 1952 1487 m 22 Y s 1994 1487 m 22 Y s 2035 1487 m 22 Y s 2076 1466 m 43 Y s 435 1466 m 43 Y s 394 1487 m 22 Y s 353 1487 m 22 Y s 312 1487 m 22 Y s 271 1487 m 22 Y s 2076 1466 m
 43 Y s 2117 1487 m 22 Y s 238 201 m 1308 Y s
 gsave  2268 1676 0 0 C 64.4669 1425.86 t 90 r /Helvetica-Bold findfont 72.0512 sf 0 0 m (dx) show NC gr 
 gsave  2268 1676 0 0 C 30.3373 1406.89 t 90 r /Helvetica-Bold findfont 45.506 sf 0 0 m ( ) show NC gr 
 gsave  2268 1676 0 0 C 64.4669 1384.14 t 90 r /Helvetica-Bold findfont 72.0512 sf 0 0 m (/) show NC gr 
 gsave  2268 1676 0 0 C 30.3373 1365.18 t 90 r /Helvetica-Bold findfont 45.506 sf 0 0 m ( ) show NC gr 
 gsave  2268 1676 0 0 C 60.6747 1092.14 t 90 r /Helvetica-Bold findfont 72.0512 sf 0 0 m (\(1/N\) dN) show NC gr  291 201 m -53 X s 265 250 m -27 X s 265 299 m -27 X s 265 348 m -27 X s 291 397 m -53 X s 265 446 m -27 X s 265 495 m -27 X s 265 544 m
 -27 X s 291 592 m -53 X s 265 641 m -27 X s 265 690 m -27 X s 265 739 m -27 X s 291 788 m -53 X s 265 837 m -27 X s 265 886 m -27 X s 265 935 m -27 X s 291 984 m -53 X s 265 1033 m -27 X s 265 1082 m -27 X s 265 1131 m -27 X s 291 1179 m -53 X s 265
 1228 m -27 X s 265 1277 m -27 X s 265 1326 m -27 X s 291 1375 m -53 X s 291 1375 m -53 X s 265 1424 m -27 X s 265 1473 m -27 X s
 gsave  2268 1676 0 0 C 174.44 178.232 t 0 r /Helvetica-Bold findfont 64.4669 sf 0 0 m (0) show NC gr 
 gsave  2268 1676 0 0 C 174.44 371.632 t 0 r /Helvetica-Bold findfont 64.4669 sf 0 0 m (2) show NC gr 
 gsave  2268 1676 0 0 C 174.44 568.825 t 0 r /Helvetica-Bold findfont 64.4669 sf 0 0 m (4) show NC gr 
 gsave  2268 1676 0 0 C 174.44 762.226 t 0 r /Helvetica-Bold findfont 64.4669 sf 0 0 m (6) show NC gr 
 gsave  2268 1676 0 0 C 174.44 959.419 t 0 r /Helvetica-Bold findfont 64.4669 sf 0 0 m (8) show NC gr 
 gsave  2268 1676 0 0 C 136.518 1156.61 t 0 r /Helvetica-Bold findfont 64.4669 sf 0 0 m (10) show NC gr 
 gsave  2268 1676 0 0 C 136.518 1350.01 t 0 r /Helvetica-Bold findfont 64.4669 sf 0 0 m (12) show NC gr  2154 201 m 1308 Y s 2101 201 m 53 X s 2128 250 m 26 X s 2128 299 m 26 X s 2128 348 m 26 X s 2101 397 m 53 X s 2128 446 m 26 X s 2128 495 m 26 X s
 2128 544 m 26 X s 2101 592 m 53 X s 2128 641 m 26 X s 2128 690 m 26 X s 2128 739 m 26 X s 2101 788 m 53 X s 2128 837 m 26 X s 2128 886 m 26 X s 2128 935 m 26 X s 2101 984 m 53 X s 2128 1033 m 26 X s 2128 1082 m 26 X s 2128 1131 m 26 X s 2101 1179 m
 53 X s 2128 1228 m 26 X s 2128 1277 m 26 X s 2128 1326 m 26 X s 2101 1375 m 53 X s 2101 1375 m 53 X s 2128 1424 m 26 X s 2128 1473 m 26 X s 0.490196 0.545098 0.615686 c 1 1 1 c 0.490196 0.545098 0.615686 c 680 202 238 1307 bl 238 1307 m 680 X s 918
 1307 m 202 Y s 918 1509 m -680 X s 238 1509 m -202 Y s black
 gsave  2268 1676 0 0 C 439.892 1437.23 t 0 r /Helvetica-Bold findfont 75.8434 sf 0 0 m (Signal) show NC gr  0.49 0.6 0.82 c 269 1423 m 143 X 70 Y -143 X f 0 0 0.933333 c 6 lw 269 1493 m 143 X s 269 1423 m 143 X s 412 1423 m 70 Y s 269 1423 m 70 Y s
 black
 gsave  2268 1676 0 0 C 439.892 1338.64 t 0 r /Helvetica-Bold findfont 75.8434 sf 0 0 m (Background) show NC gr  1 0 0 c 3 lw 412 1326 m -4 -4 d s 412 1374 m -52 -52 d s 383 1393 m -71 -71 d s 335 1393 m -66 -66 d s 286 1393 m -17 -18 d s 6 lw 0 0
 0.933333 c 1 0 0 c 269 1393 m 143 X s 269 1322 m 143 X s 412 1322 m 71 Y s 269 1322 m 71 Y s 0 0 0.933333 c 0.49 0.6 0.82 c black 3 lw 0.49 0.6 0.82 c 238 201 m 48 X 27 Y 48 X -27 Y 287 X 27 Y 48 X -27 Y 48 X 27 Y 48 X 26 Y 48 X -53 Y 144 X 27 Y 48
 X -27 Y 191 X 27 Y 48 X 107 Y 48 X -107 Y 48 X 53 Y 48 X -27 Y 96 X 27 Y 48 X 54 Y 47 X -81 Y 96 X 241 Y 48 X -107 Y 48 X 80 Y 48 X -27 Y 48 X 107 Y 48 X 27 Y 48 X -134 Y 48 X 427 Y 48 X -107 Y 47 X -400 Y 48 X -160 Y f 6 lw 0 0 0.933333 c 0.49 0.6
 0.82 c 0 0 0.933333 c 238 201 m 48 X 27 Y 48 X -27 Y 287 X 27 Y 48 X -27 Y 48 X 27 Y 48 X 26 Y 48 X -53 Y 144 X 27 Y 48 X -27 Y 191 X 27 Y 48 X 107 Y 48 X -107 Y 48 X 53 Y 48 X -27 Y 96 X 27 Y 48 X 54 Y 47 X -81 Y 96 X 241 Y 48 X -107 Y 48 X 80 Y 48
 X -27 Y 48 X 107 Y 48 X 27 Y 48 X -134 Y 48 X 427 Y 48 X -107 Y 47 X -400 Y 48 X -160 Y s 1 0 0 c black 3 lw 1 0 0 c 2136 212 m -11 -11 d s 2088 212 m -11 -11 d s 2059 231 m -30 -30 d s 2023 243 m -12 -12 d s 1992 212 m -11 -11 d s 1963 231 m -30
 -30 d s 1938 254 m -53 -53 d s 1915 279 m -78 -78 d s 1873 286 m -6 -7 d s 1842 254 m -53 -53 d s 1783 243 m -42 -42 d s 1724 233 m -32 -32 d s 1723 280 m -79 -79 d s 1681 286 m -6 -6 d s 1649 254 m -53 -53 d s 1580 233 m -1 X s 1559 212 m -11 -11 d
 s 1532 233 m -32 -32 d s 1473 222 m -21 -21 d s 1436 233 m -32 -32 d s 1398 243 m -42 -42 d s 1388 281 m -80 -80 d s 1365 307 m -106 -106 d s 1338 328 m -127 -127 d s 1248 286 m -4 -4 d s 1227 265 m -64 -64 d s 1196 282 m -81 -81 d s 1196 330 m -48
 -48 d s 1131 265 m -64 -64 d s 1156 339 m -8 -8 d s 1100 283 m -81 -82 d s 1055 286 m -84 -85 d s 1007 286 m -84 -85 d s 1005 331 m -130 -130 d s 964 339 m -7 -8 d s 911 286 m -84 -85 d s 874 296 m -13 -12 d s 842 265 m -29 -29 d s 800 222 m -22 -21
 d s 765 236 m -35 -35 d s 725 243 m -43 -42 d s 717 284 m -48 -48 d s 666 233 m -32 -32 d s 717 332 m -48 -48 d s 621 237 m -35 -36 d s 717 380 m -48 -47 d s 612 275 m -74 -74 d s 717 429 m -48 -48 d s 543 254 m -17 -17 d s 511 222 m -21 -21 d s 717
 477 m -48 -48 d s 473 233 m -31 -32 d s 717 525 m -48 -48 d s 415 222 m -21 -21 d s 717 573 m -48 -48 d s 382 238 m -37 -37 d s 717 621 m -48 -48 d s 382 286 m -85 -85 d s 717 669 m -48 -48 d s 344 296 m -10 -10 d s 302 254 m -53 -53 d s 717 717 m
 -48 -48 d s 286 286 m -48 -48 d s 717 765 m -48 -48 d s 286 334 m -48 -48 d s 717 813 m -48 -48 d s 286 382 m -48 -48 d s 717 861 m -48 -47 d s 286 430 m -48 -48 d s 717 910 m -48 -48 d s 286 478 m -48 -47 d s 717 958 m -48 -48 d s 286 527 m -48 -48
 d s 717 1006 m -48 -48 d s 286 575 m -48 -48 d s 717 1054 m -48 -48 d s 286 623 m -48 -48 d s 717 1102 m -48 -48 d s 286 671 m -48 -48 d s 717 1150 m -48 -48 d s 286 719 m -48 -48 d s 717 1198 m -48 -48 d s 286 767 m -48 -48 d s 717 1246 m -48 -48 d
 s 286 815 m -48 -48 d s 713 1291 m -44 -44 d s 286 863 m -48 -48 d s 286 911 m -48 -48 d s 286 959 m -48 -47 d s 286 1008 m -48 -48 d s 286 1056 m -48 -48 d s 286 1104 m -48 -48 d s 245 1111 m -7 -7 d s 6 lw 238 1111 m 48 X -857 Y 48 X 42 Y 48 X -74
 Y 48 X 11 Y 48 X -11 Y 48 X 32 Y 47 X 21 Y 48 X -42 Y 48 X 1058 Y 48 X -1048 Y 48 X -21 Y 48 X 43 Y 48 X 31 Y 48 X -10 Y 48 X 53 Y 48 X -53 Y 95 X -21 Y 48 X 74 Y 48 X -74 Y 48 X 21 Y 48 X 42 Y 48 X -21 Y 48 X -64 Y 48 X -21 Y 48 X 11 Y 48 X -21 Y
 47 X 21 Y 48 X 21 Y 48 X 32 Y 48 X -53 Y 48 X 10 Y 48 X 11 Y 48 X 32 Y 48 X -32 Y 48 X -42 Y 48 X 31 Y 48 X -31 Y 95 X -11 Y s black 3 lw 238 201 m 1916 X s 435 244 m -43 Y s 476 222 m -21 Y s 517 222 m -21 Y s 558 222 m -21 Y s 599 222 m -21 Y s
 640 244 m -43 Y s 681 222 m -21 Y s 722 222 m -21 Y s 763 222 m -21 Y s 804 222 m -21 Y s 845 244 m -43 Y s 886 222 m -21 Y s 927 222 m -21 Y s 968 222 m -21 Y s 1009 222 m -21 Y s 1050 244 m -43 Y s 1091 222 m -21 Y s 1132 222 m -21 Y s 1173 222 m
 -21 Y s 1214 222 m -21 Y s 1255 244 m -43 Y s 1296 222 m -21 Y s 1337 222 m -21 Y s 1378 222 m -21 Y s 1419 222 m -21 Y s 1460 244 m -43 Y s 1501 222 m -21 Y s 1542 222 m -21 Y s 1583 222 m -21 Y s 1624 222 m -21 Y s 1665 244 m -43 Y s 1706 222 m
 -21 Y s 1747 222 m -21 Y s 1788 222 m -21 Y s 1829 222 m -21 Y s 1870 244 m -43 Y s 1911 222 m -21 Y s 1952 222 m -21 Y s 1994 222 m -21 Y s 2035 222 m -21 Y s 2076 244 m -43 Y s 435 244 m -43 Y s 394 222 m -21 Y s 353 222 m -21 Y s 312 222 m -21 Y
 s 271 222 m -21 Y s 2076 244 m -43 Y s 2117 222 m -21 Y s 238 1509 m 1916 X s 435 1466 m 43 Y s 476 1487 m 22 Y s 517 1487 m 22 Y s 558 1487 m 22 Y s 599 1487 m 22 Y s 640 1466 m 43 Y s 681 1487 m 22 Y s 722 1487 m 22 Y s 763 1487 m 22 Y s 804 1487
 m 22 Y s 845 1466 m 43 Y s 886 1487 m 22 Y s 927 1487 m 22 Y s 968 1487 m 22 Y s 1009 1487 m 22 Y s 1050 1466 m 43 Y s 1091 1487 m 22 Y s 1132 1487 m 22 Y s 1173 1487 m 22 Y s 1214 1487 m 22 Y s 1255 1466 m 43 Y s 1296 1487 m 22 Y s 1337 1487 m 22 Y
 s 1378 1487 m 22 Y s 1419 1487 m 22 Y s 1460 1466 m 43 Y s 1501 1487 m 22 Y s 1542 1487 m 22 Y s 1583 1487 m 22 Y s 1624 1487 m 22 Y s 1665 1466 m 43 Y s 1706 1487 m 22 Y s 1747 1487 m 22 Y s 1788 1487 m 22 Y s 1829 1487 m 22 Y s 1870 1466 m 43 Y s
 1911 1487 m 22 Y s 1952 1487 m 22 Y s 1994 1487 m 22 Y s 2035 1487 m 22 Y s 2076 1466 m 43 Y s 435 1466 m 43 Y s 394 1487 m 22 Y s 353 1487 m 22 Y s 312 1487 m 22 Y s 271 1487 m 22 Y s 2076 1466 m 43 Y s 2117 1487 m 22 Y s 238 201 m 1308 Y s 291 201
 m -53 X s 265 250 m -27 X s 265 299 m -27 X s 265 348 m -27 X s 291 397 m -53 X s 265 446 m -27 X s 265 495 m -27 X s 265 544 m -27 X s 291 592 m -53 X s 265 641 m -27 X s 265 690 m -27 X s 265 739 m -27 X s 291 788 m -53 X s 265 837 m -27 X s 265
 886 m -27 X s 265 935 m -27 X s 291 984 m -53 X s 265 1033 m -27 X s 265 1082 m -27 X s 265 1131 m -27 X s 291 1179 m -53 X s 265 1228 m -27 X s 265 1277 m -27 X s 265 1326 m -27 X s 291 1375 m -53 X s 291 1375 m -53 X s 265 1424 m -27 X s 265 1473
 m -27 X s 2154 201 m 1308 Y s 2101 201 m 53 X s 2128 250 m 26 X s 2128 299 m 26 X s 2128 348 m 26 X s 2101 397 m 53 X s 2128 446 m 26 X s 2128 495 m 26 X s 2128 544 m 26 X s 2101 592 m 53 X s 2128 641 m 26 X s 2128 690 m 26 X s 2128 739 m 26 X s
 2101 788 m 53 X s 2128 837 m 26 X s 2128 886 m 26 X s 2128 935 m 26 X s 2101 984 m 53 X s 2128 1033 m 26 X s 2128 1082 m 26 X s 2128 1131 m 26 X s 2101 1179 m 53 X s 2128 1228 m 26 X s 2128 1277 m 26 X s 2128 1326 m 26 X s 2101 1375 m 53 X s 2101
 1375 m 53 X s 2128 1424 m 26 X s 2128 1473 m 26 X s
 gsave  2268 1676 0 0 C 2211.02 192.756 t 90 r /Helvetica-Bold findfont 45.506 sf 0 0 m (U/O\255flow \(S,B\): \(0.0, 0.0\)% / \(0.0, 0.0\)%) show NC gr 
 gr  gr showpage
end
%%EOF
