%!PS-Adobe-2.0 EPSF-2.0
%%BoundingBox:  0 0 567 419
%%Title: DataSet/plots/mva_BDTG.eps: TMVA response BDTG
%%Creator: ROOT Version 6.08/06
%%CreationDate: Fri Jun  1 10:06:40 2018
%%DocumentNeededResources: ProcSet (FontSetInit)
%%EndComments
%%BeginProlog
80 dict begin
/s {stroke} def /l {lineto} def /m {moveto} def /t {translate} def
/r {rotate} def /rl {roll}  def /R {repeat} def
/d {rlineto} def /rm {rmoveto} def /gr {grestore} def /f {eofill} def
/c {setrgbcolor} def /black {0 setgray} def /sd {setdash} def
/cl {closepath} def /sf {scalefont setfont} def /lw {setlinewidth} def
/box {m dup 0 exch d exch 0 d 0 exch neg d cl} def
/NC{systemdict begin initclip end}def/C{NC box clip newpath}def
/bl {box s} def /bf {gsave box gsave f grestore 1 lw [] 0 sd s grestore} def /Y { 0 exch d} def /X { 0 d} def 
/K {{pop pop 0 moveto} exch kshow} bind def
/ita {/ang 15 def gsave [1 0 ang dup sin exch cos div 1 0 0] concat} def 
/mp {newpath /y exch def /x exch def} def
/side {[w .77 mul w .23 mul] .385 w mul sd w 0 l currentpoint t -144 r} def
/mr {mp x y w2 0 360 arc} def /m24 {mr s} def /m20 {mr f} def
/mb {mp x y w2 add m w2 neg 0 d 0 w neg d w 0 d 0 w d cl} def
/mt {mp x y w2 add m w2 neg w neg d w 0 d cl} def
/m21 {mb f} def /m25 {mb s} def /m22 {mt f} def /m26{mt s} def
/m23 {mp x y w2 sub m w2 w d w neg 0 d cl f} def
/m27 {mp x y w2 add m w3 neg w2 neg d w3 w2 neg d w3 w2 d cl s} def
/m28 {mp x w2 sub y w2 sub w3 add m w3 0 d  0 w3 neg d w3 0 d 0 w3 d w3 0 d  0 w3 d w3 neg 0 d 0 w3 d w3 neg 0 d 0 w3 neg d w3 neg 0 d cl s } def
/m29 {mp gsave x w2 sub y w2 add w3 sub m currentpoint t 4 {side} repeat cl fill gr} def
/m30 {mp gsave x w2 sub y w2 add w3 sub m currentpoint t 4 {side} repeat cl s gr} def
/m31 {mp x y w2 sub m 0 w d x w2 sub y m w 0 d x w2 sub y w2 add m w w neg d x w2 sub y w2 sub m w w d s} def
/m32 {mp x y w2 sub m w2 w d w neg 0 d cl s} def
/m33 {mp x y w2 add m w3 neg w2 neg d w3 w2 neg d w3 w2 d cl f} def
/m34 {mp x w2 sub y w2 sub w3 add m w3 0 d  0 w3 neg d w3 0 d 0 w3 d w3 0 d  0 w3 d w3 neg 0 d 0 w3 d w3 neg 0 d 0 w3 neg d w3 neg 0 d cl f } def
/m2 {mp x y w2 sub m 0 w d x w2 sub y m w 0 d s} def
/m5 {mp x w2 sub y w2 sub m w w d x w2 sub y w2 add m w w neg d s} def
%%IncludeResource: ProcSet (FontSetInit)
%%IncludeResource: font Times-Roman
%%IncludeResource: font Times-Italic
%%IncludeResource: font Times-Bold
%%IncludeResource: font Times-BoldItalic
%%IncludeResource: font Helvetica
%%IncludeResource: font Helvetica-Oblique
%%IncludeResource: font Helvetica-Bold
%%IncludeResource: font Helvetica-BoldOblique
%%IncludeResource: font Courier
%%IncludeResource: font Courier-Oblique
%%IncludeResource: font Courier-Bold
%%IncludeResource: font Courier-BoldOblique
%%IncludeResource: font Symbol
%%IncludeResource: font ZapfDingbats
/reEncode {exch findfont dup length dict begin {1 index /FID eq  {pop pop} {def} ifelse } forall /Encoding exch def currentdict end dup /FontName get exch definefont pop } def [/Times-Bold /Times-Italic /Times-BoldItalic /Helvetica /Helvetica-Oblique
 /Helvetica-Bold /Helvetica-BoldOblique /Courier /Courier-Oblique /Courier-Bold /Courier-BoldOblique /Times-Roman /AvantGarde-Book /AvantGarde-BookOblique /AvantGarde-Demi /AvantGarde-DemiOblique /Bookman-Demi /Bookman-DemiItalic /Bookman-Light
 /Bookman-LightItalic /Helvetica-Narrow /Helvetica-Narrow-Bold /Helvetica-Narrow-BoldOblique /Helvetica-Narrow-Oblique /NewCenturySchlbk-Roman /NewCenturySchlbk-Bold /NewCenturySchlbk-BoldItalic /NewCenturySchlbk-Italic /Palatino-Bold
 /Palatino-BoldItalic /Palatino-Italic /Palatino-Roman ] {ISOLatin1Encoding reEncode } forall
%%EndProlog
%%BeginSetup
%%EndSetup
newpath  gsave  .25 .25 scale  gsave  0 0 t 0.490196 0.545098 0.615686 c[  ] 0 sd 3 lw 1 1 1 c 2268 1676 0 0 bf black 1 1 1 c 1916 1308 238 201 bf black 1916 1308 238 201 bl 1 1 1 c 1916 1308 238 201 bf black 1916 1308 238 201 bl 238 201 m 1916 X s
 gsave  2268 1676 0 0 C 1607.88 30.3373 t 0 r /Helvetica-Bold findfont 72.0512 sf 0 0 m (BDTG response) show NC gr  238 244 m -43 Y s 286 222 m -21 Y s 334 222 m -21 Y s 382 222 m -21 Y s 430 244 m -43 Y s 478 222 m -21 Y s 526 222 m -21 Y s 573 222
 m -21 Y s 621 244 m -43 Y s 669 222 m -21 Y s 717 222 m -21 Y s 765 222 m -21 Y s 813 244 m -43 Y s 861 222 m -21 Y s 909 222 m -21 Y s 957 222 m -21 Y s 1005 244 m -43 Y s 1053 222 m -21 Y s 1100 222 m -21 Y s 1148 222 m -21 Y s 1196 244 m -43 Y s
 1244 222 m -21 Y s 1292 222 m -21 Y s 1340 222 m -21 Y s 1388 244 m -43 Y s 1436 222 m -21 Y s 1484 222 m -21 Y s 1532 222 m -21 Y s 1579 244 m -43 Y s 1627 222 m -21 Y s 1675 222 m -21 Y s 1723 222 m -21 Y s 1771 244 m -43 Y s 1819 222 m -21 Y s
 1867 222 m -21 Y s 1915 222 m -21 Y s 1963 244 m -43 Y s 238 244 m -43 Y s 1963 244 m -43 Y s 2011 222 m -21 Y s 2059 222 m -21 Y s 2106 222 m -21 Y s
 gsave  2268 1676 0 0 C 235.114 128.934 t 0 r /Helvetica-Bold findfont 64.4669 sf 0 0 m (1) show NC gr 
 gsave  2268 1676 0 0 C 204.777 128.934 t 0 r /Symbol findfont 64.4669 sf 0 0 m (-) show NC gr 
 gsave  2268 1676 0 0 C 398.178 128.934 t 0 r /Helvetica-Bold findfont 64.4669 sf 0 0 m (0.8) show NC gr 
 gsave  2268 1676 0 0 C 364.048 128.934 t 0 r /Symbol findfont 64.4669 sf 0 0 m (-) show NC gr 
 gsave  2268 1676 0 0 C 587.786 128.934 t 0 r /Helvetica-Bold findfont 64.4669 sf 0 0 m (0.6) show NC gr 
 gsave  2268 1676 0 0 C 557.449 128.934 t 0 r /Symbol findfont 64.4669 sf 0 0 m (-) show NC gr 
 gsave  2268 1676 0 0 C 781.187 128.934 t 0 r /Helvetica-Bold findfont 64.4669 sf 0 0 m (0.4) show NC gr 
 gsave  2268 1676 0 0 C 747.057 128.934 t 0 r /Symbol findfont 64.4669 sf 0 0 m (-) show NC gr 
 gsave  2268 1676 0 0 C 970.795 128.934 t 0 r /Helvetica-Bold findfont 64.4669 sf 0 0 m (0.2) show NC gr 
 gsave  2268 1676 0 0 C 940.458 128.934 t 0 r /Symbol findfont 64.4669 sf 0 0 m (-) show NC gr 
 gsave  2268 1676 0 0 C 1175.57 128.934 t 0 r /Helvetica-Bold findfont 64.4669 sf 0 0 m (0) show NC gr 
 gsave  2268 1676 0 0 C 1338.64 128.934 t 0 r /Helvetica-Bold findfont 64.4669 sf 0 0 m (0.2) show NC gr 
 gsave  2268 1676 0 0 C 1532.04 128.934 t 0 r /Helvetica-Bold findfont 64.4669 sf 0 0 m (0.4) show NC gr 
 gsave  2268 1676 0 0 C 1725.44 128.934 t 0 r /Helvetica-Bold findfont 64.4669 sf 0 0 m (0.6) show NC gr 
 gsave  2268 1676 0 0 C 1915.04 128.934 t 0 r /Helvetica-Bold findfont 64.4669 sf 0 0 m (0.8) show NC gr  238 1509 m 1916 X s 238 1466 m 43 Y s 286 1487 m 22 Y s 334 1487 m 22 Y s 382 1487 m 22 Y s 430 1466 m 43 Y s 478 1487 m 22 Y s 526 1487 m 22 Y
 s 573 1487 m 22 Y s 621 1466 m 43 Y s 669 1487 m 22 Y s 717 1487 m 22 Y s 765 1487 m 22 Y s 813 1466 m 43 Y s 861 1487 m 22 Y s 909 1487 m 22 Y s 957 1487 m 22 Y s 1005 1466 m 43 Y s 1053 1487 m 22 Y s 1100 1487 m 22 Y s 1148 1487 m 22 Y s 1196 1466
 m 43 Y s 1244 1487 m 22 Y s 1292 1487 m 22 Y s 1340 1487 m 22 Y s 1388 1466 m 43 Y s 1436 1487 m 22 Y s 1484 1487 m 22 Y s 1532 1487 m 22 Y s 1579 1466 m 43 Y s 1627 1487 m 22 Y s 1675 1487 m 22 Y s 1723 1487 m 22 Y s 1771 1466 m 43 Y s 1819 1487 m
 22 Y s 1867 1487 m 22 Y s 1915 1487 m 22 Y s 1963 1466 m 43 Y s 238 1466 m 43 Y s 1963 1466 m 43 Y s 2011 1487 m 22 Y s 2059 1487 m 22 Y s 2106 1487 m 22 Y s 238 201 m 1308 Y s
 gsave  2268 1676 0 0 C 64.4669 1425.86 t 90 r /Helvetica-Bold findfont 72.0512 sf 0 0 m (dx) show NC gr 
 gsave  2268 1676 0 0 C 30.3373 1406.89 t 90 r /Helvetica-Bold findfont 45.506 sf 0 0 m ( ) show NC gr 
 gsave  2268 1676 0 0 C 64.4669 1384.14 t 90 r /Helvetica-Bold findfont 72.0512 sf 0 0 m (/) show NC gr 
 gsave  2268 1676 0 0 C 30.3373 1365.18 t 90 r /Helvetica-Bold findfont 45.506 sf 0 0 m ( ) show NC gr 
 gsave  2268 1676 0 0 C 60.6747 1092.14 t 90 r /Helvetica-Bold findfont 72.0512 sf 0 0 m (\(1/N\) dN) show NC gr  291 201 m -53 X s 265 233 m -27 X s 265 266 m -27 X s 265 298 m -27 X s 291 330 m -53 X s 265 363 m -27 X s 265 395 m -27 X s 265 427 m
 -27 X s 291 459 m -53 X s 265 492 m -27 X s 265 524 m -27 X s 265 556 m -27 X s 291 589 m -53 X s 265 621 m -27 X s 265 653 m -27 X s 265 686 m -27 X s 291 718 m -53 X s 265 750 m -27 X s 265 782 m -27 X s 265 815 m -27 X s 291 847 m -53 X s 265 879
 m -27 X s 265 912 m -27 X s 265 944 m -27 X s 291 976 m -53 X s 265 1008 m -27 X s 265 1041 m -27 X s 265 1073 m -27 X s 291 1105 m -53 X s 265 1138 m -27 X s 265 1170 m -27 X s 265 1202 m -27 X s 291 1235 m -53 X s 265 1267 m -27 X s 265 1299 m -27
 X s 265 1331 m -27 X s 291 1364 m -53 X s 265 1396 m -27 X s 265 1428 m -27 X s 265 1461 m -27 X s 291 1493 m -53 X s 291 1493 m -53 X s
 gsave  2268 1676 0 0 C 174.44 178.232 t 0 r /Helvetica-Bold findfont 64.4669 sf 0 0 m (0) show NC gr 
 gsave  2268 1676 0 0 C 174.44 307.166 t 0 r /Helvetica-Bold findfont 64.4669 sf 0 0 m (2) show NC gr 
 gsave  2268 1676 0 0 C 174.44 436.099 t 0 r /Helvetica-Bold findfont 64.4669 sf 0 0 m (4) show NC gr 
 gsave  2268 1676 0 0 C 174.44 565.033 t 0 r /Helvetica-Bold findfont 64.4669 sf 0 0 m (6) show NC gr 
 gsave  2268 1676 0 0 C 174.44 693.967 t 0 r /Helvetica-Bold findfont 64.4669 sf 0 0 m (8) show NC gr 
 gsave  2268 1676 0 0 C 136.518 822.901 t 0 r /Helvetica-Bold findfont 64.4669 sf 0 0 m (10) show NC gr 
 gsave  2268 1676 0 0 C 136.518 951.834 t 0 r /Helvetica-Bold findfont 64.4669 sf 0 0 m (12) show NC gr 
 gsave  2268 1676 0 0 C 136.518 1080.77 t 0 r /Helvetica-Bold findfont 64.4669 sf 0 0 m (14) show NC gr 
 gsave  2268 1676 0 0 C 136.518 1209.7 t 0 r /Helvetica-Bold findfont 64.4669 sf 0 0 m (16) show NC gr 
 gsave  2268 1676 0 0 C 136.518 1338.64 t 0 r /Helvetica-Bold findfont 64.4669 sf 0 0 m (18) show NC gr 
 gsave  2268 1676 0 0 C 136.518 1467.57 t 0 r /Helvetica-Bold findfont 64.4669 sf 0 0 m (20) show NC gr  2154 201 m 1308 Y s 2101 201 m 53 X s 2128 233 m 26 X s 2128 266 m 26 X s 2128 298 m 26 X s 2101 330 m 53 X s 2128 363 m 26 X s 2128 395 m 26 X s
 2128 427 m 26 X s 2101 459 m 53 X s 2128 492 m 26 X s 2128 524 m 26 X s 2128 556 m 26 X s 2101 589 m 53 X s 2128 621 m 26 X s 2128 653 m 26 X s 2128 686 m 26 X s 2101 718 m 53 X s 2128 750 m 26 X s 2128 782 m 26 X s 2128 815 m 26 X s 2101 847 m 53 X
 s 2128 879 m 26 X s 2128 912 m 26 X s 2128 944 m 26 X s 2101 976 m 53 X s 2128 1008 m 26 X s 2128 1041 m 26 X s 2128 1073 m 26 X s 2101 1105 m 53 X s 2128 1138 m 26 X s 2128 1170 m 26 X s 2128 1202 m 26 X s 2101 1235 m 53 X s 2128 1267 m 26 X s 2128
 1299 m 26 X s 2128 1331 m 26 X s 2101 1364 m 53 X s 2128 1396 m 26 X s 2128 1428 m 26 X s 2128 1461 m 26 X s 2101 1493 m 53 X s 2101 1493 m 53 X s 0.490196 0.545098 0.615686 c 1 1 1 c 0.490196 0.545098 0.615686 c 680 202 238 1307 bl 238 1307 m 680 X
 s 918 1307 m 202 Y s 918 1509 m -680 X s 238 1509 m -202 Y s black
 gsave  2268 1676 0 0 C 439.892 1437.23 t 0 r /Helvetica-Bold findfont 75.8434 sf 0 0 m (Signal) show NC gr  0.49 0.6 0.82 c 269 1423 m 143 X 70 Y -143 X f 0 0 0.933333 c 6 lw 269 1493 m 143 X s 269 1423 m 143 X s 412 1423 m 70 Y s 269 1423 m 70 Y s
 black
 gsave  2268 1676 0 0 C 439.892 1338.64 t 0 r /Helvetica-Bold findfont 75.8434 sf 0 0 m (Background) show NC gr  1 0 0 c 3 lw 412 1326 m -4 -4 d s 412 1374 m -52 -52 d s 383 1393 m -71 -71 d s 335 1393 m -66 -66 d s 286 1393 m -17 -18 d s 6 lw 0 0
 0.933333 c 1 0 0 c 269 1393 m 143 X s 269 1322 m 143 X s 412 1322 m 71 Y s 269 1322 m 71 Y s 0 0 0.933333 c 0.49 0.6 0.82 c black 3 lw 0.49 0.6 0.82 c 238 201 m 25 Y 48 X -25 Y 96 X 8 Y 48 X -8 Y 239 X 8 Y 48 X -8 Y 96 X 8 Y 48 X 9 Y 48 X -17 Y 527
 X 8 Y 48 X -8 Y 191 X 17 Y 96 X -9 Y 96 X 17 Y 48 X 16 Y 48 X 33 Y 48 X -33 Y 48 X 58 Y 47 X 790 Y 48 X -889 Y f 6 lw 0 0 0.933333 c 0.49 0.6 0.82 c 0 0 0.933333 c 238 226 m 48 X -25 Y 96 X 8 Y 48 X -8 Y 239 X 8 Y 48 X -8 Y 96 X 8 Y 48 X 9 Y 48 X
 -17 Y 527 X 8 Y 48 X -8 Y 191 X 17 Y 96 X -9 Y 96 X 17 Y 48 X 16 Y 48 X 33 Y 48 X -33 Y 48 X 58 Y 47 X 790 Y 48 X -889 Y s 1 0 0 c black 3 lw 1 0 0 c 2151 227 m -26 -26 d s 2081 204 m -4 -3 d s 2032 204 m -3 -3 d s 1988 208 m -7 -7 d s 1943 211 m
 -10 -10 d s 1885 201 m s 1837 201 m s 1792 204 m -3 -3 d s 1741 201 m s 1692 201 m s 1648 204 m -4 -3 d s 1596 201 m s 1548 201 m cl s 1503 204 m -3 -3 d s 1455 204 m -3 -3 d s 1404 201 m s 1356 201 m s 1314 208 m -6 -7 d s 1263 204 m -4 -3 d s 1211
 201 m s 1163 201 m s 1122 208 m -7 -7 d s 1067 201 m s 1019 201 m s 971 201 m s 929 208 m -6 -7 d s 878 204 m -3 -3 d s 830 204 m -3 -3 d s 785 208 m -7 -7 d s 734 204 m -4 -3 d s 685 204 m -3 -3 d s 637 204 m -3 -3 d s 589 204 m -3 -3 d s 554 217 m
 -16 -16 d s 503 214 m -13 -13 d s 445 204 m -3 -3 d s 420 227 m -26 -26 d s 349 204 m -4 -3 d s 327 230 m -30 -29 d s 286 238 m -37 -37 d s 286 286 m -48 -48 d s 286 334 m -48 -48 d s 286 382 m -48 -48 d s 286 430 m -48 -48 d s 286 478 m -48 -47 d s
 286 527 m -48 -48 d s 286 575 m -48 -48 d s 286 623 m -48 -48 d s 286 671 m -48 -48 d s 286 719 m -48 -48 d s 286 767 m -48 -48 d s 286 815 m -48 -48 d s 286 863 m -48 -48 d s 286 911 m -48 -48 d s 286 959 m -48 -47 d s 286 1008 m -48 -48 d s 286
 1056 m -48 -48 d s 286 1104 m -48 -48 d s 286 1152 m -48 -48 d s 286 1200 m -48 -48 d s 286 1248 m -48 -48 d s 280 1291 m -42 -43 d s 6 lw 238 1291 m 48 X -1061 Y 48 X -26 Y 48 X 23 Y 48 X -23 Y 48 X 10 Y 48 X 3 Y 47 X -13 Y 192 X 4 Y 48 X -4 Y 96 X
 4 Y 48 X -7 Y 143 X 7 Y 48 X -7 Y 96 X 3 Y 48 X 4 Y 48 X -7 Y 96 X 3 Y 96 X -3 Y 95 X 3 Y 48 X -3 Y 96 X 3 Y 48 X -3 Y 96 X 10 Y 48 X -3 Y 48 X -4 Y 95 X 23 Y 48 X -26 Y s black 3 lw 238 201 m 1916 X s 238 244 m -43 Y s 286 222 m -21 Y s 334 222 m
 -21 Y s 382 222 m -21 Y s 430 244 m -43 Y s 478 222 m -21 Y s 526 222 m -21 Y s 573 222 m -21 Y s 621 244 m -43 Y s 669 222 m -21 Y s 717 222 m -21 Y s 765 222 m -21 Y s 813 244 m -43 Y s 861 222 m -21 Y s 909 222 m -21 Y s 957 222 m -21 Y s 1005
 244 m -43 Y s 1053 222 m -21 Y s 1100 222 m -21 Y s 1148 222 m -21 Y s 1196 244 m -43 Y s 1244 222 m -21 Y s 1292 222 m -21 Y s 1340 222 m -21 Y s 1388 244 m -43 Y s 1436 222 m -21 Y s 1484 222 m -21 Y s 1532 222 m -21 Y s 1579 244 m -43 Y s 1627
 222 m -21 Y s 1675 222 m -21 Y s 1723 222 m -21 Y s 1771 244 m -43 Y s 1819 222 m -21 Y s 1867 222 m -21 Y s 1915 222 m -21 Y s 1963 244 m -43 Y s 238 244 m -43 Y s 1963 244 m -43 Y s 2011 222 m -21 Y s 2059 222 m -21 Y s 2106 222 m -21 Y s 238 1509
 m 1916 X s 238 1466 m 43 Y s 286 1487 m 22 Y s 334 1487 m 22 Y s 382 1487 m 22 Y s 430 1466 m 43 Y s 478 1487 m 22 Y s 526 1487 m 22 Y s 573 1487 m 22 Y s 621 1466 m 43 Y s 669 1487 m 22 Y s 717 1487 m 22 Y s 765 1487 m 22 Y s 813 1466 m 43 Y s 861
 1487 m 22 Y s 909 1487 m 22 Y s 957 1487 m 22 Y s 1005 1466 m 43 Y s 1053 1487 m 22 Y s 1100 1487 m 22 Y s 1148 1487 m 22 Y s 1196 1466 m 43 Y s 1244 1487 m 22 Y s 1292 1487 m 22 Y s 1340 1487 m 22 Y s 1388 1466 m 43 Y s 1436 1487 m 22 Y s 1484 1487
 m 22 Y s 1532 1487 m 22 Y s 1579 1466 m 43 Y s 1627 1487 m 22 Y s 1675 1487 m 22 Y s 1723 1487 m 22 Y s 1771 1466 m 43 Y s 1819 1487 m 22 Y s 1867 1487 m 22 Y s 1915 1487 m 22 Y s 1963 1466 m 43 Y s 238 1466 m 43 Y s 1963 1466 m 43 Y s 2011 1487 m
 22 Y s 2059 1487 m 22 Y s 2106 1487 m 22 Y s 238 201 m 1308 Y s 291 201 m -53 X s 265 233 m -27 X s 265 266 m -27 X s 265 298 m -27 X s 291 330 m -53 X s 265 363 m -27 X s 265 395 m -27 X s 265 427 m -27 X s 291 459 m -53 X s 265 492 m -27 X s 265
 524 m -27 X s 265 556 m -27 X s 291 589 m -53 X s 265 621 m -27 X s 265 653 m -27 X s 265 686 m -27 X s 291 718 m -53 X s 265 750 m -27 X s 265 782 m -27 X s 265 815 m -27 X s 291 847 m -53 X s 265 879 m -27 X s 265 912 m -27 X s 265 944 m -27 X s
 291 976 m -53 X s 265 1008 m -27 X s 265 1041 m -27 X s 265 1073 m -27 X s 291 1105 m -53 X s 265 1138 m -27 X s 265 1170 m -27 X s 265 1202 m -27 X s 291 1235 m -53 X s 265 1267 m -27 X s 265 1299 m -27 X s 265 1331 m -27 X s 291 1364 m -53 X s 265
 1396 m -27 X s 265 1428 m -27 X s 265 1461 m -27 X s 291 1493 m -53 X s 291 1493 m -53 X s 2154 201 m 1308 Y s 2101 201 m 53 X s 2128 233 m 26 X s 2128 266 m 26 X s 2128 298 m 26 X s 2101 330 m 53 X s 2128 363 m 26 X s 2128 395 m 26 X s 2128 427 m
 26 X s 2101 459 m 53 X s 2128 492 m 26 X s 2128 524 m 26 X s 2128 556 m 26 X s 2101 589 m 53 X s 2128 621 m 26 X s 2128 653 m 26 X s 2128 686 m 26 X s 2101 718 m 53 X s 2128 750 m 26 X s 2128 782 m 26 X s 2128 815 m 26 X s 2101 847 m 53 X s 2128 879
 m 26 X s 2128 912 m 26 X s 2128 944 m 26 X s 2101 976 m 53 X s 2128 1008 m 26 X s 2128 1041 m 26 X s 2128 1073 m 26 X s 2101 1105 m 53 X s 2128 1138 m 26 X s 2128 1170 m 26 X s 2128 1202 m 26 X s 2101 1235 m 53 X s 2128 1267 m 26 X s 2128 1299 m 26
 X s 2128 1331 m 26 X s 2101 1364 m 53 X s 2128 1396 m 26 X s 2128 1428 m 26 X s 2128 1461 m 26 X s 2101 1493 m 53 X s 2101 1493 m 53 X s
 gsave  2268 1676 0 0 C 2211.02 192.756 t 90 r /Helvetica-Bold findfont 45.506 sf 0 0 m (U/O\255flow \(S,B\): \(0.0, 0.0\)% / \(0.0, 0.0\)%) show NC gr 
 gr  gr showpage
end
%%EOF
