%!PS-Adobe-2.0 EPSF-2.0
%%BoundingBox:  0 0 567 419
%%Title: DataSet/plots/mva_KNN.eps: TMVA response KNN
%%Creator: ROOT Version 6.08/06
%%CreationDate: Fri Jun  1 10:06:39 2018
%%DocumentNeededResources: ProcSet (FontSetInit)
%%EndComments
%%BeginProlog
80 dict begin
/s {stroke} def /l {lineto} def /m {moveto} def /t {translate} def
/r {rotate} def /rl {roll}  def /R {repeat} def
/d {rlineto} def /rm {rmoveto} def /gr {grestore} def /f {eofill} def
/c {setrgbcolor} def /black {0 setgray} def /sd {setdash} def
/cl {closepath} def /sf {scalefont setfont} def /lw {setlinewidth} def
/box {m dup 0 exch d exch 0 d 0 exch neg d cl} def
/NC{systemdict begin initclip end}def/C{NC box clip newpath}def
/bl {box s} def /bf {gsave box gsave f grestore 1 lw [] 0 sd s grestore} def /Y { 0 exch d} def /X { 0 d} def 
/K {{pop pop 0 moveto} exch kshow} bind def
/ita {/ang 15 def gsave [1 0 ang dup sin exch cos div 1 0 0] concat} def 
/mp {newpath /y exch def /x exch def} def
/side {[w .77 mul w .23 mul] .385 w mul sd w 0 l currentpoint t -144 r} def
/mr {mp x y w2 0 360 arc} def /m24 {mr s} def /m20 {mr f} def
/mb {mp x y w2 add m w2 neg 0 d 0 w neg d w 0 d 0 w d cl} def
/mt {mp x y w2 add m w2 neg w neg d w 0 d cl} def
/m21 {mb f} def /m25 {mb s} def /m22 {mt f} def /m26{mt s} def
/m23 {mp x y w2 sub m w2 w d w neg 0 d cl f} def
/m27 {mp x y w2 add m w3 neg w2 neg d w3 w2 neg d w3 w2 d cl s} def
/m28 {mp x w2 sub y w2 sub w3 add m w3 0 d  0 w3 neg d w3 0 d 0 w3 d w3 0 d  0 w3 d w3 neg 0 d 0 w3 d w3 neg 0 d 0 w3 neg d w3 neg 0 d cl s } def
/m29 {mp gsave x w2 sub y w2 add w3 sub m currentpoint t 4 {side} repeat cl fill gr} def
/m30 {mp gsave x w2 sub y w2 add w3 sub m currentpoint t 4 {side} repeat cl s gr} def
/m31 {mp x y w2 sub m 0 w d x w2 sub y m w 0 d x w2 sub y w2 add m w w neg d x w2 sub y w2 sub m w w d s} def
/m32 {mp x y w2 sub m w2 w d w neg 0 d cl s} def
/m33 {mp x y w2 add m w3 neg w2 neg d w3 w2 neg d w3 w2 d cl f} def
/m34 {mp x w2 sub y w2 sub w3 add m w3 0 d  0 w3 neg d w3 0 d 0 w3 d w3 0 d  0 w3 d w3 neg 0 d 0 w3 d w3 neg 0 d 0 w3 neg d w3 neg 0 d cl f } def
/m2 {mp x y w2 sub m 0 w d x w2 sub y m w 0 d s} def
/m5 {mp x w2 sub y w2 sub m w w d x w2 sub y w2 add m w w neg d s} def
%%IncludeResource: ProcSet (FontSetInit)
%%IncludeResource: font Times-Roman
%%IncludeResource: font Times-Italic
%%IncludeResource: font Times-Bold
%%IncludeResource: font Times-BoldItalic
%%IncludeResource: font Helvetica
%%IncludeResource: font Helvetica-Oblique
%%IncludeResource: font Helvetica-Bold
%%IncludeResource: font Helvetica-BoldOblique
%%IncludeResource: font Courier
%%IncludeResource: font Courier-Oblique
%%IncludeResource: font Courier-Bold
%%IncludeResource: font Courier-BoldOblique
%%IncludeResource: font Symbol
%%IncludeResource: font ZapfDingbats
/reEncode {exch findfont dup length dict begin {1 index /FID eq  {pop pop} {def} ifelse } forall /Encoding exch def currentdict end dup /FontName get exch definefont pop } def [/Times-Bold /Times-Italic /Times-BoldItalic /Helvetica /Helvetica-Oblique
 /Helvetica-Bold /Helvetica-BoldOblique /Courier /Courier-Oblique /Courier-Bold /Courier-BoldOblique /Times-Roman /AvantGarde-Book /AvantGarde-BookOblique /AvantGarde-Demi /AvantGarde-DemiOblique /Bookman-Demi /Bookman-DemiItalic /Bookman-Light
 /Bookman-LightItalic /Helvetica-Narrow /Helvetica-Narrow-Bold /Helvetica-Narrow-BoldOblique /Helvetica-Narrow-Oblique /NewCenturySchlbk-Roman /NewCenturySchlbk-Bold /NewCenturySchlbk-BoldItalic /NewCenturySchlbk-Italic /Palatino-Bold
 /Palatino-BoldItalic /Palatino-Italic /Palatino-Roman ] {ISOLatin1Encoding reEncode } forall
%%EndProlog
%%BeginSetup
%%EndSetup
newpath  gsave  .25 .25 scale  gsave  0 0 t 0.490196 0.545098 0.615686 c[  ] 0 sd 3 lw 1 1 1 c 2268 1676 0 0 bf black 1 1 1 c 1916 1308 238 201 bf black 1916 1308 238 201 bl 1 1 1 c 1916 1308 238 201 bf black 1916 1308 238 201 bl 238 201 m 1916 X s
 gsave  2268 1676 0 0 C 1657.18 34.1295 t 0 r /Helvetica-Bold findfont 72.0512 sf 0 0 m (KNN response) show NC gr  238 244 m -43 Y s 334 222 m -21 Y s 430 222 m -21 Y s 526 222 m -21 Y s 621 244 m -43 Y s 717 222 m -21 Y s 813 222 m -21 Y s 909 222 m
 -21 Y s 1005 244 m -43 Y s 1100 222 m -21 Y s 1196 222 m -21 Y s 1292 222 m -21 Y s 1388 244 m -43 Y s 1484 222 m -21 Y s 1579 222 m -21 Y s 1675 222 m -21 Y s 1771 244 m -43 Y s 1867 222 m -21 Y s 1963 222 m -21 Y s 2059 222 m -21 Y s 2154 244 m
 -43 Y s 2154 244 m -43 Y s
 gsave  2268 1676 0 0 C 216.154 128.934 t 0 r /Helvetica-Bold findfont 64.4669 sf 0 0 m (0) show NC gr 
 gsave  2268 1676 0 0 C 572.617 128.934 t 0 r /Helvetica-Bold findfont 64.4669 sf 0 0 m (0.2) show NC gr 
 gsave  2268 1676 0 0 C 955.626 128.934 t 0 r /Helvetica-Bold findfont 64.4669 sf 0 0 m (0.4) show NC gr 
 gsave  2268 1676 0 0 C 1338.64 128.934 t 0 r /Helvetica-Bold findfont 64.4669 sf 0 0 m (0.6) show NC gr 
 gsave  2268 1676 0 0 C 1725.44 128.934 t 0 r /Helvetica-Bold findfont 64.4669 sf 0 0 m (0.8) show NC gr 
 gsave  2268 1676 0 0 C 2138.78 128.934 t 0 r /Helvetica-Bold findfont 64.4669 sf 0 0 m (1) show NC gr  238 1509 m 1916 X s 238 1466 m 43 Y s 334 1487 m 22 Y s 430 1487 m 22 Y s 526 1487 m 22 Y s 621 1466 m 43 Y s 717 1487 m 22 Y s 813 1487 m 22 Y s
 909 1487 m 22 Y s 1005 1466 m 43 Y s 1100 1487 m 22 Y s 1196 1487 m 22 Y s 1292 1487 m 22 Y s 1388 1466 m 43 Y s 1484 1487 m 22 Y s 1579 1487 m 22 Y s 1675 1487 m 22 Y s 1771 1466 m 43 Y s 1867 1487 m 22 Y s 1963 1487 m 22 Y s 2059 1487 m 22 Y s
 2154 1466 m 43 Y s 2154 1466 m 43 Y s 238 201 m 1308 Y s
 gsave  2268 1676 0 0 C 64.4669 1425.86 t 90 r /Helvetica-Bold findfont 72.0512 sf 0 0 m (dx) show NC gr 
 gsave  2268 1676 0 0 C 30.3373 1406.89 t 90 r /Helvetica-Bold findfont 45.506 sf 0 0 m ( ) show NC gr 
 gsave  2268 1676 0 0 C 64.4669 1384.14 t 90 r /Helvetica-Bold findfont 72.0512 sf 0 0 m (/) show NC gr 
 gsave  2268 1676 0 0 C 30.3373 1365.18 t 90 r /Helvetica-Bold findfont 45.506 sf 0 0 m ( ) show NC gr 
 gsave  2268 1676 0 0 C 60.6747 1092.14 t 90 r /Helvetica-Bold findfont 72.0512 sf 0 0 m (\(1/N\) dN) show NC gr  291 201 m -53 X s 265 242 m -27 X s 265 283 m -27 X s 265 325 m -27 X s 265 366 m -27 X s 291 407 m -53 X s 265 448 m -27 X s 265 489 m
 -27 X s 265 530 m -27 X s 265 572 m -27 X s 291 613 m -53 X s 265 654 m -27 X s 265 695 m -27 X s 265 736 m -27 X s 265 777 m -27 X s 291 819 m -53 X s 265 860 m -27 X s 265 901 m -27 X s 265 942 m -27 X s 265 983 m -27 X s 291 1024 m -53 X s 265
 1066 m -27 X s 265 1107 m -27 X s 265 1148 m -27 X s 265 1189 m -27 X s 291 1230 m -53 X s 265 1272 m -27 X s 265 1313 m -27 X s 265 1354 m -27 X s 265 1395 m -27 X s 291 1436 m -53 X s 291 1436 m -53 X s 265 1477 m -27 X s
 gsave  2268 1676 0 0 C 174.44 178.232 t 0 r /Helvetica-Bold findfont 64.4669 sf 0 0 m (0) show NC gr 
 gsave  2268 1676 0 0 C 174.44 383.009 t 0 r /Helvetica-Bold findfont 64.4669 sf 0 0 m (5) show NC gr 
 gsave  2268 1676 0 0 C 136.518 587.786 t 0 r /Helvetica-Bold findfont 64.4669 sf 0 0 m (10) show NC gr 
 gsave  2268 1676 0 0 C 136.518 792.563 t 0 r /Helvetica-Bold findfont 64.4669 sf 0 0 m (15) show NC gr 
 gsave  2268 1676 0 0 C 136.518 1001.13 t 0 r /Helvetica-Bold findfont 64.4669 sf 0 0 m (20) show NC gr 
 gsave  2268 1676 0 0 C 136.518 1205.91 t 0 r /Helvetica-Bold findfont 64.4669 sf 0 0 m (25) show NC gr 
 gsave  2268 1676 0 0 C 136.518 1410.69 t 0 r /Helvetica-Bold findfont 64.4669 sf 0 0 m (30) show NC gr  2154 201 m 1308 Y s 2101 201 m 53 X s 2128 242 m 26 X s 2128 283 m 26 X s 2128 325 m 26 X s 2128 366 m 26 X s 2101 407 m 53 X s 2128 448 m 26 X s
 2128 489 m 26 X s 2128 530 m 26 X s 2128 572 m 26 X s 2101 613 m 53 X s 2128 654 m 26 X s 2128 695 m 26 X s 2128 736 m 26 X s 2128 777 m 26 X s 2101 819 m 53 X s 2128 860 m 26 X s 2128 901 m 26 X s 2128 942 m 26 X s 2128 983 m 26 X s 2101 1024 m 53
 X s 2128 1066 m 26 X s 2128 1107 m 26 X s 2128 1148 m 26 X s 2128 1189 m 26 X s 2101 1230 m 53 X s 2128 1272 m 26 X s 2128 1313 m 26 X s 2128 1354 m 26 X s 2128 1395 m 26 X s 2101 1436 m 53 X s 2101 1436 m 53 X s 2128 1477 m 26 X s 0.490196 0.545098
 0.615686 c 1 1 1 c 0.490196 0.545098 0.615686 c 680 202 238 1307 bl 238 1307 m 680 X s 918 1307 m 202 Y s 918 1509 m -680 X s 238 1509 m -202 Y s black
 gsave  2268 1676 0 0 C 439.892 1437.23 t 0 r /Helvetica-Bold findfont 75.8434 sf 0 0 m (Signal) show NC gr  0.49 0.6 0.82 c 269 1423 m 143 X 70 Y -143 X f 0 0 0.933333 c 6 lw 269 1493 m 143 X s 269 1423 m 143 X s 412 1423 m 70 Y s 269 1423 m 70 Y s
 black
 gsave  2268 1676 0 0 C 439.892 1338.64 t 0 r /Helvetica-Bold findfont 75.8434 sf 0 0 m (Background) show NC gr  1 0 0 c 3 lw 412 1326 m -4 -4 d s 412 1374 m -52 -52 d s 383 1393 m -71 -71 d s 335 1393 m -66 -66 d s 286 1393 m -17 -18 d s 6 lw 0 0
 0.933333 c 1 0 0 c 269 1393 m 143 X s 269 1322 m 143 X s 412 1322 m 71 Y s 269 1322 m 71 Y s 0 0 0.933333 c 0.49 0.6 0.82 c black 3 lw 0.49 0.6 0.82 c 238 201 m 11 Y 48 X -11 Y 144 X 11 Y 48 X -11 Y 143 X 21 Y 48 X -21 Y 527 X 21 Y 48 X -21 Y 48 X
 21 Y 48 X -21 Y 48 X 53 Y 48 X -53 Y 48 X 21 Y 48 X -21 Y 47 X 42 Y 48 X -42 Y 48 X 42 Y 48 X 53 Y 48 X -11 Y 48 X -84 Y 48 X 105 Y 48 X 94 Y 48 X -10 Y 48 X 10 Y 48 X 32 Y 47 X 73 Y 48 X -304 Y f 6 lw 0 0 0.933333 c 0.49 0.6 0.82 c 0 0 0.933333 c
 238 212 m 48 X -11 Y 144 X 11 Y 48 X -11 Y 143 X 21 Y 48 X -21 Y 527 X 21 Y 48 X -21 Y 48 X 21 Y 48 X -21 Y 48 X 53 Y 48 X -53 Y 48 X 21 Y 48 X -21 Y 47 X 42 Y 48 X -42 Y 48 X 42 Y 48 X 53 Y 48 X -11 Y 48 X -84 Y 48 X 105 Y 48 X 94 Y 48 X -10 Y 48 X
 10 Y 48 X 32 Y 47 X 73 Y 48 X -304 Y s 1 0 0 c black 3 lw 1 0 0 c 2134 209 m -9 -8 d s 2094 218 m -17 -17 d s 2054 226 m -25 -25 d s 1989 209 m -8 -8 d s 1945 214 m -12 -13 d s 1897 214 m -12 -13 d s 1837 201 m s 1801 214 m -12 -13 d s 1761 222 m
 -20 -21 d s 1709 218 m -17 -17 d s 1644 201 m s 1609 214 m -13 -13 d s 1548 201 m cl s 1532 233 m -32 -32 d s 1485 234 m -1 -1 d s 1452 201 m s 1425 222 m -21 -21 d s 1356 201 m s 1316 209 m -8 -8 d s 1259 201 m s 1244 234 m -33 -33 d s 1197 234 m
 -1 X s 1163 201 m s 1148 234 m -33 -33 d s 1129 264 m -29 -29 d s 1067 201 m s 1019 201 m s 1004 234 m -33 -33 d s 923 201 m s 875 201 m cl s 861 236 m -34 -35 d s 837 259 m -24 -23 d s 778 201 m cl s 730 201 m s 682 201 m cl s 669 236 m -35 -35 d s
 661 276 m -40 -39 d s 586 201 m cl s 538 201 m s 490 201 m s 478 237 m -36 -36 d s 478 285 m -48 -48 d s 394 201 m cl s 433 288 m -3 -3 d s 345 201 m s 297 201 m s 286 238 m -37 -37 d s 286 286 m -48 -48 d s 286 334 m -48 -48 d s 286 382 m -48 -48 d
 s 286 430 m -48 -48 d s 286 478 m -48 -47 d s 286 527 m -48 -48 d s 286 575 m -48 -48 d s 286 623 m -48 -48 d s 286 671 m -48 -48 d s 286 719 m -48 -48 d s 286 767 m -48 -48 d s 286 815 m -48 -48 d s 286 863 m -48 -48 d s 286 911 m -48 -48 d s 286
 959 m -48 -47 d s 286 1008 m -48 -48 d s 286 1056 m -48 -48 d s 286 1104 m -48 -48 d s 286 1152 m -48 -48 d s 286 1200 m -48 -48 d s 286 1248 m -48 -48 d s 280 1291 m -42 -43 d s 6 lw 238 1291 m 48 X -1090 Y 144 X 87 Y 48 X -87 Y 143 X 75 Y 48 X -75
 Y 144 X 58 Y 48 X -58 Y 96 X 33 Y 48 X -33 Y 95 X 63 Y 48 X -63 Y 48 X 33 Y 48 X -33 Y 48 X 8 Y 48 X -8 Y 48 X 21 Y 48 X -21 Y 48 X 33 Y 48 X -33 Y 47 X 13 Y 48 X -13 Y 48 X 17 Y 48 X 4 Y 48 X -8 Y 48 X -13 Y 48 X 13 Y 96 X -5 Y 48 X 17 Y 48 X -8 Y
 47 X -9 Y 48 X -8 Y s black 3 lw 238 201 m 1916 X s 238 244 m -43 Y s 334 222 m -21 Y s 430 222 m -21 Y s 526 222 m -21 Y s 621 244 m -43 Y s 717 222 m -21 Y s 813 222 m -21 Y s 909 222 m -21 Y s 1005 244 m -43 Y s 1100 222 m -21 Y s 1196 222 m -21
 Y s 1292 222 m -21 Y s 1388 244 m -43 Y s 1484 222 m -21 Y s 1579 222 m -21 Y s 1675 222 m -21 Y s 1771 244 m -43 Y s 1867 222 m -21 Y s 1963 222 m -21 Y s 2059 222 m -21 Y s 2154 244 m -43 Y s 2154 244 m -43 Y s 238 1509 m 1916 X s 238 1466 m 43 Y
 s 334 1487 m 22 Y s 430 1487 m 22 Y s 526 1487 m 22 Y s 621 1466 m 43 Y s 717 1487 m 22 Y s 813 1487 m 22 Y s 909 1487 m 22 Y s 1005 1466 m 43 Y s 1100 1487 m 22 Y s 1196 1487 m 22 Y s 1292 1487 m 22 Y s 1388 1466 m 43 Y s 1484 1487 m 22 Y s 1579
 1487 m 22 Y s 1675 1487 m 22 Y s 1771 1466 m 43 Y s 1867 1487 m 22 Y s 1963 1487 m 22 Y s 2059 1487 m 22 Y s 2154 1466 m 43 Y s 2154 1466 m 43 Y s 238 201 m 1308 Y s 291 201 m -53 X s 265 242 m -27 X s 265 283 m -27 X s 265 325 m -27 X s 265 366 m
 -27 X s 291 407 m -53 X s 265 448 m -27 X s 265 489 m -27 X s 265 530 m -27 X s 265 572 m -27 X s 291 613 m -53 X s 265 654 m -27 X s 265 695 m -27 X s 265 736 m -27 X s 265 777 m -27 X s 291 819 m -53 X s 265 860 m -27 X s 265 901 m -27 X s 265 942
 m -27 X s 265 983 m -27 X s 291 1024 m -53 X s 265 1066 m -27 X s 265 1107 m -27 X s 265 1148 m -27 X s 265 1189 m -27 X s 291 1230 m -53 X s 265 1272 m -27 X s 265 1313 m -27 X s 265 1354 m -27 X s 265 1395 m -27 X s 291 1436 m -53 X s 291 1436 m
 -53 X s 265 1477 m -27 X s 2154 201 m 1308 Y s 2101 201 m 53 X s 2128 242 m 26 X s 2128 283 m 26 X s 2128 325 m 26 X s 2128 366 m 26 X s 2101 407 m 53 X s 2128 448 m 26 X s 2128 489 m 26 X s 2128 530 m 26 X s 2128 572 m 26 X s 2101 613 m 53 X s 2128
 654 m 26 X s 2128 695 m 26 X s 2128 736 m 26 X s 2128 777 m 26 X s 2101 819 m 53 X s 2128 860 m 26 X s 2128 901 m 26 X s 2128 942 m 26 X s 2128 983 m 26 X s 2101 1024 m 53 X s 2128 1066 m 26 X s 2128 1107 m 26 X s 2128 1148 m 26 X s 2128 1189 m 26 X
 s 2101 1230 m 53 X s 2128 1272 m 26 X s 2128 1313 m 26 X s 2128 1354 m 26 X s 2128 1395 m 26 X s 2101 1436 m 53 X s 2101 1436 m 53 X s 2128 1477 m 26 X s
 gsave  2268 1676 0 0 C 2211.02 192.756 t 90 r /Helvetica-Bold findfont 45.506 sf 0 0 m (U/O\255flow \(S,B\): \(0.0, 0.0\)% / \(0.0, 0.0\)%) show NC gr 
 gr  gr showpage
end
%%EOF
