%!PS-Adobe-2.0 EPSF-2.0
%%BoundingBox:  0 0 567 419
%%Title: DataSet/plots/mva_BDTDe.eps: TMVA response BDTDe
%%Creator: ROOT Version 6.08/06
%%CreationDate: Fri Jun  1 10:06:40 2018
%%DocumentNeededResources: ProcSet (FontSetInit)
%%EndComments
%%BeginProlog
80 dict begin
/s {stroke} def /l {lineto} def /m {moveto} def /t {translate} def
/r {rotate} def /rl {roll}  def /R {repeat} def
/d {rlineto} def /rm {rmoveto} def /gr {grestore} def /f {eofill} def
/c {setrgbcolor} def /black {0 setgray} def /sd {setdash} def
/cl {closepath} def /sf {scalefont setfont} def /lw {setlinewidth} def
/box {m dup 0 exch d exch 0 d 0 exch neg d cl} def
/NC{systemdict begin initclip end}def/C{NC box clip newpath}def
/bl {box s} def /bf {gsave box gsave f grestore 1 lw [] 0 sd s grestore} def /Y { 0 exch d} def /X { 0 d} def 
/K {{pop pop 0 moveto} exch kshow} bind def
/ita {/ang 15 def gsave [1 0 ang dup sin exch cos div 1 0 0] concat} def 
/mp {newpath /y exch def /x exch def} def
/side {[w .77 mul w .23 mul] .385 w mul sd w 0 l currentpoint t -144 r} def
/mr {mp x y w2 0 360 arc} def /m24 {mr s} def /m20 {mr f} def
/mb {mp x y w2 add m w2 neg 0 d 0 w neg d w 0 d 0 w d cl} def
/mt {mp x y w2 add m w2 neg w neg d w 0 d cl} def
/m21 {mb f} def /m25 {mb s} def /m22 {mt f} def /m26{mt s} def
/m23 {mp x y w2 sub m w2 w d w neg 0 d cl f} def
/m27 {mp x y w2 add m w3 neg w2 neg d w3 w2 neg d w3 w2 d cl s} def
/m28 {mp x w2 sub y w2 sub w3 add m w3 0 d  0 w3 neg d w3 0 d 0 w3 d w3 0 d  0 w3 d w3 neg 0 d 0 w3 d w3 neg 0 d 0 w3 neg d w3 neg 0 d cl s } def
/m29 {mp gsave x w2 sub y w2 add w3 sub m currentpoint t 4 {side} repeat cl fill gr} def
/m30 {mp gsave x w2 sub y w2 add w3 sub m currentpoint t 4 {side} repeat cl s gr} def
/m31 {mp x y w2 sub m 0 w d x w2 sub y m w 0 d x w2 sub y w2 add m w w neg d x w2 sub y w2 sub m w w d s} def
/m32 {mp x y w2 sub m w2 w d w neg 0 d cl s} def
/m33 {mp x y w2 add m w3 neg w2 neg d w3 w2 neg d w3 w2 d cl f} def
/m34 {mp x w2 sub y w2 sub w3 add m w3 0 d  0 w3 neg d w3 0 d 0 w3 d w3 0 d  0 w3 d w3 neg 0 d 0 w3 d w3 neg 0 d 0 w3 neg d w3 neg 0 d cl f } def
/m2 {mp x y w2 sub m 0 w d x w2 sub y m w 0 d s} def
/m5 {mp x w2 sub y w2 sub m w w d x w2 sub y w2 add m w w neg d s} def
%%IncludeResource: ProcSet (FontSetInit)
%%IncludeResource: font Times-Roman
%%IncludeResource: font Times-Italic
%%IncludeResource: font Times-Bold
%%IncludeResource: font Times-BoldItalic
%%IncludeResource: font Helvetica
%%IncludeResource: font Helvetica-Oblique
%%IncludeResource: font Helvetica-Bold
%%IncludeResource: font Helvetica-BoldOblique
%%IncludeResource: font Courier
%%IncludeResource: font Courier-Oblique
%%IncludeResource: font Courier-Bold
%%IncludeResource: font Courier-BoldOblique
%%IncludeResource: font Symbol
%%IncludeResource: font ZapfDingbats
/reEncode {exch findfont dup length dict begin {1 index /FID eq  {pop pop} {def} ifelse } forall /Encoding exch def currentdict end dup /FontName get exch definefont pop } def [/Times-Bold /Times-Italic /Times-BoldItalic /Helvetica /Helvetica-Oblique
 /Helvetica-Bold /Helvetica-BoldOblique /Courier /Courier-Oblique /Courier-Bold /Courier-BoldOblique /Times-Roman /AvantGarde-Book /AvantGarde-BookOblique /AvantGarde-Demi /AvantGarde-DemiOblique /Bookman-Demi /Bookman-DemiItalic /Bookman-Light
 /Bookman-LightItalic /Helvetica-Narrow /Helvetica-Narrow-Bold /Helvetica-Narrow-BoldOblique /Helvetica-Narrow-Oblique /NewCenturySchlbk-Roman /NewCenturySchlbk-Bold /NewCenturySchlbk-BoldItalic /NewCenturySchlbk-Italic /Palatino-Bold
 /Palatino-BoldItalic /Palatino-Italic /Palatino-Roman ] {ISOLatin1Encoding reEncode } forall
%%EndProlog
%%BeginSetup
%%EndSetup
newpath  gsave  .25 .25 scale  gsave  0 0 t 0.490196 0.545098 0.615686 c[  ] 0 sd 3 lw 1 1 1 c 2268 1676 0 0 bf black 1 1 1 c 1916 1308 238 201 bf black 1916 1308 238 201 bl 1 1 1 c 1916 1308 238 201 bf black 1916 1308 238 201 bl 238 201 m 1916 X s
 gsave  2268 1676 0 0 C 1573.75 34.1295 t 0 r /Helvetica-Bold findfont 72.0512 sf 0 0 m (BDTDe response) show NC gr  357 244 m -43 Y s 439 222 m -21 Y s 520 222 m -21 Y s 602 222 m -21 Y s 683 244 m -43 Y s 765 222 m -21 Y s 846 222 m -21 Y s 928 222
 m -21 Y s 1010 244 m -43 Y s 1091 222 m -21 Y s 1173 222 m -21 Y s 1254 222 m -21 Y s 1336 244 m -43 Y s 1417 222 m -21 Y s 1499 222 m -21 Y s 1580 222 m -21 Y s 1662 244 m -43 Y s 1743 222 m -21 Y s 1825 222 m -21 Y s 1906 222 m -21 Y s 1988 244 m
 -43 Y s 357 244 m -43 Y s 276 222 m -21 Y s 1988 244 m -43 Y s 2069 222 m -21 Y s 2151 222 m -21 Y s
 gsave  2268 1676 0 0 C 326.126 128.934 t 0 r /Helvetica-Bold findfont 64.4669 sf 0 0 m (0.6) show NC gr 
 gsave  2268 1676 0 0 C 295.789 128.934 t 0 r /Symbol findfont 64.4669 sf 0 0 m (-) show NC gr 
 gsave  2268 1676 0 0 C 652.253 128.934 t 0 r /Helvetica-Bold findfont 64.4669 sf 0 0 m (0.4) show NC gr 
 gsave  2268 1676 0 0 C 618.123 128.934 t 0 r /Symbol findfont 64.4669 sf 0 0 m (-) show NC gr 
 gsave  2268 1676 0 0 C 978.379 128.934 t 0 r /Helvetica-Bold findfont 64.4669 sf 0 0 m (0.2) show NC gr 
 gsave  2268 1676 0 0 C 948.042 128.934 t 0 r /Symbol findfont 64.4669 sf 0 0 m (-) show NC gr 
 gsave  2268 1676 0 0 C 1315.88 128.934 t 0 r /Helvetica-Bold findfont 64.4669 sf 0 0 m (0) show NC gr 
 gsave  2268 1676 0 0 C 1615.46 128.934 t 0 r /Helvetica-Bold findfont 64.4669 sf 0 0 m (0.2) show NC gr 
 gsave  2268 1676 0 0 C 1941.59 128.934 t 0 r /Helvetica-Bold findfont 64.4669 sf 0 0 m (0.4) show NC gr  238 1509 m 1916 X s 357 1466 m 43 Y s 439 1487 m 22 Y s 520 1487 m 22 Y s 602 1487 m 22 Y s 683 1466 m 43 Y s 765 1487 m 22 Y s 846 1487 m 22 Y
 s 928 1487 m 22 Y s 1010 1466 m 43 Y s 1091 1487 m 22 Y s 1173 1487 m 22 Y s 1254 1487 m 22 Y s 1336 1466 m 43 Y s 1417 1487 m 22 Y s 1499 1487 m 22 Y s 1580 1487 m 22 Y s 1662 1466 m 43 Y s 1743 1487 m 22 Y s 1825 1487 m 22 Y s 1906 1487 m 22 Y s
 1988 1466 m 43 Y s 357 1466 m 43 Y s 276 1487 m 22 Y s 1988 1466 m 43 Y s 2069 1487 m 22 Y s 2151 1487 m 22 Y s 238 201 m 1308 Y s
 gsave  2268 1676 0 0 C 64.4669 1425.86 t 90 r /Helvetica-Bold findfont 72.0512 sf 0 0 m (dx) show NC gr 
 gsave  2268 1676 0 0 C 30.3373 1406.89 t 90 r /Helvetica-Bold findfont 45.506 sf 0 0 m ( ) show NC gr 
 gsave  2268 1676 0 0 C 64.4669 1384.14 t 90 r /Helvetica-Bold findfont 72.0512 sf 0 0 m (/) show NC gr 
 gsave  2268 1676 0 0 C 30.3373 1365.18 t 90 r /Helvetica-Bold findfont 45.506 sf 0 0 m ( ) show NC gr 
 gsave  2268 1676 0 0 C 60.6747 1092.14 t 90 r /Helvetica-Bold findfont 72.0512 sf 0 0 m (\(1/N\) dN) show NC gr  291 201 m -53 X s 265 257 m -27 X s 265 313 m -27 X s 265 369 m -27 X s 291 425 m -53 X s 265 482 m -27 X s 265 538 m -27 X s 265 594 m
 -27 X s 291 650 m -53 X s 265 706 m -27 X s 265 762 m -27 X s 265 818 m -27 X s 291 874 m -53 X s 265 930 m -27 X s 265 986 m -27 X s 265 1042 m -27 X s 291 1099 m -53 X s 265 1155 m -27 X s 265 1211 m -27 X s 265 1267 m -27 X s 291 1323 m -53 X s
 291 1323 m -53 X s 265 1379 m -27 X s 265 1435 m -27 X s 265 1491 m -27 X s
 gsave  2268 1676 0 0 C 174.44 178.232 t 0 r /Helvetica-Bold findfont 64.4669 sf 0 0 m (0) show NC gr 
 gsave  2268 1676 0 0 C 174.44 401.97 t 0 r /Helvetica-Bold findfont 64.4669 sf 0 0 m (2) show NC gr 
 gsave  2268 1676 0 0 C 174.44 625.708 t 0 r /Helvetica-Bold findfont 64.4669 sf 0 0 m (4) show NC gr 
 gsave  2268 1676 0 0 C 174.44 849.446 t 0 r /Helvetica-Bold findfont 64.4669 sf 0 0 m (6) show NC gr 
 gsave  2268 1676 0 0 C 174.44 1073.18 t 0 r /Helvetica-Bold findfont 64.4669 sf 0 0 m (8) show NC gr 
 gsave  2268 1676 0 0 C 136.518 1296.92 t 0 r /Helvetica-Bold findfont 64.4669 sf 0 0 m (10) show NC gr  2154 201 m 1308 Y s 2101 201 m 53 X s 2128 257 m 26 X s 2128 313 m 26 X s 2128 369 m 26 X s 2101 425 m 53 X s 2128 482 m 26 X s 2128 538 m 26 X s
 2128 594 m 26 X s 2101 650 m 53 X s 2128 706 m 26 X s 2128 762 m 26 X s 2128 818 m 26 X s 2101 874 m 53 X s 2128 930 m 26 X s 2128 986 m 26 X s 2128 1042 m 26 X s 2101 1099 m 53 X s 2128 1155 m 26 X s 2128 1211 m 26 X s 2128 1267 m 26 X s 2101 1323
 m 53 X s 2101 1323 m 53 X s 2128 1379 m 26 X s 2128 1435 m 26 X s 2128 1491 m 26 X s 0.490196 0.545098 0.615686 c 1 1 1 c 0.490196 0.545098 0.615686 c 680 202 238 1307 bl 238 1307 m 680 X s 918 1307 m 202 Y s 918 1509 m -680 X s 238 1509 m -202 Y s
 black
 gsave  2268 1676 0 0 C 439.892 1437.23 t 0 r /Helvetica-Bold findfont 75.8434 sf 0 0 m (Signal) show NC gr  0.49 0.6 0.82 c 269 1423 m 143 X 70 Y -143 X f 0 0 0.933333 c 6 lw 269 1493 m 143 X s 269 1423 m 143 X s 412 1423 m 70 Y s 269 1423 m 70 Y s
 black
 gsave  2268 1676 0 0 C 439.892 1338.64 t 0 r /Helvetica-Bold findfont 75.8434 sf 0 0 m (Background) show NC gr  1 0 0 c 3 lw 412 1326 m -4 -4 d s 412 1374 m -52 -52 d s 383 1393 m -71 -71 d s 335 1393 m -66 -66 d s 286 1393 m -17 -18 d s 6 lw 0 0
 0.933333 c 1 0 0 c 269 1393 m 143 X s 269 1322 m 143 X s 412 1322 m 71 Y s 269 1322 m 71 Y s 0 0 0.933333 c 0.49 0.6 0.82 c black 3 lw 0.49 0.6 0.82 c 238 201 m 383 X 24 Y 48 X -24 Y 192 X 24 Y 48 X -24 Y 48 X 24 Y 48 X -24 Y 95 X 24 Y 96 X -24 Y 96
 X 24 Y 48 X 98 Y 48 X -25 Y 48 X 25 Y 96 X 97 Y 47 X 73 Y 48 X 24 Y 48 X 122 Y 48 X -195 Y 48 X -73 Y 48 X 146 Y 96 X -146 Y 48 X 98 Y 48 X 24 Y 48 X -243 Y 47 X 73 Y 48 X -122 Y f 6 lw 0 0 0.933333 c 0.49 0.6 0.82 c 0 0 0.933333 c 238 201 m 383 X
 24 Y 48 X -24 Y 192 X 24 Y 48 X -24 Y 48 X 24 Y 48 X -24 Y 95 X 24 Y 96 X -24 Y 96 X 24 Y 48 X 98 Y 48 X -25 Y 48 X 25 Y 96 X 97 Y 47 X 73 Y 48 X 24 Y 48 X 122 Y 48 X -195 Y 48 X -73 Y 48 X 146 Y 96 X -146 Y 48 X 98 Y 48 X 24 Y 48 X -243 Y 47 X 73 Y
 48 X -122 Y s 1 0 0 c black 3 lw 1 0 0 c 2125 201 m s 2077 201 m s 2029 201 m cl s 1991 211 m -10 -10 d s 1943 211 m -10 -10 d s 1885 201 m s 1837 201 m cl s 1798 211 m -9 -10 d s 1760 220 m -19 -19 d s 1702 211 m -10 -10 d s 1644 201 m s 1625 230 m
 -29 -29 d s 1567 220 m -19 -19 d s 1519 220 m -19 -19 d s 1471 220 m -19 -19 d s 1413 211 m -9 -10 d s 1375 220 m -19 -19 d s 1340 234 m -32 -33 d s 1317 259 m -25 -25 d s 1269 211 m -10 -10 d s 1231 220 m -20 -19 d s 1196 234 m -33 -33 d s 1183 269
 m -68 -68 d s 1144 278 m -77 -77 d s 1077 259 m -58 -58 d s 1053 283 m -82 -82 d s 1019 298 m -96 -97 d s 1000 326 m -125 -125 d s 913 288 m -86 -87 d s 884 307 m -106 -106 d s 856 326 m -126 -125 d s 788 307 m -106 -106 d s 750 317 m -116 -116 d s
 717 332 m -131 -131 d s 717 380 m -179 -179 d s 717 429 m -48 -48 d s 654 365 m -33 -32 d s 615 326 m -42 -41 d s 557 269 m -67 -68 d s 717 477 m -48 -48 d s 526 285 m -84 -84 d s 717 525 m -48 -48 d s 526 333 m -132 -132 d s 717 573 m -48 -48 d s
 526 381 m -48 -48 d s 461 317 m -116 -116 d s 717 621 m -48 -48 d s 526 429 m -48 -48 d s 394 298 m -12 -12 d s 336 240 m -2 -2 d s 326 230 m -29 -29 d s 717 669 m -48 -48 d s 526 477 m -48 -47 d s 278 230 m -29 -29 d s 717 717 m -48 -48 d s 526 526
 m -48 -48 d s 717 765 m -48 -48 d s 526 574 m -48 -48 d s 717 813 m -48 -48 d s 526 622 m -48 -48 d s 717 861 m -48 -47 d s 526 670 m -48 -48 d s 717 910 m -48 -48 d s 526 718 m -48 -48 d s 717 958 m -48 -48 d s 526 766 m -48 -48 d s 717 1006 m -48
 -48 d s 526 814 m -48 -48 d s 717 1054 m -48 -48 d s 526 862 m -48 -48 d s 717 1102 m -48 -48 d s 526 910 m -48 -48 d s 717 1150 m -48 -48 d s 526 958 m -48 -47 d s 717 1198 m -48 -48 d s 526 1007 m -48 -48 d s 717 1246 m -48 -48 d s 511 1040 m -33
 -33 d s 713 1291 m -44 -44 d s 6 lw 238 230 m 96 X 10 Y 48 X 58 Y 48 X 19 Y 48 X 723 Y 48 X -771 Y 47 X 57 Y 48 X 39 Y 48 X 926 Y 48 X -974 Y 48 X -10 Y 48 X 19 Y 48 X -19 Y 48 X -19 Y 48 X 38 Y 48 X -28 Y 48 X -39 Y 47 X 19 Y 48 X -9 Y 48 X -49 Y
 48 X -9 Y 48 X 48 Y 48 X -39 Y 48 X -9 Y 48 X 9 Y 143 X 10 Y 48 X -29 Y 48 X 10 Y 48 X 9 Y 48 X -9 Y 48 X -10 Y 96 X 10 Y 96 X -10 Y 143 X s black 3 lw 238 201 m 1916 X s 357 244 m -43 Y s 439 222 m -21 Y s 520 222 m -21 Y s 602 222 m -21 Y s 683
 244 m -43 Y s 765 222 m -21 Y s 846 222 m -21 Y s 928 222 m -21 Y s 1010 244 m -43 Y s 1091 222 m -21 Y s 1173 222 m -21 Y s 1254 222 m -21 Y s 1336 244 m -43 Y s 1417 222 m -21 Y s 1499 222 m -21 Y s 1580 222 m -21 Y s 1662 244 m -43 Y s 1743 222 m
 -21 Y s 1825 222 m -21 Y s 1906 222 m -21 Y s 1988 244 m -43 Y s 357 244 m -43 Y s 276 222 m -21 Y s 1988 244 m -43 Y s 2069 222 m -21 Y s 2151 222 m -21 Y s 238 1509 m 1916 X s 357 1466 m 43 Y s 439 1487 m 22 Y s 520 1487 m 22 Y s 602 1487 m 22 Y s
 683 1466 m 43 Y s 765 1487 m 22 Y s 846 1487 m 22 Y s 928 1487 m 22 Y s 1010 1466 m 43 Y s 1091 1487 m 22 Y s 1173 1487 m 22 Y s 1254 1487 m 22 Y s 1336 1466 m 43 Y s 1417 1487 m 22 Y s 1499 1487 m 22 Y s 1580 1487 m 22 Y s 1662 1466 m 43 Y s 1743
 1487 m 22 Y s 1825 1487 m 22 Y s 1906 1487 m 22 Y s 1988 1466 m 43 Y s 357 1466 m 43 Y s 276 1487 m 22 Y s 1988 1466 m 43 Y s 2069 1487 m 22 Y s 2151 1487 m 22 Y s 238 201 m 1308 Y s 291 201 m -53 X s 265 257 m -27 X s 265 313 m -27 X s 265 369 m
 -27 X s 291 425 m -53 X s 265 482 m -27 X s 265 538 m -27 X s 265 594 m -27 X s 291 650 m -53 X s 265 706 m -27 X s 265 762 m -27 X s 265 818 m -27 X s 291 874 m -53 X s 265 930 m -27 X s 265 986 m -27 X s 265 1042 m -27 X s 291 1099 m -53 X s 265
 1155 m -27 X s 265 1211 m -27 X s 265 1267 m -27 X s 291 1323 m -53 X s 291 1323 m -53 X s 265 1379 m -27 X s 265 1435 m -27 X s 265 1491 m -27 X s 2154 201 m 1308 Y s 2101 201 m 53 X s 2128 257 m 26 X s 2128 313 m 26 X s 2128 369 m 26 X s 2101 425
 m 53 X s 2128 482 m 26 X s 2128 538 m 26 X s 2128 594 m 26 X s 2101 650 m 53 X s 2128 706 m 26 X s 2128 762 m 26 X s 2128 818 m 26 X s 2101 874 m 53 X s 2128 930 m 26 X s 2128 986 m 26 X s 2128 1042 m 26 X s 2101 1099 m 53 X s 2128 1155 m 26 X s
 2128 1211 m 26 X s 2128 1267 m 26 X s 2101 1323 m 53 X s 2101 1323 m 53 X s 2128 1379 m 26 X s 2128 1435 m 26 X s 2128 1491 m 26 X s
 gsave  2268 1676 0 0 C 2211.02 192.756 t 90 r /Helvetica-Bold findfont 45.506 sf 0 0 m (U/O\255flow \(S,B\): \(0.0, 0.0\)% / \(0.0, 0.0\)%) show NC gr 
 gr  gr showpage
end
%%EOF
