%!PS-Adobe-2.0 EPSF-2.0
%%BoundingBox:  0 0 567 419
%%Title: DataSet/plots/mva_BDT.eps: TMVA response BDT
%%Creator: ROOT Version 6.08/06
%%CreationDate: Fri Jun  1 10:06:39 2018
%%DocumentNeededResources: ProcSet (FontSetInit)
%%EndComments
%%BeginProlog
80 dict begin
/s {stroke} def /l {lineto} def /m {moveto} def /t {translate} def
/r {rotate} def /rl {roll}  def /R {repeat} def
/d {rlineto} def /rm {rmoveto} def /gr {grestore} def /f {eofill} def
/c {setrgbcolor} def /black {0 setgray} def /sd {setdash} def
/cl {closepath} def /sf {scalefont setfont} def /lw {setlinewidth} def
/box {m dup 0 exch d exch 0 d 0 exch neg d cl} def
/NC{systemdict begin initclip end}def/C{NC box clip newpath}def
/bl {box s} def /bf {gsave box gsave f grestore 1 lw [] 0 sd s grestore} def /Y { 0 exch d} def /X { 0 d} def 
/K {{pop pop 0 moveto} exch kshow} bind def
/ita {/ang 15 def gsave [1 0 ang dup sin exch cos div 1 0 0] concat} def 
/mp {newpath /y exch def /x exch def} def
/side {[w .77 mul w .23 mul] .385 w mul sd w 0 l currentpoint t -144 r} def
/mr {mp x y w2 0 360 arc} def /m24 {mr s} def /m20 {mr f} def
/mb {mp x y w2 add m w2 neg 0 d 0 w neg d w 0 d 0 w d cl} def
/mt {mp x y w2 add m w2 neg w neg d w 0 d cl} def
/m21 {mb f} def /m25 {mb s} def /m22 {mt f} def /m26{mt s} def
/m23 {mp x y w2 sub m w2 w d w neg 0 d cl f} def
/m27 {mp x y w2 add m w3 neg w2 neg d w3 w2 neg d w3 w2 d cl s} def
/m28 {mp x w2 sub y w2 sub w3 add m w3 0 d  0 w3 neg d w3 0 d 0 w3 d w3 0 d  0 w3 d w3 neg 0 d 0 w3 d w3 neg 0 d 0 w3 neg d w3 neg 0 d cl s } def
/m29 {mp gsave x w2 sub y w2 add w3 sub m currentpoint t 4 {side} repeat cl fill gr} def
/m30 {mp gsave x w2 sub y w2 add w3 sub m currentpoint t 4 {side} repeat cl s gr} def
/m31 {mp x y w2 sub m 0 w d x w2 sub y m w 0 d x w2 sub y w2 add m w w neg d x w2 sub y w2 sub m w w d s} def
/m32 {mp x y w2 sub m w2 w d w neg 0 d cl s} def
/m33 {mp x y w2 add m w3 neg w2 neg d w3 w2 neg d w3 w2 d cl f} def
/m34 {mp x w2 sub y w2 sub w3 add m w3 0 d  0 w3 neg d w3 0 d 0 w3 d w3 0 d  0 w3 d w3 neg 0 d 0 w3 d w3 neg 0 d 0 w3 neg d w3 neg 0 d cl f } def
/m2 {mp x y w2 sub m 0 w d x w2 sub y m w 0 d s} def
/m5 {mp x w2 sub y w2 sub m w w d x w2 sub y w2 add m w w neg d s} def
%%IncludeResource: ProcSet (FontSetInit)
%%IncludeResource: font Times-Roman
%%IncludeResource: font Times-Italic
%%IncludeResource: font Times-Bold
%%IncludeResource: font Times-BoldItalic
%%IncludeResource: font Helvetica
%%IncludeResource: font Helvetica-Oblique
%%IncludeResource: font Helvetica-Bold
%%IncludeResource: font Helvetica-BoldOblique
%%IncludeResource: font Courier
%%IncludeResource: font Courier-Oblique
%%IncludeResource: font Courier-Bold
%%IncludeResource: font Courier-BoldOblique
%%IncludeResource: font Symbol
%%IncludeResource: font ZapfDingbats
/reEncode {exch findfont dup length dict begin {1 index /FID eq  {pop pop} {def} ifelse } forall /Encoding exch def currentdict end dup /FontName get exch definefont pop } def [/Times-Bold /Times-Italic /Times-BoldItalic /Helvetica /Helvetica-Oblique
 /Helvetica-Bold /Helvetica-BoldOblique /Courier /Courier-Oblique /Courier-Bold /Courier-BoldOblique /Times-Roman /AvantGarde-Book /AvantGarde-BookOblique /AvantGarde-Demi /AvantGarde-DemiOblique /Bookman-Demi /Bookman-DemiItalic /Bookman-Light
 /Bookman-LightItalic /Helvetica-Narrow /Helvetica-Narrow-Bold /Helvetica-Narrow-BoldOblique /Helvetica-Narrow-Oblique /NewCenturySchlbk-Roman /NewCenturySchlbk-Bold /NewCenturySchlbk-BoldItalic /NewCenturySchlbk-Italic /Palatino-Bold
 /Palatino-BoldItalic /Palatino-Italic /Palatino-Roman ] {ISOLatin1Encoding reEncode } forall
%%EndProlog
%%BeginSetup
%%EndSetup
newpath  gsave  .25 .25 scale  gsave  0 0 t 0.490196 0.545098 0.615686 c[  ] 0 sd 3 lw 1 1 1 c 2268 1676 0 0 bf black 1 1 1 c 1916 1308 238 201 bf black 1916 1308 238 201 bl 1 1 1 c 1916 1308 238 201 bf black 1916 1308 238 201 bl 238 201 m 1916 X s
 gsave  2268 1676 0 0 C 1664.76 34.1295 t 0 r /Helvetica-Bold findfont 72.0512 sf 0 0 m (BDT response) show NC gr  260 244 m -43 Y s 302 222 m -21 Y s 344 222 m -21 Y s 386 222 m -21 Y s 428 222 m -21 Y s 470 244 m -43 Y s 512 222 m -21 Y s 554 222 m
 -21 Y s 596 222 m -21 Y s 638 222 m -21 Y s 679 244 m -43 Y s 721 222 m -21 Y s 763 222 m -21 Y s 805 222 m -21 Y s 847 222 m -21 Y s 889 244 m -43 Y s 931 222 m -21 Y s 973 222 m -21 Y s 1015 222 m -21 Y s 1057 222 m -21 Y s 1099 244 m -43 Y s 1141
 222 m -21 Y s 1182 222 m -21 Y s 1224 222 m -21 Y s 1266 222 m -21 Y s 1308 244 m -43 Y s 1350 222 m -21 Y s 1392 222 m -21 Y s 1434 222 m -21 Y s 1476 222 m -21 Y s 1518 244 m -43 Y s 1560 222 m -21 Y s 1602 222 m -21 Y s 1643 222 m -21 Y s 1685
 222 m -21 Y s 1727 244 m -43 Y s 1769 222 m -21 Y s 1811 222 m -21 Y s 1853 222 m -21 Y s 1895 222 m -21 Y s 1937 244 m -43 Y s 1979 222 m -21 Y s 2021 222 m -21 Y s 2063 222 m -21 Y s 2105 222 m -21 Y s 2146 244 m -43 Y s 260 244 m -43 Y s 2146 244
 m -43 Y s
 gsave  2268 1676 0 0 C 227.53 128.934 t 0 r /Helvetica-Bold findfont 64.4669 sf 0 0 m (0.5) show NC gr 
 gsave  2268 1676 0 0 C 197.193 128.934 t 0 r /Symbol findfont 64.4669 sf 0 0 m (-) show NC gr 
 gsave  2268 1676 0 0 C 436.099 128.934 t 0 r /Helvetica-Bold findfont 64.4669 sf 0 0 m (0.4) show NC gr 
 gsave  2268 1676 0 0 C 401.97 128.934 t 0 r /Symbol findfont 64.4669 sf 0 0 m (-) show NC gr 
 gsave  2268 1676 0 0 C 648.461 128.934 t 0 r /Helvetica-Bold findfont 64.4669 sf 0 0 m (0.3) show NC gr 
 gsave  2268 1676 0 0 C 618.123 128.934 t 0 r /Symbol findfont 64.4669 sf 0 0 m (-) show NC gr 
 gsave  2268 1676 0 0 C 857.03 128.934 t 0 r /Helvetica-Bold findfont 64.4669 sf 0 0 m (0.2) show NC gr 
 gsave  2268 1676 0 0 C 826.693 128.934 t 0 r /Symbol findfont 64.4669 sf 0 0 m (-) show NC gr 
 gsave  2268 1676 0 0 C 1069.39 128.934 t 0 r /Helvetica-Bold findfont 64.4669 sf 0 0 m (0.1) show NC gr 
 gsave  2268 1676 0 0 C 1039.05 128.934 t 0 r /Symbol findfont 64.4669 sf 0 0 m (-) show NC gr 
 gsave  2268 1676 0 0 C 1285.55 128.934 t 0 r /Helvetica-Bold findfont 64.4669 sf 0 0 m (0) show NC gr 
 gsave  2268 1676 0 0 C 1475.15 128.934 t 0 r /Helvetica-Bold findfont 64.4669 sf 0 0 m (0.1) show NC gr 
 gsave  2268 1676 0 0 C 1679.93 128.934 t 0 r /Helvetica-Bold findfont 64.4669 sf 0 0 m (0.2) show NC gr 
 gsave  2268 1676 0 0 C 1888.5 128.934 t 0 r /Helvetica-Bold findfont 64.4669 sf 0 0 m (0.3) show NC gr 
 gsave  2268 1676 0 0 C 2100.86 128.934 t 0 r /Helvetica-Bold findfont 64.4669 sf 0 0 m (0.4) show NC gr  238 1509 m 1916 X s 260 1466 m 43 Y s 302 1487 m 22 Y s 344 1487 m 22 Y s 386 1487 m 22 Y s 428 1487 m 22 Y s 470 1466 m 43 Y s 512 1487 m 22 Y
 s 554 1487 m 22 Y s 596 1487 m 22 Y s 638 1487 m 22 Y s 679 1466 m 43 Y s 721 1487 m 22 Y s 763 1487 m 22 Y s 805 1487 m 22 Y s 847 1487 m 22 Y s 889 1466 m 43 Y s 931 1487 m 22 Y s 973 1487 m 22 Y s 1015 1487 m 22 Y s 1057 1487 m 22 Y s 1099 1466 m
 43 Y s 1141 1487 m 22 Y s 1182 1487 m 22 Y s 1224 1487 m 22 Y s 1266 1487 m 22 Y s 1308 1466 m 43 Y s 1350 1487 m 22 Y s 1392 1487 m 22 Y s 1434 1487 m 22 Y s 1476 1487 m 22 Y s 1518 1466 m 43 Y s 1560 1487 m 22 Y s 1602 1487 m 22 Y s 1643 1487 m 22
 Y s 1685 1487 m 22 Y s 1727 1466 m 43 Y s 1769 1487 m 22 Y s 1811 1487 m 22 Y s 1853 1487 m 22 Y s 1895 1487 m 22 Y s 1937 1466 m 43 Y s 1979 1487 m 22 Y s 2021 1487 m 22 Y s 2063 1487 m 22 Y s 2105 1487 m 22 Y s 2146 1466 m 43 Y s 260 1466 m 43 Y s
 2146 1466 m 43 Y s 238 201 m 1308 Y s
 gsave  2268 1676 0 0 C 64.4669 1425.86 t 90 r /Helvetica-Bold findfont 72.0512 sf 0 0 m (dx) show NC gr 
 gsave  2268 1676 0 0 C 30.3373 1406.89 t 90 r /Helvetica-Bold findfont 45.506 sf 0 0 m ( ) show NC gr 
 gsave  2268 1676 0 0 C 64.4669 1384.14 t 90 r /Helvetica-Bold findfont 72.0512 sf 0 0 m (/) show NC gr 
 gsave  2268 1676 0 0 C 30.3373 1365.18 t 90 r /Helvetica-Bold findfont 45.506 sf 0 0 m ( ) show NC gr 
 gsave  2268 1676 0 0 C 60.6747 1092.14 t 90 r /Helvetica-Bold findfont 72.0512 sf 0 0 m (\(1/N\) dN) show NC gr  291 201 m -53 X s 265 247 m -27 X s 265 292 m -27 X s 265 338 m -27 X s 291 384 m -53 X s 265 429 m -27 X s 265 475 m -27 X s 265 521 m
 -27 X s 291 566 m -53 X s 265 612 m -27 X s 265 658 m -27 X s 265 703 m -27 X s 291 749 m -53 X s 265 795 m -27 X s 265 840 m -27 X s 265 886 m -27 X s 291 932 m -53 X s 265 977 m -27 X s 265 1023 m -27 X s 265 1069 m -27 X s 291 1114 m -53 X s 265
 1160 m -27 X s 265 1206 m -27 X s 265 1251 m -27 X s 291 1297 m -53 X s 265 1343 m -27 X s 265 1388 m -27 X s 265 1434 m -27 X s 291 1480 m -53 X s 291 1480 m -53 X s
 gsave  2268 1676 0 0 C 174.44 178.232 t 0 r /Helvetica-Bold findfont 64.4669 sf 0 0 m (0) show NC gr 
 gsave  2268 1676 0 0 C 174.44 360.256 t 0 r /Helvetica-Bold findfont 64.4669 sf 0 0 m (2) show NC gr 
 gsave  2268 1676 0 0 C 174.44 542.28 t 0 r /Helvetica-Bold findfont 64.4669 sf 0 0 m (4) show NC gr 
 gsave  2268 1676 0 0 C 174.44 724.304 t 0 r /Helvetica-Bold findfont 64.4669 sf 0 0 m (6) show NC gr 
 gsave  2268 1676 0 0 C 174.44 906.328 t 0 r /Helvetica-Bold findfont 64.4669 sf 0 0 m (8) show NC gr 
 gsave  2268 1676 0 0 C 136.518 1088.35 t 0 r /Helvetica-Bold findfont 64.4669 sf 0 0 m (10) show NC gr 
 gsave  2268 1676 0 0 C 136.518 1274.17 t 0 r /Helvetica-Bold findfont 64.4669 sf 0 0 m (12) show NC gr 
 gsave  2268 1676 0 0 C 136.518 1456.19 t 0 r /Helvetica-Bold findfont 64.4669 sf 0 0 m (14) show NC gr  2154 201 m 1308 Y s 2101 201 m 53 X s 2128 247 m 26 X s 2128 292 m 26 X s 2128 338 m 26 X s 2101 384 m 53 X s 2128 429 m 26 X s 2128 475 m 26 X s
 2128 521 m 26 X s 2101 566 m 53 X s 2128 612 m 26 X s 2128 658 m 26 X s 2128 703 m 26 X s 2101 749 m 53 X s 2128 795 m 26 X s 2128 840 m 26 X s 2128 886 m 26 X s 2101 932 m 53 X s 2128 977 m 26 X s 2128 1023 m 26 X s 2128 1069 m 26 X s 2101 1114 m
 53 X s 2128 1160 m 26 X s 2128 1206 m 26 X s 2128 1251 m 26 X s 2101 1297 m 53 X s 2128 1343 m 26 X s 2128 1388 m 26 X s 2128 1434 m 26 X s 2101 1480 m 53 X s 2101 1480 m 53 X s 0.490196 0.545098 0.615686 c 1 1 1 c 0.490196 0.545098 0.615686 c 680
 202 238 1307 bl 238 1307 m 680 X s 918 1307 m 202 Y s 918 1509 m -680 X s 238 1509 m -202 Y s black
 gsave  2268 1676 0 0 C 439.892 1437.23 t 0 r /Helvetica-Bold findfont 75.8434 sf 0 0 m (Signal) show NC gr  0.49 0.6 0.82 c 269 1423 m 143 X 70 Y -143 X f 0 0 0.933333 c 6 lw 269 1493 m 143 X s 269 1423 m 143 X s 412 1423 m 70 Y s 269 1423 m 70 Y s
 black
 gsave  2268 1676 0 0 C 439.892 1338.64 t 0 r /Helvetica-Bold findfont 75.8434 sf 0 0 m (Background) show NC gr  1 0 0 c 3 lw 412 1326 m -4 -4 d s 412 1374 m -52 -52 d s 383 1393 m -71 -71 d s 335 1393 m -66 -66 d s 286 1393 m -17 -18 d s 6 lw 0 0
 0.933333 c 1 0 0 c 269 1393 m 143 X s 269 1322 m 143 X s 412 1322 m 71 Y s 269 1322 m 71 Y s 0 0 0.933333 c 0.49 0.6 0.82 c black 3 lw 0.49 0.6 0.82 c 238 201 m 479 X 26 Y 48 X -26 Y 192 X 26 Y 48 X -26 Y 191 X 76 Y 48 X -50 Y 48 X 76 Y 96 X -26 Y
 48 X 229 Y 48 X 102 Y 48 X 153 Y 47 X 76 Y 48 X -356 Y 48 X 127 Y 48 X -203 Y 48 X 51 Y 48 X -26 Y 48 X -127 Y 48 X -76 Y 48 X 25 Y 48 X 25 Y 48 X -76 Y 47 X 26 Y 48 X -26 Y f 6 lw 0 0 0.933333 c 0.49 0.6 0.82 c 0 0 0.933333 c 238 201 m 479 X 26 Y
 48 X -26 Y 192 X 26 Y 48 X -26 Y 191 X 76 Y 48 X -50 Y 48 X 76 Y 96 X -26 Y 48 X 229 Y 48 X 102 Y 48 X 153 Y 47 X 76 Y 48 X -356 Y 48 X 127 Y 48 X -203 Y 48 X 51 Y 48 X -26 Y 48 X -127 Y 48 X -76 Y 48 X 25 Y 48 X 25 Y 48 X -76 Y 47 X 26 Y 48 X -26 Y
 s 1 0 0 c black 3 lw 1 0 0 c 2125 201 m s 2077 201 m s 2029 201 m s 1981 201 m s 1933 201 m s 1895 211 m -10 -10 d s 1847 211 m -10 -10 d s 1799 211 m -10 -10 d s 1751 211 m -10 -10 d s 1702 211 m -10 -10 d s 1644 201 m s 1596 201 m s 1558 211 m -10
 -10 d s 1500 201 m s 1462 211 m -10 -10 d s 1436 233 m -32 -32 d s 1406 252 m -50 -51 d s 1368 262 m -60 -61 d s 1310 252 m -51 -51 d s 1282 272 m -71 -71 d s 1204 241 m -41 -40 d s 1196 282 m -81 -81 d s 1178 312 m -111 -111 d s 1148 331 m -129
 -130 d s 1102 332 m -131 -131 d s 1054 332 m -131 -131 d s 1016 342 m -11 -11 d s 965 292 m -90 -91 d s 957 331 m -130 -130 d s 957 379 m -48 -47 d s 889 312 m -111 -111 d s 957 428 m -48 -48 d s 861 332 m -131 -131 d s 957 476 m -48 -48 d s 834 352
 m -69 -68 d s 763 282 m -81 -81 d s 957 524 m -48 -48 d s 813 380 m -48 -48 d s 717 284 m -83 -83 d s 957 572 m -48 -48 d s 798 413 m -33 -33 d s 717 332 m -131 -131 d s 957 620 m -48 -48 d s 679 342 m -10 -9 d s 669 332 m -131 -131 d s 957 668 m
 -48 -48 d s 581 292 m -91 -91 d s 957 716 m -48 -48 d s 573 333 m -47 -48 d s 502 262 m -24 -25 d s 462 221 m -20 -20 d s 957 764 m -48 -48 d s 573 381 m -47 -48 d s 430 237 m -36 -36 d s 957 812 m -48 -48 d s 573 429 m -47 -48 d s 396 252 m -14 -14
 d s 376 231 m -31 -30 d s 957 860 m -48 -47 d s 573 477 m -47 -48 d s 328 231 m -31 -30 d s 957 909 m -48 -48 d s 573 525 m -47 -48 d s 259 211 m -10 -10 d s 957 957 m -48 -48 d s 573 573 m -47 -47 d s 957 1005 m -48 -48 d s 573 622 m -47 -48 d s
 957 1053 m -48 -48 d s 573 670 m -47 -48 d s 957 1101 m -48 -48 d s 573 718 m -47 -48 d s 957 1149 m -48 -48 d s 573 766 m -47 -48 d s 957 1197 m -48 -48 d s 573 814 m -47 -48 d s 957 1245 m -48 -48 d s 573 862 m -47 -48 d s 954 1291 m -45 -45 d s
 573 910 m -47 -48 d s 573 958 m -47 -48 d s 573 1006 m -47 -48 d s 557 1038 m -31 -31 d s 6 lw 238 211 m 48 X 20 Y 96 X 21 Y 48 X -31 Y 48 X 41 Y 48 X 776 Y 47 X -746 Y 48 X 40 Y 48 X 10 Y 48 X -60 Y 48 X 131 Y 48 X -61 Y 48 X -40 Y 48 X 979 Y 48 X
 -999 Y 48 X 50 Y 48 X -10 Y 95 X -20 Y 48 X -71 Y 48 X 31 Y 48 X -20 Y 48 X 10 Y 48 X -10 Y 48 X -41 Y 48 X -10 Y 48 X 10 Y 47 X -10 Y 96 X 10 Y 240 X -10 Y 239 X s black 3 lw 238 201 m 1916 X s 260 244 m -43 Y s 302 222 m -21 Y s 344 222 m -21 Y s
 386 222 m -21 Y s 428 222 m -21 Y s 470 244 m -43 Y s 512 222 m -21 Y s 554 222 m -21 Y s 596 222 m -21 Y s 638 222 m -21 Y s 679 244 m -43 Y s 721 222 m -21 Y s 763 222 m -21 Y s 805 222 m -21 Y s 847 222 m -21 Y s 889 244 m -43 Y s 931 222 m -21 Y
 s 973 222 m -21 Y s 1015 222 m -21 Y s 1057 222 m -21 Y s 1099 244 m -43 Y s 1141 222 m -21 Y s 1182 222 m -21 Y s 1224 222 m -21 Y s 1266 222 m -21 Y s 1308 244 m -43 Y s 1350 222 m -21 Y s 1392 222 m -21 Y s 1434 222 m -21 Y s 1476 222 m -21 Y s
 1518 244 m -43 Y s 1560 222 m -21 Y s 1602 222 m -21 Y s 1643 222 m -21 Y s 1685 222 m -21 Y s 1727 244 m -43 Y s 1769 222 m -21 Y s 1811 222 m -21 Y s 1853 222 m -21 Y s 1895 222 m -21 Y s 1937 244 m -43 Y s 1979 222 m -21 Y s 2021 222 m -21 Y s
 2063 222 m -21 Y s 2105 222 m -21 Y s 2146 244 m -43 Y s 260 244 m -43 Y s 2146 244 m -43 Y s 238 1509 m 1916 X s 260 1466 m 43 Y s 302 1487 m 22 Y s 344 1487 m 22 Y s 386 1487 m 22 Y s 428 1487 m 22 Y s 470 1466 m 43 Y s 512 1487 m 22 Y s 554 1487
 m 22 Y s 596 1487 m 22 Y s 638 1487 m 22 Y s 679 1466 m 43 Y s 721 1487 m 22 Y s 763 1487 m 22 Y s 805 1487 m 22 Y s 847 1487 m 22 Y s 889 1466 m 43 Y s 931 1487 m 22 Y s 973 1487 m 22 Y s 1015 1487 m 22 Y s 1057 1487 m 22 Y s 1099 1466 m 43 Y s
 1141 1487 m 22 Y s 1182 1487 m 22 Y s 1224 1487 m 22 Y s 1266 1487 m 22 Y s 1308 1466 m 43 Y s 1350 1487 m 22 Y s 1392 1487 m 22 Y s 1434 1487 m 22 Y s 1476 1487 m 22 Y s 1518 1466 m 43 Y s 1560 1487 m 22 Y s 1602 1487 m 22 Y s 1643 1487 m 22 Y s
 1685 1487 m 22 Y s 1727 1466 m 43 Y s 1769 1487 m 22 Y s 1811 1487 m 22 Y s 1853 1487 m 22 Y s 1895 1487 m 22 Y s 1937 1466 m 43 Y s 1979 1487 m 22 Y s 2021 1487 m 22 Y s 2063 1487 m 22 Y s 2105 1487 m 22 Y s 2146 1466 m 43 Y s 260 1466 m 43 Y s
 2146 1466 m 43 Y s 238 201 m 1308 Y s 291 201 m -53 X s 265 247 m -27 X s 265 292 m -27 X s 265 338 m -27 X s 291 384 m -53 X s 265 429 m -27 X s 265 475 m -27 X s 265 521 m -27 X s 291 566 m -53 X s 265 612 m -27 X s 265 658 m -27 X s 265 703 m -27
 X s 291 749 m -53 X s 265 795 m -27 X s 265 840 m -27 X s 265 886 m -27 X s 291 932 m -53 X s 265 977 m -27 X s 265 1023 m -27 X s 265 1069 m -27 X s 291 1114 m -53 X s 265 1160 m -27 X s 265 1206 m -27 X s 265 1251 m -27 X s 291 1297 m -53 X s 265
 1343 m -27 X s 265 1388 m -27 X s 265 1434 m -27 X s 291 1480 m -53 X s 291 1480 m -53 X s 2154 201 m 1308 Y s 2101 201 m 53 X s 2128 247 m 26 X s 2128 292 m 26 X s 2128 338 m 26 X s 2101 384 m 53 X s 2128 429 m 26 X s 2128 475 m 26 X s 2128 521 m
 26 X s 2101 566 m 53 X s 2128 612 m 26 X s 2128 658 m 26 X s 2128 703 m 26 X s 2101 749 m 53 X s 2128 795 m 26 X s 2128 840 m 26 X s 2128 886 m 26 X s 2101 932 m 53 X s 2128 977 m 26 X s 2128 1023 m 26 X s 2128 1069 m 26 X s 2101 1114 m 53 X s 2128
 1160 m 26 X s 2128 1206 m 26 X s 2128 1251 m 26 X s 2101 1297 m 53 X s 2128 1343 m 26 X s 2128 1388 m 26 X s 2128 1434 m 26 X s 2101 1480 m 53 X s 2101 1480 m 53 X s
 gsave  2268 1676 0 0 C 2211.02 192.756 t 90 r /Helvetica-Bold findfont 45.506 sf 0 0 m (U/O\255flow \(S,B\): \(0.0, 0.0\)% / \(0.0, 0.0\)%) show NC gr 
 gr  gr showpage
end
%%EOF
