%!PS-Adobe-2.0 EPSF-2.0
%%BoundingBox:  0 0 567 419
%%Title: DataSet/plots/mva_MLPBPCE.eps: TMVA response MLPBPCE
%%Creator: ROOT Version 6.08/06
%%CreationDate: Fri Jun  1 10:06:39 2018
%%DocumentNeededResources: ProcSet (FontSetInit)
%%EndComments
%%BeginProlog
80 dict begin
/s {stroke} def /l {lineto} def /m {moveto} def /t {translate} def
/r {rotate} def /rl {roll}  def /R {repeat} def
/d {rlineto} def /rm {rmoveto} def /gr {grestore} def /f {eofill} def
/c {setrgbcolor} def /black {0 setgray} def /sd {setdash} def
/cl {closepath} def /sf {scalefont setfont} def /lw {setlinewidth} def
/box {m dup 0 exch d exch 0 d 0 exch neg d cl} def
/NC{systemdict begin initclip end}def/C{NC box clip newpath}def
/bl {box s} def /bf {gsave box gsave f grestore 1 lw [] 0 sd s grestore} def /Y { 0 exch d} def /X { 0 d} def 
/K {{pop pop 0 moveto} exch kshow} bind def
/ita {/ang 15 def gsave [1 0 ang dup sin exch cos div 1 0 0] concat} def 
/mp {newpath /y exch def /x exch def} def
/side {[w .77 mul w .23 mul] .385 w mul sd w 0 l currentpoint t -144 r} def
/mr {mp x y w2 0 360 arc} def /m24 {mr s} def /m20 {mr f} def
/mb {mp x y w2 add m w2 neg 0 d 0 w neg d w 0 d 0 w d cl} def
/mt {mp x y w2 add m w2 neg w neg d w 0 d cl} def
/m21 {mb f} def /m25 {mb s} def /m22 {mt f} def /m26{mt s} def
/m23 {mp x y w2 sub m w2 w d w neg 0 d cl f} def
/m27 {mp x y w2 add m w3 neg w2 neg d w3 w2 neg d w3 w2 d cl s} def
/m28 {mp x w2 sub y w2 sub w3 add m w3 0 d  0 w3 neg d w3 0 d 0 w3 d w3 0 d  0 w3 d w3 neg 0 d 0 w3 d w3 neg 0 d 0 w3 neg d w3 neg 0 d cl s } def
/m29 {mp gsave x w2 sub y w2 add w3 sub m currentpoint t 4 {side} repeat cl fill gr} def
/m30 {mp gsave x w2 sub y w2 add w3 sub m currentpoint t 4 {side} repeat cl s gr} def
/m31 {mp x y w2 sub m 0 w d x w2 sub y m w 0 d x w2 sub y w2 add m w w neg d x w2 sub y w2 sub m w w d s} def
/m32 {mp x y w2 sub m w2 w d w neg 0 d cl s} def
/m33 {mp x y w2 add m w3 neg w2 neg d w3 w2 neg d w3 w2 d cl f} def
/m34 {mp x w2 sub y w2 sub w3 add m w3 0 d  0 w3 neg d w3 0 d 0 w3 d w3 0 d  0 w3 d w3 neg 0 d 0 w3 d w3 neg 0 d 0 w3 neg d w3 neg 0 d cl f } def
/m2 {mp x y w2 sub m 0 w d x w2 sub y m w 0 d s} def
/m5 {mp x w2 sub y w2 sub m w w d x w2 sub y w2 add m w w neg d s} def
%%IncludeResource: ProcSet (FontSetInit)
%%IncludeResource: font Times-Roman
%%IncludeResource: font Times-Italic
%%IncludeResource: font Times-Bold
%%IncludeResource: font Times-BoldItalic
%%IncludeResource: font Helvetica
%%IncludeResource: font Helvetica-Oblique
%%IncludeResource: font Helvetica-Bold
%%IncludeResource: font Helvetica-BoldOblique
%%IncludeResource: font Courier
%%IncludeResource: font Courier-Oblique
%%IncludeResource: font Courier-Bold
%%IncludeResource: font Courier-BoldOblique
%%IncludeResource: font Symbol
%%IncludeResource: font ZapfDingbats
/reEncode {exch findfont dup length dict begin {1 index /FID eq  {pop pop} {def} ifelse } forall /Encoding exch def currentdict end dup /FontName get exch definefont pop } def [/Times-Bold /Times-Italic /Times-BoldItalic /Helvetica /Helvetica-Oblique
 /Helvetica-Bold /Helvetica-BoldOblique /Courier /Courier-Oblique /Courier-Bold /Courier-BoldOblique /Times-Roman /AvantGarde-Book /AvantGarde-BookOblique /AvantGarde-Demi /AvantGarde-DemiOblique /Bookman-Demi /Bookman-DemiItalic /Bookman-Light
 /Bookman-LightItalic /Helvetica-Narrow /Helvetica-Narrow-Bold /Helvetica-Narrow-BoldOblique /Helvetica-Narrow-Oblique /NewCenturySchlbk-Roman /NewCenturySchlbk-Bold /NewCenturySchlbk-BoldItalic /NewCenturySchlbk-Italic /Palatino-Bold
 /Palatino-BoldItalic /Palatino-Italic /Palatino-Roman ] {ISOLatin1Encoding reEncode } forall
%%EndProlog
%%BeginSetup
%%EndSetup
newpath  gsave  .25 .25 scale  gsave  0 0 t 0.490196 0.545098 0.615686 c[  ] 0 sd 3 lw 1 1 1 c 2268 1676 0 0 bf black 1 1 1 c 1916 1308 238 201 bf black 1916 1308 238 201 bl 1 1 1 c 1916 1308 238 201 bf black 1916 1308 238 201 bl 238 201 m 1916 X s
 gsave  2268 1676 0 0 C 1459.98 30.3373 t 0 r /Helvetica-Bold findfont 72.0512 sf 0 0 m (MLPBPCE response) show NC gr  238 244 m -43 Y s 276 222 m -21 Y s 315 222 m -21 Y s 353 222 m -21 Y s 391 222 m -21 Y s 430 244 m -43 Y s 468 222 m -21 Y s 506
 222 m -21 Y s 545 222 m -21 Y s 583 222 m -21 Y s 621 244 m -43 Y s 660 222 m -21 Y s 698 222 m -21 Y s 736 222 m -21 Y s 775 222 m -21 Y s 813 244 m -43 Y s 851 222 m -21 Y s 890 222 m -21 Y s 928 222 m -21 Y s 966 222 m -21 Y s 1005 244 m -43 Y s
 1043 222 m -21 Y s 1081 222 m -21 Y s 1120 222 m -21 Y s 1158 222 m -21 Y s 1196 244 m -43 Y s 1235 222 m -21 Y s 1273 222 m -21 Y s 1311 222 m -21 Y s 1350 222 m -21 Y s 1388 244 m -43 Y s 1426 222 m -21 Y s 1464 222 m -21 Y s 1503 222 m -21 Y s
 1541 222 m -21 Y s 1579 244 m -43 Y s 1618 222 m -21 Y s 1656 222 m -21 Y s 1694 222 m -21 Y s 1733 222 m -21 Y s 1771 244 m -43 Y s 1809 222 m -21 Y s 1848 222 m -21 Y s 1886 222 m -21 Y s 1924 222 m -21 Y s 1963 244 m -43 Y s 2001 222 m -21 Y s
 2039 222 m -21 Y s 2078 222 m -21 Y s 2116 222 m -21 Y s 2154 244 m -43 Y s 238 244 m -43 Y s 2154 244 m -43 Y s
 gsave  2268 1676 0 0 C 216.154 128.934 t 0 r /Helvetica-Bold findfont 64.4669 sf 0 0 m (0) show NC gr 
 gsave  2268 1676 0 0 C 386.801 128.934 t 0 r /Helvetica-Bold findfont 64.4669 sf 0 0 m (0.1) show NC gr 
 gsave  2268 1676 0 0 C 572.617 128.934 t 0 r /Helvetica-Bold findfont 64.4669 sf 0 0 m (0.2) show NC gr 
 gsave  2268 1676 0 0 C 766.018 128.934 t 0 r /Helvetica-Bold findfont 64.4669 sf 0 0 m (0.3) show NC gr 
 gsave  2268 1676 0 0 C 955.626 128.934 t 0 r /Helvetica-Bold findfont 64.4669 sf 0 0 m (0.4) show NC gr 
 gsave  2268 1676 0 0 C 1149.03 128.934 t 0 r /Helvetica-Bold findfont 64.4669 sf 0 0 m (0.5) show NC gr 
 gsave  2268 1676 0 0 C 1338.64 128.934 t 0 r /Helvetica-Bold findfont 64.4669 sf 0 0 m (0.6) show NC gr 
 gsave  2268 1676 0 0 C 1532.04 128.934 t 0 r /Helvetica-Bold findfont 64.4669 sf 0 0 m (0.7) show NC gr 
 gsave  2268 1676 0 0 C 1725.44 128.934 t 0 r /Helvetica-Bold findfont 64.4669 sf 0 0 m (0.8) show NC gr 
 gsave  2268 1676 0 0 C 1915.04 128.934 t 0 r /Helvetica-Bold findfont 64.4669 sf 0 0 m (0.9) show NC gr 
 gsave  2268 1676 0 0 C 2138.78 128.934 t 0 r /Helvetica-Bold findfont 64.4669 sf 0 0 m (1) show NC gr  238 1509 m 1916 X s 238 1466 m 43 Y s 276 1487 m 22 Y s 315 1487 m 22 Y s 353 1487 m 22 Y s 391 1487 m 22 Y s 430 1466 m 43 Y s 468 1487 m 22 Y s
 506 1487 m 22 Y s 545 1487 m 22 Y s 583 1487 m 22 Y s 621 1466 m 43 Y s 660 1487 m 22 Y s 698 1487 m 22 Y s 736 1487 m 22 Y s 775 1487 m 22 Y s 813 1466 m 43 Y s 851 1487 m 22 Y s 890 1487 m 22 Y s 928 1487 m 22 Y s 966 1487 m 22 Y s 1005 1466 m 43
 Y s 1043 1487 m 22 Y s 1081 1487 m 22 Y s 1120 1487 m 22 Y s 1158 1487 m 22 Y s 1196 1466 m 43 Y s 1235 1487 m 22 Y s 1273 1487 m 22 Y s 1311 1487 m 22 Y s 1350 1487 m 22 Y s 1388 1466 m 43 Y s 1426 1487 m 22 Y s 1464 1487 m 22 Y s 1503 1487 m 22 Y
 s 1541 1487 m 22 Y s 1579 1466 m 43 Y s 1618 1487 m 22 Y s 1656 1487 m 22 Y s 1694 1487 m 22 Y s 1733 1487 m 22 Y s 1771 1466 m 43 Y s 1809 1487 m 22 Y s 1848 1487 m 22 Y s 1886 1487 m 22 Y s 1924 1487 m 22 Y s 1963 1466 m 43 Y s 2001 1487 m 22 Y s
 2039 1487 m 22 Y s 2078 1487 m 22 Y s 2116 1487 m 22 Y s 2154 1466 m 43 Y s 238 1466 m 43 Y s 2154 1466 m 43 Y s 238 201 m 1308 Y s
 gsave  2268 1676 0 0 C 64.4669 1425.86 t 90 r /Helvetica-Bold findfont 72.0512 sf 0 0 m (dx) show NC gr 
 gsave  2268 1676 0 0 C 30.3373 1406.89 t 90 r /Helvetica-Bold findfont 45.506 sf 0 0 m ( ) show NC gr 
 gsave  2268 1676 0 0 C 64.4669 1384.14 t 90 r /Helvetica-Bold findfont 72.0512 sf 0 0 m (/) show NC gr 
 gsave  2268 1676 0 0 C 30.3373 1365.18 t 90 r /Helvetica-Bold findfont 45.506 sf 0 0 m ( ) show NC gr 
 gsave  2268 1676 0 0 C 60.6747 1092.14 t 90 r /Helvetica-Bold findfont 72.0512 sf 0 0 m (\(1/N\) dN) show NC gr  291 201 m -53 X s 265 237 m -27 X s 265 272 m -27 X s 265 308 m -27 X s 265 343 m -27 X s 291 379 m -53 X s 265 414 m -27 X s 265 449 m
 -27 X s 265 485 m -27 X s 265 520 m -27 X s 291 556 m -53 X s 265 591 m -27 X s 265 627 m -27 X s 265 662 m -27 X s 265 698 m -27 X s 291 733 m -53 X s 265 769 m -27 X s 265 804 m -27 X s 265 840 m -27 X s 265 875 m -27 X s 291 911 m -53 X s 265 946
 m -27 X s 265 982 m -27 X s 265 1017 m -27 X s 265 1053 m -27 X s 291 1088 m -53 X s 265 1124 m -27 X s 265 1159 m -27 X s 265 1195 m -27 X s 265 1230 m -27 X s 291 1266 m -53 X s 265 1301 m -27 X s 265 1336 m -27 X s 265 1372 m -27 X s 265 1407 m
 -27 X s 291 1443 m -53 X s 291 1443 m -53 X s 265 1478 m -27 X s
 gsave  2268 1676 0 0 C 174.44 178.232 t 0 r /Helvetica-Bold findfont 64.4669 sf 0 0 m (0) show NC gr 
 gsave  2268 1676 0 0 C 174.44 352.672 t 0 r /Helvetica-Bold findfont 64.4669 sf 0 0 m (5) show NC gr 
 gsave  2268 1676 0 0 C 136.518 530.904 t 0 r /Helvetica-Bold findfont 64.4669 sf 0 0 m (10) show NC gr 
 gsave  2268 1676 0 0 C 136.518 709.135 t 0 r /Helvetica-Bold findfont 64.4669 sf 0 0 m (15) show NC gr 
 gsave  2268 1676 0 0 C 136.518 887.367 t 0 r /Helvetica-Bold findfont 64.4669 sf 0 0 m (20) show NC gr 
 gsave  2268 1676 0 0 C 136.518 1061.81 t 0 r /Helvetica-Bold findfont 64.4669 sf 0 0 m (25) show NC gr 
 gsave  2268 1676 0 0 C 136.518 1240.04 t 0 r /Helvetica-Bold findfont 64.4669 sf 0 0 m (30) show NC gr 
 gsave  2268 1676 0 0 C 136.518 1418.27 t 0 r /Helvetica-Bold findfont 64.4669 sf 0 0 m (35) show NC gr  2154 201 m 1308 Y s 2101 201 m 53 X s 2128 237 m 26 X s 2128 272 m 26 X s 2128 308 m 26 X s 2128 343 m 26 X s 2101 379 m 53 X s 2128 414 m 26 X s
 2128 449 m 26 X s 2128 485 m 26 X s 2128 520 m 26 X s 2101 556 m 53 X s 2128 591 m 26 X s 2128 627 m 26 X s 2128 662 m 26 X s 2128 698 m 26 X s 2101 733 m 53 X s 2128 769 m 26 X s 2128 804 m 26 X s 2128 840 m 26 X s 2128 875 m 26 X s 2101 911 m 53 X
 s 2128 946 m 26 X s 2128 982 m 26 X s 2128 1017 m 26 X s 2128 1053 m 26 X s 2101 1088 m 53 X s 2128 1124 m 26 X s 2128 1159 m 26 X s 2128 1195 m 26 X s 2128 1230 m 26 X s 2101 1266 m 53 X s 2128 1301 m 26 X s 2128 1336 m 26 X s 2128 1372 m 26 X s
 2128 1407 m 26 X s 2101 1443 m 53 X s 2101 1443 m 53 X s 2128 1478 m 26 X s 0.490196 0.545098 0.615686 c 1 1 1 c 0.490196 0.545098 0.615686 c 680 202 238 1307 bl 238 1307 m 680 X s 918 1307 m 202 Y s 918 1509 m -680 X s 238 1509 m -202 Y s black
 gsave  2268 1676 0 0 C 439.892 1437.23 t 0 r /Helvetica-Bold findfont 75.8434 sf 0 0 m (Signal) show NC gr  0.49 0.6 0.82 c 269 1423 m 143 X 70 Y -143 X f 0 0 0.933333 c 6 lw 269 1493 m 143 X s 269 1423 m 143 X s 412 1423 m 70 Y s 269 1423 m 70 Y s
 black
 gsave  2268 1676 0 0 C 439.892 1338.64 t 0 r /Helvetica-Bold findfont 75.8434 sf 0 0 m (Background) show NC gr  1 0 0 c 3 lw 412 1326 m -4 -4 d s 412 1374 m -52 -52 d s 383 1393 m -71 -71 d s 335 1393 m -66 -66 d s 286 1393 m -17 -18 d s 6 lw 0 0
 0.933333 c 1 0 0 c 269 1393 m 143 X s 269 1322 m 143 X s 412 1322 m 71 Y s 269 1322 m 71 Y s 0 0 0.933333 c 0.49 0.6 0.82 c black 3 lw 0.49 0.6 0.82 c 238 201 m 9 Y 48 X -9 Y 96 X 9 Y 48 X -9 Y 143 X 9 Y 48 X -9 Y 48 X 9 Y 48 X -9 Y 96 X 18 Y 48 X
 -9 Y 48 X -9 Y 48 X 9 Y 48 X -9 Y 48 X 18 Y 47 X -18 Y 144 X 27 Y 48 X -27 Y 48 X 9 Y 48 X -9 Y 48 X 9 Y 48 X -9 Y 191 X 9 Y 48 X 18 Y 48 X -27 Y 48 X 27 Y 48 X 27 Y 48 X 9 Y 48 X 18 Y 96 X 118 Y 47 X 542 Y 48 X -741 Y f 6 lw 0 0 0.933333 c 0.49 0.6
 0.82 c 0 0 0.933333 c 238 210 m 48 X -9 Y 96 X 9 Y 48 X -9 Y 143 X 9 Y 48 X -9 Y 48 X 9 Y 48 X -9 Y 96 X 18 Y 48 X -9 Y 48 X -9 Y 48 X 9 Y 48 X -9 Y 48 X 18 Y 47 X -18 Y 144 X 27 Y 48 X -27 Y 48 X 9 Y 48 X -9 Y 48 X 9 Y 48 X -9 Y 191 X 9 Y 48 X 18 Y
 48 X -27 Y 48 X 27 Y 48 X 27 Y 48 X 9 Y 48 X 18 Y 96 X 118 Y 47 X 542 Y 48 X -741 Y s 1 0 0 c black 3 lw 1 0 0 c 2133 208 m -8 -7 d s 2095 219 m -18 -18 d s 2033 205 m -4 -4 d s 1988 208 m -7 -7 d s 1933 201 m s 1896 212 m -11 -11 d s 1840 205 m -3
 -4 d s 1807 219 m -18 -18 d s 1744 205 m -3 -4 d s 1692 201 m s 1644 201 m s 1603 208 m -7 -7 d s 1548 201 m s 1500 201 m s 1455 205 m -3 -4 d s 1404 201 m cl s 1363 208 m -7 -7 d s 1322 215 m -14 -14 d s 1263 205 m -4 -4 d s 1215 205 m -4 -4 d s
 1170 208 m -7 -7 d s 1119 205 m -4 -4 d s 1071 205 m -4 -4 d s 1019 201 m s 978 208 m -7 -7 d s 923 201 m s 875 201 m s 837 212 m -10 -11 d s 786 208 m -8 -7 d s 734 205 m -4 -4 d s 711 230 m -29 -29 d s 641 208 m -7 -7 d s 590 205 m -4 -4 d s 545
 208 m -7 -7 d s 508 219 m -18 -18 d s 463 223 m -21 -22 d s 408 215 m -14 -14 d s 367 223 m -22 -22 d s 334 238 m -37 -37 d s 303 255 m -54 -54 d s 286 286 m -48 -48 d s 286 334 m -48 -48 d s 286 382 m -48 -48 d s 286 430 m -48 -48 d s 286 478 m -48
 -47 d s 286 527 m -48 -48 d s 286 575 m -48 -48 d s 286 623 m -48 -48 d s 286 671 m -48 -48 d s 286 719 m -48 -48 d s 286 767 m -48 -48 d s 286 815 m -48 -48 d s 286 863 m -48 -48 d s 286 911 m -48 -48 d s 286 959 m -48 -47 d s 286 1008 m -48 -48 d
 s 286 1056 m -48 -48 d s 286 1104 m -48 -48 d s 286 1152 m -48 -48 d s 286 1200 m -48 -48 d s 286 1248 m -48 -48 d s 280 1291 m -42 -43 d s 6 lw 238 1291 m 48 X -1036 Y 48 X -32 Y 48 X -8 Y 48 X 8 Y 48 X -4 Y 48 X -11 Y 47 X -3 Y 48 X 3 Y 48 X 22 Y
 48 X -25 Y 48 X 3 Y 48 X 4 Y 48 X -11 Y 96 X 7 Y 48 X -7 Y 48 X 4 Y 95 X 3 Y 48 X -3 Y 96 X 10 Y 48 X -7 Y 48 X -7 Y 48 X 4 Y 48 X -4 Y 95 X 7 Y 48 X -7 Y 96 X 4 Y 48 X 14 Y 48 X -14 Y 48 X 7 Y 48 X -11 Y 48 X 7 Y 48 X -3 Y 48 X 14 Y 47 X -11 Y 48 X
 -7 Y s black 3 lw 238 201 m 1916 X s 238 244 m -43 Y s 276 222 m -21 Y s 315 222 m -21 Y s 353 222 m -21 Y s 391 222 m -21 Y s 430 244 m -43 Y s 468 222 m -21 Y s 506 222 m -21 Y s 545 222 m -21 Y s 583 222 m -21 Y s 621 244 m -43 Y s 660 222 m -21
 Y s 698 222 m -21 Y s 736 222 m -21 Y s 775 222 m -21 Y s 813 244 m -43 Y s 851 222 m -21 Y s 890 222 m -21 Y s 928 222 m -21 Y s 966 222 m -21 Y s 1005 244 m -43 Y s 1043 222 m -21 Y s 1081 222 m -21 Y s 1120 222 m -21 Y s 1158 222 m -21 Y s 1196
 244 m -43 Y s 1235 222 m -21 Y s 1273 222 m -21 Y s 1311 222 m -21 Y s 1350 222 m -21 Y s 1388 244 m -43 Y s 1426 222 m -21 Y s 1464 222 m -21 Y s 1503 222 m -21 Y s 1541 222 m -21 Y s 1579 244 m -43 Y s 1618 222 m -21 Y s 1656 222 m -21 Y s 1694
 222 m -21 Y s 1733 222 m -21 Y s 1771 244 m -43 Y s 1809 222 m -21 Y s 1848 222 m -21 Y s 1886 222 m -21 Y s 1924 222 m -21 Y s 1963 244 m -43 Y s 2001 222 m -21 Y s 2039 222 m -21 Y s 2078 222 m -21 Y s 2116 222 m -21 Y s 2154 244 m -43 Y s 238 244
 m -43 Y s 2154 244 m -43 Y s 238 1509 m 1916 X s 238 1466 m 43 Y s 276 1487 m 22 Y s 315 1487 m 22 Y s 353 1487 m 22 Y s 391 1487 m 22 Y s 430 1466 m 43 Y s 468 1487 m 22 Y s 506 1487 m 22 Y s 545 1487 m 22 Y s 583 1487 m 22 Y s 621 1466 m 43 Y s
 660 1487 m 22 Y s 698 1487 m 22 Y s 736 1487 m 22 Y s 775 1487 m 22 Y s 813 1466 m 43 Y s 851 1487 m 22 Y s 890 1487 m 22 Y s 928 1487 m 22 Y s 966 1487 m 22 Y s 1005 1466 m 43 Y s 1043 1487 m 22 Y s 1081 1487 m 22 Y s 1120 1487 m 22 Y s 1158 1487 m
 22 Y s 1196 1466 m 43 Y s 1235 1487 m 22 Y s 1273 1487 m 22 Y s 1311 1487 m 22 Y s 1350 1487 m 22 Y s 1388 1466 m 43 Y s 1426 1487 m 22 Y s 1464 1487 m 22 Y s 1503 1487 m 22 Y s 1541 1487 m 22 Y s 1579 1466 m 43 Y s 1618 1487 m 22 Y s 1656 1487 m 22
 Y s 1694 1487 m 22 Y s 1733 1487 m 22 Y s 1771 1466 m 43 Y s 1809 1487 m 22 Y s 1848 1487 m 22 Y s 1886 1487 m 22 Y s 1924 1487 m 22 Y s 1963 1466 m 43 Y s 2001 1487 m 22 Y s 2039 1487 m 22 Y s 2078 1487 m 22 Y s 2116 1487 m 22 Y s 2154 1466 m 43 Y
 s 238 1466 m 43 Y s 2154 1466 m 43 Y s 238 201 m 1308 Y s 291 201 m -53 X s 265 237 m -27 X s 265 272 m -27 X s 265 308 m -27 X s 265 343 m -27 X s 291 379 m -53 X s 265 414 m -27 X s 265 449 m -27 X s 265 485 m -27 X s 265 520 m -27 X s 291 556 m
 -53 X s 265 591 m -27 X s 265 627 m -27 X s 265 662 m -27 X s 265 698 m -27 X s 291 733 m -53 X s 265 769 m -27 X s 265 804 m -27 X s 265 840 m -27 X s 265 875 m -27 X s 291 911 m -53 X s 265 946 m -27 X s 265 982 m -27 X s 265 1017 m -27 X s 265
 1053 m -27 X s 291 1088 m -53 X s 265 1124 m -27 X s 265 1159 m -27 X s 265 1195 m -27 X s 265 1230 m -27 X s 291 1266 m -53 X s 265 1301 m -27 X s 265 1336 m -27 X s 265 1372 m -27 X s 265 1407 m -27 X s 291 1443 m -53 X s 291 1443 m -53 X s 265
 1478 m -27 X s 2154 201 m 1308 Y s 2101 201 m 53 X s 2128 237 m 26 X s 2128 272 m 26 X s 2128 308 m 26 X s 2128 343 m 26 X s 2101 379 m 53 X s 2128 414 m 26 X s 2128 449 m 26 X s 2128 485 m 26 X s 2128 520 m 26 X s 2101 556 m 53 X s 2128 591 m 26 X
 s 2128 627 m 26 X s 2128 662 m 26 X s 2128 698 m 26 X s 2101 733 m 53 X s 2128 769 m 26 X s 2128 804 m 26 X s 2128 840 m 26 X s 2128 875 m 26 X s 2101 911 m 53 X s 2128 946 m 26 X s 2128 982 m 26 X s 2128 1017 m 26 X s 2128 1053 m 26 X s 2101 1088 m
 53 X s 2128 1124 m 26 X s 2128 1159 m 26 X s 2128 1195 m 26 X s 2128 1230 m 26 X s 2101 1266 m 53 X s 2128 1301 m 26 X s 2128 1336 m 26 X s 2128 1372 m 26 X s 2128 1407 m 26 X s 2101 1443 m 53 X s 2101 1443 m 53 X s 2128 1478 m 26 X s
 gsave  2268 1676 0 0 C 2211.02 192.756 t 90 r /Helvetica-Bold findfont 45.506 sf 0 0 m (U/O\255flow \(S,B\): \(0.0, 0.0\)% / \(0.0, 0.0\)%) show NC gr 
 gr  gr showpage
end
%%EOF
