%!PS-Adobe-2.0 EPSF-2.0
%%BoundingBox:  0 0 567 419
%%Title: DataSet/plots/mva_SVM.eps: TMVA response SVM
%%Creator: ROOT Version 6.08/06
%%CreationDate: Fri Jun  1 10:06:39 2018
%%DocumentNeededResources: ProcSet (FontSetInit)
%%EndComments
%%BeginProlog
80 dict begin
/s {stroke} def /l {lineto} def /m {moveto} def /t {translate} def
/r {rotate} def /rl {roll}  def /R {repeat} def
/d {rlineto} def /rm {rmoveto} def /gr {grestore} def /f {eofill} def
/c {setrgbcolor} def /black {0 setgray} def /sd {setdash} def
/cl {closepath} def /sf {scalefont setfont} def /lw {setlinewidth} def
/box {m dup 0 exch d exch 0 d 0 exch neg d cl} def
/NC{systemdict begin initclip end}def/C{NC box clip newpath}def
/bl {box s} def /bf {gsave box gsave f grestore 1 lw [] 0 sd s grestore} def /Y { 0 exch d} def /X { 0 d} def 
/K {{pop pop 0 moveto} exch kshow} bind def
/ita {/ang 15 def gsave [1 0 ang dup sin exch cos div 1 0 0] concat} def 
/mp {newpath /y exch def /x exch def} def
/side {[w .77 mul w .23 mul] .385 w mul sd w 0 l currentpoint t -144 r} def
/mr {mp x y w2 0 360 arc} def /m24 {mr s} def /m20 {mr f} def
/mb {mp x y w2 add m w2 neg 0 d 0 w neg d w 0 d 0 w d cl} def
/mt {mp x y w2 add m w2 neg w neg d w 0 d cl} def
/m21 {mb f} def /m25 {mb s} def /m22 {mt f} def /m26{mt s} def
/m23 {mp x y w2 sub m w2 w d w neg 0 d cl f} def
/m27 {mp x y w2 add m w3 neg w2 neg d w3 w2 neg d w3 w2 d cl s} def
/m28 {mp x w2 sub y w2 sub w3 add m w3 0 d  0 w3 neg d w3 0 d 0 w3 d w3 0 d  0 w3 d w3 neg 0 d 0 w3 d w3 neg 0 d 0 w3 neg d w3 neg 0 d cl s } def
/m29 {mp gsave x w2 sub y w2 add w3 sub m currentpoint t 4 {side} repeat cl fill gr} def
/m30 {mp gsave x w2 sub y w2 add w3 sub m currentpoint t 4 {side} repeat cl s gr} def
/m31 {mp x y w2 sub m 0 w d x w2 sub y m w 0 d x w2 sub y w2 add m w w neg d x w2 sub y w2 sub m w w d s} def
/m32 {mp x y w2 sub m w2 w d w neg 0 d cl s} def
/m33 {mp x y w2 add m w3 neg w2 neg d w3 w2 neg d w3 w2 d cl f} def
/m34 {mp x w2 sub y w2 sub w3 add m w3 0 d  0 w3 neg d w3 0 d 0 w3 d w3 0 d  0 w3 d w3 neg 0 d 0 w3 d w3 neg 0 d 0 w3 neg d w3 neg 0 d cl f } def
/m2 {mp x y w2 sub m 0 w d x w2 sub y m w 0 d s} def
/m5 {mp x w2 sub y w2 sub m w w d x w2 sub y w2 add m w w neg d s} def
%%IncludeResource: ProcSet (FontSetInit)
%%IncludeResource: font Times-Roman
%%IncludeResource: font Times-Italic
%%IncludeResource: font Times-Bold
%%IncludeResource: font Times-BoldItalic
%%IncludeResource: font Helvetica
%%IncludeResource: font Helvetica-Oblique
%%IncludeResource: font Helvetica-Bold
%%IncludeResource: font Helvetica-BoldOblique
%%IncludeResource: font Courier
%%IncludeResource: font Courier-Oblique
%%IncludeResource: font Courier-Bold
%%IncludeResource: font Courier-BoldOblique
%%IncludeResource: font Symbol
%%IncludeResource: font ZapfDingbats
/reEncode {exch findfont dup length dict begin {1 index /FID eq  {pop pop} {def} ifelse } forall /Encoding exch def currentdict end dup /FontName get exch definefont pop } def [/Times-Bold /Times-Italic /Times-BoldItalic /Helvetica /Helvetica-Oblique
 /Helvetica-Bold /Helvetica-BoldOblique /Courier /Courier-Oblique /Courier-Bold /Courier-BoldOblique /Times-Roman /AvantGarde-Book /AvantGarde-BookOblique /AvantGarde-Demi /AvantGarde-DemiOblique /Bookman-Demi /Bookman-DemiItalic /Bookman-Light
 /Bookman-LightItalic /Helvetica-Narrow /Helvetica-Narrow-Bold /Helvetica-Narrow-BoldOblique /Helvetica-Narrow-Oblique /NewCenturySchlbk-Roman /NewCenturySchlbk-Bold /NewCenturySchlbk-BoldItalic /NewCenturySchlbk-Italic /Palatino-Bold
 /Palatino-BoldItalic /Palatino-Italic /Palatino-Roman ] {ISOLatin1Encoding reEncode } forall
%%EndProlog
%%BeginSetup
%%EndSetup
newpath  gsave  .25 .25 scale  gsave  0 0 t 0.490196 0.545098 0.615686 c[  ] 0 sd 3 lw 1 1 1 c 2268 1676 0 0 bf black 1 1 1 c 1916 1308 238 201 bf black 1916 1308 238 201 bl 1 1 1 c 1916 1308 238 201 bf black 1916 1308 238 201 bl 238 201 m 1916 X s
 gsave  2268 1676 0 0 C 1657.18 30.3373 t 0 r /Helvetica-Bold findfont 72.0512 sf 0 0 m (SVM response) show NC gr  370 244 m -43 Y s 412 222 m -21 Y s 455 222 m -21 Y s 497 222 m -21 Y s 540 222 m -21 Y s 582 244 m -43 Y s 625 222 m -21 Y s 667 222 m
 -21 Y s 710 222 m -21 Y s 752 222 m -21 Y s 795 244 m -43 Y s 837 222 m -21 Y s 880 222 m -21 Y s 922 222 m -21 Y s 965 222 m -21 Y s 1007 244 m -43 Y s 1050 222 m -21 Y s 1092 222 m -21 Y s 1135 222 m -21 Y s 1177 222 m -21 Y s 1220 244 m -43 Y s
 1262 222 m -21 Y s 1305 222 m -21 Y s 1347 222 m -21 Y s 1390 222 m -21 Y s 1432 244 m -43 Y s 1475 222 m -21 Y s 1517 222 m -21 Y s 1559 222 m -21 Y s 1602 222 m -21 Y s 1644 244 m -43 Y s 1687 222 m -21 Y s 1729 222 m -21 Y s 1772 222 m -21 Y s
 1814 222 m -21 Y s 1857 244 m -43 Y s 1899 222 m -21 Y s 1942 222 m -21 Y s 1984 222 m -21 Y s 2027 222 m -21 Y s 2069 244 m -43 Y s 370 244 m -43 Y s 327 222 m -21 Y s 285 222 m -21 Y s 242 222 m -21 Y s 2069 244 m -43 Y s 2112 222 m -21 Y s
 gsave  2268 1676 0 0 C 326.126 128.934 t 0 r /Helvetica-Bold findfont 64.4669 sf 0 0 m (0.1) show NC gr 
 gsave  2268 1676 0 0 C 534.696 128.934 t 0 r /Helvetica-Bold findfont 64.4669 sf 0 0 m (0.2) show NC gr 
 gsave  2268 1676 0 0 C 747.057 128.934 t 0 r /Helvetica-Bold findfont 64.4669 sf 0 0 m (0.3) show NC gr 
 gsave  2268 1676 0 0 C 959.419 128.934 t 0 r /Helvetica-Bold findfont 64.4669 sf 0 0 m (0.4) show NC gr 
 gsave  2268 1676 0 0 C 1171.78 128.934 t 0 r /Helvetica-Bold findfont 64.4669 sf 0 0 m (0.5) show NC gr 
 gsave  2268 1676 0 0 C 1384.14 128.934 t 0 r /Helvetica-Bold findfont 64.4669 sf 0 0 m (0.6) show NC gr 
 gsave  2268 1676 0 0 C 1596.5 128.934 t 0 r /Helvetica-Bold findfont 64.4669 sf 0 0 m (0.7) show NC gr 
 gsave  2268 1676 0 0 C 1808.86 128.934 t 0 r /Helvetica-Bold findfont 64.4669 sf 0 0 m (0.8) show NC gr 
 gsave  2268 1676 0 0 C 2021.23 128.934 t 0 r /Helvetica-Bold findfont 64.4669 sf 0 0 m (0.9) show NC gr  238 1509 m 1916 X s 370 1466 m 43 Y s 412 1487 m 22 Y s 455 1487 m 22 Y s 497 1487 m 22 Y s 540 1487 m 22 Y s 582 1466 m 43 Y s 625 1487 m 22 Y
 s 667 1487 m 22 Y s 710 1487 m 22 Y s 752 1487 m 22 Y s 795 1466 m 43 Y s 837 1487 m 22 Y s 880 1487 m 22 Y s 922 1487 m 22 Y s 965 1487 m 22 Y s 1007 1466 m 43 Y s 1050 1487 m 22 Y s 1092 1487 m 22 Y s 1135 1487 m 22 Y s 1177 1487 m 22 Y s 1220
 1466 m 43 Y s 1262 1487 m 22 Y s 1305 1487 m 22 Y s 1347 1487 m 22 Y s 1390 1487 m 22 Y s 1432 1466 m 43 Y s 1475 1487 m 22 Y s 1517 1487 m 22 Y s 1559 1487 m 22 Y s 1602 1487 m 22 Y s 1644 1466 m 43 Y s 1687 1487 m 22 Y s 1729 1487 m 22 Y s 1772
 1487 m 22 Y s 1814 1487 m 22 Y s 1857 1466 m 43 Y s 1899 1487 m 22 Y s 1942 1487 m 22 Y s 1984 1487 m 22 Y s 2027 1487 m 22 Y s 2069 1466 m 43 Y s 370 1466 m 43 Y s 327 1487 m 22 Y s 285 1487 m 22 Y s 242 1487 m 22 Y s 2069 1466 m 43 Y s 2112 1487 m
 22 Y s 238 201 m 1308 Y s
 gsave  2268 1676 0 0 C 64.4669 1425.86 t 90 r /Helvetica-Bold findfont 72.0512 sf 0 0 m (dx) show NC gr 
 gsave  2268 1676 0 0 C 30.3373 1406.89 t 90 r /Helvetica-Bold findfont 45.506 sf 0 0 m ( ) show NC gr 
 gsave  2268 1676 0 0 C 64.4669 1384.14 t 90 r /Helvetica-Bold findfont 72.0512 sf 0 0 m (/) show NC gr 
 gsave  2268 1676 0 0 C 30.3373 1365.18 t 90 r /Helvetica-Bold findfont 45.506 sf 0 0 m ( ) show NC gr 
 gsave  2268 1676 0 0 C 60.6747 1092.14 t 90 r /Helvetica-Bold findfont 72.0512 sf 0 0 m (\(1/N\) dN) show NC gr  291 201 m -53 X s 265 247 m -27 X s 265 292 m -27 X s 265 338 m -27 X s 291 383 m -53 X s 265 428 m -27 X s 265 474 m -27 X s 265 519 m
 -27 X s 291 565 m -53 X s 265 610 m -27 X s 265 656 m -27 X s 265 701 m -27 X s 291 747 m -53 X s 265 792 m -27 X s 265 838 m -27 X s 265 883 m -27 X s 291 929 m -53 X s 265 974 m -27 X s 265 1019 m -27 X s 265 1065 m -27 X s 291 1110 m -53 X s 265
 1156 m -27 X s 265 1201 m -27 X s 265 1247 m -27 X s 291 1292 m -53 X s 265 1338 m -27 X s 265 1383 m -27 X s 265 1429 m -27 X s 291 1474 m -53 X s 291 1474 m -53 X s
 gsave  2268 1676 0 0 C 174.44 178.232 t 0 r /Helvetica-Bold findfont 64.4669 sf 0 0 m (0) show NC gr 
 gsave  2268 1676 0 0 C 174.44 356.464 t 0 r /Helvetica-Bold findfont 64.4669 sf 0 0 m (2) show NC gr 
 gsave  2268 1676 0 0 C 174.44 538.488 t 0 r /Helvetica-Bold findfont 64.4669 sf 0 0 m (4) show NC gr 
 gsave  2268 1676 0 0 C 174.44 720.512 t 0 r /Helvetica-Bold findfont 64.4669 sf 0 0 m (6) show NC gr 
 gsave  2268 1676 0 0 C 174.44 902.536 t 0 r /Helvetica-Bold findfont 64.4669 sf 0 0 m (8) show NC gr 
 gsave  2268 1676 0 0 C 136.518 1084.56 t 0 r /Helvetica-Bold findfont 64.4669 sf 0 0 m (10) show NC gr 
 gsave  2268 1676 0 0 C 136.518 1266.58 t 0 r /Helvetica-Bold findfont 64.4669 sf 0 0 m (12) show NC gr 
 gsave  2268 1676 0 0 C 136.518 1448.61 t 0 r /Helvetica-Bold findfont 64.4669 sf 0 0 m (14) show NC gr  2154 201 m 1308 Y s 2101 201 m 53 X s 2128 247 m 26 X s 2128 292 m 26 X s 2128 338 m 26 X s 2101 383 m 53 X s 2128 428 m 26 X s 2128 474 m 26 X s
 2128 519 m 26 X s 2101 565 m 53 X s 2128 610 m 26 X s 2128 656 m 26 X s 2128 701 m 26 X s 2101 747 m 53 X s 2128 792 m 26 X s 2128 838 m 26 X s 2128 883 m 26 X s 2101 929 m 53 X s 2128 974 m 26 X s 2128 1019 m 26 X s 2128 1065 m 26 X s 2101 1110 m
 53 X s 2128 1156 m 26 X s 2128 1201 m 26 X s 2128 1247 m 26 X s 2101 1292 m 53 X s 2128 1338 m 26 X s 2128 1383 m 26 X s 2128 1429 m 26 X s 2101 1474 m 53 X s 2101 1474 m 53 X s 0.490196 0.545098 0.615686 c 1 1 1 c 0.490196 0.545098 0.615686 c 680
 202 238 1307 bl 238 1307 m 680 X s 918 1307 m 202 Y s 918 1509 m -680 X s 238 1509 m -202 Y s black
 gsave  2268 1676 0 0 C 439.892 1437.23 t 0 r /Helvetica-Bold findfont 75.8434 sf 0 0 m (Signal) show NC gr  0.49 0.6 0.82 c 269 1423 m 143 X 70 Y -143 X f 0 0 0.933333 c 6 lw 269 1493 m 143 X s 269 1423 m 143 X s 412 1423 m 70 Y s 269 1423 m 70 Y s
 black
 gsave  2268 1676 0 0 C 439.892 1338.64 t 0 r /Helvetica-Bold findfont 75.8434 sf 0 0 m (Background) show NC gr  1 0 0 c 3 lw 412 1326 m -4 -4 d s 412 1374 m -52 -52 d s 383 1393 m -71 -71 d s 335 1393 m -66 -66 d s 286 1393 m -17 -18 d s 6 lw 0 0
 0.933333 c 1 0 0 c 269 1393 m 143 X s 269 1322 m 143 X s 412 1322 m 71 Y s 269 1322 m 71 Y s 0 0 0.933333 c 0.49 0.6 0.82 c black 3 lw 0.49 0.6 0.82 c 238 201 m 719 X 26 Y 48 X -26 Y 48 X 26 Y 47 X -26 Y 48 X 52 Y 48 X -52 Y 144 X 77 Y 48 X -77 Y 48
 X 52 Y 48 X -26 Y 48 X 205 Y 47 X -205 Y 48 X 103 Y 48 X 51 Y 48 X -51 Y 48 X 77 Y 48 X 25 Y 48 X 257 Y 48 X -128 Y 48 X 205 Y 48 X 103 Y 48 X -411 Y 47 X 51 Y 48 X -308 Y f 6 lw 0 0 0.933333 c 0.49 0.6 0.82 c 0 0 0.933333 c 238 201 m 719 X 26 Y 48
 X -26 Y 48 X 26 Y 47 X -26 Y 48 X 52 Y 48 X -52 Y 144 X 77 Y 48 X -77 Y 48 X 52 Y 48 X -26 Y 48 X 205 Y 47 X -205 Y 48 X 103 Y 48 X 51 Y 48 X -51 Y 48 X 77 Y 48 X 25 Y 48 X 257 Y 48 X -128 Y 48 X 205 Y 48 X 103 Y 48 X -411 Y 47 X 51 Y 48 X -308 Y s
 1 0 0 c black 3 lw 1 0 0 c 2125 201 m s 2098 222 m -21 -21 d s 2029 201 m s 2001 222 m -20 -21 d s 1963 231 m -30 -30 d s 1926 242 m -41 -41 d s 1867 232 m -30 -31 d s 1829 242 m -40 -41 d s 1761 222 m -20 -21 d s 1723 232 m -31 -31 d s 1705 262 m
 -61 -61 d s 1637 242 m -10 -10 d s 1606 211 m -10 -10 d s 1579 233 m -31 -32 d s 1541 242 m -41 -41 d s 1523 272 m -71 -71 d s 1455 252 m -19 -19 d s 1414 211 m -10 -10 d s 1386 232 m -30 -31 d s 1340 234 m -32 -33 d s 1321 262 m -62 -61 d s 1262
 252 m -51 -51 d s 1235 272 m -72 -71 d s 1196 282 m -81 -81 d s 1159 293 m -59 -58 d s 1098 232 m -31 -31 d s 1111 293 m -11 -10 d s 1053 235 m -34 -34 d s 1052 283 m -81 -82 d s 1005 283 m -82 -82 d s 966 293 m -9 -10 d s 956 283 m -81 -82 d s 888
 262 m -61 -61 d s 819 242 m -41 -41 d s 813 284 m -83 -83 d s 804 323 m -122 -122 d s 765 332 m -48 -48 d s 716 283 m -82 -82 d s 765 380 m -48 -48 d s 657 272 m -71 -71 d s 765 428 m -48 -48 d s 621 285 m -83 -84 d s 765 476 m -48 -47 d s 602 313 m
 -29 -28 d s 541 252 m -51 -51 d s 765 525 m -48 -48 d s 523 283 m -81 -82 d s 765 573 m -48 -48 d s 475 283 m -81 -82 d s 765 621 m -48 -48 d s 430 285 m -85 -84 d s 765 669 m -48 -48 d s 430 334 m -48 -48 d s 369 272 m -72 -71 d s 765 717 m -48 -48
 d s 430 382 m -48 -48 d s 331 283 m -82 -82 d s 765 765 m -48 -48 d s 430 430 m -48 -48 d s 252 252 m -14 -14 d s 765 813 m -48 -48 d s 430 478 m -48 -48 d s 765 861 m -48 -48 d s 430 526 m -48 -48 d s 765 909 m -48 -48 d s 430 574 m -48 -48 d s 765
 957 m -48 -47 d s 430 622 m -48 -48 d s 765 1006 m -48 -48 d s 430 670 m -48 -48 d s 765 1054 m -48 -48 d s 430 718 m -48 -48 d s 765 1102 m -48 -48 d s 430 766 m -48 -47 d s 765 1150 m -48 -48 d s 430 815 m -48 -48 d s 765 1198 m -48 -48 d s 430
 863 m -48 -48 d s 765 1246 m -48 -48 d s 430 911 m -48 -48 d s 761 1291 m -44 -45 d s 430 959 m -48 -48 d s 430 1007 m -48 -48 d s 430 1055 m -48 -48 d s 393 1067 m -11 -12 d s 6 lw 238 252 m 48 X 31 Y 48 X -11 Y 48 X 795 Y 48 X -784 Y 96 X -31 Y 47
 X 61 Y 48 X -41 Y 48 X 11 Y 48 X 1008 Y 48 X -968 Y 48 X -81 Y 48 X 20 Y 48 X 21 Y 48 X 10 Y 48 X -10 Y 48 X -51 Y 47 X 61 Y 96 X -21 Y 48 X -20 Y 48 X 10 Y 48 X -30 Y 48 X -21 Y 48 X 41 Y 48 X 20 Y 48 X -30 Y 47 X -31 Y 48 X 31 Y 48 X 20 Y 48 X -40
 Y 48 X 10 Y 48 X 10 Y 48 X -10 Y 48 X 10 Y 48 X -20 Y 48 X -21 Y 48 X 21 Y 47 X -21 Y 48 X s black 3 lw 238 201 m 1916 X s 370 244 m -43 Y s 412 222 m -21 Y s 455 222 m -21 Y s 497 222 m -21 Y s 540 222 m -21 Y s 582 244 m -43 Y s 625 222 m -21 Y s
 667 222 m -21 Y s 710 222 m -21 Y s 752 222 m -21 Y s 795 244 m -43 Y s 837 222 m -21 Y s 880 222 m -21 Y s 922 222 m -21 Y s 965 222 m -21 Y s 1007 244 m -43 Y s 1050 222 m -21 Y s 1092 222 m -21 Y s 1135 222 m -21 Y s 1177 222 m -21 Y s 1220 244 m
 -43 Y s 1262 222 m -21 Y s 1305 222 m -21 Y s 1347 222 m -21 Y s 1390 222 m -21 Y s 1432 244 m -43 Y s 1475 222 m -21 Y s 1517 222 m -21 Y s 1559 222 m -21 Y s 1602 222 m -21 Y s 1644 244 m -43 Y s 1687 222 m -21 Y s 1729 222 m -21 Y s 1772 222 m
 -21 Y s 1814 222 m -21 Y s 1857 244 m -43 Y s 1899 222 m -21 Y s 1942 222 m -21 Y s 1984 222 m -21 Y s 2027 222 m -21 Y s 2069 244 m -43 Y s 370 244 m -43 Y s 327 222 m -21 Y s 285 222 m -21 Y s 242 222 m -21 Y s 2069 244 m -43 Y s 2112 222 m -21 Y
 s 238 1509 m 1916 X s 370 1466 m 43 Y s 412 1487 m 22 Y s 455 1487 m 22 Y s 497 1487 m 22 Y s 540 1487 m 22 Y s 582 1466 m 43 Y s 625 1487 m 22 Y s 667 1487 m 22 Y s 710 1487 m 22 Y s 752 1487 m 22 Y s 795 1466 m 43 Y s 837 1487 m 22 Y s 880 1487 m
 22 Y s 922 1487 m 22 Y s 965 1487 m 22 Y s 1007 1466 m 43 Y s 1050 1487 m 22 Y s 1092 1487 m 22 Y s 1135 1487 m 22 Y s 1177 1487 m 22 Y s 1220 1466 m 43 Y s 1262 1487 m 22 Y s 1305 1487 m 22 Y s 1347 1487 m 22 Y s 1390 1487 m 22 Y s 1432 1466 m 43 Y
 s 1475 1487 m 22 Y s 1517 1487 m 22 Y s 1559 1487 m 22 Y s 1602 1487 m 22 Y s 1644 1466 m 43 Y s 1687 1487 m 22 Y s 1729 1487 m 22 Y s 1772 1487 m 22 Y s 1814 1487 m 22 Y s 1857 1466 m 43 Y s 1899 1487 m 22 Y s 1942 1487 m 22 Y s 1984 1487 m 22 Y s
 2027 1487 m 22 Y s 2069 1466 m 43 Y s 370 1466 m 43 Y s 327 1487 m 22 Y s 285 1487 m 22 Y s 242 1487 m 22 Y s 2069 1466 m 43 Y s 2112 1487 m 22 Y s 238 201 m 1308 Y s 291 201 m -53 X s 265 247 m -27 X s 265 292 m -27 X s 265 338 m -27 X s 291 383 m
 -53 X s 265 428 m -27 X s 265 474 m -27 X s 265 519 m -27 X s 291 565 m -53 X s 265 610 m -27 X s 265 656 m -27 X s 265 701 m -27 X s 291 747 m -53 X s 265 792 m -27 X s 265 838 m -27 X s 265 883 m -27 X s 291 929 m -53 X s 265 974 m -27 X s 265
 1019 m -27 X s 265 1065 m -27 X s 291 1110 m -53 X s 265 1156 m -27 X s 265 1201 m -27 X s 265 1247 m -27 X s 291 1292 m -53 X s 265 1338 m -27 X s 265 1383 m -27 X s 265 1429 m -27 X s 291 1474 m -53 X s 291 1474 m -53 X s 2154 201 m 1308 Y s 2101
 201 m 53 X s 2128 247 m 26 X s 2128 292 m 26 X s 2128 338 m 26 X s 2101 383 m 53 X s 2128 428 m 26 X s 2128 474 m 26 X s 2128 519 m 26 X s 2101 565 m 53 X s 2128 610 m 26 X s 2128 656 m 26 X s 2128 701 m 26 X s 2101 747 m 53 X s 2128 792 m 26 X s
 2128 838 m 26 X s 2128 883 m 26 X s 2101 929 m 53 X s 2128 974 m 26 X s 2128 1019 m 26 X s 2128 1065 m 26 X s 2101 1110 m 53 X s 2128 1156 m 26 X s 2128 1201 m 26 X s 2128 1247 m 26 X s 2101 1292 m 53 X s 2128 1338 m 26 X s 2128 1383 m 26 X s 2128
 1429 m 26 X s 2101 1474 m 53 X s 2101 1474 m 53 X s
 gsave  2268 1676 0 0 C 2211.02 192.756 t 90 r /Helvetica-Bold findfont 45.506 sf 0 0 m (U/O\255flow \(S,B\): \(0.0, 0.0\)% / \(0.0, 0.0\)%) show NC gr 
 gr  gr showpage
end
%%EOF
