%!PS-Adobe-2.0 EPSF-2.0
%%BoundingBox:  0 0 567 419
%%Title: DataSet/plots/mvaeffs_BDTDe.eps: Cut efficiencies for BDTDe classifier
%%Creator: ROOT Version 6.08/06
%%CreationDate: Mon Jul 30 13:52:30 2018
%%DocumentNeededResources: ProcSet (FontSetInit)
%%EndComments
%%BeginProlog
80 dict begin
/s {stroke} def /l {lineto} def /m {moveto} def /t {translate} def
/r {rotate} def /rl {roll}  def /R {repeat} def
/d {rlineto} def /rm {rmoveto} def /gr {grestore} def /f {eofill} def
/c {setrgbcolor} def /black {0 setgray} def /sd {setdash} def
/cl {closepath} def /sf {scalefont setfont} def /lw {setlinewidth} def
/box {m dup 0 exch d exch 0 d 0 exch neg d cl} def
/NC{systemdict begin initclip end}def/C{NC box clip newpath}def
/bl {box s} def /bf {gsave box gsave f grestore 1 lw [] 0 sd s grestore} def /Y { 0 exch d} def /X { 0 d} def 
/K {{pop pop 0 moveto} exch kshow} bind def
/ita {/ang 15 def gsave [1 0 ang dup sin exch cos div 1 0 0] concat} def 
/mp {newpath /y exch def /x exch def} def
/side {[w .77 mul w .23 mul] .385 w mul sd w 0 l currentpoint t -144 r} def
/mr {mp x y w2 0 360 arc} def /m24 {mr s} def /m20 {mr f} def
/mb {mp x y w2 add m w2 neg 0 d 0 w neg d w 0 d 0 w d cl} def
/mt {mp x y w2 add m w2 neg w neg d w 0 d cl} def
/m21 {mb f} def /m25 {mb s} def /m22 {mt f} def /m26{mt s} def
/m23 {mp x y w2 sub m w2 w d w neg 0 d cl f} def
/m27 {mp x y w2 add m w3 neg w2 neg d w3 w2 neg d w3 w2 d cl s} def
/m28 {mp x w2 sub y w2 sub w3 add m w3 0 d  0 w3 neg d w3 0 d 0 w3 d w3 0 d  0 w3 d w3 neg 0 d 0 w3 d w3 neg 0 d 0 w3 neg d w3 neg 0 d cl s } def
/m29 {mp gsave x w2 sub y w2 add w3 sub m currentpoint t 4 {side} repeat cl fill gr} def
/m30 {mp gsave x w2 sub y w2 add w3 sub m currentpoint t 4 {side} repeat cl s gr} def
/m31 {mp x y w2 sub m 0 w d x w2 sub y m w 0 d x w2 sub y w2 add m w w neg d x w2 sub y w2 sub m w w d s} def
/m32 {mp x y w2 sub m w2 w d w neg 0 d cl s} def
/m33 {mp x y w2 add m w3 neg w2 neg d w3 w2 neg d w3 w2 d cl f} def
/m34 {mp x w2 sub y w2 sub w3 add m w3 0 d  0 w3 neg d w3 0 d 0 w3 d w3 0 d  0 w3 d w3 neg 0 d 0 w3 d w3 neg 0 d 0 w3 neg d w3 neg 0 d cl f } def
/m2 {mp x y w2 sub m 0 w d x w2 sub y m w 0 d s} def
/m5 {mp x w2 sub y w2 sub m w w d x w2 sub y w2 add m w w neg d s} def
%%IncludeResource: ProcSet (FontSetInit)
%%IncludeResource: font Times-Roman
%%IncludeResource: font Times-Italic
%%IncludeResource: font Times-Bold
%%IncludeResource: font Times-BoldItalic
%%IncludeResource: font Helvetica
%%IncludeResource: font Helvetica-Oblique
%%IncludeResource: font Helvetica-Bold
%%IncludeResource: font Helvetica-BoldOblique
%%IncludeResource: font Courier
%%IncludeResource: font Courier-Oblique
%%IncludeResource: font Courier-Bold
%%IncludeResource: font Courier-BoldOblique
%%IncludeResource: font Symbol
%%IncludeResource: font ZapfDingbats
/reEncode {exch findfont dup length dict begin {1 index /FID eq  {pop pop} {def} ifelse } forall /Encoding exch def currentdict end dup /FontName get exch definefont pop } def [/Times-Bold /Times-Italic /Times-BoldItalic /Helvetica /Helvetica-Oblique
 /Helvetica-Bold /Helvetica-BoldOblique /Courier /Courier-Oblique /Courier-Bold /Courier-BoldOblique /Times-Roman /AvantGarde-Book /AvantGarde-BookOblique /AvantGarde-Demi /AvantGarde-DemiOblique /Bookman-Demi /Bookman-DemiItalic /Bookman-Light
 /Bookman-LightItalic /Helvetica-Narrow /Helvetica-Narrow-Bold /Helvetica-Narrow-BoldOblique /Helvetica-Narrow-Oblique /NewCenturySchlbk-Roman /NewCenturySchlbk-Bold /NewCenturySchlbk-BoldItalic /NewCenturySchlbk-Italic /Palatino-Bold
 /Palatino-BoldItalic /Palatino-Italic /Palatino-Roman ] {ISOLatin1Encoding reEncode } forall
%%EndProlog
%%BeginSetup
%%EndSetup
newpath  gsave  .25 .25 scale  gsave  0 0 t 0.490196 0.545098 0.615686 c[  ] 0 sd 3 lw 1 1 1 c 2268 1676 0 0 bf black 1 1 1 c 1796 1140 245 201 bf black 1796 1140 245 201 bl 1 1 1 c 1796 1140 245 201 bf black 1796 1140 245 201 bl 245 201 m 1796 X s[
 4 8] 0 sd 316 1341 m -1140 Y s 619 1341 m -1140 Y s 922 1341 m -1140 Y s 1225 1341 m -1140 Y s 1528 1341 m -1140 Y s 1831 1341 m -1140 Y s 316 1341 m -1140 Y s 1831 1341 m -1140 Y s[  ] 0 sd 245 201 m 1140 Y s[ 4 8] 0 sd 2041 201 m -1796 X s 2041
 408 m -1796 X s 2041 616 m -1796 X s 2041 823 m -1796 X s 2041 1030 m -1796 X s 2041 1237 m -1796 X s 2041 1237 m -1796 X s 0 0 0.933333 c[  22 12 ] 0 sd 6 lw 0.49 0.6 0.82 c black 0 0 0.933333 c 245 719 m 1 Y 9 X s 254 720 m 9 X s 263 720 m 8 X s
 271 720 m 9 X s 280 720 m 9 X s 289 720 m 2 X 1 Y 7 X s 298 721 m 9 X s 307 721 m 8 X s 315 721 m 9 X s 324 721 m 9 X s 333 721 m 1 X 1 1 d 1 X 1 Y 6 X s 342 723 m 3 X 1 Y 6 X s 351 724 m 7 X 1 Y 1 X s 359 725 m 1 X 1 Y 1 X 1 Y 7 X s 368 727 m 4 X 2
 Y 1 X 1 1 d 1 Y 3 X s 377 731 m 1 X 1 Y 3 X 1 Y 4 X 1 Y 1 X s 386 734 m 1 Y 3 X 2 Y 1 X 1 1 d 2 Y 4 X s 395 740 m 6 X 1 Y 2 X 1 Y s 403 742 m 2 X 1 Y 2 X 1 Y 2 X 1 1 d 2 X s 412 745 m 1 X 1 Y 5 X 1 1 d 2 X s 421 747 m 4 X 2 Y 2 X 1 Y 3 X s 430 750 m
 1 X 1 Y 2 X 1 1 d 1 Y 5 X s 439 753 m 1 X 1 1 d 1 X 1 Y 3 X 1 Y 1 X 1 Y 1 X 2 Y s 447 759 m 3 X 1 1 d 1 X 2 Y 4 X s 456 762 m 1 Y 1 X 1 1 d 1 1 d 2 X 1 Y 4 X s 465 766 m 2 X 1 Y 1 X 1 Y 5 X 1 Y 1 X s 474 769 m 6 X 1 Y 3 X s 483 770 m 1 Y 3 X 1 1 d 1
 X 1 Y 2 X 2 Y 1 X s 491 775 m 1 X 1 Y 1 X 1 Y 4 X 1 Y 1 X 3 Y 1 X 1 Y 1 X s 500 782 m 1 X 1 Y 2 X 1 Y 1 X 1 Y 1 1 d 3 X 2 Y 1 X s 509 788 m 1 Y 3 X 1 Y 1 X 1 1 d 1 Y 2 X 1 Y 1 X 1 1 d s 518 794 m 3 X 1 Y 4 X 1 Y 1 X 1 Y 1 X s 527 797 m 1 Y 7 X 1 Y 1
 1 d s 535 800 m 1 X 1 Y 2 X 1 Y 2 X 1 Y 4 X 1 Y s 544 804 m 1 X 1 Y 1 X 1 2 d 1 Y 2 X 1 Y 4 X s 553 809 m 1 Y 1 X 2 Y 1 X 1 Y 2 X 1 Y 1 X 1 Y 1 X 2 Y 2 X 1 Y 1 X s 562 818 m 4 X 1 Y 1 X 1 1 d 1 Y 2 X 1 Y 1 X s 571 822 m 2 X 3 Y 6 X s 579 825 m 2 X 1
 Y 3 X 1 Y 1 X 1 Y 1 X 1 1 d 1 X s 588 829 m 3 X 1 Y 2 X 1 1 d 3 X s 597 831 m 1 X 2 Y 1 X 1 Y 3 X 1 Y 2 X 3 Y 1 X 2 Y 1 X s 606 840 m 2 X 1 Y 1 X 2 Y 5 X 2 Y 1 X s 615 845 m 8 X s 623 845 m 1 X 1 1 d 2 X 1 Y 1 X 1 1 d 2 Y 1 X 1 Y 2 X s 632 851 m 3 X
 1 Y 2 X 1 Y 1 X 2 Y 1 X 1 Y 2 X s 641 856 m 2 X 1 Y 1 X 1 Y 1 X 1 Y 5 X s 650 859 m 1 1 d 1 Y 1 1 d 2 X 2 Y 1 X 2 Y 2 X 1 Y 1 X 2 Y 1 X s 659 869 m 1 Y 1 X 1 2 d 1 1 d 1 1 d 1 X 2 Y 3 X s 667 876 m 1 X 1 Y 2 X 1 Y 1 X 1 Y 3 X 1 Y 1 X -4 Y 1 1 d 1 Y
 s 676 878 m 2 X 1 Y 1 X 1 Y 1 X 1 Y 3 X 3 Y 1 1 d 1 1 d s 685 886 m 1 Y 1 X 1 Y 4 X 1 3 d 2 Y 3 X s 694 893 m 2 X 1 Y 3 X 1 Y 4 X s 703 895 m 1 X 2 Y 1 X 1 Y 1 X 1 Y 3 X 1 Y 1 X 3 Y 1 X 1 Y s 711 904 m 4 X 1 Y 1 1 d 3 X 2 Y 1 X s 720 908 m 1 X 1 Y 5
 X 1 Y 2 X 1 Y 1 X s 729 911 m 2 Y 2 X 1 Y 3 X 2 Y 1 X 2 Y 1 1 d 2 X s 738 919 m -6 Y 1 Y 1 1 d 2 Y 2 X 2 Y 2 X 1 Y 1 X 1 2 d 2 Y 1 X 2 Y 1 X s 747 926 m 1 X 1 Y 2 X 1 Y 2 X 1 3 d 1 Y 2 X s 755 932 m 2 X 3 Y 4 X 1 Y 3 X s 764 936 m 2 X 3 Y 1 X 1 1 d
 1 X 3 Y 3 X 2 Y 1 X s 773 945 m 1 X 1 Y 2 X 3 Y 5 X 3 Y 1 X s 782 952 m 7 X 1 Y 2 X s 791 953 m 5 X 1 Y 1 2 d 2 X s 799 956 m 1 X 1 Y 1 X 1 2 d 2 X 1 Y 4 X 2 Y s 808 962 m 3 X 1 Y 2 X 1 Y 4 X 2 Y s 817 966 m 1 1 d 2 Y 6 X 4 Y 2 X s 826 973 m 2 Y 1 X
 1 Y 2 X 2 Y 1 1 d 2 X 1 2 d 1 X 1 Y 1 X s 835 982 m 2 X 2 Y 3 X 1 Y 3 X s 843 985 m 1 X 2 Y 1 X 1 Y 2 X 2 Y 1 X 2 Y 1 X 1 1 d 2 Y 2 X 1 Y s 852 996 m 1 X 2 Y 1 X 1 Y 1 X 2 Y 4 X 2 Y 2 X 1 Y s 861 1004 m 1 X 2 Y 5 X 2 Y 1 X 1 Y 1 X 2 Y 1 X s 870 1011
 m 1 X 1 Y 1 X 2 Y 5 X 2 Y 2 X s 879 1016 m 1 X 1 1 d 1 X 2 Y 1 X 1 2 d 1 X 1 1 d 2 Y 1 X 2 Y s 887 1026 m 1 X 2 Y 2 X 1 Y 6 X s 896 1029 m 3 X 2 Y 5 X 3 Y 1 X 2 Y s 905 1036 m 1 2 d 8 X s 914 1038 m 1 X 2 Y 3 X 1 1 d 1 X 2 Y 1 X 2 Y 1 X 2 Y 1 X s
 923 1047 m 6 X 2 Y 1 -7 d 1 X s 931 1042 m 4 X 1 2 d 3 X 2 Y 1 X s 940 1046 m 4 X 2 Y 5 X s 949 1048 m 1 X 5 Y 2 X 2 Y 1 X 2 Y 4 X 2 Y 1 X s 958 1059 m 1 -7 d 1 X 2 Y 1 X 2 Y 1 X 2 Y 2 X 2 Y 3 X s 967 1060 m 2 X 2 Y 1 X -7 Y 1 X 2 Y 4 X s 975 1057 m
 6 X 1 2 d 2 X s 984 1059 m 1 X 1 2 d 7 X s 993 1061 m 3 X -7 Y 3 X 2 Y 3 X s 1002 1056 m 2 Y 5 X 2 Y 1 X 2 Y 3 X s 1011 1062 m 8 X 2 Y s 1019 1064 m 2 X 1 2 d 3 X 2 Y 3 X 2 Y s 1028 1070 m 9 X s 1037 1070 m 1 2 d 1 X 1 2 d 5 X 2 Y 1 X s 1046 1076 m
 2 X 2 Y 4 X 2 Y 1 X 1 -6 d 1 X s 1055 1074 m 4 X 2 Y 1 X 1 2 d 2 X s 1063 1078 m 9 X s 1072 1078 m 1 X 2 Y 1 X 2 Y 3 X 2 Y 4 X s 1081 1084 m 3 X 2 Y 2 X 2 Y 1 2 d 2 Y 1 X 1 -4 d 1 X s 1090 1088 m 6 X 2 Y 2 X 2 Y 1 X s 1099 1092 m 3 X -6 Y 1 X 2 Y 4
 X 2 Y s 1107 1090 m 1 X 2 Y 3 X -7 Y 3 X 3 Y 2 X s 1116 1088 m 6 X 1 2 d 1 X -7 Y 1 X s 1125 1083 m 4 X -6 Y 5 X s 1134 1077 m 3 X -7 Y 4 X 2 Y 2 X s 1143 1072 m 3 X -6 Y 4 X 2 Y 1 X s 1151 1068 m 2 X -7 Y 5 X -6 Y 2 X s 1160 1055 m 4 X 1 2 d 1 -6 d
 3 X s 1169 1051 m 7 X -7 Y 1 2 d 2 Y 1 X s 1178 1048 m 9 X s 1187 1048 m 3 Y 8 X s 1195 1051 m 7 X -7 Y 2 X s 1204 1044 m 6 X 2 Y 3 X s 1213 1046 m 9 X s 1222 1046 m 3 Y 9 X s 1231 1049 m 1 X 2 Y 7 X s 1239 1051 m 9 X s 1248 1051 m 6 X 2 Y 3 X s
 1257 1053 m 9 X s 1266 1053 m 2 Y 1 X -6 Y 8 X s 1275 1049 m 2 X 2 Y 1 X 3 Y 5 X s 1283 1054 m 9 X s 1292 1054 m 2 Y 5 X -7 Y 4 X s 1301 1049 m 9 X -6 Y s 1310 1043 m 1 X -7 Y 4 X 1 -6 d 1 -7 d -7 Y 1 X 3 Y 1 X s 1319 1019 m -7 Y 6 X 2 Y 1 X -13 Y 1
 X s 1327 1001 m 9 X s 1336 1001 m 3 X -6 Y 1 X -13 Y 4 X -7 Y 1 X s 1345 975 m 5 X -7 Y 1 X -6 Y 3 X s 1354 962 m 1 X 2 Y 1 X -6 Y 1 X -7 Y 3 X 1 -7 d 2 X s 1363 944 m 1 -13 d 4 X -6 Y 3 X -7 Y s 1371 918 m 3 X -6 Y 6 X 2 Y s 1380 914 m 2 X -7 Y 1 X
 -6 Y 3 X -7 Y 1 X 1 2 d 1 X s 1389 896 m 4 X 1 3 d 3 X 2 Y 1 X s 1398 901 m 3 X -6 Y 1 X 1 2 d 4 X s 1407 897 m 1 X 1 -7 d -6 Y 1 X 2 Y 3 X -6 Y 2 X s 1415 880 m 1 X -7 Y 8 X s 1424 873 m 1 X -7 Y 1 X 3 Y -7 Y 5 X 1 -6 d -7 Y 1 X s 1433 849 m 6 X 1
 -6 d 1 X 2 Y 1 X s 1442 845 m 2 X 1 -7 d -6 Y 6 X s 1451 832 m 1 X 1 -7 d 6 X s 1459 825 m 9 X s 1468 825 m 4 X 3 Y 4 X 1 -7 d s 1477 821 m 3 X -7 Y 5 X -6 Y 1 X s 1486 808 m 2 X -7 Y 1 X -6 Y 6 X s 1495 795 m 1 -7 d -7 Y 2 X 1 -6 d 1 X -7 Y 2 X -6
 Y 1 X s 1503 762 m 1 X -7 Y 1 X 3 Y 1 X -7 Y 3 X -7 Y 3 X s 1512 744 m 5 X 1 -6 d 1 X 1 -7 d -6 Y 1 X s 1521 725 m 1 2 d 2 X -7 Y 1 X 1 -6 d -7 Y 4 X s 1530 707 m 1 X 1 -6 d 4 X -7 Y 3 X s 1539 694 m 1 -7 d 3 Y 1 X 1 -7 d -6 Y 5 X s 1547 677 m 1 X
 -7 Y 8 X -6 Y s 1556 664 m 4 X -7 Y 2 X 1 -7 d -6 Y 2 X s 1565 644 m 2 X -7 Y 2 X -6 Y 1 X -7 Y 1 X -7 Y 3 X s 1574 617 m 7 X -6 Y 2 X s 1583 611 m 5 X -7 Y 2 X -6 Y 1 X s 1591 598 m 2 X -14 Y 3 X -6 Y 1 X 2 Y 3 X 3 Y s 1600 583 m 1 X -7 Y 1 X -6 Y
 7 X s 1609 570 m 1 X 1 -7 d 3 X -7 Y 1 X -6 Y 3 X s 1618 550 m 1 X -7 Y 2 X -6 Y 1 X -14 Y 4 X -6 Y 1 X s 1627 517 m 1 2 d 1 -6 d 6 X s 1635 513 m 3 X -7 Y 1 X -6 Y 3 X -7 Y 2 X s 1644 493 m 2 X -7 Y 1 X -6 Y 3 X -7 Y 2 X -13 Y 1 X s 1653 460 m 2 X
 -7 Y 1 X -13 Y 6 X s 1662 440 m 4 X -6 Y 3 X -7 Y 2 X s 1671 427 m 3 X -7 Y 5 X -19 Y s 1679 401 m 5 X -7 Y 2 X -7 Y 2 X s 1688 387 m 8 X -6 Y 1 X s 1697 381 m -7 Y 4 X -6 Y 4 X -7 Y 1 X s 1706 361 m -7 Y 1 X -6 Y 4 X -7 Y 3 X -6 Y 1 X s 1715 335 m
 2 X -7 Y 6 X 3 Y s 1723 331 m 9 X s 1732 331 m 9 X s 1741 331 m 4 X -7 Y 1 X -7 Y 1 X 1 -6 d 2 X s 1750 311 m 7 X -7 Y 2 X -6 Y s 1759 298 m 5 X -4 Y 3 X s 1767 294 m 3 X -7 Y 2 X -7 Y 2 X -6 Y 2 X s 1776 274 m 9 X s 1785 274 m 9 X s 1794 274 m 4 X
 1 -7 d 4 X s 1803 267 m 8 X -6 Y 1 X s 1812 261 m 7 X -7 Y 1 X s 1820 254 m 6 X 1 -7 d 2 X s 1829 247 m 6 X 1 -6 d 2 X s 1838 241 m 9 X s 1847 241 m 1 X -7 Y 7 X -6 Y 1 X s 1856 228 m 8 X s 1864 228 m 9 X s 1873 228 m 9 X s 1882 228 m 9 X s 1891 228
 m 9 X s 1900 228 m 8 X s 1908 228 m 9 X s 1917 228 m 9 X s 1926 228 m 3 X -7 Y 6 X s 1935 221 m 9 X s 1944 221 m 4 X 1 -7 d 3 X s 1952 214 m 9 X s 1961 214 m 9 X s 1970 214 m 9 X s 1979 214 m 9 X s 1988 214 m 8 X s 1996 214 m 9 X s 2005 214 m 9 X s
 2014 214 m 1 X -6 Y 8 X s 2023 208 m 9 X s 2032 208 m 8 X s 2040 208 m 1 X s black[  ] 0 sd 3 lw 245 201 m 1796 X s
 gsave  2268 1676 0 0 C 830.485 30.3373 t 0 r /Helvetica-Bold findfont 72.0512 sf 0 0 m (Cut value applied on BDTDe output) show NC gr  316 241 m -40 Y s 392 221 m -20 Y s 468 221 m -20 Y s 543 221 m -20 Y s 619 241 m -40 Y s 695 221 m -20 Y s 771
 221 m -20 Y s 846 221 m -20 Y s 922 241 m -40 Y s 998 221 m -20 Y s 1074 221 m -20 Y s 1150 221 m -20 Y s 1225 241 m -40 Y s 1301 221 m -20 Y s 1377 221 m -20 Y s 1453 221 m -20 Y s 1528 241 m -40 Y s 1604 221 m -20 Y s 1680 221 m -20 Y s 1756 221 m
 -20 Y s 1831 241 m -40 Y s 316 241 m -40 Y s 1831 241 m -40 Y s 1907 221 m -20 Y s 1983 221 m -20 Y s
 gsave  2268 1676 0 0 C 284.413 128.934 t 0 r /Helvetica-Bold findfont 64.4669 sf 0 0 m (0.6) show NC gr 
 gsave  2268 1676 0 0 C 254.075 128.934 t 0 r /Symbol findfont 64.4669 sf 0 0 m (-) show NC gr 
 gsave  2268 1676 0 0 C 587.786 128.934 t 0 r /Helvetica-Bold findfont 64.4669 sf 0 0 m (0.4) show NC gr 
 gsave  2268 1676 0 0 C 553.657 128.934 t 0 r /Symbol findfont 64.4669 sf 0 0 m (-) show NC gr 
 gsave  2268 1676 0 0 C 891.159 128.934 t 0 r /Helvetica-Bold findfont 64.4669 sf 0 0 m (0.2) show NC gr 
 gsave  2268 1676 0 0 C 860.822 128.934 t 0 r /Symbol findfont 64.4669 sf 0 0 m (-) show NC gr 
 gsave  2268 1676 0 0 C 1205.91 128.934 t 0 r /Helvetica-Bold findfont 64.4669 sf 0 0 m (0) show NC gr 
 gsave  2268 1676 0 0 C 1482.74 128.934 t 0 r /Helvetica-Bold findfont 64.4669 sf 0 0 m (0.2) show NC gr 
 gsave  2268 1676 0 0 C 1782.32 128.934 t 0 r /Helvetica-Bold findfont 64.4669 sf 0 0 m (0.4) show NC gr  245 201 m 1140 Y s
 gsave  2268 1676 0 0 C 64.4669 731.888 t 90 r /Helvetica-Bold findfont 72.0512 sf 0 0 m (Efficiency \(Purity\)) show NC gr  291 201 m -46 X s 268 253 m -23 X s 268 305 m -23 X s 268 357 m -23 X s 291 408 m -46 X s 268 460 m -23 X s 268 512 m -23 X s
 268 564 m -23 X s 291 616 m -46 X s 268 667 m -23 X s 268 719 m -23 X s 268 771 m -23 X s 291 823 m -46 X s 268 875 m -23 X s 268 926 m -23 X s 268 978 m -23 X s 291 1030 m -46 X s 268 1082 m -23 X s 268 1134 m -23 X s 268 1185 m -23 X s 291 1237 m
 -46 X s 291 1237 m -46 X s 268 1289 m -23 X s 268 1341 m -23 X s
 gsave  2268 1676 0 0 C 182.024 178.232 t 0 r /Helvetica-Bold findfont 64.4669 sf 0 0 m (0) show NC gr 
 gsave  2268 1676 0 0 C 128.934 383.009 t 0 r /Helvetica-Bold findfont 64.4669 sf 0 0 m (0.2) show NC gr 
 gsave  2268 1676 0 0 C 125.142 591.578 t 0 r /Helvetica-Bold findfont 64.4669 sf 0 0 m (0.4) show NC gr 
 gsave  2268 1676 0 0 C 128.934 796.355 t 0 r /Helvetica-Bold findfont 64.4669 sf 0 0 m (0.6) show NC gr 
 gsave  2268 1676 0 0 C 125.142 1004.92 t 0 r /Helvetica-Bold findfont 64.4669 sf 0 0 m (0.8) show NC gr 
 gsave  2268 1676 0 0 C 189.608 1213.49 t 0 r /Helvetica-Bold findfont 64.4669 sf 0 0 m (1) show NC gr  0 0 0.933333 c[  52 12 ] 0 sd 6 lw 0.49 0.6 0.82 c black 0 0 0.933333 c 245 719 m 1 Y 9 X s 254 720 m 9 X s 263 720 m 8 X s 271 720 m 9 X s 280
 720 m 9 X s 289 720 m 2 X 1 Y 7 X s 298 721 m 9 X s 307 721 m 8 X s 315 721 m 9 X s 324 721 m 9 X s 333 721 m 1 X 1 1 d 1 X 1 Y 6 X s 342 723 m 3 X 1 Y 6 X s 351 724 m 7 X 1 Y 1 X s 359 725 m 1 X 1 Y 1 X 1 Y 7 X s 368 727 m 4 X 2 Y 1 X 1 1 d 1 Y 3 X
 s 377 731 m 1 X 1 Y 3 X 1 Y 4 X 1 Y 1 X s 386 734 m 1 Y 3 X 2 Y 1 X 1 1 d 2 Y 4 X s 395 740 m 6 X 1 Y 2 X 1 Y s 403 742 m 2 X 1 Y 2 X 1 Y 2 X 1 1 d 2 X s 412 745 m 1 X 1 Y 5 X 1 1 d 2 X s 421 747 m 4 X 2 Y 2 X 1 Y 3 X s 430 750 m 1 X 1 Y 2 X 1 1 d 1
 Y 5 X s 439 753 m 1 X 1 1 d 1 X 1 Y 3 X 1 Y 1 X 1 Y 1 X 2 Y s 447 759 m 3 X 1 1 d 1 X 2 Y 4 X s 456 762 m 1 Y 1 X 1 1 d 1 1 d 2 X 1 Y 4 X s 465 766 m 2 X 1 Y 1 X 1 Y 5 X 1 Y 1 X s 474 769 m 6 X 1 Y 3 X s 483 770 m 1 Y 3 X 1 1 d 1 X 1 Y 2 X 2 Y 1 X s
 491 775 m 1 X 1 Y 1 X 1 Y 4 X 1 Y 1 X 3 Y 1 X 1 Y 1 X s 500 782 m 1 X 1 Y 2 X 1 Y 1 X 1 Y 1 1 d 3 X 2 Y 1 X s 509 788 m 1 Y 3 X 1 Y 1 X 1 1 d 1 Y 2 X 1 Y 1 X 1 1 d s 518 794 m 3 X 1 Y 4 X 1 Y 1 X 1 Y 1 X s 527 797 m 1 Y 7 X 1 Y 1 1 d s 535 800 m 1 X
 1 Y 2 X 1 Y 2 X 1 Y 4 X 1 Y s 544 804 m 1 X 1 Y 1 X 1 2 d 1 Y 2 X 1 Y 4 X s 553 809 m 1 Y 1 X 2 Y 1 X 1 Y 2 X 1 Y 1 X 1 Y 1 X 2 Y 2 X 1 Y 1 X s 562 818 m 4 X 1 Y 1 X 1 1 d 1 Y 2 X 1 Y 1 X s 571 822 m 2 X 3 Y 6 X s 579 825 m 2 X 1 Y 3 X 1 Y 1 X 1 Y 1
 X 1 1 d 1 X s 588 829 m 3 X 1 Y 2 X 1 1 d 3 X s 597 831 m 1 X 2 Y 1 X 1 Y 3 X 1 Y 2 X 3 Y 1 X 2 Y 1 X s 606 840 m 2 X 1 Y 1 X 2 Y 5 X 2 Y 1 X s 615 845 m 8 X s 623 845 m 1 X 1 1 d 2 X 1 Y 1 X 1 1 d 2 Y 1 X 1 Y 2 X s 632 851 m 3 X 1 Y 2 X 1 Y 1 X 2 Y
 1 X 1 Y 2 X s 641 856 m 2 X 1 Y 1 X 1 Y 1 X 1 Y 5 X s 650 859 m 1 1 d 1 Y 1 1 d 2 X 2 Y 1 X 2 Y 2 X 1 Y 1 X 2 Y 1 X s 659 869 m 1 Y 1 X 1 2 d 1 1 d 1 1 d 1 X 2 Y 3 X s 667 876 m 1 X 1 Y 2 X 1 Y 1 X 1 Y 3 X 1 Y 1 X 1 1 d 1 Y s 676 882 m 2 X 2 Y 1 X 1
 Y 1 X 1 Y 3 X 2 Y 1 1 d 1 1 d s 685 890 m 2 Y 1 X 1 Y 4 X 1 2 d 2 Y 3 X s 694 897 m 2 X 2 Y 3 X 1 Y 4 X s 703 900 m 1 X 1 Y 1 X 1 Y 1 X 1 Y 3 X 2 Y 1 X 2 Y 1 X 1 Y s 711 908 m 4 X 2 Y 1 1 d 3 X 1 Y 1 X s 720 912 m 1 X 1 Y 5 X 2 Y 2 X 1 Y 1 X s 729
 916 m 1 Y 2 X 1 Y 3 X 3 Y 1 X 1 Y 1 1 d 2 X s 738 923 m -1 Y 1 Y 1 2 d 1 Y 2 X 2 Y 2 X 2 Y 1 X 1 1 d 3 Y 1 X 1 Y 1 X s 747 935 m 1 X 1 Y 2 X 2 Y 2 X 1 2 d 2 Y 2 X s 755 942 m 2 X 2 Y 4 X 2 Y 3 X s 764 946 m 2 X 3 Y 1 X 1 1 d 1 X 3 Y 3 X 1 Y 1 X s
 773 954 m 1 X 2 Y 2 X 2 Y 5 X 3 Y 1 X s 782 961 m 7 X 2 Y 2 X s 791 963 m 5 X 1 Y 1 2 d 2 X s 799 966 m 1 X 1 Y 1 X 1 1 d 2 X 2 Y 4 X 1 Y s 808 971 m 3 X 2 Y 2 X 1 Y 4 X 2 Y s 817 976 m 1 1 d 2 Y 6 X 4 Y 2 X s 826 983 m 2 Y 1 X 1 Y 2 X 2 Y 1 1 d 2 X
 1 2 d 1 X 1 Y 1 X s 835 992 m 2 X 2 Y 3 X 2 Y 3 X s 843 996 m 1 X 1 Y 1 X 2 Y 2 X 1 Y 1 X 2 Y 1 X 1 1 d 2 Y 2 X 2 Y s 852 1007 m 1 X 1 Y 1 X 2 Y 1 X 1 Y 4 X 2 Y 2 X 2 Y s 861 1015 m 1 X 1 Y 5 X 2 Y 1 X 2 Y 1 X 1 Y 1 X s 870 1021 m 1 X 2 Y 1 X 2 Y 5
 X 1 Y 2 X s 879 1026 m 1 X 1 2 d 1 X 2 Y 1 X 1 1 d 1 X 1 2 d 2 Y 1 X 1 Y s 887 1036 m 1 X 2 Y 2 X 2 Y 6 X s 896 1040 m 3 X 2 Y 5 X 3 Y 1 X 2 Y s 905 1047 m 1 2 d 8 X s 914 1049 m 1 X 1 Y 3 X 1 2 d 1 X 2 Y 1 X 2 Y 1 X 2 Y 1 X s 923 1058 m 6 X 1 Y 2 X
 s 931 1059 m 4 X 1 1 d 3 X 2 Y 1 X s 940 1062 m 4 X 2 Y 5 X s 949 1064 m 1 X 6 Y 2 X 1 Y 1 X 2 Y 4 X 2 Y 1 X s 958 1075 m 1 -1 d 1 X 2 Y 1 X 2 Y 1 X 2 Y 2 X 2 Y 3 X s 967 1082 m 2 X 2 Y 1 X -1 Y 1 X 2 Y 4 X s 975 1085 m 6 X 1 2 d 2 X s 984 1087 m 1
 X 1 2 d 7 X s 993 1089 m 3 X -1 Y 3 X 2 Y 3 X s 1002 1090 m 2 Y 5 X 2 Y 1 X 2 Y 3 X s 1011 1096 m 8 X 2 Y s 1019 1098 m 2 X 1 2 d 3 X 2 Y 3 X 2 Y s 1028 1104 m 9 X s 1037 1104 m 1 3 d 1 X 1 2 d 5 X 2 Y 1 X s 1046 1111 m 2 X 2 Y 4 X 2 Y 1 X 1 -1 d 1
 X s 1055 1114 m 4 X 2 Y 1 X 1 2 d 2 X s 1063 1118 m 9 X s 1072 1118 m 1 X 3 Y 1 X 2 Y 3 X 2 Y 4 X s 1081 1125 m 3 X 2 Y 2 X 2 Y 1 3 d 2 Y 1 X 1 1 d 1 X s 1090 1135 m 6 X 3 Y 2 X 2 Y 1 X s 1099 1140 m 3 X -1 Y 1 X 3 Y 4 X 2 Y s 1107 1144 m 1 X 2 Y 6
 X 2 Y 2 X s 1116 1148 m 6 X 1 2 d 2 X s 1125 1150 m 4 X -1 Y 5 X s 1134 1149 m 7 X 2 Y 2 X s 1143 1151 m 3 X -1 Y 4 X 3 Y 1 X s 1151 1153 m 2 X -1 Y 7 X s 1160 1152 m 4 X 1 2 d 4 X s 1169 1154 m 7 X -1 Y 1 3 d 2 Y 1 X s 1178 1158 m 9 X s 1187 1158 m
 3 Y 8 X s 1195 1161 m 7 X -1 Y 2 X s 1204 1160 m 6 X 3 Y 3 X s 1213 1163 m 9 X s 1222 1163 m 2 Y 9 X s 1231 1165 m 1 X 3 Y 7 X s 1239 1168 m 9 X s 1248 1168 m 6 X 2 Y 3 X s 1257 1170 m 9 X s 1266 1170 m 3 Y 9 X s 1275 1173 m 2 X 2 Y 1 X 3 Y 5 X s
 1283 1178 m 9 X s 1292 1178 m 3 Y 5 X -1 Y 4 X s 1301 1180 m 9 X s 1310 1180 m 1 X -1 Y 6 X -1 Y 1 X 3 Y 1 X s 1319 1181 m 6 X 2 Y 2 X s 1327 1183 m 9 X s 1336 1183 m 3 X -1 Y 1 X -1 Y 5 X s 1345 1181 m 5 X -1 Y 4 X s 1354 1180 m 1 X 3 Y 2 X -1 Y 6
 X s 1363 1182 m 1 -1 d 4 X -1 Y 3 X s 1371 1180 m 3 X -1 Y 6 X 4 Y s 1380 1183 m 2 X -1 Y 4 X -1 Y 1 X 1 4 d 1 X s 1389 1185 m 4 X 1 3 d 3 X 3 Y 1 X s 1398 1191 m 4 X 1 3 d 4 X s 1407 1194 m 3 X 3 Y 5 X s 1415 1197 m 1 X -1 Y 8 X s 1424 1196 m 2 X 4
 Y -1 Y 7 X s 1433 1199 m 6 X 1 -1 d 1 X 4 Y 1 X s 1442 1202 m 3 X -1 Y 6 X s 1451 1201 m 8 X s 1459 1201 m 9 X s 1468 1201 m 4 X 4 Y 4 X 1 -1 d s 1477 1204 m 9 X s 1486 1204 m 2 X -1 Y 7 X s 1495 1203 m 1 X -1 Y 6 X -1 Y 1 X s 1503 1201 m 2 X 4 Y 7
 X s 1512 1205 m 5 X 1 -1 d 2 X -1 Y 1 X s 1521 1203 m 1 5 d 3 X 1 -1 d 4 X s 1530 1207 m 6 X -1 Y 3 X s 1539 1206 m 1 X 5 Y 2 X -1 Y 5 X s 1547 1210 m 9 X s 1556 1210 m 4 X -1 Y 3 X -1 Y 2 X s 1565 1208 m 5 X -1 Y 4 X s 1574 1207 m 7 X -1 Y 2 X s
 1583 1206 m 7 X -1 Y 1 X s 1591 1205 m 2 X -1 Y 4 X 6 Y 3 X 7 Y s 1600 1217 m 1 X -1 Y 8 X s 1609 1216 m 5 X -1 Y 4 X s 1618 1215 m 3 X -1 Y 1 X -1 Y 5 X s 1627 1213 m 1 8 d 1 -1 d 6 X s 1635 1220 m 7 X -1 Y 2 X s 1644 1219 m 6 X -1 Y 2 X -1 Y 1 X s
 1653 1217 m 3 X -1 Y 6 X s 1662 1216 m 4 X -1 Y 3 X -1 Y 2 X s 1671 1214 m 8 X -3 Y s 1679 1211 m 7 X -1 Y 2 X s 1688 1210 m 8 X -1 Y 1 X s 1697 1209 m -1 Y 4 X -1 Y 4 X -2 Y 1 X s 1706 1205 m -1 Y 1 X -1 Y 4 X -2 Y 3 X -1 Y 1 X s 1715 1200 m 2 X -2
 Y 6 X 19 Y s 1723 1217 m 9 X s 1732 1217 m 9 X s 1741 1217 m 4 X -1 Y 1 X -1 Y 1 X 1 -1 d 2 X s 1750 1214 m 7 X -2 Y 2 X -1 Y s 1759 1211 m 5 X 26 Y 3 X s 1767 1237 m 9 X s 1776 1237 m 9 X s 1785 1237 m 9 X s 1794 1237 m 9 X s 1803 1237 m 9 X s 1812
 1237 m 8 X s 1820 1237 m 9 X s 1829 1237 m 9 X s 1838 1237 m 9 X s 1847 1237 m 9 X s 1856 1237 m 8 X s 1864 1237 m 9 X s 1873 1237 m 9 X s 1882 1237 m 9 X s 1891 1237 m 9 X s 1900 1237 m 8 X s 1908 1237 m 9 X s 1917 1237 m 9 X s 1926 1237 m 9 X s
 1935 1237 m 9 X s 1944 1237 m 8 X s 1952 1237 m 9 X s 1961 1237 m 9 X s 1970 1237 m 9 X s 1979 1237 m 9 X s 1988 1237 m 8 X s 1996 1237 m 9 X s 2005 1237 m 9 X s 2014 1237 m 9 X s 2023 1237 m 9 X s 2032 1237 m 8 X s 2040 1237 m 1 X s[  ] 0 sd 9 lw
 0.49 0.6 0.82 c black 0 0 0.933333 c 245 1237 m 9 X s 254 1237 m 9 X s 263 1237 m 8 X s 271 1237 m 9 X s 280 1237 m 9 X s 289 1237 m 9 X s 298 1237 m 9 X s 307 1237 m 8 X s 315 1237 m 9 X s 324 1237 m 9 X s 333 1237 m 9 X s 342 1237 m 9 X s 351 1237
 m 8 X s 359 1237 m 9 X s 368 1237 m 9 X s 377 1237 m 9 X s 386 1237 m 9 X s 395 1237 m 8 X s 403 1237 m 9 X s 412 1237 m 9 X s 421 1237 m 9 X s 430 1237 m 9 X s 439 1237 m 8 X s 447 1237 m 9 X s 456 1237 m 9 X s 465 1237 m 9 X s 474 1237 m 9 X s 483
 1237 m 8 X s 491 1237 m 9 X s 500 1237 m 9 X s 509 1237 m 9 X s 518 1237 m 9 X s 527 1237 m 8 X s 535 1237 m 9 X s 544 1237 m 9 X s 553 1237 m 9 X s 562 1237 m 9 X s 571 1237 m 8 X s 579 1237 m 9 X s 588 1237 m 9 X s 597 1237 m 9 X s 606 1237 m 9 X
 s 615 1237 m 8 X s 623 1237 m 9 X s 632 1237 m 9 X s 641 1237 m 9 X s 650 1237 m 9 X s 659 1237 m 8 X s 667 1237 m 8 X -6 Y 1 X s 676 1231 m 9 X s 685 1231 m 9 X s 694 1231 m 9 X s 703 1231 m 8 X s 711 1231 m 9 X s 720 1231 m 9 X s 729 1231 m 9 X s
 738 1231 m -7 Y 9 X s 747 1224 m 8 X s 755 1224 m 9 X s 764 1224 m 9 X s 773 1224 m 9 X s 782 1224 m 9 X s 791 1224 m 8 X s 799 1224 m 9 X s 808 1224 m 9 X s 817 1224 m 9 X s 826 1224 m 9 X s 835 1224 m 8 X s 843 1224 m 9 X s 852 1224 m 9 X s 861
 1224 m 9 X s 870 1224 m 9 X s 879 1224 m 8 X s 887 1224 m 9 X s 896 1224 m 9 X s 905 1224 m 9 X s 914 1224 m 9 X s 923 1224 m 6 X 1 -7 d 1 X s 931 1217 m 9 X s 940 1217 m 9 X s 949 1217 m 9 X s 958 1217 m 1 -6 d 8 X s 967 1211 m 3 X -7 Y 5 X s 975
 1204 m 9 X s 984 1204 m 9 X s 993 1204 m 3 X -6 Y 6 X s 1002 1198 m 9 X s 1011 1198 m 8 X s 1019 1198 m 9 X s 1028 1198 m 9 X s 1037 1198 m 9 X s 1046 1198 m 7 X 1 -7 d 1 X s 1055 1191 m 8 X s 1063 1191 m 9 X s 1072 1191 m 9 X s 1081 1191 m 7 X 1 -7
 d 1 X s 1090 1184 m 9 X s 1099 1184 m 3 X -6 Y 5 X s 1107 1178 m 4 X -7 Y 5 X s 1116 1171 m 8 X -6 Y 1 X s 1125 1165 m 4 X -7 Y 5 X s 1134 1158 m 3 X -7 Y 6 X s 1143 1151 m 3 X -6 Y 5 X s 1151 1145 m 2 X -7 Y 5 X -6 Y 2 X s 1160 1132 m 5 X 1 -7 d 3
 X s 1169 1125 m 7 X -7 Y 2 X s 1178 1118 m 9 X s 1187 1118 m 8 X s 1195 1118 m 7 X -6 Y 2 X s 1204 1112 m 9 X s 1213 1112 m 9 X s 1222 1112 m 9 X s 1231 1112 m 8 X s 1239 1112 m 9 X s 1248 1112 m 9 X s 1257 1112 m 9 X s 1266 1112 m 1 X -7 Y 8 X s
 1275 1105 m 8 X s 1283 1105 m 9 X s 1292 1105 m 5 X -6 Y 4 X s 1301 1099 m 9 X -7 Y s 1310 1092 m 1 X -6 Y 4 X 1 -7 d 1 -7 d -6 Y 2 X s 1319 1066 m -7 Y 7 X -13 Y 1 X s 1327 1046 m 9 X s 1336 1046 m 3 X -7 Y 1 X -13 Y 4 X -6 Y 1 X s 1345 1020 m 5 X
 -7 Y 1 X -7 Y 3 X s 1354 1006 m 2 X -6 Y 1 X -7 Y 3 X 1 -6 d 2 X s 1363 987 m 1 -14 d 4 X -6 Y 3 X -7 Y s 1371 960 m 3 X -6 Y 6 X s 1380 954 m 2 X -7 Y 1 X -7 Y 3 X -6 Y 3 X s 1389 934 m 9 X s 1398 934 m 3 X -7 Y 6 X s 1407 927 m 1 X 1 -6 d -7 Y 4 X
 -7 Y 2 X s 1415 907 m 1 X -6 Y 8 X s 1424 901 m 1 X -7 Y 1 X -6 Y 5 X 1 -7 d -7 Y 1 X s 1433 874 m 6 X 1 -6 d 2 X s 1442 868 m 2 X 1 -7 d -6 Y 6 X s 1451 855 m 1 X 1 -7 d 6 X s 1459 848 m 9 X s 1468 848 m 8 X 1 -7 d s 1477 841 m 3 X -6 Y 5 X -7 Y 1
 X s 1486 828 m 2 X -6 Y 1 X -7 Y 6 X s 1495 815 m 1 -7 d -6 Y 2 X 1 -7 d 1 X -6 Y 2 X -7 Y 1 X s 1503 782 m 1 X -7 Y 2 X -6 Y 3 X -7 Y 3 X s 1512 762 m 5 X 1 -6 d 1 X 1 -7 d -7 Y 1 X s 1521 742 m 3 X -6 Y 1 X 1 -7 d -6 Y 4 X s 1530 723 m 1 X 1 -7 d
 4 X -7 Y 3 X s 1539 709 m 1 -6 d 1 X 1 -7 d -6 Y 5 X s 1547 690 m 1 X -7 Y 8 X -7 Y s 1556 676 m 4 X -6 Y 2 X 1 -7 d -6 Y 2 X s 1565 657 m 2 X -7 Y 2 X -7 Y 1 X -6 Y 1 X -7 Y 3 X s 1574 630 m 7 X -6 Y 2 X s 1583 624 m 5 X -7 Y 2 X -7 Y 1 X s 1591
 610 m 2 X -13 Y 3 X -6 Y 4 X s 1600 591 m 1 X -7 Y 1 X -7 Y 7 X s 1609 577 m 1 X 1 -6 d 3 X -7 Y 1 X -6 Y 3 X s 1618 558 m 1 X -7 Y 2 X -7 Y 1 X -13 Y 4 X -6 Y 1 X s 1627 525 m 1 X 1 -7 d 6 X s 1635 518 m 3 X -7 Y 1 X -6 Y 3 X -7 Y 2 X s 1644 498 m
 2 X -6 Y 1 X -7 Y 3 X -7 Y 2 X -13 Y 1 X s 1653 465 m 2 X -6 Y 1 X -14 Y 6 X s 1662 445 m 4 X -6 Y 3 X -7 Y 2 X s 1671 432 m 3 X -6 Y 5 X -20 Y s 1679 406 m 5 X -7 Y 2 X -6 Y 2 X s 1688 393 m 8 X -7 Y 1 X s 1697 386 m -7 Y 4 X -6 Y 4 X -7 Y 1 X s
 1706 366 m -6 Y 1 X -7 Y 4 X -7 Y 3 X -6 Y 1 X s 1715 340 m 2 X -7 Y 6 X s 1723 333 m 9 X s 1732 333 m 9 X s 1741 333 m 4 X -6 Y 1 X -7 Y 1 X 1 -7 d 2 X s 1750 313 m 7 X -6 Y 2 X -7 Y s 1759 300 m 5 X -6 Y 3 X s 1767 294 m 3 X -7 Y 2 X -7 Y 2 X -6 Y
 2 X s 1776 274 m 9 X s 1785 274 m 9 X s 1794 274 m 4 X 1 -7 d 4 X s 1803 267 m 8 X -6 Y 1 X s 1812 261 m 7 X -7 Y 1 X s 1820 254 m 6 X 1 -7 d 2 X s 1829 247 m 6 X 1 -6 d 2 X s 1838 241 m 9 X s 1847 241 m 1 X -7 Y 7 X -6 Y 1 X s 1856 228 m 8 X s 1864
 228 m 9 X s 1873 228 m 9 X s 1882 228 m 9 X s 1891 228 m 9 X s 1900 228 m 8 X s 1908 228 m 9 X s 1917 228 m 9 X s 1926 228 m 3 X -7 Y 6 X s 1935 221 m 9 X s 1944 221 m 4 X 1 -7 d 3 X s 1952 214 m 9 X s 1961 214 m 9 X s 1970 214 m 9 X s 1979 214 m 9
 X s 1988 214 m 8 X s 1996 214 m 9 X s 2005 214 m 9 X s 2014 214 m 1 X -6 Y 8 X s 2023 208 m 9 X s 2032 208 m 8 X s 2040 208 m 1 X s 1 0 0 c black 1 0 0 c 245 1237 m -2 Y 9 X s 254 1235 m 9 X s 263 1235 m 8 X s 271 1235 m 9 X s 280 1235 m 9 X s 289
 1235 m 2 X -3 Y 7 X s 298 1232 m 9 X s 307 1232 m 8 X s 315 1232 m 3 X -3 Y 6 X s 324 1229 m 9 X s 333 1229 m 1 X 1 -2 d 1 X -3 Y 6 X s 342 1224 m 2 X 1 -2 d -3 Y 6 X s 351 1219 m 7 X -3 Y 1 X -2 Y s 359 1214 m 1 X -3 Y 1 X -2 Y 7 X -3 Y s 368 1206
 m 4 X -5 Y 1 X -3 Y 1 -3 d -2 Y 3 X s 377 1193 m 1 X -5 Y 3 X -3 Y 3 X -3 Y 1 X -2 Y 1 X s 386 1180 m -3 Y 1 X -3 Y 2 X -5 Y 1 X 1 -2 d -8 Y 4 X s 395 1159 m -3 Y 6 X -2 Y 2 X -3 Y s 403 1151 m 1 X -3 Y 1 X -2 Y 2 X -3 Y 2 X 1 -3 d 1 X -2 Y 1 X s
 412 1138 m 1 X -3 Y 5 X 1 -2 d -3 Y 2 X s 421 1130 m 4 X -5 Y 2 X -3 Y 3 X s 430 1122 m -2 Y 1 X -3 Y 2 X 1 -3 d -2 Y 3 X 1 -3 d 1 X s 439 1109 m 1 X 1 -3 d 1 X -2 Y 3 X -3 Y 1 X -5 Y 1 X -8 Y s 447 1088 m 3 X 1 -2 d 1 X -6 Y 2 X -2 Y 2 X s 456 1078
 m -3 Y 1 X 1 -3 d 1 -2 d 2 X -3 Y 1 X 1 -2 d 2 X s 465 1065 m 2 X -3 Y 1 X -3 Y 5 X -2 Y 1 X s 474 1057 m -3 Y 6 X -2 Y 3 X s 483 1052 m -3 Y 3 X 1 -3 d 1 X -2 Y 1 X -3 Y 1 X -5 Y 1 X s 491 1036 m 1 X -3 Y 1 X -2 Y 1 X -3 Y 3 X -3 Y 1 X -7 Y 1 X -3
 Y 1 X s 500 1015 m 1 X -5 Y 2 X -3 Y 1 X -3 Y 1 -2 d 2 X -3 Y 1 X -5 Y 1 X s 509 994 m -3 Y 3 X -2 Y 1 X 1 -3 d -3 Y 1 X -2 Y 1 X -3 Y 1 X 1 -2 d s 518 976 m 3 X -3 Y 4 X -3 Y 1 X -2 Y 1 X s 527 968 m -3 Y 3 X -2 Y 4 X -3 Y 1 -3 d s 535 957 m 1 X -2
 Y 2 X -3 Y 2 X -3 Y 4 X -2 Y s 544 947 m 1 X -3 Y 1 X -2 Y 1 -6 d -2 Y 2 X -3 Y 4 X s 553 931 m -2 Y 1 X -6 Y 1 X -2 Y 2 X -6 Y 1 X -2 Y 1 X -5 Y 2 X -3 Y 1 X s 562 905 m 4 X -3 Y 1 X 1 -2 d -3 Y 2 X -2 Y 1 X s 571 895 m 2 X -8 Y 6 X s 579 887 m 2 X
 -3 Y 3 X -3 Y 1 X -2 Y 1 X 1 -3 d 1 X s 588 876 m 1 X -2 Y 2 X -3 Y 2 X 1 -3 d 3 X s 597 868 m 1 X -5 Y 1 X -2 Y 3 X -3 Y 2 X -8 Y 1 X -5 Y 1 X s 606 845 m 2 X -3 Y 1 X -5 Y 5 X -5 Y 1 X s 615 832 m 8 X s 623 832 m 1 X 1 -3 d 2 X -3 Y 1 X 1 -2 d -5
 Y 1 X -3 Y 2 X s 632 816 m 3 X -3 Y 2 X -2 Y 1 X -3 Y 1 X -2 Y 2 X s 641 806 m 2 X -3 Y 1 X -3 Y 1 X -2 Y 5 X s 650 798 m 1 -3 d -3 Y 1 -2 d 2 X -5 Y 1 X -6 Y 2 X -2 Y 1 X -5 Y 1 X s 659 772 m -3 Y 1 X 1 -3 d 1 -2 d 1 -3 d 1 X -5 Y 3 X s 667 756 m 1
 X -3 Y 2 X -2 Y 1 X -3 Y 3 X -3 Y 1 X -2 Y 1 -3 d -2 Y s 676 738 m 2 X -3 Y 1 X -3 Y 1 X -2 Y 3 X -6 Y 1 -2 d 1 -3 d s 685 719 m -2 Y 1 X -3 Y 4 X 1 -5 d -5 Y 3 X s 694 704 m 2 X -3 Y 3 X -3 Y 4 X s 703 698 m 1 X -2 Y 1 X -3 Y 1 X -3 Y 3 X -2 Y 1 X
 -5 Y 1 X -3 Y s 711 680 m 4 X -3 Y 1 -2 d 3 X -3 Y 1 X s 720 672 m 1 X -2 Y 5 X -3 Y 2 X -3 Y 1 X s 729 664 m -2 Y 2 X -3 Y 3 X -5 Y 1 X -3 Y 1 -2 d 2 X s 738 649 m -3 Y 1 -3 d -2 Y 2 X -6 Y 2 X -2 Y 1 X 1 -3 d -5 Y 1 X -3 Y 1 X s 747 622 m 1 X -2 Y
 2 X -3 Y 2 X 1 -5 d -3 Y 2 X s 755 609 m 2 X -5 Y 4 X -3 Y 3 X s 764 601 m 2 X -5 Y 1 X 1 -2 d 1 X -6 Y 3 X -2 Y 1 X s 773 586 m 1 X -3 Y 2 X -5 Y 5 X -5 Y 1 X s 782 573 m 7 X -3 Y 2 X s 791 570 m 5 X -3 Y 1 -2 d 2 X s 799 565 m 1 X -3 Y 1 X 1 -2 d
 2 X -3 Y 4 X -3 Y s 808 554 m 3 X -2 Y 2 X -3 Y 4 X -2 Y s 817 547 m 1 -3 d -3 Y 6 X -8 Y 2 X s 826 533 m -2 Y 1 X -3 Y 2 X -2 Y 1 -3 d 2 X 1 -3 d 1 X -2 Y 1 X s 835 518 m 2 X -3 Y 3 X -2 Y 3 X s 843 513 m 1 X -3 Y 1 X -3 Y 2 X -2 Y 1 X -3 Y 1 X 1
 -3 d -2 Y 2 X -3 Y s 852 494 m 1 X -2 Y 1 X -3 Y 1 X -3 Y 4 X -2 Y 2 X -3 Y s 861 481 m 1 X -3 Y 5 X -2 Y 1 X -3 Y 1 X -2 Y 1 X s 870 471 m 1 X -3 Y 1 X -3 Y 5 X -2 Y 2 X s 879 463 m 1 X 1 -3 d 1 X -2 Y 1 X 1 -3 d 1 X 1 -3 d -2 Y 1 X -3 Y s 887 447
 m 1 X -3 Y 2 X -2 Y 6 X s 896 442 m 3 X -3 Y 5 X -5 Y 1 X -3 Y s 905 431 m 1 -2 d 8 X s 914 429 m 1 X -3 Y 3 X 1 -2 d 1 X -3 Y 1 X -3 Y 1 X -2 Y 1 X s 923 416 m 6 X -3 Y 2 X s 931 413 m 4 X 1 -3 d 3 X -2 Y 1 X s 940 408 m 4 X -3 Y 5 X s 949 405 m 1
 X -8 Y 2 X -2 Y 1 X -3 Y 4 X -2 Y 1 X s 958 390 m 2 X -3 Y 1 X -3 Y 1 X -2 Y 2 X -3 Y 3 X s 967 379 m 2 X -3 Y 2 X -2 Y 4 X s 975 374 m 6 X 1 -3 d 2 X s 984 371 m 1 X 1 -2 d 7 X s 993 369 m 6 X -3 Y 3 X s 1002 366 m -3 Y 5 X -2 Y 1 X -3 Y 3 X s 1011
 358 m 8 X -2 Y s 1019 356 m 2 X 1 -3 d 3 X -3 Y 3 X -2 Y s 1028 348 m 9 X s 1037 348 m 1 -3 d 1 X 1 -3 d 5 X -2 Y 1 X s 1046 340 m 2 X -3 Y 4 X -2 Y 3 X s 1055 335 m 4 X -3 Y 1 X 1 -3 d 2 X s 1063 329 m 9 X s 1072 329 m 1 X -2 Y 1 X -3 Y 3 X -3 Y 4
 X s 1081 321 m 3 X -2 Y 2 X -3 Y 1 -2 d -3 Y 1 X 1 -3 d 1 X s 1090 308 m 6 X -2 Y 2 X -3 Y 1 X s 1099 303 m 4 X -2 Y 4 X -3 Y s 1107 298 m 1 X -3 Y 6 X -2 Y 2 X s 1116 293 m 6 X 1 -3 d 2 X s 1125 290 m 9 X s 1134 290 m 7 X -3 Y 2 X s 1143 287 m 7 X
 -2 Y 1 X s 1151 285 m 9 X s 1160 285 m 4 X 1 -3 d 4 X s 1169 282 m 7 X 1 -2 d -3 Y 1 X s 1178 277 m 9 X s 1187 277 m -3 Y 8 X s 1195 274 m 9 X s 1204 274 m 6 X -2 Y 3 X s 1213 272 m 9 X s 1222 272 m -3 Y 9 X s 1231 269 m 1 X -2 Y 7 X s 1239 267 m 9
 X s 1248 267 m 6 X -3 Y 3 X s 1257 264 m 9 X s 1266 264 m -3 Y 9 X s 1275 261 m 2 X -2 Y 1 X -3 Y 5 X s 1283 256 m 9 X s 1292 256 m -3 Y 9 X s 1301 253 m 9 X s 1310 253 m 8 X -2 Y 1 X s 1319 251 m 6 X -3 Y 2 X s 1327 248 m 9 X s 1336 248 m 9 X s
 1345 248 m 9 X s 1354 248 m 1 X -2 Y 8 X s 1363 246 m 8 X s 1371 246 m 9 X -3 Y s 1380 243 m 7 X 1 -3 d 1 X s 1389 240 m 4 X 1 -2 d 3 X -3 Y 1 X s 1398 235 m 4 X 1 -2 d 4 X s 1407 233 m 3 X -3 Y 5 X s 1415 230 m 9 X s 1424 230 m 2 X -3 Y 7 X s 1433
 227 m 8 X -2 Y 1 X s 1442 225 m 9 X s 1451 225 m 8 X s 1459 225 m 9 X s 1468 225 m 4 X -3 Y 5 X s 1477 222 m 9 X s 1486 222 m 9 X s 1495 222 m 8 X s 1503 222 m 2 X -3 Y 7 X s 1512 219 m 9 X s 1521 219 m 1 -2 d 8 X s 1530 217 m 9 X s 1539 217 m 1 X
 -3 Y 7 X s 1547 214 m 9 X s 1556 214 m 9 X s 1565 214 m 9 X s 1574 214 m 9 X s 1583 214 m 8 X s 1591 214 m 6 X -2 Y 3 X -3 Y s 1600 209 m 9 X s 1609 209 m 9 X s 1618 209 m 9 X s 1627 209 m 1 -3 d 7 X s 1635 206 m 9 X s 1644 206 m 9 X s 1653 206 m 9
 X s 1662 206 m 9 X s 1671 206 m 8 X s 1679 206 m 9 X s 1688 206 m 9 X s 1697 206 m 9 X s 1706 206 m 9 X s 1715 206 m 8 X -2 Y s 1723 204 m 9 X s 1732 204 m 9 X s 1741 204 m 9 X s 1750 204 m 9 X s 1759 204 m 5 X -3 Y 3 X s 1767 201 m 9 X s 1776 201 m
 9 X s 1785 201 m 9 X s 1794 201 m 9 X s 1803 201 m 9 X s 1812 201 m 8 X s 1820 201 m 9 X s 1829 201 m 9 X s 1838 201 m 9 X s 1847 201 m 9 X s 1856 201 m 8 X s 1864 201 m 9 X s 1873 201 m 9 X s 1882 201 m 9 X s 1891 201 m 9 X s 1900 201 m 8 X s 1908
 201 m 9 X s 1917 201 m 9 X s 1926 201 m 9 X s 1935 201 m 9 X s 1944 201 m 8 X s 1952 201 m 9 X s 1961 201 m 9 X s 1970 201 m 9 X s 1979 201 m 9 X s 1988 201 m 8 X s 1996 201 m 9 X s 2005 201 m 9 X s 2014 201 m 9 X s 2023 201 m 9 X s 2032 201 m 8 X s
 2040 201 m 1 X s 0 0.666667 0 c 1 1 1 c black 0 0.666667 0 c 245 991 m 1 Y 9 X s 254 992 m 9 X s 263 992 m 8 X s 271 992 m 9 X s 280 992 m 9 X s 289 992 m 9 X s 298 992 m 9 X s 307 992 m 8 X s 315 992 m 3 X 1 Y 6 X s 324 993 m 9 X s 333 993 m 3 X 1
 Y 6 X s 342 994 m 3 X 1 Y 6 X s 351 995 m 8 X 1 Y s 359 996 m 2 X 1 Y 7 X s 368 997 m 4 X 1 Y 1 X 1 Y 1 X 1 Y 3 X s 377 1000 m 1 X 1 Y 6 X 1 Y 2 X s 386 1002 m 1 Y 3 X 2 Y 2 X 2 Y 4 X s 395 1007 m 6 X 1 Y 2 X s 403 1008 m 1 X 1 Y 3 X 1 Y 4 X 1 Y 1 X
 s 412 1011 m 6 X 1 1 d 1 Y 2 X s 421 1013 m 4 X 1 Y 5 X s 430 1014 m 1 Y 3 X 1 1 d 3 X 1 1 d 1 X s 439 1017 m 3 X 1 Y 3 X 1 Y 1 X 1 Y 1 X 1 Y s 447 1021 m 3 X 1 1 d 1 X 1 Y 2 X 1 Y 2 X s 456 1024 m 1 X 1 1 d 3 X 1 Y 4 X s 465 1026 m 2 X 1 Y 6 X 1 Y
 1 X s 474 1028 m 1 Y 9 X s 483 1029 m 1 Y 5 X 1 Y 1 X 1 Y 1 X 1 Y 1 X s 491 1033 m 2 X 1 Y 4 X 1 Y 1 X 2 Y 2 X s 500 1037 m 1 X 2 Y 3 X 1 Y 3 X 1 Y 1 X 1 Y 1 X s 509 1042 m 1 Y 4 X 1 1 d 1 Y 2 X 1 Y 2 X s 518 1046 m 3 X 1 Y 4 X 1 Y 2 X s 527 1048 m
 1 Y 7 X 1 Y 1 1 d s 535 1051 m 3 X 1 Y 2 X 1 Y 4 X s 544 1053 m 1 X 1 Y 1 X 1 2 d 2 X 1 Y 4 X s 553 1057 m 1 Y 1 X 1 Y 1 X 1 Y 2 X 1 Y 2 X 2 Y 3 X s 562 1063 m 4 X 1 Y 1 X 1 1 d 2 X 1 Y 1 X s 571 1066 m 2 X 2 Y 6 X s 579 1068 m 2 X 1 Y 4 X 1 Y 1 X 1
 1 d 1 X s 588 1071 m 3 X 1 Y 2 X 1 1 d 3 X s 597 1073 m 1 X 1 Y 1 X 1 Y 5 X 2 Y 1 X 2 Y 1 X s 606 1079 m 3 X 2 Y 5 X 1 Y 1 X s 615 1082 m 8 X s 623 1082 m 1 X 1 1 d 2 X 1 Y 2 X 2 Y 3 X s 632 1086 m 3 X 1 Y 2 X 1 Y 2 X 1 Y 2 X s 641 1089 m 2 X 1 Y 1
 X 1 Y 6 X s 650 1091 m 1 1 d 1 Y 3 X 2 Y 1 X 1 Y 2 X 1 Y 1 X 1 Y 1 X s 659 1098 m 1 Y 1 X 1 1 d 1 1 d 2 X 2 Y 3 X s 667 1103 m 1 X 1 Y 3 X 1 Y 3 X 1 Y 1 X -3 Y 1 X 1 Y s 676 1104 m 2 X 1 Y 1 X 1 Y 1 X 1 Y 3 X 1 Y 1 1 d 1 1 d s 685 1110 m 1 X 1 Y 4 X
 1 2 d 1 Y 3 X s 694 1114 m 2 X 1 Y 3 X 1 Y 4 X s 703 1116 m 1 X 1 Y 2 X 1 Y 3 X 1 Y 1 X 2 Y 1 X s 711 1121 m 4 X 1 Y 1 1 d 3 X 1 Y 1 X s 720 1124 m 1 X 1 Y 7 X 1 Y 1 X s 729 1126 m 1 Y 2 X 1 Y 3 X 1 Y 1 X 1 Y 1 1 d 2 X s 738 1131 m -4 Y 1 Y 1 1 d 1
 Y 2 X 1 Y 2 X 1 Y 1 X 1 1 d 2 Y 1 X 1 Y 1 X s 747 1136 m 3 X 1 Y 2 X 1 2 d 1 Y 2 X s 755 1140 m 2 X 1 Y 4 X 1 Y 3 X s 764 1142 m 2 X 2 Y 1 X 1 1 d 1 X 2 Y 3 X 1 Y 1 X s 773 1148 m 3 X 2 Y 5 X 2 Y 1 X s 782 1152 m 7 X 1 Y 2 X s 791 1153 m 5 X 1 Y 1 1
 d 2 X s 799 1155 m 1 X 1 Y 1 X 1 1 d 6 X 1 Y s 808 1158 m 3 X 1 Y 2 X 1 Y 4 X 1 Y s 817 1161 m 1 1 d 1 Y 6 X 3 Y 2 X s 826 1166 m 1 Y 1 X 1 Y 2 X 1 1 d 2 X 1 1 d 1 X 1 Y 1 X s 835 1171 m 2 X 1 Y 3 X 1 Y 3 X s 843 1173 m 1 X 1 Y 1 X 1 Y 2 X 1 Y 1 X 1
 Y 1 X 1 1 d 1 Y 2 X 1 Y s 852 1180 m 1 X 1 Y 1 X 1 Y 1 X 1 Y 4 X 1 Y 2 X 1 Y s 861 1185 m 1 X 1 Y 5 X 1 Y 1 X 1 Y 1 X 1 Y 1 X s 870 1189 m 1 X 1 Y 1 X 1 Y 5 X 1 Y 2 X s 879 1192 m 1 X 1 1 d 1 X 1 Y 1 X 1 1 d 1 X 1 1 d 1 Y 1 X 1 Y s 887 1198 m 1 X 1
 Y 2 X 1 Y 6 X s 896 1200 m 3 X 1 Y 5 X 2 Y 1 X 1 Y s 905 1204 m 1 1 d 8 X s 914 1205 m 1 X 1 Y 3 X 1 1 d 1 X 1 Y 1 X 1 Y 1 X 2 Y 1 X s 923 1211 m 6 X 1 Y 1 -4 d 1 X s 931 1208 m 4 X 1 1 d 3 X 1 Y 1 X s 940 1210 m 4 X 1 Y 5 X s 949 1211 m 1 X 3 Y 2 X
 1 Y 1 X 1 Y 4 X 2 Y 1 X s 958 1218 m 1 -4 d 1 X 1 Y 1 X 1 Y 1 X 1 Y 2 X 1 Y 3 X s 967 1218 m 2 X 1 Y 1 X -4 Y 1 X 2 Y 4 X s 975 1217 m 6 X 1 1 d 2 X s 984 1218 m 1 X 1 1 d 7 X s 993 1219 m 3 X -4 Y 3 X 1 Y 3 X s 1002 1216 m 1 Y 5 X 1 Y 1 X 2 Y 3 X s
 1011 1220 m 8 X 1 Y s 1019 1221 m 2 X 1 1 d 3 X 1 Y 3 X 1 Y s 1028 1224 m 9 X s 1037 1224 m 1 1 d 1 X 1 2 d 5 X 1 Y 1 X s 1046 1228 m 2 X 1 Y 4 X 1 Y 1 X 1 -4 d 1 X s 1055 1226 m 4 X 2 Y 1 X 1 1 d 2 X s 1063 1229 m 9 X s 1072 1229 m 1 X 1 Y 1 X 1 Y
 3 X 1 Y 4 X s 1081 1232 m 3 X 2 Y 2 X 1 Y 1 1 d 1 Y 1 X 1 -2 d 1 X s 1090 1235 m 6 X 1 Y 2 X 1 Y 1 X s 1099 1237 m 3 X -4 Y 1 X 2 Y 4 X 1 Y s 1107 1236 m 1 X 1 Y 3 X -4 Y 3 X 2 Y 2 X s 1116 1235 m 6 X 1 1 d 1 X -4 Y 1 X s 1125 1232 m 4 X -4 Y 5 X s
 1134 1228 m 3 X -4 Y 4 X 2 Y 2 X s 1143 1226 m 3 X -4 Y 4 X 1 Y 1 X s 1151 1223 m 2 X -4 Y 5 X -4 Y 2 X s 1160 1215 m 4 X 1 2 d 1 -4 d 3 X s 1169 1213 m 7 X -4 Y 1 1 d 2 Y 1 X s 1178 1212 m 9 X s 1187 1212 m 1 Y 8 X s 1195 1213 m 7 X -4 Y 2 X s 1204
 1209 m 6 X 1 Y 3 X s 1213 1210 m 9 X s 1222 1210 m 2 Y 9 X s 1231 1212 m 1 X 1 Y 7 X s 1239 1213 m 9 X s 1248 1213 m 6 X 1 Y 3 X s 1257 1214 m 9 X s 1266 1214 m 2 Y 1 X -4 Y 8 X s 1275 1212 m 2 X 1 Y 1 X 2 Y 5 X s 1283 1215 m 9 X s 1292 1215 m 1 Y 5
 X -4 Y 4 X s 1301 1212 m 9 X -4 Y s 1310 1208 m 1 X -4 Y 4 X 1 -4 d 1 -4 d -4 Y 1 X 2 Y 1 X s 1319 1194 m -4 Y 6 X 1 Y 1 X -8 Y 1 X s 1327 1183 m 9 X s 1336 1183 m 3 X -4 Y 1 X -8 Y 4 X -4 Y 1 X s 1345 1167 m 5 X -4 Y 1 X -5 Y 3 X s 1354 1158 m 1 X
 2 Y 1 X -4 Y 1 X -4 Y 3 X 1 -5 d 2 X s 1363 1147 m 1 -8 d 4 X -4 Y 3 X -4 Y s 1371 1131 m 3 X -5 Y 6 X 2 Y s 1380 1128 m 2 X -4 Y 1 X -5 Y 3 X -4 Y 1 X 1 1 d 1 X s 1389 1116 m 4 X 1 2 d 3 X 2 Y 1 X s 1398 1120 m 3 X -5 Y 1 X 1 2 d 4 X s 1407 1117 m
 1 X 1 -5 d -4 Y 1 X 2 Y 3 X -5 Y 2 X s 1415 1105 m 1 X -4 Y 8 X s 1424 1101 m 1 X -5 Y 1 X 2 Y -4 Y 5 X 1 -5 d -4 Y 1 X s 1433 1085 m 6 X 1 -5 d 1 X 2 Y 1 X s 1442 1082 m 2 X 1 -5 d -4 Y 6 X s 1451 1073 m 1 X 1 -5 d 6 X s 1459 1068 m 9 X s 1468 1068
 m 4 X 2 Y 4 X 1 -5 d s 1477 1065 m 3 X -4 Y 5 X -5 Y 1 X s 1486 1056 m 2 X -5 Y 1 X -4 Y 6 X s 1495 1047 m 1 -5 d -5 Y 2 X 1 -4 d 1 X -5 Y 2 X -5 Y 1 X s 1503 1023 m 1 X -5 Y 1 X 2 Y 1 X -5 Y 3 X -5 Y 3 X s 1512 1010 m 5 X 1 -5 d 1 X 1 -5 d -5 Y 1 X
 s 1521 995 m 1 2 d 2 X -5 Y 1 X 1 -5 d -5 Y 4 X s 1530 982 m 1 X 1 -5 d 4 X -5 Y 3 X s 1539 972 m 1 -5 d 2 Y 1 X 1 -6 d -5 Y 5 X s 1547 958 m 1 X -5 Y 8 X -5 Y s 1556 948 m 4 X -6 Y 2 X 1 -5 d -6 Y 2 X s 1565 931 m 2 X -5 Y 2 X -6 Y 1 X -5 Y 1 X -6
 Y 3 X s 1574 909 m 7 X -5 Y 2 X s 1583 904 m 5 X -6 Y 2 X -6 Y 1 X s 1591 892 m 2 X -11 Y 3 X -6 Y 1 X 2 Y 3 X 2 Y s 1600 879 m 1 X -6 Y 1 X -6 Y 7 X s 1609 867 m 1 X 1 -6 d 3 X -6 Y 1 X -6 Y 3 X s 1618 849 m 1 X -6 Y 2 X -6 Y 1 X -13 Y 4 X -6 Y 1 X
 s 1627 818 m 1 2 d 1 -6 d 6 X s 1635 814 m 3 X -7 Y 1 X -6 Y 3 X -7 Y 2 X s 1644 794 m 2 X -7 Y 1 X -6 Y 3 X -7 Y 2 X -14 Y 1 X s 1653 760 m 2 X -8 Y 1 X -14 Y 6 X s 1662 738 m 4 X -8 Y 3 X -7 Y 2 X s 1671 723 m 3 X -8 Y 5 X -24 Y s 1679 691 m 5 X
 -8 Y 2 X -8 Y 2 X s 1688 675 m 8 X -9 Y 1 X s 1697 666 m -8 Y 4 X -9 Y 4 X -9 Y 1 X s 1706 640 m -9 Y 1 X -9 Y 4 X -10 Y 3 X -10 Y 1 X s 1715 602 m 2 X -10 Y 6 X 4 Y s 1723 596 m 9 X s 1732 596 m 9 X s 1741 596 m 4 X -10 Y 1 X -11 Y 1 X 1 -10 d 2 X
 s 1750 565 m 7 X -12 Y 2 X -11 Y s 1759 542 m 5 X -7 Y 3 X s 1767 535 m 3 X -12 Y 2 X -13 Y 2 X -13 Y 2 X s 1776 497 m 9 X s 1785 497 m 9 X s 1794 497 m 4 X 1 -14 d 4 X s 1803 483 m 8 X -14 Y 1 X s 1812 469 m 7 X -16 Y 1 X s 1820 453 m 6 X 1 -16 d 2
 X s 1829 437 m 6 X 1 -17 d 2 X s 1838 420 m 9 X s 1847 420 m 1 X -19 Y 7 X -22 Y 1 X s 1856 379 m 8 X s 1864 379 m 9 X s 1873 379 m 9 X s 1882 379 m 9 X s 1891 379 m 9 X s 1900 379 m 8 X s 1908 379 m 9 X s 1917 379 m 9 X s 1926 379 m 3 X -23 Y 6 X s
 1935 356 m 9 X s 1944 356 m 4 X 1 -29 d 3 X s 1952 327 m 9 X s 1961 327 m 9 X s 1970 327 m 9 X s 1979 327 m 9 X s 1988 327 m 8 X s 1996 327 m 9 X s 2005 327 m 9 X s 2014 327 m 1 X -37 Y 8 X s 2023 290 m 9 X s 2032 290 m 8 X s 2040 290 m 1 X s black
 3 lw 245 201 m 1796 X s 316 241 m -40 Y s 392 221 m -20 Y s 468 221 m -20 Y s 543 221 m -20 Y s 619 241 m -40 Y s 695 221 m -20 Y s 771 221 m -20 Y s 846 221 m -20 Y s 922 241 m -40 Y s 998 221 m -20 Y s 1074 221 m -20 Y s 1150 221 m -20 Y s 1225
 241 m -40 Y s 1301 221 m -20 Y s 1377 221 m -20 Y s 1453 221 m -20 Y s 1528 241 m -40 Y s 1604 221 m -20 Y s 1680 221 m -20 Y s 1756 221 m -20 Y s 1831 241 m -40 Y s 316 241 m -40 Y s 1831 241 m -40 Y s 1907 221 m -20 Y s 1983 221 m -20 Y s 245 201
 m 1140 Y s 291 201 m -46 X s 268 253 m -23 X s 268 305 m -23 X s 268 357 m -23 X s 291 408 m -46 X s 268 460 m -23 X s 268 512 m -23 X s 268 564 m -23 X s 291 616 m -46 X s 268 667 m -23 X s 268 719 m -23 X s 268 771 m -23 X s 291 823 m -46 X s 268
 875 m -23 X s 268 926 m -23 X s 268 978 m -23 X s 291 1030 m -46 X s 268 1082 m -23 X s 268 1134 m -23 X s 268 1185 m -23 X s 291 1237 m -46 X s 291 1237 m -46 X s 268 1289 m -23 X s 268 1341 m -23 X s 0.490196 0.545098 0.615686 c 1 1 1 c 0.490196
 0.545098 0.615686 c 907 201 245 1341 bl 245 1341 m 907 X s 1152 1341 m 201 Y s 1152 1542 m -907 X s 245 1542 m -201 Y s black
 gsave  2268 1676 0 0 C 515.735 1471.36 t 0 r /Helvetica-Bold findfont 56.8825 sf 0 0 m (Signal efficiency) show NC gr  0 0 0.933333 c 9 lw 286 1492 m 190 X s black
 gsave  2268 1676 0 0 C 515.735 1368.97 t 0 r /Helvetica-Bold findfont 56.8825 sf 0 0 m (Background efficiency) show NC gr  1 0 0 c 286 1391 m 190 X s 0.490196 0.545098 0.615686 c 3 lw 1 1 1 c 0.490196 0.545098 0.615686 c 889 201 1152 1341 bl 1152
 1341 m 889 X s 2041 1341 m 201 Y s 2041 1542 m -889 X s 1152 1542 m -201 Y s black
 gsave  2268 1676 0 0 C 1418.27 1494.11 t 0 r /Helvetica-Bold findfont 56.8825 sf 0 0 m (Signal purity) show NC gr  0 0 0.933333 c[  52 12 ] 0 sd 6 lw 1192 1509 m 187 X s black
 gsave  2268 1676 0 0 C 1418.27 1429.65 t 0 r /Helvetica-Bold findfont 56.8825 sf 0 0 m (Signal efficiency*purity) show NC gr  0 0 0.933333 c[  22 12 ] 0 sd 1192 1441 m 187 X s black
 gsave  2268 1676 0 0 C 1501.7 1361.39 t 0 r /Helvetica-Bold findfont 56.8825 sf 0 0 m (S+B) show NC gr [  ] 0 sd 1483 1407 m 7 -49 d s 3 lw 1490 1358 m 8 64 d s 1498 1422 m 114 X s
 gsave  2268 1676 0 0 C 1418.27 1361.39 t 0 r /Helvetica-Bold findfont 56.8825 sf 0 0 m (S/) show NC gr  0 0.666667 0 c 9 lw 1192 1374 m 187 X s black 3 lw 245 1237 m 1796 X s
 gsave  2268 1676 0 0 C 337.503 386.801 t 0 r /Helvetica-Bold findfont 53.0904 sf 0 0 m (For 1000 signal and 1000 background) show NC gr 
 gsave  2268 1676 0 0 C 1058.01 318.542 t 0 r /Helvetica-Bold findfont 53.0904 sf 0 0 m ( is) show NC gr 
 gsave  2268 1676 0 0 C 955.626 318.542 t 0 r /Helvetica-Bold findfont 53.0904 sf 0 0 m (S+B) show NC gr  6 lw 933 360 m 7 -45 d s 3 lw 940 315 m 8 60 d s 948 375 m 110 X s
 gsave  2268 1676 0 0 C 337.503 318.542 t 0 r /Helvetica-Bold findfont 53.0904 sf 0 0 m (events the maximum S/) show NC gr 
 gsave  2268 1676 0 0 C 337.503 254.075 t 0 r /Helvetica-Bold findfont 53.0904 sf 0 0 m (29.32 when cutting at \2550.09) show NC gr  0.490196 0.545098 0.615686 c 0.364706 0.419608 0.490196 c 1471 96 23 1572 bf 0.490196 0.545098 0.615686 c 23 1572 m
 1471 X s 1494 1572 m 96 Y s 1494 1668 m -1471 X s 23 1668 m -96 Y s 1 1 1 c black 1 1 1 c
 gsave  2268 1676 0 0 C 75.8434 1600.29 t 0 r /Helvetica-Bold findfont 75.8434 sf 0 0 m (Cut efficiencies and optimal cut value) show NC gr  0 0.666667 0 c 2041 201 m 1140 Y s black 0 0.666667 0 c
 gsave  2268 1676 0 0 C 2203.25 963.211 t 90 r /Helvetica-Bold findfont 64.4669 sf 0 0 m (Significance) show NC gr  1995 201 m 46 X s 2018 236 m 23 X s 2018 272 m 23 X s 2018 307 m 23 X s 2018 342 m 23 X s 1995 378 m 46 X s 2018 413 m 23 X s 2018 448
 m 23 X s 2018 484 m 23 X s 2018 519 m 23 X s 1995 554 m 46 X s 2018 590 m 23 X s 2018 625 m 23 X s 2018 660 m 23 X s 2018 696 m 23 X s 1995 731 m 46 X s 2018 766 m 23 X s 2018 802 m 23 X s 2018 837 m 23 X s 2018 872 m 23 X s 1995 908 m 46 X s 2018
 943 m 23 X s 2018 978 m 23 X s 2018 1014 m 23 X s 2018 1049 m 23 X s 1995 1084 m 46 X s 2018 1120 m 23 X s 2018 1155 m 23 X s 2018 1190 m 23 X s 2018 1226 m 23 X s 1995 1261 m 46 X s 1995 1261 m 46 X s 2018 1296 m 23 X s 2018 1332 m 23 X s black 0
 0.666667 0 c
 gsave  2268 1676 0 0 C 2051.56 178.232 t 0 r /Helvetica-Bold findfont 64.4669 sf 0 0 m (0) show NC gr  black 0 0.666667 0 c
 gsave  2268 1676 0 0 C 2051.56 352.672 t 0 r /Helvetica-Bold findfont 64.4669 sf 0 0 m (5) show NC gr  black 0 0.666667 0 c
 gsave  2268 1676 0 0 C 2051.56 530.904 t 0 r /Helvetica-Bold findfont 64.4669 sf 0 0 m (10) show NC gr  black 0 0.666667 0 c
 gsave  2268 1676 0 0 C 2051.56 705.343 t 0 r /Helvetica-Bold findfont 64.4669 sf 0 0 m (15) show NC gr  black 0 0.666667 0 c
 gsave  2268 1676 0 0 C 2051.56 883.575 t 0 r /Helvetica-Bold findfont 64.4669 sf 0 0 m (20) show NC gr  black 0 0.666667 0 c
 gsave  2268 1676 0 0 C 2051.56 1058.01 t 0 r /Helvetica-Bold findfont 64.4669 sf 0 0 m (25) show NC gr  black 0 0.666667 0 c
 gsave  2268 1676 0 0 C 2051.56 1236.25 t 0 r /Helvetica-Bold findfont 64.4669 sf 0 0 m (30) show NC gr 
 gr  gr showpage
end
%%EOF
