%!PS-Adobe-2.0 EPSF-2.0
%%BoundingBox:  0 0 567 419
%%Title: DataSet/plots/mvaeffs_BDTG.eps: Cut efficiencies for BDTG classifier
%%Creator: ROOT Version 6.08/06
%%CreationDate: Mon Jul 30 13:52:30 2018
%%DocumentNeededResources: ProcSet (FontSetInit)
%%EndComments
%%BeginProlog
80 dict begin
/s {stroke} def /l {lineto} def /m {moveto} def /t {translate} def
/r {rotate} def /rl {roll}  def /R {repeat} def
/d {rlineto} def /rm {rmoveto} def /gr {grestore} def /f {eofill} def
/c {setrgbcolor} def /black {0 setgray} def /sd {setdash} def
/cl {closepath} def /sf {scalefont setfont} def /lw {setlinewidth} def
/box {m dup 0 exch d exch 0 d 0 exch neg d cl} def
/NC{systemdict begin initclip end}def/C{NC box clip newpath}def
/bl {box s} def /bf {gsave box gsave f grestore 1 lw [] 0 sd s grestore} def /Y { 0 exch d} def /X { 0 d} def 
/K {{pop pop 0 moveto} exch kshow} bind def
/ita {/ang 15 def gsave [1 0 ang dup sin exch cos div 1 0 0] concat} def 
/mp {newpath /y exch def /x exch def} def
/side {[w .77 mul w .23 mul] .385 w mul sd w 0 l currentpoint t -144 r} def
/mr {mp x y w2 0 360 arc} def /m24 {mr s} def /m20 {mr f} def
/mb {mp x y w2 add m w2 neg 0 d 0 w neg d w 0 d 0 w d cl} def
/mt {mp x y w2 add m w2 neg w neg d w 0 d cl} def
/m21 {mb f} def /m25 {mb s} def /m22 {mt f} def /m26{mt s} def
/m23 {mp x y w2 sub m w2 w d w neg 0 d cl f} def
/m27 {mp x y w2 add m w3 neg w2 neg d w3 w2 neg d w3 w2 d cl s} def
/m28 {mp x w2 sub y w2 sub w3 add m w3 0 d  0 w3 neg d w3 0 d 0 w3 d w3 0 d  0 w3 d w3 neg 0 d 0 w3 d w3 neg 0 d 0 w3 neg d w3 neg 0 d cl s } def
/m29 {mp gsave x w2 sub y w2 add w3 sub m currentpoint t 4 {side} repeat cl fill gr} def
/m30 {mp gsave x w2 sub y w2 add w3 sub m currentpoint t 4 {side} repeat cl s gr} def
/m31 {mp x y w2 sub m 0 w d x w2 sub y m w 0 d x w2 sub y w2 add m w w neg d x w2 sub y w2 sub m w w d s} def
/m32 {mp x y w2 sub m w2 w d w neg 0 d cl s} def
/m33 {mp x y w2 add m w3 neg w2 neg d w3 w2 neg d w3 w2 d cl f} def
/m34 {mp x w2 sub y w2 sub w3 add m w3 0 d  0 w3 neg d w3 0 d 0 w3 d w3 0 d  0 w3 d w3 neg 0 d 0 w3 d w3 neg 0 d 0 w3 neg d w3 neg 0 d cl f } def
/m2 {mp x y w2 sub m 0 w d x w2 sub y m w 0 d s} def
/m5 {mp x w2 sub y w2 sub m w w d x w2 sub y w2 add m w w neg d s} def
%%IncludeResource: ProcSet (FontSetInit)
%%IncludeResource: font Times-Roman
%%IncludeResource: font Times-Italic
%%IncludeResource: font Times-Bold
%%IncludeResource: font Times-BoldItalic
%%IncludeResource: font Helvetica
%%IncludeResource: font Helvetica-Oblique
%%IncludeResource: font Helvetica-Bold
%%IncludeResource: font Helvetica-BoldOblique
%%IncludeResource: font Courier
%%IncludeResource: font Courier-Oblique
%%IncludeResource: font Courier-Bold
%%IncludeResource: font Courier-BoldOblique
%%IncludeResource: font Symbol
%%IncludeResource: font ZapfDingbats
/reEncode {exch findfont dup length dict begin {1 index /FID eq  {pop pop} {def} ifelse } forall /Encoding exch def currentdict end dup /FontName get exch definefont pop } def [/Times-Bold /Times-Italic /Times-BoldItalic /Helvetica /Helvetica-Oblique
 /Helvetica-Bold /Helvetica-BoldOblique /Courier /Courier-Oblique /Courier-Bold /Courier-BoldOblique /Times-Roman /AvantGarde-Book /AvantGarde-BookOblique /AvantGarde-Demi /AvantGarde-DemiOblique /Bookman-Demi /Bookman-DemiItalic /Bookman-Light
 /Bookman-LightItalic /Helvetica-Narrow /Helvetica-Narrow-Bold /Helvetica-Narrow-BoldOblique /Helvetica-Narrow-Oblique /NewCenturySchlbk-Roman /NewCenturySchlbk-Bold /NewCenturySchlbk-BoldItalic /NewCenturySchlbk-Italic /Palatino-Bold
 /Palatino-BoldItalic /Palatino-Italic /Palatino-Roman ] {ISOLatin1Encoding reEncode } forall
%%EndProlog
%%BeginSetup
%%EndSetup
newpath  gsave  .25 .25 scale  gsave  0 0 t 0.490196 0.545098 0.615686 c[  ] 0 sd 3 lw 1 1 1 c 2268 1676 0 0 bf black 1 1 1 c 1796 1140 245 201 bf black 1796 1140 245 201 bl 1 1 1 c 1796 1140 245 201 bf black 1796 1140 245 201 bl 245 201 m 1796 X s[
 4 8] 0 sd 245 1341 m -1140 Y s 425 1341 m -1140 Y s 604 1341 m -1140 Y s 784 1341 m -1140 Y s 963 1341 m -1140 Y s 1143 1341 m -1140 Y s 1323 1341 m -1140 Y s 1502 1341 m -1140 Y s 1682 1341 m -1140 Y s 1861 1341 m -1140 Y s 245 1341 m -1140 Y s
 1861 1341 m -1140 Y s[  ] 0 sd 245 201 m 1140 Y s[ 4 8] 0 sd 2041 201 m -1796 X s 2041 408 m -1796 X s 2041 616 m -1796 X s 2041 823 m -1796 X s 2041 1030 m -1796 X s 2041 1237 m -1796 X s 2041 1237 m -1796 X s 0 0 0.933333 c[  22 12 ] 0 sd 6 lw
 0.49 0.6 0.82 c black 0 0 0.933333 c 245 719 m 94 Y 1 9 d 30 Y 1 7 d 14 Y 1 -5 d 12 Y 1 -4 d -5 Y 9 Y 1 5 d 8 Y 1 3 d 6 Y 1 1 d 6 Y 1 2 d 5 Y 1 2 d 4 Y s 254 922 m 3 Y 1 X 1 Y 1 X 3 Y 1 1 d 1 X 6 Y 1 X 1 Y 1 X 3 Y 1 X 4 Y 1 X 6 Y 1 1 d s 263 951 m 1
 Y 1 X 3 Y 1 X 2 Y 2 X 1 Y -6 Y 2 Y 3 X 4 Y 1 X 3 Y s 271 961 m 2 X 3 Y 1 X 3 Y 2 X 3 Y 1 X 1 Y 1 X 5 Y 1 X 1 2 d s 280 978 m 2 X 1 1 d 3 Y 2 X 2 Y 3 X -7 Y 1 X 2 Y s 289 979 m 2 X 1 2 d 1 X 1 Y 2 X 5 Y 2 X 2 Y 1 X s 298 989 m 1 Y 3 X 2 Y 2 X 1 Y 1 X
 2 Y 3 X s 307 995 m 2 Y 4 X 1 Y 1 X 1 2 d 2 X s 315 1000 m 9 X s 324 1000 m 2 X 2 Y 2 X 1 Y 3 X 2 Y 2 X s 333 1005 m 1 X 2 Y 1 X 1 Y 6 X 2 Y 1 X s 342 1010 m 5 X 1 2 d 3 Y 1 X 2 Y 2 X s 351 1017 m 2 Y 1 X 2 Y 5 X -7 Y 1 2 d 1 X s 359 1016 m 3 X 2 Y
 2 X 1 1 d 3 X s 368 1019 m 1 X 2 Y 1 X 2 Y 3 X 3 Y 2 X 2 Y 1 X 2 Y 1 X 2 Y s 377 1032 m 9 X s 386 1032 m 6 X 2 Y 1 2 d 2 X s 395 1036 m 1 Y 1 X 1 2 d 2 Y 6 X s 403 1041 m 4 X 2 Y 5 X s 412 1043 m 4 X 2 Y 5 X s 421 1045 m 1 X 1 2 d 5 X 2 Y 2 X s 430
 1049 m 9 X s 439 1049 m 8 X s 447 1049 m 1 X 2 Y 3 X 1 Y 5 X s 456 1052 m 9 X -6 Y s 465 1046 m 7 X 2 Y 2 X s 474 1048 m 5 X 1 2 d 3 X s 483 1050 m 2 X -7 Y 6 X 2 Y s 491 1045 m 9 X s 500 1045 m 9 X s 509 1045 m 5 X 2 Y 4 X s 518 1047 m 8 X 2 Y 1 X
 s 527 1049 m 8 X s 535 1049 m 9 X s 544 1049 m 5 X 2 Y 4 X s 553 1051 m 3 X 1 2 d 5 X s 562 1053 m 9 X s 571 1053 m 8 X s 579 1053 m 9 X s 588 1053 m 9 X 2 Y s 597 1055 m 5 X 2 Y 4 X s 606 1057 m 6 X 4 Y 3 X s 615 1061 m 2 Y 8 X s 623 1063 m 9 X s
 632 1063 m 1 X -7 Y 2 X 2 Y 6 X s 641 1058 m 7 X 2 Y 2 X s 650 1060 m 9 X s 659 1060 m 8 X s 667 1060 m 9 X s 676 1060 m 1 X 3 Y 4 X -7 Y 4 X s 685 1056 m 9 X s 694 1056 m 5 X -6 Y 4 X s 703 1050 m -7 Y 4 X 1 2 d 3 X s 711 1045 m 9 X s 720 1045 m 9
 X s 729 1045 m 7 X -6 Y 2 X s 738 1039 m 9 X s 747 1039 m 7 X 2 Y 1 X s 755 1041 m 9 X 2 Y s 764 1043 m 9 X s 773 1043 m 8 X -7 Y 1 X s 782 1036 m 9 X s 791 1036 m 8 X s 799 1036 m 3 X 2 Y 6 X s 808 1038 m 4 X 2 Y 5 X s 817 1040 m 9 X s 826 1040 m 1
 2 d 8 X s 835 1042 m 8 X s 843 1042 m 2 X -6 Y 7 X s 852 1036 m 9 X s 861 1036 m 3 X 1 2 d 4 X 1 2 d s 870 1040 m 9 X s 879 1040 m 8 X 2 Y s 887 1042 m 9 X s 896 1042 m 9 X s 905 1042 m 9 X s 914 1042 m 9 X s 923 1042 m 8 X s 931 1042 m 9 X s 940
 1042 m 9 X s 949 1042 m 9 X s 958 1042 m 9 X s 967 1042 m 8 X s 975 1042 m 9 X s 984 1042 m 1 X 2 Y 8 X s 993 1044 m 9 X s 1002 1044 m 9 X s 1011 1044 m 8 X s 1019 1044 m 9 X s 1028 1044 m 9 X s 1037 1044 m 9 X s 1046 1044 m 6 X 2 Y 2 X 1 2 d s 1055
 1048 m 8 X s 1063 1048 m 9 X s 1072 1048 m 9 X s 1081 1048 m 9 X s 1090 1048 m 9 X s 1099 1048 m 8 X s 1107 1048 m 9 X s 1116 1048 m 2 X -6 Y 7 X s 1125 1042 m 9 X s 1134 1042 m 3 X 2 Y 3 X 2 Y 3 X s 1143 1046 m 8 X s 1151 1046 m 4 X 2 Y 5 X s 1160
 1048 m 3 X -6 Y 6 X s 1169 1042 m 9 X s 1178 1042 m 6 X -7 Y 3 X s 1187 1035 m 8 X s 1195 1035 m 8 X 2 Y 1 X s 1204 1037 m 9 X s 1213 1037 m 9 X s 1222 1037 m 9 X s 1231 1037 m 8 X s 1239 1037 m 9 X s 1248 1037 m 9 X s 1257 1037 m 1 -6 d 2 X -7 Y 6
 X s 1266 1024 m 7 X 2 Y 2 X s 1275 1026 m 8 X s 1283 1026 m 9 X s 1292 1026 m 9 X s 1301 1026 m 9 X s 1310 1026 m 1 X 5 Y 8 X s 1319 1031 m 3 X 2 Y 5 X s 1327 1033 m 9 X s 1336 1033 m 3 X -6 Y 6 X s 1345 1027 m 1 X 1 -7 d 7 X s 1354 1020 m 4 X -7 Y
 5 X s 1363 1013 m 8 X s 1371 1013 m 9 X s 1380 1013 m 9 X s 1389 1013 m 1 X -6 Y 6 X 2 Y 2 X s 1398 1009 m 9 X s 1407 1009 m 1 2 d 7 X s 1415 1011 m 9 X s 1424 1011 m 9 X s 1433 1011 m 8 X -6 Y 1 X s 1442 1005 m 9 X s 1451 1005 m 8 X s 1459 1005 m 2
 X -7 Y 7 X s 1468 998 m 9 X s 1477 998 m 9 X s 1486 998 m 4 X 1 -6 d 4 X s 1495 992 m 8 X s 1503 992 m 9 X s 1512 992 m 9 X s 1521 992 m 9 X 2 Y s 1530 994 m 5 X 2 Y 4 X s 1539 996 m 8 X s 1547 996 m 7 X 2 Y 2 X s 1556 998 m 9 X s 1565 998 m 9 X s
 1574 998 m 4 X -6 Y 5 X s 1583 992 m 8 X s 1591 992 m 9 X s 1600 992 m 9 X s 1609 992 m 1 X 1 -7 d 4 X -6 Y 2 X 2 Y 1 X s 1618 981 m 4 X -7 Y 5 X s 1627 974 m 8 X 3 Y s 1635 977 m 9 X s 1644 977 m 6 X 2 Y 3 X s 1653 979 m 1 X 1 2 d 7 X s 1662 981 m
 2 X -6 Y 7 X s 1671 975 m 8 X s 1679 975 m 9 X s 1688 975 m 9 X s 1697 975 m 4 X -7 Y 5 X s 1706 968 m 9 X s 1715 968 m 1 X -7 Y 6 X 1 -6 d s 1723 955 m 9 X s 1732 955 m 4 X -7 Y 2 X -6 Y 3 X s 1741 942 m 4 X -7 Y 5 X s 1750 935 m 6 X 2 Y 3 X s 1759
 937 m 3 Y 8 X s 1767 940 m 9 X s 1776 940 m 3 X -7 Y 4 X -6 Y 2 X s 1785 927 m 1 X -7 Y 1 X -7 Y 7 X s 1794 913 m 5 X -6 Y 2 X -7 Y 2 X s 1803 900 m 3 X 3 Y 6 X s 1812 903 m 2 Y 8 X s 1820 905 m 1 X -7 Y 3 Y 8 X s 1829 901 m 1 X -7 Y 6 X -6 Y 2 X 4
 Y s 1838 892 m 3 X -6 Y 6 X s 1847 886 m 8 X -7 Y 1 X s 1856 879 m 8 X s 1864 879 m 1 X 2 Y 1 X -6 Y 4 X -7 Y 2 X -6 Y 1 X s 1873 862 m 4 X -7 Y 5 X s 1882 855 m 3 X -6 Y 4 X -7 Y 2 X s 1891 842 m 9 X s 1900 842 m 8 X s 1908 842 m 2 X -7 Y 3 X -6 Y
 1 X -7 Y 3 X s 1917 822 m 9 X s 1926 822 m 2 X -13 Y 1 X -7 Y 6 X s 1935 802 m 3 Y 5 X -7 Y 2 X -13 Y 2 X s 1944 785 m 6 X -7 Y 1 X -6 Y 1 X s 1952 772 m 1 X -7 Y 2 X 3 Y 1 X -14 Y 3 X -6 Y 2 X s 1961 748 m 5 X -7 Y 3 X -4 Y 1 X s 1970 737 m 4 X -6
 Y 4 X -7 Y 1 X s 1979 724 m 1 X -13 Y 4 X 2 Y 3 X -6 Y 1 X s 1988 707 m 4 X 2 Y 3 X -13 Y 1 X s 1996 696 m 2 X -7 Y 1 X -6 Y 2 X -7 Y 2 X 1 -7 d -6 Y 1 X -13 Y s 2005 650 m 2 X -7 Y 1 X -6 Y 1 -7 d 1 X -7 Y 2 X -6 Y 1 X -7 Y 1 X s 2014 610 m 1 -6 d
 -20 Y 1 X 1 -7 d 1 X -6 Y 1 X -7 Y 4 X s 2023 564 m -13 Y 2 X -20 Y 1 -4 d 1 X -7 Y 1 -6 d -27 Y 1 X -19 Y 1 X -7 Y 1 2 d -19 Y 1 X s 2032 444 m 2 Y 1 X 2 Y -6 Y 2 Y 1 -6 d -20 Y 1 X -20 Y 1 X -13 Y 1 X -13 Y 1 -7 d -21 Y 1 -7 d -33 Y 1 -6 d -40 Y s
 2040 258 m -7 Y 1 -6 d -31 Y s black[  ] 0 sd 3 lw 245 201 m 1796 X s
 gsave  2268 1676 0 0 C 868.406 30.3373 t 0 r /Helvetica-Bold findfont 72.0512 sf 0 0 m (Cut value applied on BDTG output) show NC gr  245 241 m -40 Y s 290 221 m -20 Y s 335 221 m -20 Y s 380 221 m -20 Y s 425 241 m -40 Y s 469 221 m -20 Y s 514 221
 m -20 Y s 559 221 m -20 Y s 604 241 m -40 Y s 649 221 m -20 Y s 694 221 m -20 Y s 739 221 m -20 Y s 784 241 m -40 Y s 829 221 m -20 Y s 874 221 m -20 Y s 918 221 m -20 Y s 963 241 m -40 Y s 1008 221 m -20 Y s 1053 221 m -20 Y s 1098 221 m -20 Y s
 1143 241 m -40 Y s 1188 221 m -20 Y s 1233 221 m -20 Y s 1278 221 m -20 Y s 1323 241 m -40 Y s 1367 221 m -20 Y s 1412 221 m -20 Y s 1457 221 m -20 Y s 1502 241 m -40 Y s 1547 221 m -20 Y s 1592 221 m -20 Y s 1637 221 m -20 Y s 1682 241 m -40 Y s
 1727 221 m -20 Y s 1772 221 m -20 Y s 1816 221 m -20 Y s 1861 241 m -40 Y s 245 241 m -40 Y s 1861 241 m -40 Y s 1906 221 m -20 Y s 1951 221 m -20 Y s 1996 221 m -20 Y s
 gsave  2268 1676 0 0 C 242.699 128.934 t 0 r /Helvetica-Bold findfont 64.4669 sf 0 0 m (1) show NC gr 
 gsave  2268 1676 0 0 C 212.361 128.934 t 0 r /Symbol findfont 64.4669 sf 0 0 m (-) show NC gr 
 gsave  2268 1676 0 0 C 390.593 128.934 t 0 r /Helvetica-Bold findfont 64.4669 sf 0 0 m (0.8) show NC gr 
 gsave  2268 1676 0 0 C 356.464 128.934 t 0 r /Symbol findfont 64.4669 sf 0 0 m (-) show NC gr 
 gsave  2268 1676 0 0 C 572.617 128.934 t 0 r /Helvetica-Bold findfont 64.4669 sf 0 0 m (0.6) show NC gr 
 gsave  2268 1676 0 0 C 542.28 128.934 t 0 r /Symbol findfont 64.4669 sf 0 0 m (-) show NC gr 
 gsave  2268 1676 0 0 C 750.849 128.934 t 0 r /Helvetica-Bold findfont 64.4669 sf 0 0 m (0.4) show NC gr 
 gsave  2268 1676 0 0 C 716.72 128.934 t 0 r /Symbol findfont 64.4669 sf 0 0 m (-) show NC gr 
 gsave  2268 1676 0 0 C 932.873 128.934 t 0 r /Helvetica-Bold findfont 64.4669 sf 0 0 m (0.2) show NC gr 
 gsave  2268 1676 0 0 C 902.536 128.934 t 0 r /Symbol findfont 64.4669 sf 0 0 m (-) show NC gr 
 gsave  2268 1676 0 0 C 1122.48 128.934 t 0 r /Helvetica-Bold findfont 64.4669 sf 0 0 m (0) show NC gr 
 gsave  2268 1676 0 0 C 1274.17 128.934 t 0 r /Helvetica-Bold findfont 64.4669 sf 0 0 m (0.2) show NC gr 
 gsave  2268 1676 0 0 C 1456.19 128.934 t 0 r /Helvetica-Bold findfont 64.4669 sf 0 0 m (0.4) show NC gr 
 gsave  2268 1676 0 0 C 1634.42 128.934 t 0 r /Helvetica-Bold findfont 64.4669 sf 0 0 m (0.6) show NC gr 
 gsave  2268 1676 0 0 C 1812.66 128.934 t 0 r /Helvetica-Bold findfont 64.4669 sf 0 0 m (0.8) show NC gr  245 201 m 1140 Y s
 gsave  2268 1676 0 0 C 64.4669 731.888 t 90 r /Helvetica-Bold findfont 72.0512 sf 0 0 m (Efficiency \(Purity\)) show NC gr  291 201 m -46 X s 268 253 m -23 X s 268 305 m -23 X s 268 357 m -23 X s 291 408 m -46 X s 268 460 m -23 X s 268 512 m -23 X s
 268 564 m -23 X s 291 616 m -46 X s 268 667 m -23 X s 268 719 m -23 X s 268 771 m -23 X s 291 823 m -46 X s 268 875 m -23 X s 268 926 m -23 X s 268 978 m -23 X s 291 1030 m -46 X s 268 1082 m -23 X s 268 1134 m -23 X s 268 1185 m -23 X s 291 1237 m
 -46 X s 291 1237 m -46 X s 268 1289 m -23 X s 268 1341 m -23 X s
 gsave  2268 1676 0 0 C 182.024 178.232 t 0 r /Helvetica-Bold findfont 64.4669 sf 0 0 m (0) show NC gr 
 gsave  2268 1676 0 0 C 128.934 383.009 t 0 r /Helvetica-Bold findfont 64.4669 sf 0 0 m (0.2) show NC gr 
 gsave  2268 1676 0 0 C 125.142 591.578 t 0 r /Helvetica-Bold findfont 64.4669 sf 0 0 m (0.4) show NC gr 
 gsave  2268 1676 0 0 C 128.934 796.355 t 0 r /Helvetica-Bold findfont 64.4669 sf 0 0 m (0.6) show NC gr 
 gsave  2268 1676 0 0 C 125.142 1004.92 t 0 r /Helvetica-Bold findfont 64.4669 sf 0 0 m (0.8) show NC gr 
 gsave  2268 1676 0 0 C 189.608 1213.49 t 0 r /Helvetica-Bold findfont 64.4669 sf 0 0 m (1) show NC gr  0 0 0.933333 c[  52 12 ] 0 sd 6 lw 0.49 0.6 0.82 c black 0 0 0.933333 c 245 719 m 94 Y 1 9 d 30 Y 1 7 d 14 Y 1 -1 d 13 Y 1 -1 d 9 Y 1 5 d 9 Y 1 2
 d 6 Y 1 2 d 6 Y 1 1 d 6 Y 1 2 d 4 Y s 254 936 m 3 Y 1 X 1 Y 1 X 3 Y 1 1 d 1 X 6 Y 1 X 1 Y 1 X 3 Y 1 X 4 Y 1 X 6 Y 1 2 d s 263 966 m 1 Y 1 X 3 Y 1 X 2 Y 2 X 1 Y -1 Y 1 Y 3 X 5 Y 1 X 3 Y s 271 981 m 2 X 3 Y 1 X 3 Y 2 X 3 Y 1 X 2 Y 1 X 4 Y 1 X 1 2 d s
 280 998 m 2 X 1 1 d 4 Y 2 X 1 Y 3 X -1 Y 1 X 2 Y s 289 1005 m 2 X 1 1 d 1 X 2 Y 2 X 5 Y 2 X 2 Y 1 X s 298 1015 m 1 Y 3 X 2 Y 2 X 2 Y 1 X 1 Y 3 X s 307 1021 m 2 Y 4 X 2 Y 1 X 1 1 d 2 X s 315 1026 m 9 X s 324 1026 m 2 X 2 Y 2 X 2 Y 3 X 2 Y 2 X s 333
 1032 m 1 X 1 Y 1 X 2 Y 6 X 2 Y 1 X s 342 1037 m 5 X 1 2 d 3 Y 1 X 2 Y 2 X s 351 1044 m 2 Y 1 X 1 Y 5 X -1 Y 1 2 d 1 X s 359 1048 m 3 X 2 Y 2 X 1 2 d 3 X s 368 1052 m 1 X 2 Y 1 X 2 Y 3 X 3 Y 2 X 2 Y 1 X 2 Y 1 X 2 Y s 377 1065 m 9 X s 386 1065 m 6 X 2
 Y 1 2 d 2 X s 395 1069 m 2 Y 1 X 1 2 d 1 Y 6 X s 403 1074 m 4 X 2 Y 5 X s 412 1076 m 4 X 2 Y 5 X s 421 1078 m 1 X 1 2 d 5 X 2 Y 2 X s 430 1082 m 9 X s 439 1082 m 8 X s 447 1082 m 1 X 2 Y 3 X 2 Y 5 X s 456 1086 m 9 X -1 Y s 465 1085 m 7 X 2 Y 2 X s
 474 1087 m 5 X 1 2 d 3 X s 483 1089 m 8 X 2 Y s 491 1091 m 9 X s 500 1091 m 9 X s 509 1091 m 5 X 2 Y 4 X s 518 1093 m 8 X 2 Y 1 X s 527 1095 m 8 X s 535 1095 m 9 X s 544 1095 m 5 X 2 Y 4 X s 553 1097 m 3 X 1 2 d 5 X s 562 1099 m 9 X s 571 1099 m 8 X
 s 579 1099 m 9 X s 588 1099 m 9 X 2 Y s 597 1101 m 5 X 2 Y 4 X s 606 1103 m 6 X 4 Y 3 X s 615 1107 m 2 Y 8 X s 623 1109 m 9 X s 632 1109 m 1 X -1 Y 2 X 3 Y 6 X s 641 1111 m 7 X 2 Y 2 X s 650 1113 m 9 X s 659 1113 m 8 X s 667 1113 m 9 X s 676 1113 m
 1 X 2 Y 4 X -1 Y 4 X s 685 1114 m 9 X s 694 1114 m 5 X -1 Y 4 X s 703 1113 m 4 X 1 2 d 3 X s 711 1115 m 9 X s 720 1115 m 9 X s 729 1115 m 7 X -1 Y 2 X s 738 1114 m 9 X s 747 1114 m 7 X 2 Y 1 X s 755 1116 m 9 X 3 Y s 764 1119 m 9 X s 773 1119 m 8 X
 -1 Y 1 X s 782 1118 m 9 X s 791 1118 m 8 X s 799 1118 m 3 X 2 Y 6 X s 808 1120 m 4 X 2 Y 5 X s 817 1122 m 9 X s 826 1122 m 1 3 d 8 X s 835 1125 m 8 X s 843 1125 m 2 X -1 Y 7 X s 852 1124 m 9 X s 861 1124 m 3 X 1 2 d 4 X 1 3 d s 870 1129 m 9 X s 879
 1129 m 8 X 2 Y s 887 1131 m 9 X s 896 1131 m 9 X s 905 1131 m 9 X s 914 1131 m 9 X s 923 1131 m 8 X s 931 1131 m 9 X s 940 1131 m 9 X s 949 1131 m 9 X s 958 1131 m 9 X s 967 1131 m 8 X s 975 1131 m 9 X s 984 1131 m 1 X 2 Y 8 X s 993 1133 m 9 X s
 1002 1133 m 9 X s 1011 1133 m 8 X s 1019 1133 m 9 X s 1028 1133 m 9 X s 1037 1133 m 9 X s 1046 1133 m 6 X 3 Y 2 X 1 2 d s 1055 1138 m 8 X s 1063 1138 m 9 X s 1072 1138 m 9 X s 1081 1138 m 9 X s 1090 1138 m 9 X s 1099 1138 m 8 X s 1107 1138 m 9 X s
 1116 1138 m 2 X -1 Y 7 X s 1125 1137 m 9 X s 1134 1137 m 3 X 3 Y 3 X 2 Y 3 X s 1143 1142 m 8 X s 1151 1142 m 4 X 2 Y 5 X s 1160 1144 m 9 X s 1169 1144 m 9 X s 1178 1144 m 6 X -1 Y 3 X s 1187 1143 m 8 X s 1195 1143 m 8 X 3 Y 1 X s 1204 1146 m 9 X s
 1213 1146 m 9 X s 1222 1146 m 9 X s 1231 1146 m 8 X s 1239 1146 m 9 X s 1248 1146 m 9 X s 1257 1146 m 1 -1 d 2 X -1 Y 6 X s 1266 1144 m 7 X 3 Y 2 X s 1275 1147 m 8 X s 1283 1147 m 9 X s 1292 1147 m 9 X s 1301 1147 m 9 X s 1310 1147 m 1 X 5 Y 8 X s
 1319 1152 m 3 X 3 Y 5 X s 1327 1155 m 9 X s 1336 1155 m 3 X -1 Y 6 X s 1345 1154 m 1 X 1 -1 d 7 X s 1354 1153 m 9 X s 1363 1153 m 8 X s 1371 1153 m 9 X s 1380 1153 m 9 X s 1389 1153 m 1 X -1 Y 6 X 3 Y 2 X s 1398 1155 m 9 X s 1407 1155 m 1 2 d 7 X s
 1415 1157 m 9 X s 1424 1157 m 9 X s 1433 1157 m 9 X s 1442 1157 m 9 X s 1451 1157 m 8 X s 1459 1157 m 2 X -1 Y 7 X s 1468 1156 m 9 X s 1477 1156 m 9 X s 1486 1156 m 9 X s 1495 1156 m 8 X s 1503 1156 m 9 X s 1512 1156 m 9 X s 1521 1156 m 9 X 2 Y s
 1530 1158 m 5 X 3 Y 4 X s 1539 1161 m 8 X s 1547 1161 m 7 X 3 Y 2 X s 1556 1164 m 9 X s 1565 1164 m 9 X s 1574 1164 m 4 X -1 Y 5 X s 1583 1163 m 8 X s 1591 1163 m 9 X s 1600 1163 m 9 X s 1609 1163 m 6 X -1 Y 2 X 3 Y 1 X s 1618 1165 m 9 X s 1627 1165
 m 8 X 2 Y s 1635 1167 m 9 X s 1644 1167 m 6 X 3 Y 3 X s 1653 1170 m 1 X 1 3 d 7 X s 1662 1173 m 9 X s 1671 1173 m 8 X s 1679 1173 m 9 X s 1688 1173 m 9 X s 1697 1173 m 4 X -1 Y 5 X s 1706 1172 m 9 X s 1715 1172 m 7 X 1 -1 d s 1723 1171 m 9 X s 1732
 1171 m 6 X -1 Y 3 X s 1741 1170 m 9 X s 1750 1170 m 6 X 3 Y 3 X s 1759 1173 m 3 Y 8 X s 1767 1176 m 9 X s 1776 1176 m 3 X -1 Y 6 X s 1785 1175 m 1 X -1 Y 8 X s 1794 1174 m 5 X -1 Y 4 X s 1803 1173 m 3 X 3 Y 6 X s 1812 1176 m 3 Y 8 X s 1820 1179 m 1
 X -1 Y 4 Y 8 X s 1829 1182 m 1 X -1 Y 8 X 7 Y s 1838 1188 m 3 X -1 Y 6 X s 1847 1187 m 9 X s 1856 1187 m 8 X s 1864 1187 m 1 X 3 Y 5 X -1 Y 3 X s 1873 1189 m 4 X -1 Y 5 X s 1882 1188 m 7 X -1 Y 2 X s 1891 1187 m 9 X s 1900 1187 m 8 X s 1908 1187 m 6
 X -1 Y 3 X s 1917 1186 m 9 X s 1926 1186 m 2 X -1 Y 7 X s 1935 1185 m 3 Y 7 X -1 Y 2 X s 1944 1187 m 6 X -1 Y 2 X s 1952 1186 m 1 X -1 Y 2 X 4 Y 1 X -1 Y 5 X s 1961 1188 m 5 X -1 Y 3 X 4 Y 1 X s 1970 1191 m 8 X -1 Y 1 X s 1979 1190 m 1 X -1 Y 4 X 5
 Y 3 X -1 Y 1 X s 1988 1193 m 4 X 5 Y 3 X -1 Y 1 X s 1996 1197 m 2 X -1 Y 3 X -1 Y 3 X -1 Y 1 X -1 Y s 2005 1193 m 2 X -1 Y 1 X 1 -1 d 1 X -1 Y 3 X -1 Y 1 X s 2014 1189 m 1 -1 d -2 Y 1 X 1 -1 d 1 X -1 Y 5 X s 2023 1184 m -2 Y 2 X -3 Y 1 6 d 1 X -1 Y
 1 -1 d -5 Y 1 X -4 Y 1 X -1 Y 1 9 d -4 Y 1 X s 2032 1178 m 9 Y 1 X 10 Y -1 Y 10 Y 1 -1 d -3 Y 1 X -3 Y 1 X -3 Y 1 X -2 Y 1 -2 d 28 Y -1 Y 1 -1 d -6 Y 1 -1 d -17 Y s 2040 1194 m -6 Y 1 -6 d 55 Y s[  ] 0 sd 9 lw 0.49 0.6 0.82 c black 0 0 0.933333 c
 245 1237 m 2 X 1 -6 d 1 -7 d -7 Y 5 X s 254 1217 m 9 X s 263 1217 m 4 X -6 Y 4 X s 271 1211 m 9 X s 280 1211 m 8 X -7 Y 1 X s 289 1204 m 9 X s 298 1204 m 9 X s 307 1204 m 8 X s 315 1204 m 9 X s 324 1204 m 9 X s 333 1204 m 9 X s 342 1204 m 9 X s 351
 1204 m 6 X -6 Y 2 X s 359 1198 m 9 X s 368 1198 m 9 X s 377 1198 m 9 X s 386 1198 m 9 X s 395 1198 m 8 X s 403 1198 m 9 X s 412 1198 m 9 X s 421 1198 m 9 X s 430 1198 m 9 X s 439 1198 m 8 X s 447 1198 m 9 X s 456 1198 m 9 X -7 Y s 465 1191 m 9 X s
 474 1191 m 9 X s 483 1191 m 2 X -7 Y 6 X s 491 1184 m 9 X s 500 1184 m 9 X s 509 1184 m 9 X s 518 1184 m 9 X s 527 1184 m 8 X s 535 1184 m 9 X s 544 1184 m 9 X s 553 1184 m 9 X s 562 1184 m 9 X s 571 1184 m 8 X s 579 1184 m 9 X s 588 1184 m 9 X s
 597 1184 m 9 X s 606 1184 m 9 X s 615 1184 m 8 X s 623 1184 m 9 X s 632 1184 m 1 X -6 Y 8 X s 641 1178 m 9 X s 650 1178 m 9 X s 659 1178 m 8 X s 667 1178 m 9 X s 676 1178 m 5 X -7 Y 4 X s 685 1171 m 9 X s 694 1171 m 5 X -6 Y 4 X s 703 1165 m -7 Y 8
 X s 711 1158 m 9 X s 720 1158 m 9 X s 729 1158 m 7 X -7 Y 2 X s 738 1151 m 9 X s 747 1151 m 8 X s 755 1151 m 9 X s 764 1151 m 9 X s 773 1151 m 8 X -6 Y 1 X s 782 1145 m 9 X s 791 1145 m 8 X s 799 1145 m 9 X s 808 1145 m 9 X s 817 1145 m 9 X s 826
 1145 m 9 X s 835 1145 m 8 X s 843 1145 m 2 X -7 Y 7 X s 852 1138 m 9 X s 861 1138 m 9 X s 870 1138 m 9 X s 879 1138 m 8 X s 887 1138 m 9 X s 896 1138 m 9 X s 905 1138 m 9 X s 914 1138 m 9 X s 923 1138 m 8 X s 931 1138 m 9 X s 940 1138 m 9 X s 949
 1138 m 9 X s 958 1138 m 9 X s 967 1138 m 8 X s 975 1138 m 9 X s 984 1138 m 9 X s 993 1138 m 9 X s 1002 1138 m 9 X s 1011 1138 m 8 X s 1019 1138 m 9 X s 1028 1138 m 9 X s 1037 1138 m 9 X s 1046 1138 m 9 X s 1055 1138 m 8 X s 1063 1138 m 9 X s 1072
 1138 m 9 X s 1081 1138 m 9 X s 1090 1138 m 9 X s 1099 1138 m 8 X s 1107 1138 m 9 X s 1116 1138 m 2 X -6 Y 7 X s 1125 1132 m 9 X s 1134 1132 m 9 X s 1143 1132 m 8 X s 1151 1132 m 9 X s 1160 1132 m 3 X -7 Y 6 X s 1169 1125 m 9 X s 1178 1125 m 6 X -7 Y
 3 X s 1187 1118 m 8 X s 1195 1118 m 9 X s 1204 1118 m 9 X s 1213 1118 m 9 X s 1222 1118 m 9 X s 1231 1118 m 8 X s 1239 1118 m 9 X s 1248 1118 m 9 X s 1257 1118 m 1 -6 d 2 X -7 Y 6 X s 1266 1105 m 9 X s 1275 1105 m 8 X s 1283 1105 m 9 X s 1292 1105 m
 9 X s 1301 1105 m 9 X s 1310 1105 m 9 X s 1319 1105 m 8 X s 1327 1105 m 9 X s 1336 1105 m 3 X -6 Y 6 X s 1345 1099 m 1 X 1 -7 d 7 X s 1354 1092 m 4 X -6 Y 5 X s 1363 1086 m 8 X s 1371 1086 m 9 X s 1380 1086 m 9 X s 1389 1086 m 1 X -7 Y 8 X s 1398
 1079 m 9 X s 1407 1079 m 8 X s 1415 1079 m 9 X s 1424 1079 m 9 X s 1433 1079 m 8 X -7 Y 1 X s 1442 1072 m 9 X s 1451 1072 m 8 X s 1459 1072 m 2 X -6 Y 7 X s 1468 1066 m 9 X s 1477 1066 m 9 X s 1486 1066 m 4 X 1 -7 d 4 X s 1495 1059 m 8 X s 1503 1059
 m 9 X s 1512 1059 m 9 X s 1521 1059 m 9 X s 1530 1059 m 9 X s 1539 1059 m 8 X s 1547 1059 m 9 X s 1556 1059 m 9 X s 1565 1059 m 9 X s 1574 1059 m 4 X -6 Y 5 X s 1583 1053 m 8 X s 1591 1053 m 9 X s 1600 1053 m 9 X s 1609 1053 m 1 X 1 -7 d 4 X -7 Y 3
 X s 1618 1039 m 4 X -6 Y 5 X s 1627 1033 m 8 X s 1635 1033 m 9 X s 1644 1033 m 9 X s 1653 1033 m 9 X s 1662 1033 m 2 X -7 Y 7 X s 1671 1026 m 8 X s 1679 1026 m 9 X s 1688 1026 m 9 X s 1697 1026 m 4 X -6 Y 5 X s 1706 1020 m 9 X s 1715 1020 m 1 X -7 Y
 6 X 1 -7 d s 1723 1006 m 9 X s 1732 1006 m 4 X -6 Y 2 X -7 Y 3 X s 1741 993 m 4 X -6 Y 5 X s 1750 987 m 9 X s 1759 987 m 8 X s 1767 987 m 9 X s 1776 987 m 3 X -7 Y 4 X -7 Y 2 X s 1785 973 m 1 X -6 Y 1 X -7 Y 7 X s 1794 960 m 5 X -6 Y 2 X -7 Y 2 X s
 1803 947 m 9 X s 1812 947 m 8 X s 1820 947 m 1 X -7 Y 8 X s 1829 940 m 1 X -6 Y 6 X -7 Y 2 X s 1838 927 m 3 X -6 Y 6 X s 1847 921 m 8 X -7 Y 1 X s 1856 914 m 8 X s 1864 914 m 2 X -7 Y 4 X -6 Y 2 X -7 Y 1 X s 1873 894 m 4 X -6 Y 5 X s 1882 888 m 3 X
 -7 Y 4 X -7 Y 2 X s 1891 874 m 9 X s 1900 874 m 8 X s 1908 874 m 2 X -6 Y 3 X -7 Y 1 X -6 Y 3 X s 1917 855 m 9 X s 1926 855 m 2 X -14 Y 1 X -6 Y 6 X s 1935 835 m 5 X -7 Y 2 X -13 Y 2 X s 1944 815 m 6 X -7 Y 1 X -6 Y 1 X s 1952 802 m 1 X -7 Y 3 X -13
 Y 3 X -7 Y 2 X s 1961 775 m 5 X -6 Y 3 X -7 Y 1 X s 1970 762 m 4 X -6 Y 4 X -7 Y 1 X s 1979 749 m 1 X -13 Y 7 X -7 Y 1 X s 1988 729 m 7 X -13 Y 1 X s 1996 716 m 2 X -7 Y 1 X -6 Y 2 X -7 Y 2 X 1 -6 d -7 Y 1 X -13 Y s 2005 670 m 2 X -7 Y 1 X -6 Y 1 -7
 d 1 X -7 Y 2 X -6 Y 1 X -7 Y 1 X s 2014 630 m 1 -6 d -20 Y 1 X 1 -7 d 1 X -6 Y 1 X -7 Y 4 X s 2023 584 m -13 Y 2 X -20 Y 1 -7 d 1 X -6 Y 1 -7 d -26 Y 1 X -20 Y 1 X -7 Y 1 X -19 Y 1 X s 2032 459 m 1 X -7 Y 1 -7 d -19 Y 1 X -20 Y 1 X -13 Y 1 X -14 Y 1
 -6 d -27 Y 1 -6 d -33 Y 1 -7 d -39 Y s 2040 261 m -7 Y 1 -7 d -33 Y s 1 0 0 c black 1 0 0 c 245 1237 m -316 Y 1 -26 d -82 Y 1 -15 d -34 Y 1 -3 d -29 Y 1 -2 d -24 Y 1 -10 d -19 Y 1 -5 d -13 Y 1 -3 d -13 Y 1 -2 d -11 Y 1 -5 d -8 Y s 254 617 m -5 Y 1 X
 -3 Y 1 X -5 Y 1 -3 d 1 X -10 Y 1 X -3 Y 1 X -5 Y 1 X -8 Y 1 X -10 Y 1 -3 d s 263 562 m -2 Y 1 X -6 Y 1 X -2 Y 2 X -5 Y 3 X -8 Y 1 X -6 Y s 271 533 m 2 X -5 Y 1 X -5 Y 2 X -5 Y 1 X -3 Y 1 X -8 Y 1 X 1 -2 d s 280 505 m 2 X 1 -3 d -5 Y 2 X -3 Y 4 X -2
 Y s 289 492 m 2 X 1 -3 d 1 X -3 Y 2 X -8 Y 2 X -2 Y 1 X s 298 476 m -3 Y 3 X -2 Y 2 X -3 Y 1 X -3 Y 3 X s 307 465 m -2 Y 4 X -3 Y 1 X 1 -2 d 2 X s 315 458 m 9 X s 324 458 m 2 X -3 Y 2 X -3 Y 3 X -2 Y 2 X s 333 450 m 1 X -3 Y 1 X -3 Y 6 X -2 Y 1 X s
 342 442 m 5 X 1 -3 d -5 Y 1 X -3 Y 2 X s 351 431 m -2 Y 1 X -3 Y 5 X 1 -2 d 1 X s 359 424 m 3 X -3 Y 2 X 1 -3 d 3 X s 368 418 m 1 X -2 Y 1 X -3 Y 3 X -5 Y 2 X -3 Y 1 X -2 Y 1 X -3 Y s 377 400 m 9 X s 386 400 m 6 X -3 Y 1 -2 d 2 X s 395 395 m -3 Y 1
 X 1 -2 d -3 Y 6 X s 403 387 m 4 X -3 Y 5 X s 412 384 m 4 X -2 Y 5 X s 421 382 m 1 X 1 -3 d 5 X -3 Y 2 X s 430 376 m 9 X s 439 376 m 8 X s 447 376 m 1 X -2 Y 3 X -3 Y 5 X s 456 371 m 9 X s 465 371 m 7 X -2 Y 2 X s 474 369 m 5 X 1 -3 d 3 X s 483 366 m
 8 X -3 Y s 491 363 m 9 X s 500 363 m 9 X s 509 363 m 5 X -2 Y 4 X s 518 361 m 8 X -3 Y 1 X s 527 358 m 8 X s 535 358 m 9 X s 544 358 m 5 X -2 Y 4 X s 553 356 m 3 X 1 -3 d 5 X s 562 353 m 9 X s 571 353 m 8 X s 579 353 m 9 X s 588 353 m 9 X -3 Y s 597
 350 m 5 X -2 Y 4 X s 606 348 m 6 X -6 Y 3 X s 615 342 m -2 Y 8 X s 623 340 m 9 X s 632 340 m 3 X -3 Y 6 X s 641 337 m 7 X -2 Y 2 X s 650 335 m 9 X s 659 335 m 8 X s 667 335 m 9 X s 676 335 m 1 X -3 Y 8 X s 685 332 m 9 X s 694 332 m 9 X s 703 332 m 4
 X 1 -3 d 3 X s 711 329 m 9 X s 720 329 m 9 X s 729 329 m 9 X s 738 329 m 9 X s 747 329 m 7 X -2 Y 1 X s 755 327 m 9 X -3 Y s 764 324 m 9 X s 773 324 m 9 X s 782 324 m 9 X s 791 324 m 8 X s 799 324 m 3 X -3 Y 6 X s 808 321 m 4 X -2 Y 5 X s 817 319 m
 9 X s 826 319 m 1 -3 d 8 X s 835 316 m 8 X s 843 316 m 9 X s 852 316 m 9 X s 861 316 m 3 X 1 -2 d 4 X 1 -3 d s 870 311 m 9 X s 879 311 m 8 X -3 Y s 887 308 m 9 X s 896 308 m 9 X s 905 308 m 9 X s 914 308 m 9 X s 923 308 m 8 X s 931 308 m 9 X s 940
 308 m 9 X s 949 308 m 9 X s 958 308 m 9 X s 967 308 m 8 X s 975 308 m 9 X s 984 308 m 1 X -2 Y 8 X s 993 306 m 9 X s 1002 306 m 9 X s 1011 306 m 8 X s 1019 306 m 9 X s 1028 306 m 9 X s 1037 306 m 9 X s 1046 306 m 6 X -3 Y 2 X 1 -2 d s 1055 301 m 8 X
 s 1063 301 m 9 X s 1072 301 m 9 X s 1081 301 m 9 X s 1090 301 m 9 X s 1099 301 m 8 X s 1107 301 m 9 X s 1116 301 m 9 X s 1125 301 m 9 X s 1134 301 m 3 X -3 Y 3 X -3 Y 3 X s 1143 295 m 8 X s 1151 295 m 4 X -2 Y 5 X s 1160 293 m 9 X s 1169 293 m 9 X s
 1178 293 m 9 X s 1187 293 m 8 X s 1195 293 m 8 X -3 Y 1 X s 1204 290 m 9 X s 1213 290 m 9 X s 1222 290 m 9 X s 1231 290 m 8 X s 1239 290 m 9 X s 1248 290 m 9 X s 1257 290 m 9 X s 1266 290 m 7 X -3 Y 2 X s 1275 287 m 8 X s 1283 287 m 9 X s 1292 287 m
 9 X s 1301 287 m 9 X s 1310 287 m 1 X -5 Y 8 X s 1319 282 m 3 X -2 Y 5 X s 1327 280 m 9 X s 1336 280 m 9 X s 1345 280 m 9 X s 1354 280 m 9 X s 1363 280 m 8 X s 1371 280 m 9 X s 1380 280 m 9 X s 1389 280 m 7 X -3 Y 2 X s 1398 277 m 9 X s 1407 277 m 1
 -3 d 7 X s 1415 274 m 9 X s 1424 274 m 9 X s 1433 274 m 9 X s 1442 274 m 9 X s 1451 274 m 8 X s 1459 274 m 9 X s 1468 274 m 9 X s 1477 274 m 9 X s 1486 274 m 9 X s 1495 274 m 8 X s 1503 274 m 9 X s 1512 274 m 9 X s 1521 274 m 9 X -2 Y s 1530 272 m 5
 X -3 Y 4 X s 1539 269 m 8 X s 1547 269 m 7 X -2 Y 2 X s 1556 267 m 9 X s 1565 267 m 9 X s 1574 267 m 9 X s 1583 267 m 8 X s 1591 267 m 9 X s 1600 267 m 9 X s 1609 267 m 8 X -3 Y 1 X s 1618 264 m 9 X s 1627 264 m 8 X -3 Y s 1635 261 m 9 X s 1644 261
 m 6 X -2 Y 3 X s 1653 259 m 1 X 1 -3 d 7 X s 1662 256 m 9 X s 1671 256 m 8 X s 1679 256 m 9 X s 1688 256 m 9 X s 1697 256 m 9 X s 1706 256 m 9 X s 1715 256 m 8 X s 1723 256 m 9 X s 1732 256 m 9 X s 1741 256 m 9 X s 1750 256 m 6 X -3 Y 3 X s 1759 253
 m -2 Y 8 X s 1767 251 m 9 X s 1776 251 m 9 X s 1785 251 m 9 X s 1794 251 m 9 X s 1803 251 m 3 X -3 Y 6 X s 1812 248 m -2 Y 8 X s 1820 246 m 1 X -3 Y 8 X s 1829 243 m 9 X -5 Y s 1838 238 m 9 X s 1847 238 m 9 X s 1856 238 m 8 X s 1864 238 m 1 X -3 Y 8
 X s 1873 235 m 9 X s 1882 235 m 9 X s 1891 235 m 9 X s 1900 235 m 8 X s 1908 235 m 9 X s 1917 235 m 9 X s 1926 235 m 9 X s 1935 235 m -2 Y 9 X s 1944 233 m 8 X s 1952 233 m 3 X -3 Y 6 X s 1961 230 m 8 X -3 Y 1 X s 1970 227 m 9 X s 1979 227 m 5 X -2
 Y 4 X s 1988 225 m 4 X -3 Y 4 X s 1996 222 m 9 X s 2005 222 m 9 X s 2014 222 m 9 X s 2023 222 m 2 X 1 -3 d 4 X 1 -2 d 1 X s 2032 217 m -3 Y 1 X -5 Y 5 X -5 Y 2 X s 2040 204 m 1 X -3 Y s 0 0.666667 0 c 1 1 1 c black 0 0.666667 0 c 245 1005 m 69 Y 1 7
 d 21 Y 1 4 d 10 Y 1 -3 d 8 Y 1 -3 d -3 Y 6 Y 1 3 d 6 Y 1 1 d 4 Y 1 1 d 4 Y 1 1 d 4 Y 1 1 d 3 Y s 254 1149 m 2 Y 1 X 1 Y 1 X 1 Y 1 1 d 1 X 4 Y 1 X 1 Y 1 X 1 Y 1 X 3 Y 1 X 4 Y 1 1 d s 263 1168 m 1 Y 1 X 1 Y 1 X 1 Y 2 X 1 Y -4 Y 1 Y 3 X 3 Y 1 X 2 Y s
 271 1174 m 2 X 2 Y 1 X 2 Y 2 X 2 Y 1 X 1 Y 1 X 3 Y 1 X 1 1 d s 280 1185 m 2 X 1 1 d 2 Y 2 X 1 Y 3 X -4 Y 1 X 1 Y s 289 1186 m 2 X 1 1 d 1 X 1 Y 2 X 3 Y 2 X 1 Y 1 X s 298 1192 m 1 Y 3 X 1 Y 2 X 1 Y 1 X 1 Y 3 X s 307 1196 m 1 Y 4 X 1 Y 1 X 1 1 d 2 X s
 315 1199 m 9 X s 324 1199 m 2 X 1 Y 2 X 1 Y 3 X 1 Y 2 X s 333 1202 m 1 X 1 Y 1 X 1 Y 6 X 1 Y 1 X s 342 1205 m 5 X 1 1 d 2 Y 1 X 1 Y 2 X s 351 1209 m 1 Y 1 X 1 Y 5 X -3 Y 1 1 d 1 X s 359 1209 m 3 X 1 Y 2 X 1 1 d 3 X s 368 1211 m 1 X 1 Y 1 X 1 Y 3 X 2
 Y 2 X 1 Y 1 X 1 Y 1 X 1 Y s 377 1218 m 9 X s 386 1218 m 6 X 2 Y 1 1 d 2 X s 395 1221 m 1 Y 1 X 1 1 d 1 Y 6 X s 403 1224 m 4 X 1 Y 5 X s 412 1225 m 4 X 1 Y 5 X s 421 1226 m 1 X 1 1 d 5 X 2 Y 2 X s 430 1229 m 9 X s 439 1229 m 8 X s 447 1229 m 1 X 1 Y
 3 X 1 Y 5 X s 456 1231 m 9 X -4 Y s 465 1227 m 7 X 1 Y 2 X s 474 1228 m 5 X 1 1 d 3 X s 483 1229 m 2 X -4 Y 6 X 2 Y s 491 1227 m 9 X s 500 1227 m 9 X s 509 1227 m 5 X 1 Y 4 X s 518 1228 m 8 X 1 Y 1 X s 527 1229 m 8 X s 535 1229 m 9 X s 544 1229 m 5
 X 1 Y 4 X s 553 1230 m 3 X 1 1 d 5 X s 562 1231 m 9 X s 571 1231 m 8 X s 579 1231 m 9 X s 588 1231 m 9 X 1 Y s 597 1232 m 5 X 2 Y 4 X s 606 1234 m 6 X 2 Y 3 X s 615 1236 m 1 Y 8 X s 623 1237 m 9 X s 632 1237 m 1 X -4 Y 2 X 2 Y 6 X s 641 1235 m 7 X 1
 Y 2 X s 650 1236 m 9 X s 659 1236 m 8 X s 667 1236 m 9 X s 676 1236 m 1 X 1 Y 4 X -4 Y 4 X s 685 1233 m 9 X s 694 1233 m 5 X -4 Y 4 X s 703 1229 m -4 Y 4 X 1 1 d 3 X s 711 1226 m 9 X s 720 1226 m 9 X s 729 1226 m 7 X -3 Y 2 X s 738 1223 m 9 X s 747
 1223 m 7 X 1 Y 1 X s 755 1224 m 9 X 1 Y s 764 1225 m 9 X s 773 1225 m 8 X -4 Y 1 X s 782 1221 m 9 X s 791 1221 m 8 X s 799 1221 m 3 X 1 Y 6 X s 808 1222 m 4 X 2 Y 5 X s 817 1224 m 9 X s 826 1224 m 1 1 d 8 X s 835 1225 m 8 X s 843 1225 m 2 X -4 Y 7 X
 s 852 1221 m 9 X s 861 1221 m 3 X 1 1 d 4 X 1 1 d s 870 1223 m 9 X s 879 1223 m 8 X 2 Y s 887 1225 m 9 X s 896 1225 m 9 X s 905 1225 m 9 X s 914 1225 m 9 X s 923 1225 m 8 X s 931 1225 m 9 X s 940 1225 m 9 X s 949 1225 m 9 X s 958 1225 m 9 X s 967
 1225 m 8 X s 975 1225 m 9 X s 984 1225 m 1 X 1 Y 8 X s 993 1226 m 9 X s 1002 1226 m 9 X s 1011 1226 m 8 X s 1019 1226 m 9 X s 1028 1226 m 9 X s 1037 1226 m 9 X s 1046 1226 m 6 X 1 Y 2 X 1 2 d s 1055 1229 m 8 X s 1063 1229 m 9 X s 1072 1229 m 9 X s
 1081 1229 m 9 X s 1090 1229 m 9 X s 1099 1229 m 8 X s 1107 1229 m 9 X s 1116 1229 m 2 X -4 Y 7 X s 1125 1225 m 9 X s 1134 1225 m 3 X 1 Y 3 X 1 Y 3 X s 1143 1227 m 8 X s 1151 1227 m 4 X 1 Y 5 X s 1160 1228 m 3 X -4 Y 6 X s 1169 1224 m 9 X s 1178 1224
 m 6 X -4 Y 3 X s 1187 1220 m 8 X s 1195 1220 m 8 X 2 Y 1 X s 1204 1222 m 9 X s 1213 1222 m 9 X s 1222 1222 m 9 X s 1231 1222 m 8 X s 1239 1222 m 9 X s 1248 1222 m 9 X s 1257 1222 m 1 -4 d 2 X -4 Y 6 X s 1266 1214 m 7 X 1 Y 2 X s 1275 1215 m 8 X s
 1283 1215 m 9 X s 1292 1215 m 9 X s 1301 1215 m 9 X s 1310 1215 m 1 X 3 Y 8 X s 1319 1218 m 3 X 1 Y 5 X s 1327 1219 m 9 X s 1336 1219 m 3 X -4 Y 6 X s 1345 1215 m 1 X 1 -4 d 7 X s 1354 1211 m 4 X -4 Y 5 X s 1363 1207 m 8 X s 1371 1207 m 9 X s 1380
 1207 m 9 X s 1389 1207 m 1 X -4 Y 6 X 1 Y 2 X s 1398 1204 m 9 X s 1407 1204 m 1 2 d 7 X s 1415 1206 m 9 X s 1424 1206 m 9 X s 1433 1206 m 8 X -4 Y 1 X s 1442 1202 m 9 X s 1451 1202 m 8 X s 1459 1202 m 2 X -4 Y 7 X s 1468 1198 m 9 X s 1477 1198 m 9 X
 s 1486 1198 m 4 X 1 -5 d 4 X s 1495 1193 m 8 X s 1503 1193 m 9 X s 1512 1193 m 9 X s 1521 1193 m 9 X 2 Y s 1530 1195 m 5 X 1 Y 4 X s 1539 1196 m 8 X s 1547 1196 m 7 X 2 Y 2 X s 1556 1198 m 9 X s 1565 1198 m 9 X s 1574 1198 m 4 X -4 Y 5 X s 1583 1194
 m 8 X s 1591 1194 m 9 X s 1600 1194 m 9 X s 1609 1194 m 1 X 1 -5 d 4 X -4 Y 2 X 2 Y 1 X s 1618 1187 m 4 X -4 Y 5 X s 1627 1183 m 8 X 1 Y s 1635 1184 m 9 X s 1644 1184 m 6 X 1 Y 3 X s 1653 1185 m 1 X 1 2 d 7 X s 1662 1187 m 2 X -4 Y 7 X s 1671 1183 m
 8 X s 1679 1183 m 9 X s 1688 1183 m 9 X s 1697 1183 m 4 X -4 Y 5 X s 1706 1179 m 9 X s 1715 1179 m 1 X -5 Y 6 X 1 -4 d s 1723 1170 m 9 X s 1732 1170 m 4 X -4 Y 2 X -4 Y 3 X s 1741 1162 m 4 X -5 Y 5 X s 1750 1157 m 6 X 2 Y 3 X s 1759 1159 m 1 Y 8 X s
 1767 1160 m 9 X s 1776 1160 m 3 X -4 Y 4 X -4 Y 2 X s 1785 1152 m 1 X -5 Y 1 X -4 Y 7 X s 1794 1143 m 5 X -4 Y 2 X -5 Y 2 X s 1803 1134 m 3 X 2 Y 6 X s 1812 1136 m 1 Y 8 X s 1820 1137 m 1 X -4 Y 2 Y 8 X s 1829 1135 m 1 X -5 Y 6 X -4 Y 2 X 3 Y s 1838
 1129 m 3 X -4 Y 6 X s 1847 1125 m 8 X -5 Y 1 X s 1856 1120 m 8 X s 1864 1120 m 1 X 2 Y 1 X -5 Y 4 X -4 Y 2 X -5 Y 1 X s 1873 1108 m 4 X -4 Y 5 X s 1882 1104 m 3 X -5 Y 4 X -4 Y 2 X s 1891 1095 m 9 X s 1900 1095 m 8 X s 1908 1095 m 2 X -5 Y 3 X -5 Y
 1 X -4 Y 3 X s 1917 1081 m 9 X s 1926 1081 m 2 X -10 Y 1 X -4 Y 6 X s 1935 1067 m 1 Y 5 X -4 Y 2 X -10 Y 2 X s 1944 1054 m 6 X -5 Y 1 X -5 Y 1 X s 1952 1044 m 1 X -5 Y 2 X 2 Y 1 X -10 Y 3 X -5 Y 2 X s 1961 1026 m 5 X -5 Y 3 X -3 Y 1 X s 1970 1018 m
 4 X -5 Y 4 X -5 Y 1 X s 1979 1008 m 1 X -10 Y 4 X 2 Y 3 X -5 Y 1 X s 1988 995 m 4 X 2 Y 3 X -11 Y 1 X s 1996 986 m 2 X -5 Y 1 X -5 Y 2 X -6 Y 2 X 1 -5 d -5 Y 1 X -11 Y s 2005 949 m 2 X -6 Y 1 X -5 Y 1 -6 d 1 X -6 Y 2 X -5 Y 1 X -6 Y 1 X s 2014 915 m
 1 -6 d -17 Y 1 X 1 -6 d 1 X -6 Y 1 X -6 Y 4 X s 2023 874 m -13 Y 2 X -19 Y 1 -4 d 1 X -6 Y 1 -7 d -27 Y 1 X -21 Y 1 X -7 Y 1 3 d -22 Y 1 X s 2032 751 m 3 Y 1 X 2 Y -7 Y 3 Y 1 -8 d -23 Y 1 X -24 Y 1 X -17 Y 1 X -18 Y 1 -9 d -30 Y 1 -10 d -54 Y 1 -11
 d -81 Y s 2040 467 m -16 Y 1 -16 d -106 Y s black 3 lw 245 201 m 1796 X s 245 241 m -40 Y s 290 221 m -20 Y s 335 221 m -20 Y s 380 221 m -20 Y s 425 241 m -40 Y s 469 221 m -20 Y s 514 221 m -20 Y s 559 221 m -20 Y s 604 241 m -40 Y s 649 221 m -20
 Y s 694 221 m -20 Y s 739 221 m -20 Y s 784 241 m -40 Y s 829 221 m -20 Y s 874 221 m -20 Y s 918 221 m -20 Y s 963 241 m -40 Y s 1008 221 m -20 Y s 1053 221 m -20 Y s 1098 221 m -20 Y s 1143 241 m -40 Y s 1188 221 m -20 Y s 1233 221 m -20 Y s 1278
 221 m -20 Y s 1323 241 m -40 Y s 1367 221 m -20 Y s 1412 221 m -20 Y s 1457 221 m -20 Y s 1502 241 m -40 Y s 1547 221 m -20 Y s 1592 221 m -20 Y s 1637 221 m -20 Y s 1682 241 m -40 Y s 1727 221 m -20 Y s 1772 221 m -20 Y s 1816 221 m -20 Y s 1861
 241 m -40 Y s 245 241 m -40 Y s 1861 241 m -40 Y s 1906 221 m -20 Y s 1951 221 m -20 Y s 1996 221 m -20 Y s 245 201 m 1140 Y s 291 201 m -46 X s 268 253 m -23 X s 268 305 m -23 X s 268 357 m -23 X s 291 408 m -46 X s 268 460 m -23 X s 268 512 m -23
 X s 268 564 m -23 X s 291 616 m -46 X s 268 667 m -23 X s 268 719 m -23 X s 268 771 m -23 X s 291 823 m -46 X s 268 875 m -23 X s 268 926 m -23 X s 268 978 m -23 X s 291 1030 m -46 X s 268 1082 m -23 X s 268 1134 m -23 X s 268 1185 m -23 X s 291
 1237 m -46 X s 291 1237 m -46 X s 268 1289 m -23 X s 268 1341 m -23 X s 0.490196 0.545098 0.615686 c 1 1 1 c 0.490196 0.545098 0.615686 c 907 201 245 1341 bl 245 1341 m 907 X s 1152 1341 m 201 Y s 1152 1542 m -907 X s 245 1542 m -201 Y s black
 gsave  2268 1676 0 0 C 515.735 1471.36 t 0 r /Helvetica-Bold findfont 56.8825 sf 0 0 m (Signal efficiency) show NC gr  0 0 0.933333 c 9 lw 286 1492 m 190 X s black
 gsave  2268 1676 0 0 C 515.735 1368.97 t 0 r /Helvetica-Bold findfont 56.8825 sf 0 0 m (Background efficiency) show NC gr  1 0 0 c 286 1391 m 190 X s 0.490196 0.545098 0.615686 c 3 lw 1 1 1 c 0.490196 0.545098 0.615686 c 889 201 1152 1341 bl 1152
 1341 m 889 X s 2041 1341 m 201 Y s 2041 1542 m -889 X s 1152 1542 m -201 Y s black
 gsave  2268 1676 0 0 C 1418.27 1494.11 t 0 r /Helvetica-Bold findfont 56.8825 sf 0 0 m (Signal purity) show NC gr  0 0 0.933333 c[  52 12 ] 0 sd 6 lw 1192 1509 m 187 X s black
 gsave  2268 1676 0 0 C 1418.27 1429.65 t 0 r /Helvetica-Bold findfont 56.8825 sf 0 0 m (Signal efficiency*purity) show NC gr  0 0 0.933333 c[  22 12 ] 0 sd 1192 1441 m 187 X s black
 gsave  2268 1676 0 0 C 1501.7 1361.39 t 0 r /Helvetica-Bold findfont 56.8825 sf 0 0 m (S+B) show NC gr [  ] 0 sd 1483 1407 m 7 -49 d s 3 lw 1490 1358 m 8 64 d s 1498 1422 m 114 X s
 gsave  2268 1676 0 0 C 1418.27 1361.39 t 0 r /Helvetica-Bold findfont 56.8825 sf 0 0 m (S/) show NC gr  0 0.666667 0 c 9 lw 1192 1374 m 187 X s black 3 lw 245 1237 m 1796 X s
 gsave  2268 1676 0 0 C 337.503 386.801 t 0 r /Helvetica-Bold findfont 53.0904 sf 0 0 m (For 1000 signal and 1000 background) show NC gr 
 gsave  2268 1676 0 0 C 1058.01 318.542 t 0 r /Helvetica-Bold findfont 53.0904 sf 0 0 m ( is) show NC gr 
 gsave  2268 1676 0 0 C 955.626 318.542 t 0 r /Helvetica-Bold findfont 53.0904 sf 0 0 m (S+B) show NC gr  6 lw 933 360 m 7 -45 d s 3 lw 940 315 m 8 60 d s 948 375 m 110 X s
 gsave  2268 1676 0 0 C 337.503 318.542 t 0 r /Helvetica-Bold findfont 53.0904 sf 0 0 m (events the maximum S/) show NC gr 
 gsave  2268 1676 0 0 C 337.503 254.075 t 0 r /Helvetica-Bold findfont 53.0904 sf 0 0 m (28.84 when cutting at \2550.59) show NC gr  0.490196 0.545098 0.615686 c 0.364706 0.419608 0.490196 c 1471 96 23 1572 bf 0.490196 0.545098 0.615686 c 23 1572 m
 1471 X s 1494 1572 m 96 Y s 1494 1668 m -1471 X s 23 1668 m -96 Y s 1 1 1 c black 1 1 1 c
 gsave  2268 1676 0 0 C 75.8434 1600.29 t 0 r /Helvetica-Bold findfont 75.8434 sf 0 0 m (Cut efficiencies and optimal cut value) show NC gr  0 0.666667 0 c 2041 201 m 1140 Y s black 0 0.666667 0 c
 gsave  2268 1676 0 0 C 2203.25 963.211 t 90 r /Helvetica-Bold findfont 64.4669 sf 0 0 m (Significance) show NC gr  1995 201 m 46 X s 2018 237 m 23 X s 2018 273 m 23 X s 2018 309 m 23 X s 2018 345 m 23 X s 1995 381 m 46 X s 2018 417 m 23 X s 2018 453
 m 23 X s 2018 489 m 23 X s 2018 524 m 23 X s 1995 560 m 46 X s 2018 596 m 23 X s 2018 632 m 23 X s 2018 668 m 23 X s 2018 704 m 23 X s 1995 740 m 46 X s 2018 776 m 23 X s 2018 812 m 23 X s 2018 848 m 23 X s 2018 884 m 23 X s 1995 920 m 46 X s 2018
 956 m 23 X s 2018 992 m 23 X s 2018 1027 m 23 X s 2018 1063 m 23 X s 1995 1099 m 46 X s 2018 1135 m 23 X s 2018 1171 m 23 X s 2018 1207 m 23 X s 2018 1243 m 23 X s 1995 1279 m 46 X s 1995 1279 m 46 X s 2018 1315 m 23 X s black 0 0.666667 0 c
 gsave  2268 1676 0 0 C 2051.56 178.232 t 0 r /Helvetica-Bold findfont 64.4669 sf 0 0 m (0) show NC gr  black 0 0.666667 0 c
 gsave  2268 1676 0 0 C 2051.56 356.464 t 0 r /Helvetica-Bold findfont 64.4669 sf 0 0 m (5) show NC gr  black 0 0.666667 0 c
 gsave  2268 1676 0 0 C 2051.56 534.696 t 0 r /Helvetica-Bold findfont 64.4669 sf 0 0 m (10) show NC gr  black 0 0.666667 0 c
 gsave  2268 1676 0 0 C 2051.56 716.72 t 0 r /Helvetica-Bold findfont 64.4669 sf 0 0 m (15) show NC gr  black 0 0.666667 0 c
 gsave  2268 1676 0 0 C 2051.56 894.952 t 0 r /Helvetica-Bold findfont 64.4669 sf 0 0 m (20) show NC gr  black 0 0.666667 0 c
 gsave  2268 1676 0 0 C 2051.56 1073.18 t 0 r /Helvetica-Bold findfont 64.4669 sf 0 0 m (25) show NC gr  black 0 0.666667 0 c
 gsave  2268 1676 0 0 C 2051.56 1255.21 t 0 r /Helvetica-Bold findfont 64.4669 sf 0 0 m (30) show NC gr 
 gr  gr showpage
end
%%EOF
