%!PS-Adobe-2.0 EPSF-2.0
%%BoundingBox:  0 0 567 419
%%Title: DataSet/plots/mvaeffs_BDT.eps: Cut efficiencies for BDT classifier
%%Creator: ROOT Version 6.08/06
%%CreationDate: Mon Jul 30 13:52:30 2018
%%DocumentNeededResources: ProcSet (FontSetInit)
%%EndComments
%%BeginProlog
80 dict begin
/s {stroke} def /l {lineto} def /m {moveto} def /t {translate} def
/r {rotate} def /rl {roll}  def /R {repeat} def
/d {rlineto} def /rm {rmoveto} def /gr {grestore} def /f {eofill} def
/c {setrgbcolor} def /black {0 setgray} def /sd {setdash} def
/cl {closepath} def /sf {scalefont setfont} def /lw {setlinewidth} def
/box {m dup 0 exch d exch 0 d 0 exch neg d cl} def
/NC{systemdict begin initclip end}def/C{NC box clip newpath}def
/bl {box s} def /bf {gsave box gsave f grestore 1 lw [] 0 sd s grestore} def /Y { 0 exch d} def /X { 0 d} def 
/K {{pop pop 0 moveto} exch kshow} bind def
/ita {/ang 15 def gsave [1 0 ang dup sin exch cos div 1 0 0] concat} def 
/mp {newpath /y exch def /x exch def} def
/side {[w .77 mul w .23 mul] .385 w mul sd w 0 l currentpoint t -144 r} def
/mr {mp x y w2 0 360 arc} def /m24 {mr s} def /m20 {mr f} def
/mb {mp x y w2 add m w2 neg 0 d 0 w neg d w 0 d 0 w d cl} def
/mt {mp x y w2 add m w2 neg w neg d w 0 d cl} def
/m21 {mb f} def /m25 {mb s} def /m22 {mt f} def /m26{mt s} def
/m23 {mp x y w2 sub m w2 w d w neg 0 d cl f} def
/m27 {mp x y w2 add m w3 neg w2 neg d w3 w2 neg d w3 w2 d cl s} def
/m28 {mp x w2 sub y w2 sub w3 add m w3 0 d  0 w3 neg d w3 0 d 0 w3 d w3 0 d  0 w3 d w3 neg 0 d 0 w3 d w3 neg 0 d 0 w3 neg d w3 neg 0 d cl s } def
/m29 {mp gsave x w2 sub y w2 add w3 sub m currentpoint t 4 {side} repeat cl fill gr} def
/m30 {mp gsave x w2 sub y w2 add w3 sub m currentpoint t 4 {side} repeat cl s gr} def
/m31 {mp x y w2 sub m 0 w d x w2 sub y m w 0 d x w2 sub y w2 add m w w neg d x w2 sub y w2 sub m w w d s} def
/m32 {mp x y w2 sub m w2 w d w neg 0 d cl s} def
/m33 {mp x y w2 add m w3 neg w2 neg d w3 w2 neg d w3 w2 d cl f} def
/m34 {mp x w2 sub y w2 sub w3 add m w3 0 d  0 w3 neg d w3 0 d 0 w3 d w3 0 d  0 w3 d w3 neg 0 d 0 w3 d w3 neg 0 d 0 w3 neg d w3 neg 0 d cl f } def
/m2 {mp x y w2 sub m 0 w d x w2 sub y m w 0 d s} def
/m5 {mp x w2 sub y w2 sub m w w d x w2 sub y w2 add m w w neg d s} def
%%IncludeResource: ProcSet (FontSetInit)
%%IncludeResource: font Times-Roman
%%IncludeResource: font Times-Italic
%%IncludeResource: font Times-Bold
%%IncludeResource: font Times-BoldItalic
%%IncludeResource: font Helvetica
%%IncludeResource: font Helvetica-Oblique
%%IncludeResource: font Helvetica-Bold
%%IncludeResource: font Helvetica-BoldOblique
%%IncludeResource: font Courier
%%IncludeResource: font Courier-Oblique
%%IncludeResource: font Courier-Bold
%%IncludeResource: font Courier-BoldOblique
%%IncludeResource: font Symbol
%%IncludeResource: font ZapfDingbats
/reEncode {exch findfont dup length dict begin {1 index /FID eq  {pop pop} {def} ifelse } forall /Encoding exch def currentdict end dup /FontName get exch definefont pop } def [/Times-Bold /Times-Italic /Times-BoldItalic /Helvetica /Helvetica-Oblique
 /Helvetica-Bold /Helvetica-BoldOblique /Courier /Courier-Oblique /Courier-Bold /Courier-BoldOblique /Times-Roman /AvantGarde-Book /AvantGarde-BookOblique /AvantGarde-Demi /AvantGarde-DemiOblique /Bookman-Demi /Bookman-DemiItalic /Bookman-Light
 /Bookman-LightItalic /Helvetica-Narrow /Helvetica-Narrow-Bold /Helvetica-Narrow-BoldOblique /Helvetica-Narrow-Oblique /NewCenturySchlbk-Roman /NewCenturySchlbk-Bold /NewCenturySchlbk-BoldItalic /NewCenturySchlbk-Italic /Palatino-Bold
 /Palatino-BoldItalic /Palatino-Italic /Palatino-Roman ] {ISOLatin1Encoding reEncode } forall
%%EndProlog
%%BeginSetup
%%EndSetup
newpath  gsave  .25 .25 scale  gsave  0 0 t 0.490196 0.545098 0.615686 c[  ] 0 sd 3 lw 1 1 1 c 2268 1676 0 0 bf black 1 1 1 c 1796 1140 245 201 bf black 1796 1140 245 201 bl 1 1 1 c 1796 1140 245 201 bf black 1796 1140 245 201 bl 245 201 m 1796 X s[
 4 8] 0 sd 325 1341 m -1140 Y s 549 1341 m -1140 Y s 773 1341 m -1140 Y s 996 1341 m -1140 Y s 1220 1341 m -1140 Y s 1444 1341 m -1140 Y s 1668 1341 m -1140 Y s 1892 1341 m -1140 Y s 325 1341 m -1140 Y s 1892 1341 m -1140 Y s[  ] 0 sd 245 201 m 1140
 Y s[ 4 8] 0 sd 2041 201 m -1796 X s 2041 408 m -1796 X s 2041 616 m -1796 X s 2041 823 m -1796 X s 2041 1030 m -1796 X s 2041 1237 m -1796 X s 2041 1237 m -1796 X s 0 0 0.933333 c[  22 12 ] 0 sd 6 lw 0.49 0.6 0.82 c black 0 0 0.933333 c 245 719 m 1
 Y 9 X s 254 720 m 8 X 1 Y 1 X s 263 721 m 8 X s 271 721 m 9 X s 280 721 m 9 X s 289 721 m 9 X s 298 721 m 9 X s 307 721 m 8 X 1 Y s 315 722 m 1 X 1 Y 8 X s 324 723 m 9 X s 333 723 m 9 X s 342 723 m 9 X s 351 723 m 8 X s 359 723 m 9 X s 368 723 m 6 X
 1 Y 3 X s 377 724 m 1 X 1 Y 7 X 2 Y 1 X s 386 727 m 5 X 1 Y 3 X 1 Y 1 X s 395 729 m 8 X s 403 729 m 9 X s 412 729 m 5 X 1 Y 1 X 1 Y 3 X s 421 731 m 9 X s 430 731 m 1 X 1 Y 1 X 1 Y 7 X s 439 733 m 3 X 2 Y 5 X s 447 735 m 5 X 1 Y 2 X 1 Y 2 X s 456 737
 m 2 X 1 1 d 6 X s 465 738 m 1 X 1 Y 4 X 1 Y 3 X 2 Y 1 X s 474 742 m 1 Y 1 X 1 Y 4 X 1 Y 2 X 1 Y 2 X s 483 746 m 5 X 1 Y 3 X s 491 747 m 3 X 1 Y 3 X 1 Y 2 X 1 Y 1 X s 500 750 m 2 X 1 Y 1 X 1 1 d 5 X 1 Y s 509 753 m 6 X 1 1 d 1 X 1 Y 1 1 d s 518 756 m
 6 X 2 Y 1 X 1 Y 2 X s 527 759 m 5 X 1 1 d 1 Y 2 X s 535 761 m 1 X 2 Y 1 X 1 Y 2 X 1 Y 1 1 d 2 X 2 Y 1 X 1 Y 1 X s 544 769 m 1 X 1 Y 1 X 1 1 d 3 X 1 1 d 1 1 d 1 X s 553 773 m 2 X 1 Y 3 X 2 Y 1 X 1 Y 1 1 d 1 Y 1 X 1 Y 1 1 d s 562 781 m 3 X 1 Y 6 X s
 571 782 m 1 Y 3 X 1 Y 1 X 1 1 d 2 X 1 Y 1 X s 579 786 m 3 X 1 Y 2 X 1 Y 1 X 1 Y 1 1 d 1 1 d 1 X s 588 791 m 5 X 1 Y 1 X 1 Y 3 X s 597 793 m 1 1 d 1 Y 4 X 1 Y 3 X 1 Y 1 X s 606 797 m 1 1 d 1 X 1 1 d 1 1 d 1 1 d 1 X 1 Y 3 X s 615 802 m 1 1 d 1 Y 1 1 d
 2 X 1 Y 2 X 1 Y 1 X 1 1 d s 623 808 m 1 1 d 1 X 2 Y 5 X 1 Y 1 X 1 Y 1 X s 632 813 m 1 X 1 Y 8 X s 641 814 m 1 X 2 Y 1 X 1 Y 3 X 1 Y 1 X 2 Y 3 X s 650 820 m 1 Y 1 X 1 Y 1 X 1 1 d 2 X 1 Y 2 X 1 Y 1 X 1 Y 1 X s 659 826 m 1 Y 2 X 1 Y 1 X 1 Y 3 X 1 Y 1 2
 d 2 Y 1 X s 667 834 m 3 X 1 1 d 3 X 5 Y 2 X s 676 840 m 3 X 1 1 d 2 Y 4 X 1 Y 1 X s 685 844 m 1 X 1 Y 1 X 1 Y 2 X 1 Y 1 X 1 Y 1 1 d 1 Y 1 X 1 Y 2 X s 694 851 m 5 X 4 Y 1 X 1 Y 3 X s 703 856 m -5 Y 4 X 1 Y 1 1 d 1 X 2 Y 2 X s 711 855 m 1 1 d 1 X 1 Y
 1 X 1 1 d 1 X 1 Y 4 X 2 Y s 720 861 m 1 X 4 Y 4 X 1 Y 1 X 1 Y 2 X 2 Y 1 X s 729 869 m 6 X 1 Y 1 X 1 Y 2 X s 738 871 m 1 Y 1 -5 d 1 1 d 1 1 d 1 Y 3 X 1 Y 3 X s 747 871 m 3 X 1 Y 1 X 1 1 d 3 X s 755 873 m 1 X 1 Y 4 X 2 Y 3 X 1 1 d s 764 877 m 6 X 1 Y
 1 X 1 Y 2 X 2 Y s 773 881 m 1 X 3 Y 1 X 1 Y 1 X 1 Y 3 X 1 1 d 2 X s 782 887 m 1 Y 2 X 2 Y 3 X 1 Y 1 X 1 Y 3 X s 791 892 m 1 X 1 Y 2 X 1 Y 3 X 3 Y 2 X s 799 897 m 1 X 1 Y 1 X 1 Y 1 X 3 Y 1 2 d 1 1 d 2 Y 4 X s 808 907 m 1 X 1 Y 1 X 4 Y 1 1 d 2 X 1 Y 2
 X 1 Y 1 X 2 Y 1 X s 817 917 m 1 X 1 Y 7 X 1 Y 1 X s 826 919 m 4 X 5 Y 1 2 d 2 X 1 Y 2 X s 835 927 m 3 X 1 Y 1 X 3 Y 2 X -6 Y 2 X s 843 925 m 2 X 1 Y 1 X 1 2 d 1 X 1 1 d 1 X -6 Y 1 X 1 Y 1 X 3 Y s 852 927 m 1 Y 1 X 1 2 d 1 Y 1 X -6 Y 1 X 1 Y 2 X 2 Y
 3 X s 861 928 m 2 X 1 1 d 1 Y 4 X 1 5 d 1 X s 870 935 m 2 X 2 Y 2 X 2 Y 2 X 1 Y 3 X s 879 940 m 1 X 2 Y 1 X 1 Y 1 X 1 Y 4 X 2 Y 1 X 1 Y s 887 947 m 1 X 2 Y 1 X 1 Y 4 X 1 2 d 2 X 1 Y s 896 953 m 3 X 1 2 d 5 X 1 Y s 905 956 m 2 X 5 Y 1 X 1 Y 2 X 2 Y 1
 X 3 Y 1 X 1 1 d 2 Y 1 X s 914 970 m 1 X 1 Y 1 X 2 Y 6 X 1 Y 1 X s 923 974 m 2 Y 2 X 1 Y 1 X 2 Y 2 X 2 Y 1 X 1 Y 2 X 2 Y s 931 984 m 4 X 1 1 d 2 Y 4 X s 940 987 m 3 X 2 Y 2 X 1 Y 1 X 3 Y 1 X 2 Y 2 X s 949 995 m 9 X s 958 995 m 1 X 2 Y 2 X 1 Y 4 X 1 2
 d 1 X s 967 1000 m 3 X 2 Y 1 X 3 Y 3 X 2 Y 1 X s 975 1007 m 1 X 3 Y 3 X 2 Y 1 X 2 Y 1 X 1 1 d 2 Y 2 X s 984 1017 m 1 2 d 1 2 d 3 Y 2 X -6 Y 1 X 1 Y 4 X s 993 1019 m 3 X 2 Y 2 X 2 Y 4 X s 1002 1023 m 1 X 2 Y 5 X 1 Y 3 X s 1011 1026 m 1 X 1 2 d 2 Y 6
 X s 1019 1030 m 4 X 2 Y 1 X 2 Y 2 X 1 2 d 1 Y 1 2 d 2 Y s 1028 1041 m 2 X 2 Y 1 2 d 3 X 2 Y 1 X 2 Y 2 X s 1037 1049 m 3 X 3 Y 1 2 d 1 X -6 Y 1 -7 d 3 X s 1046 1041 m 4 X -6 Y 2 X 2 Y 2 X 2 Y 1 X s 1055 1039 m 1 X 2 Y 1 X 2 Y -7 Y 1 X -6 Y 1 2 d 2 X
 2 Y 2 X s 1063 1034 m 9 X s 1072 1034 m 2 X 2 Y -7 Y 2 X 2 Y 2 X 1 2 d 2 X s 1081 1033 m 1 X 2 Y 3 X 2 Y 1 X 1 2 d 3 X s 1090 1039 m 5 X 2 Y 4 X s 1099 1041 m 3 X 2 Y 5 X s 1107 1043 m 1 X 2 Y 3 X 2 Y 5 X s 1116 1047 m 2 X 2 Y 7 X s 1125 1049 m 2 X
 -6 Y 1 X 2 Y 2 X 2 Y 3 X 2 Y 1 X -7 Y s 1134 1042 m 4 X -6 Y 5 X s 1143 1036 m 3 X 2 Y 5 X s 1151 1038 m 2 X 1 -7 d 6 X s 1160 1031 m 6 X 2 Y 1 X -6 Y 2 X s 1169 1027 m 2 X 1 2 d 1 X 2 Y 2 X 4 Y 3 X s 1178 1035 m 1 X 1 2 d 7 X s 1187 1037 m 3 X 3 Y
 4 X 2 Y 1 X s 1195 1042 m 2 X 1 -7 d 1 X 2 Y 1 X -6 Y 1 X 1 -7 d 2 X s 1204 1024 m 3 X 2 Y 2 X -6 Y 4 X s 1213 1020 m 1 X 2 Y 6 X -13 Y 1 X 1 -7 d s 1222 1002 m 1 X -6 Y 2 X 1 2 d 1 X 2 Y 3 X -6 Y 1 X s 1231 994 m 3 X 4 Y 3 X 2 Y 2 X s 1239 1000 m 1
 X -6 Y 1 X 1 2 d 1 X -6 Y 5 X s 1248 990 m 7 X -7 Y 1 X 2 Y -6 Y 1 X s 1257 979 m 5 X -7 Y 4 X s 1266 972 m 5 X 2 Y 2 X 3 Y 2 X s 1275 977 m 2 Y 1 X -7 Y 3 Y 4 X -7 Y 3 X s 1283 968 m 9 X s 1292 968 m 1 X 1 2 d -6 Y 2 X -7 Y 5 X s 1301 957 m 9 X s
 1310 957 m 4 X -6 Y 5 X s 1319 951 m 3 X 2 Y 5 X s 1327 953 m 1 X -7 Y 8 X 3 Y s 1336 949 m 1 X -7 Y 1 X -7 Y 1 X -6 Y 3 X 1 -7 d 2 X s 1345 922 m 3 X 1 3 d 1 X 2 Y 4 X s 1354 927 m 2 X -7 Y 4 X -13 Y 3 X s 1363 907 m 3 X 3 Y 2 X -5 Y 3 X -6 Y s
 1371 899 m 4 X -7 Y 1 X -13 Y 1 X -7 Y 2 X -6 Y 1 X s 1380 866 m 1 -7 d 4 X 3 Y 3 X -7 Y 1 X s 1389 855 m 5 X -6 Y 1 X -7 Y 1 X -7 Y 2 X s 1398 835 m 9 X s 1407 835 m 2 X -6 Y 6 X 2 Y s 1415 831 m 3 X -6 Y 1 X 1 -7 d 4 X -7 Y s 1424 811 m 2 X -6 Y 2
 X -7 Y 1 X -6 Y 3 X -7 Y 1 X s 1433 785 m 4 X 2 Y 2 X -6 Y 3 X s 1442 781 m -7 Y 3 X 3 Y 2 X 2 Y 4 X s 1451 779 m -7 Y 3 X -6 Y 1 -7 d -6 Y 2 X -7 Y 2 X s 1459 746 m 1 X 1 -6 d 3 X -7 Y 4 X s 1468 733 m 2 X 1 -7 d 6 X s 1477 726 m 1 -6 d 3 X -7 Y 1
 X -6 Y 2 X -7 Y 2 X s 1486 700 m 8 X -13 Y 1 X s 1495 687 m -13 Y 6 X -7 Y 2 X s 1503 667 m 2 X -7 Y 1 -6 d 5 X -7 Y 1 X s 1512 647 m 1 X -6 Y 5 X -7 Y 1 -6 d 2 X s 1521 628 m 1 X -7 Y 1 X 1 2 d 2 X 3 Y 2 X -7 Y 2 X s 1530 619 m 3 X 3 Y 1 X -14 Y 2
 X -6 Y 3 X s 1539 602 m 3 X -7 Y 2 X -13 Y 3 X s 1547 582 m 2 X -7 Y 7 X s 1556 575 m 2 X -6 Y 4 X 1 -7 d -6 Y 2 X s 1565 556 m -7 Y 1 X 2 Y 1 X -6 Y 2 X -7 Y 2 X -6 Y 1 X -7 Y 2 X s 1574 525 m 9 X s 1583 525 m -13 Y 2 Y 2 X -6 Y 5 X -7 Y 1 X s 1591
 501 m 7 X -6 Y 1 -7 d 1 X s 1600 488 m 4 X -7 Y 2 X -6 Y 3 X s 1609 475 m 4 X -7 Y 1 X -6 Y 4 X s 1618 462 m 1 X -14 Y 8 X s 1627 448 m 1 X -6 Y 1 X -7 Y 5 X 3 Y 1 X s 1635 438 m 9 X s 1644 438 m 9 X s 1653 438 m 2 X -7 Y 7 X s 1662 431 m 5 X -6 Y 2
 Y 4 X s 1671 427 m -7 Y 5 X 1 -6 d 2 X s 1679 414 m 1 X -7 Y 1 X -6 Y 2 X 1 -7 d -7 Y 4 X s 1688 387 m 1 X -6 Y 1 -7 d 2 X -6 Y 1 X 1 -7 d 3 X s 1697 361 m 9 X s 1706 361 m 5 X -7 Y 4 X s 1715 354 m -13 Y 8 X s 1723 341 m 1 X -6 Y 4 X -7 Y 4 X s
 1732 328 m 9 X s 1741 328 m 9 X s 1750 328 m 2 X 3 Y 7 X s 1759 331 m 2 X -7 Y 6 X -7 Y s 1767 317 m 4 X -6 Y 2 X -7 Y 1 X -6 Y 2 X -7 Y s 1776 291 m 2 X -7 Y 7 X s 1785 284 m 1 -6 d 8 X s 1794 278 m 3 X 1 -7 d -6 Y 3 X -7 Y 2 X s 1803 258 m 9 X s
 1812 258 m 8 X s 1820 258 m 3 X -7 Y 2 X -6 Y 1 X -7 Y 3 X s 1829 238 m 5 X -6 Y 4 X s 1838 232 m 9 X s 1847 232 m 9 X s 1856 232 m 8 X s 1864 232 m 2 Y 9 X s 1873 234 m 9 X s 1882 234 m 9 X s 1891 234 m 9 X s 1900 234 m 8 X -6 Y s 1908 228 m 5 X -7
 Y 4 X s 1917 221 m 9 X s 1926 221 m 9 X s 1935 221 m 9 X s 1944 221 m 8 X s 1952 221 m 9 X s 1961 221 m 9 X s 1970 221 m 9 X s 1979 221 m 9 X s 1988 221 m 8 X s 1996 221 m 5 X 1 -7 d 3 X s 2005 214 m -6 Y 9 X s 2014 208 m 9 X s 2023 208 m 9 X s 2032
 208 m 8 X s 2040 208 m 1 X s black[  ] 0 sd 3 lw 245 201 m 1796 X s
 gsave  2268 1676 0 0 C 925.289 30.3373 t 0 r /Helvetica-Bold findfont 72.0512 sf 0 0 m (Cut value applied on BDT output) show NC gr  325 241 m -40 Y s 370 221 m -20 Y s 414 221 m -20 Y s 459 221 m -20 Y s 504 221 m -20 Y s 549 241 m -40 Y s 593 221
 m -20 Y s 638 221 m -20 Y s 683 221 m -20 Y s 728 221 m -20 Y s 773 241 m -40 Y s 817 221 m -20 Y s 862 221 m -20 Y s 907 221 m -20 Y s 952 221 m -20 Y s 996 241 m -40 Y s 1041 221 m -20 Y s 1086 221 m -20 Y s 1131 221 m -20 Y s 1175 221 m -20 Y s
 1220 241 m -40 Y s 1265 221 m -20 Y s 1310 221 m -20 Y s 1355 221 m -20 Y s 1399 221 m -20 Y s 1444 241 m -40 Y s 1489 221 m -20 Y s 1534 221 m -20 Y s 1578 221 m -20 Y s 1623 221 m -20 Y s 1668 241 m -40 Y s 1713 221 m -20 Y s 1757 221 m -20 Y s
 1802 221 m -20 Y s 1847 221 m -20 Y s 1892 241 m -40 Y s 325 241 m -40 Y s 280 221 m -20 Y s 1892 241 m -40 Y s 1936 221 m -20 Y s 1981 221 m -20 Y s 2026 221 m -20 Y s
 gsave  2268 1676 0 0 C 291.997 128.934 t 0 r /Helvetica-Bold findfont 64.4669 sf 0 0 m (0.4) show NC gr 
 gsave  2268 1676 0 0 C 257.867 128.934 t 0 r /Symbol findfont 64.4669 sf 0 0 m (-) show NC gr 
 gsave  2268 1676 0 0 C 515.735 128.934 t 0 r /Helvetica-Bold findfont 64.4669 sf 0 0 m (0.3) show NC gr 
 gsave  2268 1676 0 0 C 485.398 128.934 t 0 r /Symbol findfont 64.4669 sf 0 0 m (-) show NC gr 
 gsave  2268 1676 0 0 C 739.473 128.934 t 0 r /Helvetica-Bold findfont 64.4669 sf 0 0 m (0.2) show NC gr 
 gsave  2268 1676 0 0 C 709.135 128.934 t 0 r /Symbol findfont 64.4669 sf 0 0 m (-) show NC gr 
 gsave  2268 1676 0 0 C 967.003 128.934 t 0 r /Helvetica-Bold findfont 64.4669 sf 0 0 m (0.1) show NC gr 
 gsave  2268 1676 0 0 C 936.666 128.934 t 0 r /Symbol findfont 64.4669 sf 0 0 m (-) show NC gr 
 gsave  2268 1676 0 0 C 1198.33 128.934 t 0 r /Helvetica-Bold findfont 64.4669 sf 0 0 m (0) show NC gr 
 gsave  2268 1676 0 0 C 1399.31 128.934 t 0 r /Helvetica-Bold findfont 64.4669 sf 0 0 m (0.1) show NC gr 
 gsave  2268 1676 0 0 C 1619.26 128.934 t 0 r /Helvetica-Bold findfont 64.4669 sf 0 0 m (0.2) show NC gr 
 gsave  2268 1676 0 0 C 1842.99 128.934 t 0 r /Helvetica-Bold findfont 64.4669 sf 0 0 m (0.3) show NC gr  245 201 m 1140 Y s
 gsave  2268 1676 0 0 C 64.4669 731.888 t 90 r /Helvetica-Bold findfont 72.0512 sf 0 0 m (Efficiency \(Purity\)) show NC gr  291 201 m -46 X s 268 253 m -23 X s 268 305 m -23 X s 268 357 m -23 X s 291 408 m -46 X s 268 460 m -23 X s 268 512 m -23 X s
 268 564 m -23 X s 291 616 m -46 X s 268 667 m -23 X s 268 719 m -23 X s 268 771 m -23 X s 291 823 m -46 X s 268 875 m -23 X s 268 926 m -23 X s 268 978 m -23 X s 291 1030 m -46 X s 268 1082 m -23 X s 268 1134 m -23 X s 268 1185 m -23 X s 291 1237 m
 -46 X s 291 1237 m -46 X s 268 1289 m -23 X s 268 1341 m -23 X s
 gsave  2268 1676 0 0 C 182.024 178.232 t 0 r /Helvetica-Bold findfont 64.4669 sf 0 0 m (0) show NC gr 
 gsave  2268 1676 0 0 C 128.934 383.009 t 0 r /Helvetica-Bold findfont 64.4669 sf 0 0 m (0.2) show NC gr 
 gsave  2268 1676 0 0 C 125.142 591.578 t 0 r /Helvetica-Bold findfont 64.4669 sf 0 0 m (0.4) show NC gr 
 gsave  2268 1676 0 0 C 128.934 796.355 t 0 r /Helvetica-Bold findfont 64.4669 sf 0 0 m (0.6) show NC gr 
 gsave  2268 1676 0 0 C 125.142 1004.92 t 0 r /Helvetica-Bold findfont 64.4669 sf 0 0 m (0.8) show NC gr 
 gsave  2268 1676 0 0 C 189.608 1213.49 t 0 r /Helvetica-Bold findfont 64.4669 sf 0 0 m (1) show NC gr  0 0 0.933333 c[  52 12 ] 0 sd 6 lw 0.49 0.6 0.82 c black 0 0 0.933333 c 245 719 m 1 Y 9 X s 254 720 m 8 X 1 Y 1 X s 263 721 m 8 X s 271 721 m 9 X
 s 280 721 m 9 X s 289 721 m 9 X s 298 721 m 9 X s 307 721 m 8 X 1 Y s 315 722 m 1 X 1 Y 8 X s 324 723 m 9 X s 333 723 m 9 X s 342 723 m 9 X s 351 723 m 8 X s 359 723 m 9 X s 368 723 m 6 X 1 Y 3 X s 377 724 m 1 X 1 Y 7 X 2 Y 1 X s 386 727 m 5 X 1 Y 3
 X 1 Y 1 X s 395 729 m 8 X s 403 729 m 9 X s 412 729 m 5 X 1 Y 1 X 1 Y 3 X s 421 731 m 9 X s 430 731 m 1 X 1 Y 1 X 1 Y 7 X s 439 733 m 3 X 2 Y 5 X s 447 735 m 5 X 1 Y 2 X 1 Y 2 X s 456 737 m 2 X 1 1 d 6 X s 465 738 m 1 X 1 Y 4 X 1 Y 3 X 2 Y 1 X s 474
 742 m 1 Y 1 X 1 Y 4 X 1 Y 2 X 1 Y 2 X s 483 746 m 5 X 1 Y 3 X s 491 747 m 3 X 1 Y 3 X 1 Y 2 X 1 Y 1 X s 500 750 m 2 X 1 Y 1 X 1 1 d 5 X 1 Y s 509 753 m 6 X 1 1 d 1 X 1 Y 1 1 d s 518 756 m 6 X 2 Y 1 X 1 Y 2 X s 527 759 m 5 X 1 1 d 1 Y 2 X s 535 761 m
 1 X 2 Y 1 X 1 Y 2 X 1 Y 1 1 d 2 X 2 Y 1 X 1 Y 1 X s 544 769 m 1 X 1 Y 1 X 1 1 d 3 X 1 1 d 1 1 d 1 X s 553 773 m 2 X 1 Y 3 X 2 Y 1 X 1 Y 1 1 d 1 Y 1 X 1 Y 1 1 d s 562 781 m 3 X 1 Y 6 X s 571 782 m 1 Y 3 X 1 Y 1 X 1 1 d 2 X 1 Y 1 X s 579 786 m 3 X 1 Y
 2 X 1 Y 1 X 1 Y 1 1 d 1 1 d 1 X s 588 791 m 5 X 1 Y 1 X 1 Y 3 X s 597 793 m 1 1 d 1 Y 4 X 1 Y 3 X 1 Y 1 X s 606 797 m 1 1 d 1 X 1 1 d 1 1 d 1 1 d 1 X 1 Y 3 X s 615 802 m 1 1 d 1 Y 1 1 d 2 X 1 Y 2 X 1 Y 1 X 1 1 d s 623 808 m 1 1 d 1 X 2 Y 5 X 1 Y 1 X
 1 Y 1 X s 632 813 m 1 X 1 Y 8 X s 641 814 m 1 X 2 Y 1 X 1 Y 3 X 1 Y 1 X 2 Y 3 X s 650 820 m 1 Y 1 X 1 Y 1 X 1 1 d 2 X 1 Y 2 X 1 Y 1 X 1 Y 1 X s 659 826 m 1 Y 2 X 1 Y 1 X 1 Y 3 X 1 Y 1 2 d 2 Y 1 X s 667 834 m 3 X 1 1 d 3 X 5 Y 2 X s 676 840 m 3 X 1 1
 d 2 Y 4 X 1 Y 1 X s 685 844 m 1 X 1 Y 1 X 1 Y 2 X 1 Y 1 X 1 Y 1 1 d 1 Y 1 X 1 Y 2 X s 694 851 m 5 X 4 Y 1 X 1 Y 3 X s 703 856 m -1 Y 4 X 1 Y 1 1 d 1 X 2 Y 2 X s 711 859 m 1 1 d 1 X 1 Y 1 X 1 1 d 1 X 2 Y 4 X 2 Y s 720 866 m 1 X 3 Y 4 X 1 Y 1 X 1 Y 2
 X 2 Y 1 X s 729 873 m 6 X 1 Y 1 X 2 Y 2 X s 738 876 m 1 Y 1 -2 d 1 1 d 1 1 d 2 Y 3 X 1 Y 3 X s 747 880 m 3 X 1 Y 1 X 1 1 d 3 X s 755 882 m 1 X 1 Y 4 X 1 Y 3 X 1 1 d s 764 885 m 6 X 2 Y 1 X 1 Y 2 X 2 Y s 773 890 m 1 X 2 Y 1 X 2 Y 1 X 1 Y 3 X 1 1 d 2
 X s 782 896 m 1 Y 2 X 1 Y 3 X 2 Y 1 X 1 Y 3 X s 791 901 m 1 X 1 Y 2 X 1 Y 3 X 3 Y 2 X s 799 906 m 1 X 1 Y 1 X 1 Y 1 X 3 Y 1 2 d 1 1 d 2 Y 4 X s 808 916 m 1 X 1 Y 1 X 4 Y 1 1 d 2 X 1 Y 2 X 2 Y 1 X 1 Y 1 X s 817 926 m 1 X 1 Y 7 X 1 Y 1 X s 826 928 m 4
 X 6 Y 1 1 d 2 X 1 Y 2 X s 835 936 m 3 X 2 Y 1 X 2 Y 2 X -1 Y 2 X s 843 939 m 2 X 1 Y 1 X 1 2 d 1 X 1 1 d 1 X -1 Y 1 X 1 Y 1 X 3 Y s 852 946 m 1 Y 1 X 1 2 d 1 Y 1 X -1 Y 1 X 1 Y 2 X 2 Y 3 X s 861 952 m 2 X 1 1 d 1 Y 4 X 1 5 d 1 X s 870 959 m 2 X 3 Y
 2 X 1 Y 2 X 2 Y 3 X s 879 965 m 1 X 1 Y 1 X 1 Y 1 X 2 Y 4 X 1 Y 1 X 2 Y s 887 972 m 1 X 1 Y 1 X 2 Y 4 X 1 1 d 2 X 2 Y s 896 978 m 3 X 1 1 d 5 X 2 Y s 905 981 m 2 X 5 Y 1 X 1 Y 2 X 2 Y 1 X 3 Y 1 X 1 1 d 2 Y 1 X s 914 995 m 1 X 2 Y 1 X 1 Y 6 X 2 Y 1 X
 s 923 1000 m 1 Y 2 X 2 Y 1 X 2 Y 2 X 1 Y 1 X 2 Y 2 X 2 Y s 931 1010 m 4 X 1 1 d 2 Y 4 X s 940 1013 m 3 X 2 Y 2 X 1 Y 1 X 4 Y 1 X 1 Y 2 X s 949 1021 m 9 X s 958 1021 m 1 X 2 Y 2 X 2 Y 4 X 1 1 d 1 X s 967 1026 m 3 X 2 Y 1 X 4 Y 3 X 1 Y 1 X s 975 1033
 m 1 X 4 Y 3 X 2 Y 1 X 1 Y 1 X 1 2 d 2 Y 2 X s 984 1044 m 1 2 d 1 1 d 4 Y 2 X -1 Y 1 X 2 Y 4 X s 993 1052 m 3 X 2 Y 2 X 2 Y 4 X s 1002 1056 m 1 X 1 Y 5 X 2 Y 3 X s 1011 1059 m 1 X 1 2 d 2 Y 6 X s 1019 1063 m 4 X 2 Y 1 X 2 Y 2 X 1 2 d 2 Y 1 2 d 1 Y s
 1028 1074 m 2 X 2 Y 1 2 d 3 X 2 Y 1 X 2 Y 2 X s 1037 1082 m 3 X 4 Y 1 2 d 1 X -1 Y 4 X s 1046 1087 m 4 X -1 Y 2 X 2 Y 2 X 2 Y 1 X s 1055 1090 m 1 X 2 Y 1 X 2 Y -1 Y 1 X -1 Y 1 2 d 2 X 2 Y 2 X s 1063 1096 m 9 X s 1072 1096 m 2 X 2 Y 2 X 2 Y 2 X 1 2 d
 2 X s 1081 1102 m 1 X 2 Y 3 X 2 Y 1 X 1 2 d 3 X s 1090 1108 m 5 X 2 Y 4 X s 1099 1110 m 3 X 3 Y 5 X s 1107 1113 m 1 X 2 Y 3 X 2 Y 5 X s 1116 1117 m 2 X 2 Y 7 X s 1125 1119 m 3 X 2 Y 2 X 2 Y 3 X 2 Y 1 X s 1134 1125 m 4 X -1 Y 5 X s 1143 1124 m 3 X 2
 Y 5 X s 1151 1126 m 9 X s 1160 1126 m 6 X 2 Y 1 X -1 Y 2 X s 1169 1127 m 2 X 1 3 d 1 X 2 Y 2 X 5 Y 3 X s 1178 1137 m 1 X 1 2 d 7 X s 1187 1139 m 3 X 2 Y 4 X 3 Y 1 X s 1195 1144 m 2 X 1 -1 d 1 X 3 Y 1 X -1 Y 1 X 1 -1 d 2 X s 1204 1144 m 3 X 3 Y 2 X
 -1 Y 4 X s 1213 1146 m 1 X 3 Y 6 X -1 Y 1 X 1 -1 d s 1222 1147 m 1 X -1 Y 2 X 1 3 d 1 X 3 Y 3 X -1 Y 1 X s 1231 1151 m 3 X 5 Y 3 X 3 Y 2 X s 1239 1159 m 1 X -1 Y 1 X 1 3 d 6 X s 1248 1161 m 7 X -1 Y 1 X 3 Y -1 Y 1 X s 1257 1162 m 9 X s 1266 1162 m 5
 X 3 Y 2 X 2 Y 2 X s 1275 1167 m 3 Y 1 X 3 Y 4 X -1 Y 3 X s 1283 1172 m 9 X s 1292 1172 m 1 X 1 3 d 2 X -1 Y 5 X s 1301 1174 m 9 X s 1310 1174 m 9 X s 1319 1174 m 3 X 3 Y 5 X s 1327 1177 m 1 X -1 Y 8 X 3 Y s 1336 1179 m 2 X -1 Y 4 X 1 -1 d 2 X s 1345
 1177 m 3 X 1 3 d 1 X 4 Y 4 X s 1354 1184 m 2 X -1 Y 4 X -1 Y 3 X s 1363 1182 m 3 X 3 Y 2 X 3 Y 3 X s 1371 1188 m 5 X -1 Y 1 X -1 Y 3 X s 1380 1186 m 1 -1 d 4 X 4 Y 3 X -1 Y 1 X s 1389 1188 m 6 X -1 Y 3 X s 1398 1187 m 9 X s 1407 1187 m 8 X 3 Y s
 1415 1190 m 4 X 1 -1 d 4 X s 1424 1189 m 2 X -1 Y 3 X -1 Y 4 X s 1433 1187 m 4 X 4 Y 2 X -1 Y 3 X s 1442 1190 m 3 X 4 Y 2 X 4 Y 4 X s 1451 1198 m 3 X -1 Y 1 X -1 Y 4 X s 1459 1196 m 5 X -1 Y 4 X s 1468 1195 m 9 X s 1477 1195 m 1 -1 d 4 X -1 Y 4 X s
 1486 1193 m 8 X -2 Y 1 X s 1495 1191 m -1 Y 8 X s 1503 1190 m 2 X -1 Y 1 -1 d 6 X s 1512 1188 m 1 X -1 Y 5 X -1 Y 3 X s 1521 1186 m 1 X -1 Y 1 X 1 5 d 2 X 6 Y 2 X -1 Y 2 X s 1530 1195 m 3 X 6 Y 1 X -1 Y 5 X s 1539 1200 m 3 X -1 Y 2 X -1 Y 3 X s 1547
 1198 m 2 X -1 Y 7 X s 1556 1197 m 2 X -1 Y 5 X -1 Y 2 X s 1565 1195 m -1 Y 1 X 7 Y 3 X -1 Y 2 X -1 Y 3 X s 1574 1199 m 9 X s 1583 1199 m -2 Y 8 Y 2 X -1 Y 5 X -1 Y 1 X s 1591 1203 m 7 X 1 -1 d 1 X s 1600 1202 m 4 X -1 Y 2 X -1 Y 3 X s 1609 1200 m 5
 X -1 Y 4 X s 1618 1199 m 1 X -2 Y 8 X s 1627 1197 m 1 X -1 Y 1 X -1 Y 5 X 10 Y 1 X s 1635 1205 m 9 X s 1644 1205 m 9 X s 1653 1205 m 2 X -1 Y 7 X s 1662 1204 m 5 X -1 Y 11 Y 4 X s 1671 1214 m 5 X 1 -1 d 2 X s 1679 1213 m 1 X -1 Y 1 X -1 Y 3 X -1 Y 4
 X s 1688 1210 m 1 X -1 Y 1 -1 d 2 X -1 Y 1 X 1 -2 d 3 X s 1697 1205 m 9 X s 1706 1205 m 5 X -1 Y 4 X s 1715 1204 m -3 Y 8 X s 1723 1201 m 1 X -1 Y 4 X -2 Y 4 X s 1732 1198 m 9 X s 1741 1198 m 9 X s 1750 1198 m 2 X 19 Y 7 X s 1759 1217 m 2 X -1 Y 6 X
 -1 Y s 1767 1215 m 4 X -1 Y 2 X -2 Y 1 X -1 Y 2 X -2 Y s 1776 1209 m 2 X -2 Y 7 X s 1785 1207 m 1 -3 d 8 X s 1794 1204 m 3 X 1 -3 d -3 Y 3 X -4 Y 2 X s 1803 1194 m 9 X s 1812 1194 m 8 X s 1820 1194 m 3 X -6 Y 2 X -6 Y 1 X -9 Y 3 X s 1829 1173 m 5 X
 -12 Y 4 X s 1838 1161 m 9 X s 1847 1161 m 9 X s 1856 1161 m 8 X s 1864 1161 m 76 Y 9 X s 1873 1237 m 9 X s 1882 1237 m 9 X s 1891 1237 m 9 X s 1900 1237 m 8 X s 1908 1237 m 9 X s 1917 1237 m 9 X s 1926 1237 m 9 X s 1935 1237 m 9 X s 1944 1237 m 8 X
 s 1952 1237 m 9 X s 1961 1237 m 9 X s 1970 1237 m 9 X s 1979 1237 m 9 X s 1988 1237 m 8 X s 1996 1237 m 9 X s 2005 1237 m 9 X s 2014 1237 m 9 X s 2023 1237 m 9 X s 2032 1237 m 8 X s 2040 1237 m 1 X s[  ] 0 sd 9 lw 0.49 0.6 0.82 c black 0 0 0.933333
 c 245 1237 m 9 X s 254 1237 m 9 X s 263 1237 m 8 X s 271 1237 m 9 X s 280 1237 m 9 X s 289 1237 m 9 X s 298 1237 m 9 X s 307 1237 m 8 X s 315 1237 m 9 X s 324 1237 m 9 X s 333 1237 m 9 X s 342 1237 m 9 X s 351 1237 m 8 X s 359 1237 m 9 X s 368 1237
 m 9 X s 377 1237 m 9 X s 386 1237 m 9 X s 395 1237 m 8 X s 403 1237 m 9 X s 412 1237 m 9 X s 421 1237 m 9 X s 430 1237 m 9 X s 439 1237 m 8 X s 447 1237 m 9 X s 456 1237 m 9 X s 465 1237 m 9 X s 474 1237 m 9 X s 483 1237 m 8 X s 491 1237 m 9 X s 500
 1237 m 9 X s 509 1237 m 9 X s 518 1237 m 9 X s 527 1237 m 8 X s 535 1237 m 9 X s 544 1237 m 9 X s 553 1237 m 9 X s 562 1237 m 9 X s 571 1237 m 8 X s 579 1237 m 9 X s 588 1237 m 9 X s 597 1237 m 9 X s 606 1237 m 9 X s 615 1237 m 8 X s 623 1237 m 9 X
 s 632 1237 m 9 X s 641 1237 m 9 X s 650 1237 m 9 X s 659 1237 m 8 X s 667 1237 m 9 X s 676 1237 m 9 X s 685 1237 m 9 X s 694 1237 m 9 X s 703 1237 m -6 Y 8 X s 711 1231 m 9 X s 720 1231 m 9 X s 729 1231 m 9 X s 738 1231 m 1 -7 d 8 X s 747 1224 m 8 X
 s 755 1224 m 9 X s 764 1224 m 9 X s 773 1224 m 9 X s 782 1224 m 9 X s 791 1224 m 8 X s 799 1224 m 9 X s 808 1224 m 9 X s 817 1224 m 9 X s 826 1224 m 9 X s 835 1224 m 6 X -7 Y 2 X s 843 1217 m 7 X -6 Y 2 X s 852 1211 m 3 X -7 Y 6 X s 861 1204 m 9 X s
 870 1204 m 9 X s 879 1204 m 8 X s 887 1204 m 9 X s 896 1204 m 9 X s 905 1204 m 9 X s 914 1204 m 9 X s 923 1204 m 8 X s 931 1204 m 9 X s 940 1204 m 9 X s 949 1204 m 9 X s 958 1204 m 9 X s 967 1204 m 8 X s 975 1204 m 9 X s 984 1204 m 4 X -6 Y 5 X s
 993 1198 m 9 X s 1002 1198 m 9 X s 1011 1198 m 8 X s 1019 1198 m 9 X s 1028 1198 m 9 X s 1037 1198 m 5 X -7 Y 1 -7 d 3 X s 1046 1184 m 4 X -6 Y 5 X s 1055 1178 m 2 X -7 Y 1 X -6 Y 5 X s 1063 1165 m 9 X s 1072 1165 m 2 X -7 Y 7 X s 1081 1158 m 9 X s
 1090 1158 m 9 X s 1099 1158 m 8 X s 1107 1158 m 9 X s 1116 1158 m 9 X s 1125 1158 m 2 X -7 Y 7 X -6 Y s 1134 1145 m 4 X -7 Y 5 X s 1143 1138 m 8 X s 1151 1138 m 2 X 1 -6 d 6 X s 1160 1132 m 7 X -7 Y 2 X s 1169 1125 m 9 X s 1178 1125 m 9 X s 1187
 1125 m 8 X s 1195 1125 m 2 X 1 -7 d 2 X -6 Y 1 X 1 -7 d 2 X s 1204 1105 m 5 X -6 Y 4 X s 1213 1099 m 7 X -13 Y 1 X 1 -7 d s 1222 1079 m 1 X -7 Y 7 X -6 Y 1 X s 1231 1066 m 8 X s 1239 1066 m 1 X -7 Y 3 X -6 Y 5 X s 1248 1053 m 7 X -7 Y 1 X -7 Y 1 X s
 1257 1039 m 5 X -6 Y 4 X s 1266 1033 m 9 X s 1275 1033 m 1 X -7 Y 4 X -6 Y 3 X s 1283 1020 m 9 X s 1292 1020 m 2 X -7 Y 2 X -7 Y 5 X s 1301 1006 m 9 X s 1310 1006 m 4 X -6 Y 5 X s 1319 1000 m 8 X s 1327 1000 m 1 X -7 Y 8 X s 1336 993 m 1 X -6 Y 1 X
 -7 Y 1 X -7 Y 3 X 1 -6 d 2 X s 1345 967 m 9 X s 1354 967 m 2 X -7 Y 4 X -13 Y 3 X s 1363 947 m 5 X -7 Y 3 X -6 Y s 1371 934 m 4 X -7 Y 1 X -13 Y 1 X -7 Y 2 X -6 Y 1 X s 1380 901 m 1 -7 d 7 X -6 Y 1 X s 1389 888 m 5 X -7 Y 1 X -7 Y 1 X -6 Y 2 X s
 1398 868 m 9 X s 1407 868 m 2 X -7 Y 6 X s 1415 861 m 3 X -6 Y 1 X 1 -7 d 4 X -7 Y s 1424 841 m 2 X -6 Y 2 X -7 Y 1 X -6 Y 3 X -7 Y 1 X s 1433 815 m 6 X -7 Y 3 X s 1442 808 m -6 Y 9 X s 1451 802 m -7 Y 3 X -6 Y 1 -7 d -7 Y 2 X -6 Y 2 X s 1459 769 m
 1 X 1 -7 d 3 X -6 Y 4 X s 1468 756 m 2 X 1 -7 d 6 X s 1477 749 m 1 -7 d 3 X -6 Y 1 X -7 Y 2 X -6 Y 2 X s 1486 723 m 8 X -14 Y 1 X s 1495 709 m -13 Y 6 X -6 Y 2 X s 1503 690 m 2 X -7 Y 1 -7 d 5 X -6 Y 1 X s 1512 670 m 1 X -7 Y 5 X -6 Y 1 -7 d 2 X s
 1521 650 m 1 X -7 Y 6 X -6 Y 2 X s 1530 637 m 4 X -13 Y 2 X -7 Y 3 X s 1539 617 m 3 X -7 Y 2 X -13 Y 3 X s 1547 597 m 2 X -6 Y 7 X s 1556 591 m 2 X -7 Y 4 X 1 -7 d -6 Y 2 X s 1565 571 m -7 Y 2 X -6 Y 2 X -7 Y 2 X -7 Y 1 X -6 Y 2 X s 1574 538 m 9 X s
 1583 538 m -13 Y 2 X -7 Y 5 X -7 Y 1 X s 1591 511 m 7 X -6 Y 1 -7 d 1 X s 1600 498 m 4 X -6 Y 2 X -7 Y 3 X s 1609 485 m 4 X -7 Y 1 X -6 Y 4 X s 1618 472 m 1 X -13 Y 8 X s 1627 459 m 1 X -7 Y 1 X -7 Y 6 X s 1635 445 m 9 X s 1644 445 m 9 X s 1653 445
 m 2 X -6 Y 7 X s 1662 439 m 5 X -7 Y 4 X s 1671 432 m -6 Y 5 X 1 -7 d 2 X s 1679 419 m 1 X -7 Y 1 X -6 Y 2 X 1 -7 d -6 Y 4 X s 1688 393 m 1 X -7 Y 1 -7 d 2 X -6 Y 1 X 1 -7 d 3 X s 1697 366 m 9 X s 1706 366 m 5 X -6 Y 4 X s 1715 360 m -14 Y 8 X s
 1723 346 m 1 X -6 Y 4 X -7 Y 4 X s 1732 333 m 9 X s 1741 333 m 9 X s 1750 333 m 9 X s 1759 333 m 2 X -6 Y 6 X -7 Y s 1767 320 m 4 X -7 Y 2 X -6 Y 1 X -7 Y 2 X -6 Y s 1776 294 m 2 X -7 Y 7 X s 1785 287 m 1 -7 d 8 X s 1794 280 m 3 X 1 -6 d -7 Y 3 X -6
 Y 2 X s 1803 261 m 9 X s 1812 261 m 8 X s 1820 261 m 3 X -7 Y 2 X -7 Y 1 X -6 Y 3 X s 1829 241 m 5 X -7 Y 4 X s 1838 234 m 9 X s 1847 234 m 9 X s 1856 234 m 8 X s 1864 234 m 9 X s 1873 234 m 9 X s 1882 234 m 9 X s 1891 234 m 9 X s 1900 234 m 8 X -6
 Y s 1908 228 m 5 X -7 Y 4 X s 1917 221 m 9 X s 1926 221 m 9 X s 1935 221 m 9 X s 1944 221 m 8 X s 1952 221 m 9 X s 1961 221 m 9 X s 1970 221 m 9 X s 1979 221 m 9 X s 1988 221 m 8 X s 1996 221 m 5 X 1 -7 d 3 X s 2005 214 m -6 Y 9 X s 2014 208 m 9 X s
 2023 208 m 9 X s 2032 208 m 8 X s 2040 208 m 1 X s 1 0 0 c black 1 0 0 c 245 1237 m -2 Y 9 X s 254 1235 m 8 X -3 Y 1 X s 263 1232 m 8 X s 271 1232 m 9 X s 280 1232 m 9 X s 289 1232 m 9 X s 298 1232 m 9 X s 307 1232 m 5 X 1 -3 d 2 X -2 Y s 315 1227 m
 1 X -3 Y 8 X s 324 1224 m 9 X s 333 1224 m 9 X s 342 1224 m 9 X s 351 1224 m 8 X s 359 1224 m 3 X 1 -2 d 5 X s 368 1222 m 6 X -3 Y 3 X s 377 1219 m 1 X -3 Y 2 X -2 Y 5 X -5 Y 1 X s 386 1209 m 4 X -3 Y 1 X -3 Y 3 X -2 Y 1 X s 395 1201 m 8 X s 403
 1201 m 2 X -3 Y 7 X s 412 1198 m 5 X -3 Y 1 X -2 Y 2 X -3 Y 1 X s 421 1190 m 9 X s 430 1190 m 1 X -2 Y 1 X -3 Y 3 X 1 -3 d 3 X s 439 1182 m 3 X -5 Y 5 X s 447 1177 m 3 X -3 Y 2 X -2 Y 2 X -3 Y 2 X s 456 1169 m 2 X 1 -2 d 6 X s 465 1167 m -3 Y 1 X -3
 Y 4 X -2 Y 1 X -3 Y 2 X -8 Y 1 X s 474 1148 m -2 Y 1 X -3 Y 4 X -3 Y 1 -2 d 1 X -3 Y 2 X s 483 1135 m 5 X -2 Y 1 X -3 Y 2 X s 491 1130 m 3 X -3 Y 3 X -2 Y 2 X -3 Y 1 X s 500 1122 m -2 Y 2 X -3 Y 1 X 1 -3 d 5 X -2 Y s 509 1112 m 3 X -3 Y 3 X 1 -3 d 1
 X -2 Y 1 -3 d s 518 1101 m 3 X -2 Y 3 X -6 Y 1 X -2 Y 2 X s 527 1091 m 5 X -3 Y 1 -2 d -3 Y 2 X s 535 1083 m 1 X -8 Y 1 X -3 Y 2 X -2 Y 1 -3 d 1 X -2 Y 1 X -6 Y 1 X -2 Y 1 X -3 Y s 544 1054 m 1 X -2 Y 1 X 1 -3 d 3 X 1 -3 d 1 -2 d 1 X s 553 1044 m 1
 X -3 Y 1 X -3 Y 3 X -5 Y 1 X -5 Y 1 -3 d -2 Y 1 X -3 Y 1 -2 d s 562 1018 m 3 X -6 Y 6 X s 571 1012 m -2 Y 3 X -3 Y 1 X 1 -3 d 2 X -2 Y 1 X -3 Y s 579 999 m 3 X -2 Y 2 X -3 Y 1 X -3 Y 1 -2 d 1 -3 d 1 X s 588 986 m 5 X -3 Y 1 X -5 Y 3 X s 597 978 m 1
 -2 d -3 Y 4 X -3 Y 3 X -2 Y 1 X s 606 968 m 1 -3 d 1 X -2 Y 1 -3 d 1 -3 d 1 -2 d 1 X -3 Y 3 X s 615 952 m 1 -3 d -2 Y 1 -3 d -2 Y 2 X -3 Y 2 X -3 Y 1 X 1 -2 d s 623 934 m 1 -3 d 1 X -5 Y 5 X -3 Y 1 X -2 Y 1 X s 632 921 m 1 X -3 Y 6 X -3 Y 2 X s 641
 915 m 1 X -5 Y 1 X -2 Y 3 X -3 Y 1 X -5 Y 3 X s 650 900 m -3 Y 1 X -2 Y 1 X 1 -3 d 2 X -3 Y 2 X -2 Y 1 X -3 Y 1 X s 659 884 m -3 Y 2 X -2 Y 1 X -3 Y 1 -2 d 2 X -3 Y 1 -5 d -5 Y 1 X s 667 861 m 3 X 1 -3 d 3 X -13 Y 2 X s 676 845 m 3 X 1 -3 d -5 Y 4 X
 -3 Y 1 X s 685 834 m 1 X -2 Y 1 X -3 Y 2 X -3 Y 1 X -2 Y 1 -3 d -2 Y 1 X -3 Y 2 X s 694 816 m 5 X -8 Y 1 X -2 Y 3 X s 703 806 m -3 Y 4 X -3 Y 1 -2 d 1 X -6 Y 2 X s 711 792 m 1 -2 d 1 X -3 Y 1 X 1 -2 d 1 X -3 Y 4 X -5 Y s 720 777 m 1 X -8 Y 4 X -3 Y
 1 X -2 Y 2 X -6 Y 1 X s 729 758 m 6 X -2 Y 1 X -3 Y 2 X s 738 753 m -2 Y 1 X 1 -3 d 1 -3 d -2 Y 3 X -3 Y 3 X s 747 740 m 3 X -2 Y 1 X 1 -3 d 3 X s 755 735 m 1 X -3 Y 4 X -2 Y 3 X 1 -3 d s 764 727 m 6 X -3 Y 1 X -2 Y 2 X -5 Y s 773 717 m 1 X -6 Y 1 X
 -2 Y 1 X -3 Y 3 X 1 -2 d 2 X s 782 704 m -3 Y 2 X -3 Y 3 X -2 Y 1 X -3 Y 3 X s 791 693 m 1 X -3 Y 2 X -2 Y 3 X -5 Y 2 X s 799 683 m 1 X -3 Y 1 X -3 Y 1 X -5 Y 1 -5 d 1 -3 d -2 Y 4 X s 808 662 m 1 X -3 Y 1 X -8 Y 1 -2 d 2 X -3 Y 2 X -3 Y 1 X -2 Y 1 X
 s 817 641 m 1 X -3 Y 7 X -3 Y 1 X s 826 635 m 4 X -10 Y 1 -3 d 2 X -2 Y 2 X s 835 620 m 3 X -3 Y 1 X -5 Y 4 X s 843 612 m 2 X -3 Y 1 X 1 -2 d 1 X 1 -3 d 2 X -3 Y 1 X -5 Y s 852 596 m -2 Y 1 X 1 -3 d -3 Y 2 X -2 Y 2 X -3 Y 3 X s 861 583 m 2 X 1 -2 d
 -3 Y 4 X 1 -8 d 1 X s 870 570 m 2 X -5 Y 2 X -3 Y 2 X -2 Y 3 X s 879 560 m 1 X -3 Y 1 X -3 Y 1 X -2 Y 4 X -3 Y 1 X -2 Y s 887 547 m 1 X -3 Y 1 X -3 Y 4 X 1 -2 d 2 X -3 Y s 896 536 m 3 X 1 -3 d 5 X -2 Y s 905 531 m 2 X -8 Y 1 X -3 Y 2 X -2 Y 1 X -5 Y
 1 X 1 -3 d -3 Y 1 X s 914 507 m 1 X -2 Y 1 X -3 Y 6 X -3 Y 1 X s 923 499 m -2 Y 2 X -3 Y 1 X -2 Y 2 X -3 Y 1 X -3 Y 2 X -2 Y s 931 484 m 4 X 1 -3 d -3 Y 4 X s 940 478 m 3 X -2 Y 2 X -3 Y 1 X -5 Y 1 X -3 Y 2 X s 949 465 m 9 X s 958 465 m 1 X -2 Y 2 X
 -3 Y 4 X 1 -2 d 1 X s 967 458 m 3 X -3 Y 1 X -5 Y 3 X -3 Y 1 X s 975 447 m 1 X -5 Y 3 X -3 Y 1 X -2 Y 1 X 1 -3 d -3 Y 2 X s 984 431 m 1 -2 d 1 -3 d -5 Y 3 X -3 Y 4 X s 993 418 m 3 X -2 Y 2 X -3 Y 4 X s 1002 413 m 1 X -3 Y 5 X -2 Y 3 X s 1011 408 m 1
 X 1 -3 d -2 Y 6 X s 1019 403 m 4 X -3 Y 1 X -3 Y 2 X 1 -2 d -3 Y 1 -2 d -3 Y s 1028 387 m 2 X -3 Y 1 -2 d 3 X -3 Y 1 X -3 Y 2 X s 1037 376 m 3 X -5 Y 1 -2 d 5 X s 1046 369 m 6 X -3 Y 2 X -3 Y 1 X s 1055 363 m 1 X -2 Y 1 X -3 Y 1 X 1 -2 d 2 X -3 Y 2
 X s 1063 353 m 9 X s 1072 353 m 2 X -3 Y 2 X -2 Y 2 X 1 -3 d 2 X s 1081 345 m 1 X -3 Y 3 X -2 Y 1 X 1 -3 d 3 X s 1090 337 m 5 X -2 Y 4 X s 1099 335 m 3 X -3 Y 5 X s 1107 332 m 1 X -3 Y 3 X -2 Y 5 X s 1116 327 m 2 X -3 Y 7 X s 1125 324 m 3 X -3 Y 2 X
 -2 Y 3 X -3 Y 1 X s 1134 316 m 9 X s 1143 316 m 3 X -2 Y 5 X s 1151 314 m 9 X s 1160 314 m 6 X -3 Y 3 X s 1169 311 m 2 X 1 -3 d 1 X -2 Y 2 X -5 Y 3 X s 1178 301 m 1 X 1 -3 d 7 X s 1187 298 m 3 X -3 Y 4 X -2 Y 1 X s 1195 293 m 4 X -3 Y 5 X s 1204 290
 m 3 X -3 Y 6 X s 1213 287 m 1 X -2 Y 8 X s 1222 285 m 3 X 1 -3 d 1 X -2 Y 4 X s 1231 280 m 3 X -6 Y 3 X -2 Y 2 X s 1239 272 m 2 X 1 -3 d 6 X s 1248 269 m 8 X -2 Y 1 X s 1257 267 m 9 X s 1266 267 m 5 X -3 Y 2 X -3 Y 2 X s 1275 261 m -2 Y 1 X -3 Y 7 X
 s 1283 256 m 9 X s 1292 256 m 1 X 1 -3 d 7 X s 1301 253 m 9 X s 1310 253 m 9 X s 1319 253 m 3 X -2 Y 5 X s 1327 251 m 9 X -3 Y s 1336 248 m 9 X s 1345 248 m 3 X 1 -2 d 1 X -3 Y 4 X s 1354 243 m 9 X s 1363 243 m 3 X -3 Y 2 X -2 Y 3 X s 1371 238 m 9 X
 s 1380 238 m 5 X -3 Y 4 X s 1389 235 m 9 X s 1398 235 m 9 X s 1407 235 m 8 X -2 Y s 1415 233 m 9 X s 1424 233 m 9 X s 1433 233 m 4 X -3 Y 5 X s 1442 230 m 3 X -3 Y 2 X -2 Y 4 X s 1451 225 m 8 X s 1459 225 m 9 X s 1468 225 m 9 X s 1477 225 m 9 X s
 1486 225 m 9 X s 1495 225 m 8 X s 1503 225 m 9 X s 1512 225 m 9 X s 1521 225 m 2 X 1 -3 d 2 X -3 Y 4 X s 1530 219 m 3 X -2 Y 6 X s 1539 217 m 8 X s 1547 217 m 9 X s 1556 217 m 9 X s 1565 217 m 1 X -3 Y 8 X s 1574 214 m 9 X s 1583 214 m -2 Y 8 X s
 1591 212 m 9 X s 1600 212 m 9 X s 1609 212 m 9 X s 1618 212 m 9 X s 1627 212 m 7 X -3 Y 1 X s 1635 209 m 9 X s 1644 209 m 9 X s 1653 209 m 9 X s 1662 209 m 5 X -3 Y 4 X s 1671 206 m 8 X s 1679 206 m 9 X s 1688 206 m 9 X s 1697 206 m 9 X s 1706 206 m
 9 X s 1715 206 m 8 X s 1723 206 m 9 X s 1732 206 m 9 X s 1741 206 m 9 X s 1750 206 m 2 X -2 Y 7 X s 1759 204 m 8 X s 1767 204 m 9 X s 1776 204 m 9 X s 1785 204 m 9 X s 1794 204 m 9 X s 1803 204 m 9 X s 1812 204 m 8 X s 1820 204 m 9 X s 1829 204 m 9
 X s 1838 204 m 9 X s 1847 204 m 9 X s 1856 204 m 8 X s 1864 204 m -3 Y 9 X s 1873 201 m 9 X s 1882 201 m 9 X s 1891 201 m 9 X s 1900 201 m 8 X s 1908 201 m 9 X s 1917 201 m 9 X s 1926 201 m 9 X s 1935 201 m 9 X s 1944 201 m 8 X s 1952 201 m 9 X s
 1961 201 m 9 X s 1970 201 m 9 X s 1979 201 m 9 X s 1988 201 m 8 X s 1996 201 m 9 X s 2005 201 m 9 X s 2014 201 m 9 X s 2023 201 m 9 X s 2032 201 m 8 X s 2040 201 m 1 X s 0 0.666667 0 c 1 1 1 c black 0 0.666667 0 c 245 1009 m 9 X s 254 1009 m 8 X 1 Y
 1 X s 263 1010 m 8 X s 271 1010 m 9 X s 280 1010 m 9 X s 289 1010 m 9 X s 298 1010 m 9 X s 307 1010 m 8 X 1 Y s 315 1011 m 9 X s 324 1011 m 9 X s 333 1011 m 9 X s 342 1011 m 9 X s 351 1011 m 8 X s 359 1011 m 3 X 1 1 d 5 X s 368 1012 m 9 X s 377 1012
 m 1 X 1 Y 7 X 1 Y 1 X s 386 1014 m 4 X 1 Y 4 X 1 Y 1 X s 395 1016 m 8 X s 403 1016 m 9 X s 412 1016 m 5 X 1 Y 3 X 1 Y 1 X s 421 1018 m 9 X s 430 1018 m 2 X 1 Y 7 X s 439 1019 m 3 X 2 Y 5 X s 447 1021 m 5 X 1 Y 4 X s 456 1022 m 2 X 1 1 d 6 X s 465
 1023 m 1 X 1 Y 5 X 1 Y 2 X 1 Y 1 X s 474 1026 m 1 Y 1 X 1 Y 4 X 1 1 d 3 X s 483 1029 m 5 X 1 Y 3 X s 491 1030 m 3 X 1 Y 5 X 1 Y 1 X s 500 1032 m 1 Y 3 X 1 1 d 5 X s 509 1034 m 3 X 1 Y 5 X 1 Y 1 X s 518 1036 m 3 X 1 Y 3 X 1 Y 1 X 1 Y 2 X s 527 1039 m
 5 X 1 1 d 2 X s 535 1040 m 1 X 2 Y 1 X 1 Y 2 X 1 1 d 2 X 2 Y 2 X 1 Y s 544 1047 m 2 X 1 1 d 3 X 1 1 d 2 X s 553 1049 m 1 X 1 Y 4 X 2 Y 1 X 1 Y 1 X 1 Y 1 X 1 Y 1 X s 562 1055 m 3 X 1 Y 6 X s 571 1056 m 1 Y 3 X 1 Y 4 X 1 Y 1 X s 579 1059 m 3 X 1 Y 2 X
 1 Y 1 X 1 1 d 2 X s 588 1062 m 5 X 1 Y 1 X 1 Y 3 X s 597 1064 m 1 1 d 1 Y 7 X 1 Y 1 X s 606 1067 m 2 X 1 Y 1 1 d 1 X 1 1 d 1 X 1 Y 3 X s 615 1071 m 1 X 1 Y 1 1 d 2 X 1 Y 3 X 1 1 d s 623 1075 m 1 1 d 1 X 1 Y 5 X 1 Y 2 X s 632 1078 m 1 X 1 Y 6 X 1 Y 2
 X s 641 1080 m 1 X 1 Y 1 X 1 Y 4 X 2 Y 3 X s 650 1084 m 1 X 1 Y 1 X 1 1 d 4 X 1 Y 1 X 1 Y 1 X s 659 1088 m 2 X 1 Y 1 X 1 Y 3 X 1 Y 1 1 d 2 Y 1 X s 667 1094 m 7 X 4 Y 2 X s 676 1098 m 3 X 1 1 d 1 Y 4 X 1 Y 1 X s 685 1101 m 2 X 1 Y 2 X 1 Y 1 X 1 Y 1 X
 1 Y 1 X 1 Y 2 X s 694 1106 m 5 X 2 Y 1 X 1 Y 3 X s 703 1109 m -4 Y 4 X 1 Y 1 1 d 1 X 1 Y 2 X s 711 1108 m 1 1 d 1 X 1 Y 3 X 1 Y 4 X 2 Y s 720 1113 m 1 X 2 Y 4 X 1 Y 3 X 2 Y 1 X s 729 1118 m 6 X 1 Y 3 X s 738 1119 m 1 Y 1 -4 d 1 1 d 1 1 d 1 Y 6 X s
 747 1119 m 3 X 1 Y 1 X 1 1 d 3 X s 755 1121 m 1 X 1 Y 7 X 1 1 d s 764 1123 m 6 X 1 Y 1 X 1 Y 2 X 1 Y s 773 1126 m 1 X 2 Y 1 X 1 Y 4 X 1 1 d 2 X s 782 1130 m 1 Y 2 X 1 Y 3 X 1 Y 4 X s 791 1133 m 1 X 1 Y 2 X 1 Y 3 X 2 Y 2 X s 799 1137 m 1 X 1 Y 2 X 2
 Y 1 2 d 1 X 1 Y 4 X s 808 1143 m 1 X 1 Y 1 X 3 Y 3 X 1 Y 2 X 1 Y 1 X 1 Y 1 X s 817 1150 m 1 X 1 Y 7 X 1 Y 1 X s 826 1152 m 4 X 3 Y 1 1 d 2 X 1 Y 2 X s 835 1157 m 3 X 1 Y 1 X 1 Y 2 X -3 Y 2 X s 843 1156 m 3 X 1 1 d 1 X 1 1 d 1 X -4 Y 1 X 1 Y 1 X 2 Y
 s 852 1157 m 1 Y 1 X 1 1 d 1 X -4 Y 1 X 1 Y 2 X 1 Y 3 X s 861 1157 m 2 X 1 1 d 1 Y 4 X 1 3 d 1 X s 870 1162 m 2 X 2 Y 2 X 1 Y 2 X 1 Y 3 X s 879 1166 m 2 X 1 Y 1 X 1 Y 4 X 1 Y 1 X 1 Y s 887 1170 m 1 X 1 Y 1 X 1 Y 4 X 1 1 d 2 X 1 Y s 896 1174 m 3 X 1
 1 d 5 X 1 Y s 905 1176 m 2 X 3 Y 1 X 1 Y 2 X 1 Y 1 X 2 Y 1 X 1 1 d 1 Y 1 X s 914 1185 m 1 X 1 Y 1 X 1 Y 6 X 1 Y 1 X s 923 1188 m 1 Y 2 X 1 Y 1 X 1 Y 2 X 1 Y 1 X 1 Y 2 X 1 Y s 931 1194 m 4 X 1 1 d 1 Y 4 X s 940 1196 m 3 X 1 Y 2 X 1 Y 1 X 2 Y 1 X 1 Y
 2 X s 949 1201 m 9 X s 958 1201 m 1 X 1 Y 2 X 1 Y 4 X 1 1 d 1 X s 967 1204 m 3 X 1 Y 1 X 2 Y 3 X 1 Y 1 X s 975 1208 m 1 X 2 Y 3 X 1 Y 1 X 1 Y 1 X 1 1 d 1 Y 2 X s 984 1214 m 1 1 d 1 2 d 2 Y 2 X -4 Y 1 X 1 Y 4 X s 993 1216 m 3 X 1 Y 2 X 1 Y 4 X s 1002
 1218 m 1 X 1 Y 5 X 1 Y 3 X s 1011 1220 m 1 X 1 1 d 1 Y 6 X s 1019 1222 m 4 X 2 Y 1 X 1 Y 2 X 1 1 d 1 Y 1 1 d 1 Y s 1028 1229 m 2 X 1 Y 1 2 d 3 X 1 Y 1 X 1 Y 2 X s 1037 1234 m 3 X 2 Y 1 1 d 1 X -4 Y 1 -4 d 3 X s 1046 1229 m 4 X -4 Y 2 X 2 Y 2 X 1 Y 1
 X s 1055 1228 m 1 X 1 Y 1 X 1 Y -4 Y 1 X -4 Y 1 1 d 2 X 2 Y 2 X s 1063 1225 m 9 X s 1072 1225 m 2 X 1 Y -4 Y 2 X 1 Y 2 X 1 1 d 2 X s 1081 1224 m 1 X 1 Y 3 X 2 Y 1 X 1 1 d 3 X s 1090 1228 m 5 X 1 Y 4 X s 1099 1229 m 3 X 1 Y 5 X s 1107 1230 m 1 X 2 Y
 3 X 1 Y 5 X s 1116 1233 m 2 X 1 Y 7 X s 1125 1234 m 2 X -4 Y 1 X 1 Y 2 X 2 Y 3 X 1 Y 1 X -4 Y s 1134 1230 m 4 X -4 Y 5 X s 1143 1226 m 3 X 1 Y 5 X s 1151 1227 m 2 X 1 -4 d 6 X s 1160 1223 m 6 X 2 Y 1 X -5 Y 2 X s 1169 1220 m 2 X 1 2 d 1 X 1 Y 2 X 3
 Y 3 X s 1178 1226 m 1 X 1 1 d 7 X s 1187 1227 m 3 X 1 Y 4 X 2 Y 1 X s 1195 1230 m 2 X 1 -4 d 1 X 1 Y 1 X -4 Y 1 X 1 -4 d 2 X s 1204 1219 m 3 X 1 Y 2 X -4 Y 4 X s 1213 1216 m 1 X 2 Y 6 X -9 Y 1 X 1 -4 d s 1222 1205 m 1 X -4 Y 2 X 1 2 d 1 X 1 Y 3 X -4
 Y 1 X s 1231 1200 m 3 X 3 Y 3 X 1 Y 2 X s 1239 1204 m 1 X -4 Y 1 X 1 1 d 1 X -4 Y 5 X s 1248 1197 m 7 X -4 Y 1 X 1 Y -4 Y 1 X s 1257 1190 m 5 X -4 Y 4 X s 1266 1186 m 5 X 2 Y 2 X 1 Y 2 X s 1275 1189 m 1 Y 1 X -4 Y 2 Y 4 X -5 Y 3 X s 1283 1183 m 9 X
 s 1292 1183 m 1 X 1 2 d -4 Y 2 X -4 Y 5 X s 1301 1177 m 9 X s 1310 1177 m 4 X -5 Y 5 X s 1319 1172 m 3 X 2 Y 5 X s 1327 1174 m 1 X -5 Y 8 X 2 Y s 1336 1171 m 1 X -4 Y 1 X -5 Y 1 X -4 Y 3 X 1 -4 d 2 X s 1345 1154 m 3 X 1 1 d 1 X 2 Y 4 X s 1354 1157 m
 2 X -4 Y 4 X -9 Y 3 X s 1363 1144 m 3 X 1 Y 2 X -2 Y 3 X -5 Y s 1371 1138 m 4 X -4 Y 1 X -9 Y 1 X -5 Y 2 X -4 Y 1 X s 1380 1116 m 1 -5 d 4 X 2 Y 3 X -5 Y 1 X s 1389 1108 m 5 X -4 Y 1 X -5 Y 1 X -5 Y 2 X s 1398 1094 m 9 X s 1407 1094 m 2 X -4 Y 6 X 2
 Y s 1415 1092 m 3 X -5 Y 1 X 1 -5 d 4 X -5 Y s 1424 1077 m 2 X -4 Y 2 X -5 Y 1 X -5 Y 3 X -5 Y 1 X s 1433 1058 m 4 X 2 Y 2 X -5 Y 3 X s 1442 1055 m -5 Y 3 X 2 Y 2 X 2 Y 4 X s 1451 1054 m -5 Y 3 X -5 Y 1 -5 d -5 Y 2 X -5 Y 2 X s 1459 1029 m 1 X 1 -5
 d 3 X -5 Y 4 X s 1468 1019 m 2 X 1 -5 d 6 X s 1477 1014 m 1 -5 d 3 X -5 Y 1 X -5 Y 2 X -6 Y 2 X s 1486 993 m 8 X -10 Y 1 X s 1495 983 m -11 Y 6 X -5 Y 2 X s 1503 967 m 2 X -6 Y 1 -5 d 5 X -6 Y 1 X s 1512 950 m 1 X -5 Y 5 X -6 Y 1 -5 d 2 X s 1521 934
 m 1 X -6 Y 1 X 1 2 d 2 X 2 Y 2 X -6 Y 2 X s 1530 926 m 3 X 2 Y 1 X -11 Y 2 X -6 Y 3 X s 1539 911 m 3 X -6 Y 2 X -12 Y 3 X s 1547 893 m 2 X -6 Y 7 X s 1556 887 m 2 X -6 Y 4 X 1 -6 d -6 Y 2 X s 1565 869 m -6 Y 1 X 2 Y 1 X -6 Y 2 X -6 Y 2 X -7 Y 1 X -6
 Y 2 X s 1574 840 m 9 X s 1583 840 m -13 Y 2 Y 2 X -7 Y 5 X -6 Y 1 X s 1591 816 m 7 X -7 Y 1 -7 d 1 X s 1600 802 m 4 X -7 Y 2 X -7 Y 3 X s 1609 788 m 4 X -7 Y 1 X -7 Y 4 X s 1618 774 m 1 X -15 Y 8 X s 1627 759 m 1 X -7 Y 1 X -8 Y 5 X 3 Y 1 X s 1635
 747 m 9 X s 1644 747 m 9 X s 1653 747 m 2 X -8 Y 7 X s 1662 739 m 5 X -8 Y 3 Y 4 X s 1671 734 m -8 Y 5 X 1 -8 d 2 X s 1679 718 m 1 X -8 Y 1 X -8 Y 2 X 1 -8 d -9 Y 4 X s 1688 685 m 1 X -8 Y 1 -9 d 2 X -9 Y 1 X 1 -9 d 3 X s 1697 650 m 9 X s 1706 650 m
 5 X -10 Y 4 X s 1715 640 m -19 Y 8 X s 1723 621 m 1 X -10 Y 4 X -10 Y 4 X s 1732 601 m 9 X s 1741 601 m 9 X s 1750 601 m 2 X 4 Y 7 X s 1759 605 m 2 X -11 Y 6 X -10 Y s 1767 584 m 4 X -11 Y 2 X -12 Y 1 X -11 Y 2 X -13 Y s 1776 537 m 2 X -12 Y 7 X s
 1785 525 m 1 -13 d 8 X s 1794 512 m 3 X 1 -14 d -14 Y 3 X -15 Y 2 X s 1803 469 m 9 X s 1812 469 m 8 X s 1820 469 m 3 X -16 Y 2 X -17 Y 1 X -19 Y 3 X s 1829 417 m 5 X -20 Y 4 X s 1838 397 m 9 X s 1847 397 m 9 X s 1856 397 m 8 X s 1864 397 m 8 Y 9 X s
 1873 405 m 9 X s 1882 405 m 9 X s 1891 405 m 9 X s 1900 405 m 8 X -22 Y s 1908 383 m 5 X -24 Y 4 X s 1917 359 m 9 X s 1926 359 m 9 X s 1935 359 m 9 X s 1944 359 m 8 X s 1952 359 m 9 X s 1961 359 m 9 X s 1970 359 m 9 X s 1979 359 m 9 X s 1988 359 m 8
 X s 1996 359 m 5 X 1 -29 d 3 X s 2005 330 m -38 Y 9 X s 2014 292 m 9 X s 2023 292 m 9 X s 2032 292 m 8 X s 2040 292 m 1 X s black 3 lw 245 201 m 1796 X s 325 241 m -40 Y s 370 221 m -20 Y s 414 221 m -20 Y s 459 221 m -20 Y s 504 221 m -20 Y s 549
 241 m -40 Y s 593 221 m -20 Y s 638 221 m -20 Y s 683 221 m -20 Y s 728 221 m -20 Y s 773 241 m -40 Y s 817 221 m -20 Y s 862 221 m -20 Y s 907 221 m -20 Y s 952 221 m -20 Y s 996 241 m -40 Y s 1041 221 m -20 Y s 1086 221 m -20 Y s 1131 221 m -20 Y
 s 1175 221 m -20 Y s 1220 241 m -40 Y s 1265 221 m -20 Y s 1310 221 m -20 Y s 1355 221 m -20 Y s 1399 221 m -20 Y s 1444 241 m -40 Y s 1489 221 m -20 Y s 1534 221 m -20 Y s 1578 221 m -20 Y s 1623 221 m -20 Y s 1668 241 m -40 Y s 1713 221 m -20 Y s
 1757 221 m -20 Y s 1802 221 m -20 Y s 1847 221 m -20 Y s 1892 241 m -40 Y s 325 241 m -40 Y s 280 221 m -20 Y s 1892 241 m -40 Y s 1936 221 m -20 Y s 1981 221 m -20 Y s 2026 221 m -20 Y s 245 201 m 1140 Y s 291 201 m -46 X s 268 253 m -23 X s 268
 305 m -23 X s 268 357 m -23 X s 291 408 m -46 X s 268 460 m -23 X s 268 512 m -23 X s 268 564 m -23 X s 291 616 m -46 X s 268 667 m -23 X s 268 719 m -23 X s 268 771 m -23 X s 291 823 m -46 X s 268 875 m -23 X s 268 926 m -23 X s 268 978 m -23 X s
 291 1030 m -46 X s 268 1082 m -23 X s 268 1134 m -23 X s 268 1185 m -23 X s 291 1237 m -46 X s 291 1237 m -46 X s 268 1289 m -23 X s 268 1341 m -23 X s 0.490196 0.545098 0.615686 c 1 1 1 c 0.490196 0.545098 0.615686 c 907 201 245 1341 bl 245 1341 m
 907 X s 1152 1341 m 201 Y s 1152 1542 m -907 X s 245 1542 m -201 Y s black
 gsave  2268 1676 0 0 C 515.735 1471.36 t 0 r /Helvetica-Bold findfont 56.8825 sf 0 0 m (Signal efficiency) show NC gr  0 0 0.933333 c 9 lw 286 1492 m 190 X s black
 gsave  2268 1676 0 0 C 515.735 1368.97 t 0 r /Helvetica-Bold findfont 56.8825 sf 0 0 m (Background efficiency) show NC gr  1 0 0 c 286 1391 m 190 X s 0.490196 0.545098 0.615686 c 3 lw 1 1 1 c 0.490196 0.545098 0.615686 c 889 201 1152 1341 bl 1152
 1341 m 889 X s 2041 1341 m 201 Y s 2041 1542 m -889 X s 1152 1542 m -201 Y s black
 gsave  2268 1676 0 0 C 1418.27 1494.11 t 0 r /Helvetica-Bold findfont 56.8825 sf 0 0 m (Signal purity) show NC gr  0 0 0.933333 c[  52 12 ] 0 sd 6 lw 1192 1509 m 187 X s black
 gsave  2268 1676 0 0 C 1418.27 1429.65 t 0 r /Helvetica-Bold findfont 56.8825 sf 0 0 m (Signal efficiency*purity) show NC gr  0 0 0.933333 c[  22 12 ] 0 sd 1192 1441 m 187 X s black
 gsave  2268 1676 0 0 C 1501.7 1361.39 t 0 r /Helvetica-Bold findfont 56.8825 sf 0 0 m (S+B) show NC gr [  ] 0 sd 1483 1407 m 7 -49 d s 3 lw 1490 1358 m 8 64 d s 1498 1422 m 114 X s
 gsave  2268 1676 0 0 C 1418.27 1361.39 t 0 r /Helvetica-Bold findfont 56.8825 sf 0 0 m (S/) show NC gr  0 0.666667 0 c 9 lw 1192 1374 m 187 X s black 3 lw 245 1237 m 1796 X s
 gsave  2268 1676 0 0 C 337.503 386.801 t 0 r /Helvetica-Bold findfont 53.0904 sf 0 0 m (For 1000 signal and 1000 background) show NC gr 
 gsave  2268 1676 0 0 C 1058.01 318.542 t 0 r /Helvetica-Bold findfont 53.0904 sf 0 0 m ( is) show NC gr 
 gsave  2268 1676 0 0 C 955.626 318.542 t 0 r /Helvetica-Bold findfont 53.0904 sf 0 0 m (S+B) show NC gr  6 lw 933 360 m 7 -45 d s 3 lw 940 315 m 8 60 d s 948 375 m 110 X s
 gsave  2268 1676 0 0 C 337.503 318.542 t 0 r /Helvetica-Bold findfont 53.0904 sf 0 0 m (events the maximum S/) show NC gr 
 gsave  2268 1676 0 0 C 337.503 254.075 t 0 r /Helvetica-Bold findfont 53.0904 sf 0 0 m (28.70 when cutting at \2550.08) show NC gr  0.490196 0.545098 0.615686 c 0.364706 0.419608 0.490196 c 1471 96 23 1572 bf 0.490196 0.545098 0.615686 c 23 1572 m
 1471 X s 1494 1572 m 96 Y s 1494 1668 m -1471 X s 23 1668 m -96 Y s 1 1 1 c black 1 1 1 c
 gsave  2268 1676 0 0 C 75.8434 1600.29 t 0 r /Helvetica-Bold findfont 75.8434 sf 0 0 m (Cut efficiencies and optimal cut value) show NC gr  0 0.666667 0 c 2041 201 m 1140 Y s black 0 0.666667 0 c
 gsave  2268 1676 0 0 C 2203.25 963.211 t 90 r /Helvetica-Bold findfont 64.4669 sf 0 0 m (Significance) show NC gr  1995 201 m 46 X s 2018 237 m 23 X s 2018 273 m 23 X s 2018 309 m 23 X s 2018 346 m 23 X s 1995 382 m 46 X s 2018 418 m 23 X s 2018 454
 m 23 X s 2018 490 m 23 X s 2018 526 m 23 X s 1995 562 m 46 X s 2018 598 m 23 X s 2018 634 m 23 X s 2018 671 m 23 X s 2018 707 m 23 X s 1995 743 m 46 X s 2018 779 m 23 X s 2018 815 m 23 X s 2018 851 m 23 X s 2018 887 m 23 X s 1995 923 m 46 X s 2018
 959 m 23 X s 2018 996 m 23 X s 2018 1032 m 23 X s 2018 1068 m 23 X s 1995 1104 m 46 X s 2018 1140 m 23 X s 2018 1176 m 23 X s 2018 1212 m 23 X s 2018 1248 m 23 X s 1995 1284 m 46 X s 1995 1284 m 46 X s 2018 1321 m 23 X s black 0 0.666667 0 c
 gsave  2268 1676 0 0 C 2051.56 178.232 t 0 r /Helvetica-Bold findfont 64.4669 sf 0 0 m (0) show NC gr  black 0 0.666667 0 c
 gsave  2268 1676 0 0 C 2051.56 356.464 t 0 r /Helvetica-Bold findfont 64.4669 sf 0 0 m (5) show NC gr  black 0 0.666667 0 c
 gsave  2268 1676 0 0 C 2051.56 538.488 t 0 r /Helvetica-Bold findfont 64.4669 sf 0 0 m (10) show NC gr  black 0 0.666667 0 c
 gsave  2268 1676 0 0 C 2051.56 716.72 t 0 r /Helvetica-Bold findfont 64.4669 sf 0 0 m (15) show NC gr  black 0 0.666667 0 c
 gsave  2268 1676 0 0 C 2051.56 898.744 t 0 r /Helvetica-Bold findfont 64.4669 sf 0 0 m (20) show NC gr  black 0 0.666667 0 c
 gsave  2268 1676 0 0 C 2051.56 1080.77 t 0 r /Helvetica-Bold findfont 64.4669 sf 0 0 m (25) show NC gr  black 0 0.666667 0 c
 gsave  2268 1676 0 0 C 2051.56 1259 t 0 r /Helvetica-Bold findfont 64.4669 sf 0 0 m (30) show NC gr 
 gr  gr showpage
end
%%EOF
