%!PS-Adobe-2.0 EPSF-2.0
%%BoundingBox:  0 0 567 419
%%Title: DataSet/plots/mvaeffs_SVM.eps: Cut efficiencies for SVM classifier
%%Creator: ROOT Version 6.08/06
%%CreationDate: Mon Jul 30 13:52:29 2018
%%DocumentNeededResources: ProcSet (FontSetInit)
%%EndComments
%%BeginProlog
80 dict begin
/s {stroke} def /l {lineto} def /m {moveto} def /t {translate} def
/r {rotate} def /rl {roll}  def /R {repeat} def
/d {rlineto} def /rm {rmoveto} def /gr {grestore} def /f {eofill} def
/c {setrgbcolor} def /black {0 setgray} def /sd {setdash} def
/cl {closepath} def /sf {scalefont setfont} def /lw {setlinewidth} def
/box {m dup 0 exch d exch 0 d 0 exch neg d cl} def
/NC{systemdict begin initclip end}def/C{NC box clip newpath}def
/bl {box s} def /bf {gsave box gsave f grestore 1 lw [] 0 sd s grestore} def /Y { 0 exch d} def /X { 0 d} def 
/K {{pop pop 0 moveto} exch kshow} bind def
/ita {/ang 15 def gsave [1 0 ang dup sin exch cos div 1 0 0] concat} def 
/mp {newpath /y exch def /x exch def} def
/side {[w .77 mul w .23 mul] .385 w mul sd w 0 l currentpoint t -144 r} def
/mr {mp x y w2 0 360 arc} def /m24 {mr s} def /m20 {mr f} def
/mb {mp x y w2 add m w2 neg 0 d 0 w neg d w 0 d 0 w d cl} def
/mt {mp x y w2 add m w2 neg w neg d w 0 d cl} def
/m21 {mb f} def /m25 {mb s} def /m22 {mt f} def /m26{mt s} def
/m23 {mp x y w2 sub m w2 w d w neg 0 d cl f} def
/m27 {mp x y w2 add m w3 neg w2 neg d w3 w2 neg d w3 w2 d cl s} def
/m28 {mp x w2 sub y w2 sub w3 add m w3 0 d  0 w3 neg d w3 0 d 0 w3 d w3 0 d  0 w3 d w3 neg 0 d 0 w3 d w3 neg 0 d 0 w3 neg d w3 neg 0 d cl s } def
/m29 {mp gsave x w2 sub y w2 add w3 sub m currentpoint t 4 {side} repeat cl fill gr} def
/m30 {mp gsave x w2 sub y w2 add w3 sub m currentpoint t 4 {side} repeat cl s gr} def
/m31 {mp x y w2 sub m 0 w d x w2 sub y m w 0 d x w2 sub y w2 add m w w neg d x w2 sub y w2 sub m w w d s} def
/m32 {mp x y w2 sub m w2 w d w neg 0 d cl s} def
/m33 {mp x y w2 add m w3 neg w2 neg d w3 w2 neg d w3 w2 d cl f} def
/m34 {mp x w2 sub y w2 sub w3 add m w3 0 d  0 w3 neg d w3 0 d 0 w3 d w3 0 d  0 w3 d w3 neg 0 d 0 w3 d w3 neg 0 d 0 w3 neg d w3 neg 0 d cl f } def
/m2 {mp x y w2 sub m 0 w d x w2 sub y m w 0 d s} def
/m5 {mp x w2 sub y w2 sub m w w d x w2 sub y w2 add m w w neg d s} def
%%IncludeResource: ProcSet (FontSetInit)
%%IncludeResource: font Times-Roman
%%IncludeResource: font Times-Italic
%%IncludeResource: font Times-Bold
%%IncludeResource: font Times-BoldItalic
%%IncludeResource: font Helvetica
%%IncludeResource: font Helvetica-Oblique
%%IncludeResource: font Helvetica-Bold
%%IncludeResource: font Helvetica-BoldOblique
%%IncludeResource: font Courier
%%IncludeResource: font Courier-Oblique
%%IncludeResource: font Courier-Bold
%%IncludeResource: font Courier-BoldOblique
%%IncludeResource: font Symbol
%%IncludeResource: font ZapfDingbats
/reEncode {exch findfont dup length dict begin {1 index /FID eq  {pop pop} {def} ifelse } forall /Encoding exch def currentdict end dup /FontName get exch definefont pop } def [/Times-Bold /Times-Italic /Times-BoldItalic /Helvetica /Helvetica-Oblique
 /Helvetica-Bold /Helvetica-BoldOblique /Courier /Courier-Oblique /Courier-Bold /Courier-BoldOblique /Times-Roman /AvantGarde-Book /AvantGarde-BookOblique /AvantGarde-Demi /AvantGarde-DemiOblique /Bookman-Demi /Bookman-DemiItalic /Bookman-Light
 /Bookman-LightItalic /Helvetica-Narrow /Helvetica-Narrow-Bold /Helvetica-Narrow-BoldOblique /Helvetica-Narrow-Oblique /NewCenturySchlbk-Roman /NewCenturySchlbk-Bold /NewCenturySchlbk-BoldItalic /NewCenturySchlbk-Italic /Palatino-Bold
 /Palatino-BoldItalic /Palatino-Italic /Palatino-Roman ] {ISOLatin1Encoding reEncode } forall
%%EndProlog
%%BeginSetup
%%EndSetup
newpath  gsave  .25 .25 scale  gsave  0 0 t 0.490196 0.545098 0.615686 c[  ] 0 sd 3 lw 1 1 1 c 2268 1676 0 0 bf black 1 1 1 c 1796 1140 245 201 bf black 1796 1140 245 201 bl 1 1 1 c 1796 1140 245 201 bf black 1796 1140 245 201 bl 245 201 m 1796 X s[
 4 8] 0 sd 398 1341 m -1140 Y s 588 1341 m -1140 Y s 778 1341 m -1140 Y s 968 1341 m -1140 Y s 1158 1341 m -1140 Y s 1348 1341 m -1140 Y s 1538 1341 m -1140 Y s 1728 1341 m -1140 Y s 1918 1341 m -1140 Y s 398 1341 m -1140 Y s 1918 1341 m -1140 Y s[ 
 ] 0 sd 245 201 m 1140 Y s[ 4 8] 0 sd 2041 201 m -1796 X s 2041 408 m -1796 X s 2041 616 m -1796 X s 2041 823 m -1796 X s 2041 1030 m -1796 X s 2041 1237 m -1796 X s 2041 1237 m -1796 X s 0 0 0.933333 c[  22 12 ] 0 sd 6 lw 0.49 0.6 0.82 c black 0 0
 0.933333 c 245 719 m 1 Y 9 X s 254 720 m 9 X s 263 720 m 8 X s 271 720 m 9 X s 280 720 m 9 X s 289 720 m 8 X 1 Y 1 X s 298 721 m 9 X s 307 721 m 8 X s 315 721 m 9 X s 324 721 m 9 X s 333 721 m 1 X 1 Y 3 X 1 Y 4 X 1 Y 1 X s 342 724 m 9 X s 351 724 m
 1 X 1 Y 7 X s 359 725 m 2 X 2 Y 6 X 2 Y 1 X s 368 729 m 1 X 1 Y 2 X 1 1 d 3 X 1 Y 1 X 1 1 d s 377 733 m 2 X 1 Y 3 X 1 Y 3 X 1 Y 1 X s 386 736 m 1 X 2 Y 1 X 2 Y 3 X 2 Y 2 X 1 Y 2 X s 395 743 m 1 X 2 Y 2 X 2 Y 2 X 1 Y 2 X 1 Y 1 X 1 Y s 403 750 m 4 X 1
 Y 2 X 1 Y 1 1 d 1 1 d 2 Y 1 X s 412 756 m 2 X 1 Y 1 X 1 Y 6 X s 421 758 m 1 X 1 Y 1 X 1 1 d 2 Y 3 X 1 Y 2 X 1 Y 1 X s 430 764 m 1 2 d 4 X 1 1 d 1 1 d 1 Y 2 X s 439 769 m 2 X 1 Y 1 X 2 Y 5 X s 447 772 m 4 X 1 Y 2 X 1 Y 1 X 4 Y 2 X s 456 778 m 1 X 2 Y
 3 X 1 Y 1 X 1 Y 4 X s 465 782 m 1 X 1 Y 3 X 1 1 d 2 X 1 1 d 1 Y 1 X s 474 786 m 3 X 1 Y 1 X 1 Y 1 X 1 Y 1 X 1 Y 3 X s 483 790 m 1 X 1 1 d 1 X 1 Y 3 X 1 Y 1 X 2 Y 1 X s 491 795 m 2 X 1 Y 4 X 1 Y 2 X 1 1 d s 500 798 m 3 X 1 Y 4 X 1 1 d 1 X s 509 800 m
 1 Y 1 X 1 1 d 1 Y 4 X 1 Y 1 X 1 Y 2 X s 518 805 m 3 X 1 Y 1 1 d 1 Y 4 X 3 Y 1 X s 527 811 m 1 X 1 Y 1 X 1 Y 6 X s 535 813 m 1 X 1 1 d 2 X 2 Y 1 X 1 1 d 1 X 2 Y 1 X 1 Y 1 X s 544 820 m 3 X 1 Y 2 X 1 2 d 3 X s 553 823 m 8 X 1 Y 1 X s 562 824 m 1 Y 8 X
 1 Y 1 X s 571 826 m 1 Y 2 X 1 Y 4 X 1 Y 2 X 1 Y s 579 830 m 1 X 1 Y 3 X 1 Y 1 X 1 1 d 1 Y 2 X 1 Y 1 X s 588 835 m 1 X 2 Y 2 X 1 Y 1 X 1 Y 2 X 1 Y 1 X 1 Y 1 1 d 1 Y 1 X s 597 843 m 1 X 1 Y 3 X 2 Y 1 X 1 Y 2 X 1 1 d 1 Y 1 X s 606 849 m 9 X s 615 849 m
 2 X 1 Y 2 X 1 Y 1 X 1 Y 2 X 1 Y 1 X s 623 853 m 2 X 3 Y 1 X 1 1 d 1 X 1 Y 4 X s 632 858 m 3 X -6 Y 1 1 d 2 X 1 Y 3 X s 641 854 m 1 Y 1 X 1 1 d 2 Y 3 X 2 Y 4 X s 650 860 m 1 Y 1 X 3 Y 2 X 1 1 d 2 X 1 1 d 1 Y 1 1 d 1 X s 659 868 m -6 Y 1 X 2 Y 3 X 3 Y
 1 1 d 2 Y 3 X s 667 870 m 1 X 1 Y 1 X 1 Y 3 X 1 Y 1 X 1 Y 1 2 d 1 Y 2 X s 676 877 m 3 X 1 Y 4 X 1 1 d 1 Y 1 X s 685 880 m 4 X 1 Y 3 X 2 Y 1 X 2 Y 1 X s 694 885 m 9 X s 703 885 m 1 X 1 Y 2 X 1 Y 2 X 3 Y 1 X 1 Y 2 X s 711 891 m 1 X 1 1 d 2 X 1 1 d 4 X
 1 Y s 720 894 m 1 X 2 Y 2 X 1 Y 2 X 1 Y 2 X 1 Y 1 X 1 Y 1 X s 729 900 m 1 X 1 2 d 2 X 1 Y 3 X 1 Y 2 X s 738 904 m 4 X 1 Y 5 X s 747 905 m 2 Y 1 X 1 Y 7 X s 755 908 m 9 X 1 Y s 764 909 m 1 X 1 Y 2 X 2 Y 2 X 2 Y 4 X -6 Y s 773 908 m -6 Y 1 X 1 Y 6 X 2
 Y 2 X s 782 905 m 1 X 1 1 d 1 X 1 Y 1 X 1 Y 2 X 1 2 d 2 X s 791 910 m 1 X 2 Y 2 X 1 2 d 4 X s 799 914 m 1 X 2 Y 2 X 1 2 d 1 1 d 4 X s 808 919 m 4 X 1 Y 3 X 2 Y 2 X s 817 922 m 3 X 1 1 d 1 X 1 Y 2 X 1 2 d 1 Y 1 -6 d s 826 921 m 3 X 1 Y 2 X 2 Y 4 X s
 835 924 m 8 X s 843 924 m 3 X 1 1 d 4 X 1 Y 1 2 d s 852 928 m 1 X 1 Y 2 X 1 Y 2 X 1 2 d 1 X 1 Y 2 X s 861 933 m 1 2 d 8 X s 870 935 m 6 X 1 1 d 1 X 3 Y 1 X s 879 939 m 3 X 1 Y 5 X s 887 940 m 1 X 2 Y 1 X 1 Y 7 X 1 Y s 896 944 m 4 X 2 Y 1 X 1 Y 1 X 2
 Y 2 X 1 Y 1 X s 905 950 m 8 X 2 Y 1 X s 914 952 m 1 Y 9 X s 923 953 m 2 X 2 Y 6 X s 931 955 m 7 X 1 Y 1 X 2 Y 1 X 1 Y s 940 959 m 3 X 2 Y 3 X 1 Y 1 2 d 1 Y 2 X s 949 965 m 3 X 3 Y 4 X 2 Y 2 X s 958 970 m 4 X 1 Y 2 X -6 Y 3 X s 967 965 m 1 X 2 Y 7 X
 s 975 967 m 1 X 1 Y 4 X -6 Y 3 X 1 Y 1 X s 984 963 m 5 X 2 Y 1 X 3 Y 3 X 2 Y s 993 970 m 3 X 1 Y 5 X 2 Y 1 X s 1002 973 m 6 X 1 Y 1 X 2 Y 1 X 3 Y 1 X s 1011 979 m 2 Y 8 X s 1019 981 m 1 X 1 2 d 1 Y 6 X 1 -6 d 1 Y s 1028 979 m 2 X 2 Y 1 X 2 Y 4 X 3 Y
 2 X s 1037 986 m 1 X 2 Y 2 X 1 Y 6 X s 1046 989 m 8 X 2 Y 1 X s 1055 991 m 8 X 2 Y s 1063 993 m 9 X s 1072 993 m 2 Y 3 X 1 Y 6 X s 1081 996 m 8 X -6 Y 1 X s 1090 990 m 5 X 1 2 d 3 X s 1099 992 m 4 X 3 Y 4 X s 1107 995 m 3 X 1 -6 d 3 X 1 Y 1 X 1 -6 d
 2 Y s 1116 986 m 2 X 1 Y 3 X -6 Y 4 X s 1125 981 m 2 Y 9 X s 1134 983 m 3 X 1 2 d 3 Y 1 X 4 Y 4 X s 1143 992 m 8 X s 1151 992 m 6 X 1 Y 3 X s 1160 993 m 2 X 2 Y 4 X 2 Y 1 X 1 2 d 1 X s 1169 999 m 9 X s 1178 999 m 2 Y 2 X 2 Y 6 X 1 Y 1 X s 1187 1004
 m 8 X s 1195 1004 m 3 X 1 2 d 5 X s 1204 1006 m 9 X s 1213 1006 m 3 X 2 Y 3 X 2 Y 1 X 2 Y 2 X s 1222 1012 m 1 -7 d 2 Y 8 X s 1231 1007 m 8 X s 1239 1007 m 3 X 1 2 d 4 X 1 2 d s 1248 1011 m 1 X -6 Y 4 X 1 Y 4 X s 1257 1006 m 3 X 2 Y 6 X s 1266 1008 m
 9 X s 1275 1008 m 2 X 1 2 d 5 X s 1283 1010 m 2 X -6 Y 7 X s 1292 1004 m 2 Y 1 -7 d 2 Y 7 X 1 -6 d s 1301 995 m 9 X s 1310 995 m 4 X 2 Y 2 X 2 Y 3 X s 1319 999 m 3 X 2 Y 5 X 2 Y s 1327 1003 m 9 X s 1336 1003 m 2 X -7 Y 7 X s 1345 996 m 2 X -6 Y 2 Y
 1 2 d 1 X 2 Y 2 X -7 Y 3 X s 1354 989 m 3 X 2 Y 4 X 2 Y 2 X s 1363 993 m 1 2 d 6 X 2 Y 1 X s 1371 997 m 1 X 2 Y 8 X 2 Y s 1380 1001 m 4 X 1 -6 d 2 Y 4 X s 1389 997 m 9 X s 1398 997 m 4 X 2 Y 4 X 2 Y 1 X s 1407 1001 m 1 X -7 Y 2 X -6 Y 4 X 2 Y 1 X s
 1415 990 m 1 X -7 Y 3 X 2 Y 5 X s 1424 985 m 9 X s 1433 985 m 1 X 2 Y 8 X s 1442 987 m 2 X 5 Y 3 X 1 2 d 3 X s 1451 994 m 8 X s 1459 994 m 2 X 1 -7 d 6 X s 1468 987 m 1 X 2 Y 1 X 1 3 d 2 X 4 Y 1 X -7 Y 3 X s 1477 989 m 1 X -6 Y 5 X 2 Y 3 X s 1486
 985 m 2 Y 3 X 2 Y 6 X s 1495 989 m 3 X -6 Y 5 X s 1503 983 m 4 X 2 Y 5 X s 1512 985 m 9 X s 1521 985 m 2 Y 1 3 d 5 X -7 Y 3 X s 1530 983 m 2 X -7 Y 7 X s 1539 976 m 7 X -6 Y 1 X s 1547 970 m 3 X -7 Y 4 X -6 Y 2 X s 1556 957 m 2 X -7 Y 3 X -6 Y 2 X 2
 Y 1 X 2 Y 1 X s 1565 948 m 4 X 2 Y 2 X -6 Y 3 X s 1574 944 m 2 X -7 Y 7 X s 1583 937 m 8 X s 1591 937 m 1 X 1 2 d 4 X 1 -6 d 2 X s 1600 933 m -7 Y 9 X 3 Y s 1609 929 m 9 X s 1618 929 m 9 X s 1627 929 m -7 Y 1 X -7 Y 1 -6 d 6 X 2 Y s 1635 911 m 9 X 2
 Y s 1644 913 m 1 X 3 Y 1 2 d 3 X -13 Y 4 X s 1653 905 m 3 X 1 -7 d 2 X 3 Y 3 X s 1662 901 m 2 X -7 Y 1 X -6 Y 2 X -7 Y 4 X s 1671 881 m 5 X -7 Y 2 X -6 Y 1 X s 1679 868 m 9 X s 1688 868 m 3 X -7 Y 3 X -13 Y 2 Y 1 -6 d 2 X s 1697 844 m 1 X 2 Y 8 X s
 1706 846 m -6 Y 2 X -14 Y 2 X -6 Y 1 X -7 Y 4 X s 1715 813 m 1 X 3 Y 1 X -7 Y 6 X s 1723 809 m 2 X -7 Y 1 X 3 Y 1 X -7 Y 5 X s 1732 798 m 4 X -6 Y 5 X s 1741 792 m 2 X -7 Y 2 X 1 -7 d 3 Y 4 X s 1750 781 m 4 X 2 Y 5 X s 1759 783 m 4 X -6 Y 1 X -14 Y
 1 3 d 2 X s 1767 766 m 9 X s 1776 766 m 6 X -7 Y 3 X -6 Y s 1785 753 m -7 Y 2 X -6 Y 1 -7 d 1 X -7 Y 3 Y 2 X -7 Y 1 -6 d -7 Y 2 X s 1794 709 m 7 X 2 Y 2 X s 1803 711 m 1 X 1 -6 d 5 X -13 Y 2 X s 1812 692 m 8 X s 1820 692 m 2 X -7 Y 5 X 1 -7 d 1 X -6
 Y s 1829 672 m 1 X -7 Y 1 X -6 Y 2 X 2 Y 1 X -6 Y 2 X -7 Y 1 X -7 Y 1 X -6 Y s 1838 635 m -7 Y 3 X -6 Y 2 X -14 Y 1 X -6 Y 1 X -7 Y 1 X 1 -6 d s 1847 589 m 3 X 2 Y 2 X -7 Y 1 X -6 Y 1 X -7 Y 1 -6 d 1 X s 1856 565 m 5 X -7 Y 3 X s 1864 558 m -7 Y 1
 -6 d 2 Y 1 X -6 Y 1 -7 d 1 X 1 3 d -7 Y 1 X -7 Y 1 X -6 Y 2 X -7 Y s 1873 510 m 3 X -6 Y 1 -7 d 1 X -20 Y 4 X s 1882 477 m 1 X 3 Y 2 X -7 Y 1 X -6 Y 2 X -14 Y 2 X 3 Y -7 Y 1 X s 1891 449 m 6 X -6 Y 3 X s 1900 443 m 1 X -7 Y 2 X -6 Y 3 X -7 Y 2 X -7
 Y s 1908 416 m 2 X 1 -6 d 3 X 1 -7 d 1 X -6 Y 1 X s 1917 397 m 9 X s 1926 397 m -14 Y 2 X -13 Y 7 X s 1935 370 m 2 X -6 Y 3 X -7 Y 1 X -7 Y 2 X 1 -6 d s 1944 344 m 1 X 1 -7 d 1 X -6 Y 1 X -7 Y 3 X -7 Y 1 X s 1952 317 m 1 X -6 Y 2 X 2 Y 1 X -6 Y 1 -7
 d 4 X s 1961 300 m 2 X -6 Y 3 X -7 Y 2 X -7 Y 1 -6 d 1 X s 1970 274 m 5 X 1 -7 d 2 X -13 Y 1 X s 1979 254 m 3 X -7 Y 6 X s 1988 247 m 6 X -6 Y 2 X -7 Y s 1996 234 m 9 X s 2005 234 m 2 X -6 Y 7 X s 2014 228 m 1 X -7 Y 7 X 1 -7 d s 2023 214 m 9 X s
 2032 214 m 1 X -6 Y 7 X s 2040 208 m 1 X s black[  ] 0 sd 3 lw 245 201 m 1796 X s
 gsave  2268 1676 0 0 C 913.913 30.3373 t 0 r /Helvetica-Bold findfont 72.0512 sf 0 0 m (Cut value applied on SVM output) show NC gr  398 241 m -40 Y s 436 221 m -20 Y s 474 221 m -20 Y s 512 221 m -20 Y s 550 221 m -20 Y s 588 241 m -40 Y s 626 221
 m -20 Y s 664 221 m -20 Y s 702 221 m -20 Y s 740 221 m -20 Y s 778 241 m -40 Y s 816 221 m -20 Y s 854 221 m -20 Y s 892 221 m -20 Y s 930 221 m -20 Y s 968 241 m -40 Y s 1006 221 m -20 Y s 1044 221 m -20 Y s 1082 221 m -20 Y s 1120 221 m -20 Y s
 1158 241 m -40 Y s 1196 221 m -20 Y s 1234 221 m -20 Y s 1272 221 m -20 Y s 1310 221 m -20 Y s 1348 241 m -40 Y s 1386 221 m -20 Y s 1424 221 m -20 Y s 1462 221 m -20 Y s 1500 221 m -20 Y s 1538 241 m -40 Y s 1576 221 m -20 Y s 1614 221 m -20 Y s
 1652 221 m -20 Y s 1690 221 m -20 Y s 1728 241 m -40 Y s 1766 221 m -20 Y s 1804 221 m -20 Y s 1842 221 m -20 Y s 1880 221 m -20 Y s 1918 241 m -40 Y s 398 241 m -40 Y s 360 221 m -20 Y s 322 221 m -20 Y s 284 221 m -20 Y s 246 221 m -20 Y s 1918
 241 m -40 Y s 1956 221 m -20 Y s 1994 221 m -20 Y s 2032 221 m -20 Y s
 gsave  2268 1676 0 0 C 352.672 128.934 t 0 r /Helvetica-Bold findfont 64.4669 sf 0 0 m (0.1) show NC gr 
 gsave  2268 1676 0 0 C 542.28 128.934 t 0 r /Helvetica-Bold findfont 64.4669 sf 0 0 m (0.2) show NC gr 
 gsave  2268 1676 0 0 C 731.888 128.934 t 0 r /Helvetica-Bold findfont 64.4669 sf 0 0 m (0.3) show NC gr 
 gsave  2268 1676 0 0 C 921.497 128.934 t 0 r /Helvetica-Bold findfont 64.4669 sf 0 0 m (0.4) show NC gr 
 gsave  2268 1676 0 0 C 1111.11 128.934 t 0 r /Helvetica-Bold findfont 64.4669 sf 0 0 m (0.5) show NC gr 
 gsave  2268 1676 0 0 C 1300.71 128.934 t 0 r /Helvetica-Bold findfont 64.4669 sf 0 0 m (0.6) show NC gr 
 gsave  2268 1676 0 0 C 1490.32 128.934 t 0 r /Helvetica-Bold findfont 64.4669 sf 0 0 m (0.7) show NC gr 
 gsave  2268 1676 0 0 C 1679.93 128.934 t 0 r /Helvetica-Bold findfont 64.4669 sf 0 0 m (0.8) show NC gr 
 gsave  2268 1676 0 0 C 1869.54 128.934 t 0 r /Helvetica-Bold findfont 64.4669 sf 0 0 m (0.9) show NC gr  245 201 m 1140 Y s
 gsave  2268 1676 0 0 C 64.4669 731.888 t 90 r /Helvetica-Bold findfont 72.0512 sf 0 0 m (Efficiency \(Purity\)) show NC gr  291 201 m -46 X s 268 253 m -23 X s 268 305 m -23 X s 268 357 m -23 X s 291 408 m -46 X s 268 460 m -23 X s 268 512 m -23 X s
 268 564 m -23 X s 291 616 m -46 X s 268 667 m -23 X s 268 719 m -23 X s 268 771 m -23 X s 291 823 m -46 X s 268 875 m -23 X s 268 926 m -23 X s 268 978 m -23 X s 291 1030 m -46 X s 268 1082 m -23 X s 268 1134 m -23 X s 268 1185 m -23 X s 291 1237 m
 -46 X s 291 1237 m -46 X s 268 1289 m -23 X s 268 1341 m -23 X s
 gsave  2268 1676 0 0 C 182.024 178.232 t 0 r /Helvetica-Bold findfont 64.4669 sf 0 0 m (0) show NC gr 
 gsave  2268 1676 0 0 C 128.934 383.009 t 0 r /Helvetica-Bold findfont 64.4669 sf 0 0 m (0.2) show NC gr 
 gsave  2268 1676 0 0 C 125.142 591.578 t 0 r /Helvetica-Bold findfont 64.4669 sf 0 0 m (0.4) show NC gr 
 gsave  2268 1676 0 0 C 128.934 796.355 t 0 r /Helvetica-Bold findfont 64.4669 sf 0 0 m (0.6) show NC gr 
 gsave  2268 1676 0 0 C 125.142 1004.92 t 0 r /Helvetica-Bold findfont 64.4669 sf 0 0 m (0.8) show NC gr 
 gsave  2268 1676 0 0 C 189.608 1213.49 t 0 r /Helvetica-Bold findfont 64.4669 sf 0 0 m (1) show NC gr  0 0 0.933333 c[  52 12 ] 0 sd 6 lw 0.49 0.6 0.82 c black 0 0 0.933333 c 245 719 m 1 Y 9 X s 254 720 m 9 X s 263 720 m 8 X s 271 720 m 9 X s 280
 720 m 9 X s 289 720 m 8 X 1 Y 1 X s 298 721 m 9 X s 307 721 m 8 X s 315 721 m 9 X s 324 721 m 9 X s 333 721 m 1 X 1 Y 3 X 1 Y 4 X 1 Y 1 X s 342 724 m 9 X s 351 724 m 1 X 1 Y 7 X s 359 725 m 2 X 2 Y 6 X 2 Y 1 X s 368 729 m 1 X 1 Y 2 X 1 1 d 3 X 1 Y 1
 X 1 1 d s 377 733 m 2 X 1 Y 3 X 1 Y 3 X 1 Y 1 X s 386 736 m 1 X 2 Y 1 X 2 Y 3 X 2 Y 2 X 1 Y 2 X s 395 743 m 1 X 2 Y 2 X 2 Y 2 X 1 Y 2 X 1 Y 1 X 1 Y s 403 750 m 4 X 1 Y 2 X 1 Y 1 1 d 1 1 d 2 Y 1 X s 412 756 m 2 X 1 Y 1 X 1 Y 6 X s 421 758 m 1 X 1 Y 1
 X 1 1 d 2 Y 3 X 1 Y 2 X 1 Y 1 X s 430 764 m 1 2 d 4 X 1 1 d 1 1 d 1 Y 2 X s 439 769 m 2 X 1 Y 1 X 2 Y 5 X s 447 772 m 4 X 1 Y 2 X 1 Y 1 X 4 Y 2 X s 456 778 m 1 X 2 Y 3 X 1 Y 1 X 1 Y 4 X s 465 782 m 1 X 1 Y 3 X 1 1 d 2 X 1 1 d 1 Y 1 X s 474 786 m 3 X
 1 Y 1 X 1 Y 1 X 1 Y 1 X 1 Y 3 X s 483 790 m 1 X 1 1 d 1 X 1 Y 3 X 1 Y 1 X 2 Y 1 X s 491 795 m 2 X 1 Y 4 X 1 Y 2 X 1 1 d s 500 798 m 3 X 1 Y 4 X 1 1 d 1 X s 509 800 m 1 Y 1 X 1 1 d 1 Y 4 X 1 Y 1 X 1 Y 2 X s 518 805 m 3 X 1 Y 1 1 d 1 Y 4 X 3 Y 1 X s
 527 811 m 1 X 1 Y 1 X 1 Y 6 X s 535 813 m 1 X 1 1 d 2 X 2 Y 1 X 1 1 d 1 X 2 Y 1 X 1 Y 1 X s 544 820 m 3 X 1 Y 2 X 1 2 d 3 X s 553 823 m 8 X 1 Y 1 X s 562 824 m 1 Y 8 X 1 Y 1 X s 571 826 m 1 Y 2 X 1 Y 4 X 1 Y 2 X 1 Y s 579 830 m 1 X 1 Y 3 X 1 Y 1 X 1
 1 d 1 Y 2 X 1 Y 1 X s 588 835 m 1 X 2 Y 2 X 1 Y 1 X 1 Y 2 X 1 Y 1 X 1 Y 1 1 d 1 Y 1 X s 597 843 m 1 X 1 Y 3 X 2 Y 1 X 1 Y 2 X 1 1 d 1 Y 1 X s 606 849 m 9 X s 615 849 m 2 X 1 Y 2 X 1 Y 1 X 1 Y 2 X 1 Y 1 X s 623 853 m 2 X 3 Y 1 X 1 1 d 1 X 1 Y 4 X s
 632 858 m 3 X -2 Y 1 1 d 2 X 1 Y 3 X s 641 858 m 1 Y 1 X 1 1 d 2 Y 3 X 3 Y 4 X s 650 865 m 1 Y 1 X 2 Y 2 X 1 1 d 2 X 1 1 d 1 Y 1 1 d 1 X s 659 872 m -1 Y 1 X 2 Y 3 X 2 Y 1 1 d 3 Y 3 X s 667 879 m 1 X 1 Y 1 X 1 Y 3 X 1 Y 1 X 1 Y 1 1 d 1 Y 2 X s 676
 885 m 3 X 2 Y 4 X 1 1 d 1 Y 1 X s 685 889 m 4 X 1 Y 3 X 1 Y 1 X 3 Y 1 X s 694 894 m 9 X s 703 894 m 1 X 1 Y 2 X 1 Y 2 X 2 Y 1 X 2 Y 2 X s 711 900 m 1 X 1 1 d 2 X 1 1 d 4 X 1 Y s 720 903 m 1 X 1 Y 2 X 2 Y 2 X 1 Y 2 X 1 Y 1 X 1 Y 1 X s 729 909 m 1 X 1
 2 d 2 X 1 Y 3 X 1 Y 2 X s 738 913 m 4 X 1 Y 5 X s 747 914 m 2 Y 1 X 1 Y 7 X s 755 917 m 9 X 1 Y s 764 918 m 1 X 1 Y 2 X 2 Y 2 X 2 Y 4 X -1 Y s 773 922 m -2 Y 1 X 2 Y 6 X 1 Y 2 X s 782 923 m 1 X 1 1 d 1 X 2 Y 1 X 1 Y 2 X 1 1 d 2 X s 791 928 m 1 X 3 Y
 2 X 1 1 d 4 X s 799 932 m 1 X 3 Y 2 X 1 1 d 1 2 d 4 X s 808 938 m 4 X 1 Y 3 X 1 Y 2 X s 817 940 m 3 X 1 2 d 1 X 1 Y 2 X 1 2 d 1 Y 1 -1 d s 826 945 m 3 X 1 Y 2 X 1 Y 4 X s 835 947 m 8 X s 843 947 m 3 X 1 2 d 4 X 1 Y 1 2 d s 852 952 m 1 X 1 Y 2 X 1 Y
 2 X 1 2 d 1 X 1 Y 2 X s 861 957 m 1 2 d 8 X s 870 959 m 6 X 1 1 d 1 X 3 Y 1 X s 879 963 m 3 X 2 Y 5 X s 887 965 m 1 X 1 Y 1 X 1 Y 7 X 2 Y s 896 969 m 4 X 1 Y 1 X 2 Y 1 X 1 Y 2 X 2 Y 1 X s 905 975 m 8 X 1 Y 1 X s 914 976 m 2 Y 9 X s 923 978 m 2 X 1 Y
 6 X s 931 979 m 7 X 2 Y 1 X 2 Y 1 X 1 Y s 940 984 m 3 X 2 Y 3 X 1 Y 1 2 d 1 Y 2 X s 949 990 m 3 X 3 Y 4 X 2 Y 2 X s 958 995 m 4 X 2 Y 2 X -2 Y 3 X s 967 995 m 1 X 2 Y 7 X s 975 997 m 1 X 2 Y 4 X -2 Y 3 X 2 Y 1 X s 984 999 m 5 X 2 Y 1 X 3 Y 3 X 2 Y s
 993 1006 m 3 X 1 Y 5 X 2 Y 1 X s 1002 1009 m 6 X 2 Y 1 X 1 Y 1 X 4 Y 1 X s 1011 1016 m 1 Y 8 X s 1019 1017 m 1 X 1 2 d 2 Y 6 X 1 -1 d 1 Y s 1028 1021 m 2 X 2 Y 1 X 2 Y 4 X 3 Y 2 X s 1037 1028 m 1 X 2 Y 2 X 2 Y 6 X s 1046 1032 m 8 X 2 Y 1 X s 1055
 1034 m 8 X 1 Y s 1063 1035 m 9 X s 1072 1035 m 2 Y 3 X 2 Y 6 X s 1081 1039 m 8 X -1 Y 1 X s 1090 1038 m 5 X 1 2 d 3 X s 1099 1040 m 4 X 3 Y 4 X s 1107 1043 m 3 X 1 -1 d 3 X 2 Y 1 X 1 -1 d 2 Y s 1116 1045 m 2 X 2 Y 3 X -1 Y 4 X s 1125 1046 m 2 Y 9 X
 s 1134 1048 m 3 X 1 1 d 4 Y 1 X 4 Y 4 X s 1143 1057 m 8 X s 1151 1057 m 6 X 2 Y 3 X s 1160 1059 m 2 X 2 Y 4 X 2 Y 1 X 1 2 d 1 X s 1169 1065 m 9 X s 1178 1065 m 2 Y 2 X 2 Y 6 X 2 Y 1 X s 1187 1071 m 8 X s 1195 1071 m 3 X 1 2 d 5 X s 1204 1073 m 9 X s
 1213 1073 m 3 X 2 Y 3 X 2 Y 1 X 2 Y 2 X s 1222 1079 m 1 -1 d 2 Y 8 X s 1231 1080 m 8 X s 1239 1080 m 3 X 1 2 d 4 X 1 2 d s 1248 1084 m 1 X -1 Y 4 X 2 Y 4 X s 1257 1085 m 3 X 2 Y 6 X s 1266 1087 m 9 X s 1275 1087 m 2 X 1 3 d 5 X s 1283 1090 m 2 X -1
 Y 7 X s 1292 1089 m 2 Y 1 -1 d 2 Y 7 X 1 -1 d s 1301 1091 m 9 X s 1310 1091 m 4 X 2 Y 2 X 2 Y 3 X s 1319 1095 m 3 X 3 Y 5 X 2 Y s 1327 1100 m 9 X s 1336 1100 m 2 X -1 Y 7 X s 1345 1099 m 2 X -1 Y 2 Y 1 3 d 1 X 2 Y 2 X -1 Y 3 X s 1354 1104 m 3 X 2 Y
 4 X 3 Y 2 X s 1363 1109 m 1 2 d 6 X 2 Y 1 X s 1371 1113 m 1 X 3 Y 8 X 2 Y s 1380 1118 m 4 X 1 -1 d 2 Y 4 X s 1389 1119 m 9 X s 1398 1119 m 4 X 3 Y 4 X 2 Y 1 X s 1407 1124 m 3 X -1 Y 4 X 2 Y 1 X s 1415 1125 m 1 X -1 Y 3 X 3 Y 5 X s 1424 1127 m 9 X s
 1433 1127 m 1 X 2 Y 8 X s 1442 1129 m 2 X 5 Y 3 X 1 3 d 3 X s 1451 1137 m 8 X s 1459 1137 m 2 X 1 -1 d 6 X s 1468 1136 m 1 X 3 Y 1 X 1 2 d 2 X 5 Y 4 X s 1477 1146 m 1 X -1 Y 5 X 3 Y 3 X s 1486 1148 m 2 Y 3 X 3 Y 6 X s 1495 1153 m 8 X s 1503 1153 m 4
 X 2 Y 5 X s 1512 1155 m 9 X s 1521 1155 m 3 Y 1 3 d 5 X -1 Y 3 X s 1530 1160 m 9 X s 1539 1160 m 7 X -1 Y 1 X s 1547 1159 m 3 X -1 Y 6 X s 1556 1158 m 2 X -1 Y 5 X 2 Y 1 X 3 Y 1 X s 1565 1162 m 4 X 3 Y 5 X s 1574 1165 m 2 X -1 Y 7 X s 1583 1164 m 8
 X s 1591 1164 m 1 X 1 3 d 7 X s 1600 1167 m -1 Y 9 X 3 Y s 1609 1169 m 9 X s 1618 1169 m 9 X s 1627 1169 m -1 Y 1 X 1 -1 d 6 X 3 Y s 1635 1170 m 9 X 4 Y s 1644 1174 m 1 X 3 Y 1 3 d 3 X -1 Y 4 X s 1653 1179 m 3 X 1 -1 d 2 X 4 Y 3 X s 1662 1182 m 2 X
 -1 Y 3 X -1 Y 4 X s 1671 1180 m 7 X -1 Y 1 X s 1679 1179 m 9 X s 1688 1179 m 6 X -1 Y 3 Y 3 X s 1697 1181 m 1 X 3 Y 8 X s 1706 1184 m 2 X -1 Y 2 X -1 Y 5 X s 1715 1182 m 1 X 4 Y 1 X -1 Y 6 X s 1723 1185 m 3 X 3 Y 6 X s 1732 1188 m 4 X -1 Y 5 X s
 1741 1187 m 4 X 1 -1 d 4 Y 4 X s 1750 1190 m 4 X 4 Y 5 X s 1759 1194 m 5 X -1 Y 1 4 d 2 X s 1767 1197 m 9 X s 1776 1197 m 9 X -1 Y s 1785 1196 m 2 X 1 -1 d 1 X 4 Y 2 X 1 -1 d 2 X s 1794 1198 m 7 X 5 Y 2 X s 1803 1203 m 1 X 1 -1 d 5 X -1 Y 2 X s 1812
 1201 m 8 X s 1820 1201 m 7 X 1 -1 d 1 X s 1829 1200 m 1 X -1 Y 3 X 5 Y 3 X -1 Y 2 X -1 Y s 1838 1202 m 3 X -1 Y 2 X -1 Y 2 X -1 Y 1 X 1 -1 d s 1847 1198 m 3 X 7 Y 2 X -1 Y 2 X -1 Y 1 -1 d 1 X s 1856 1202 m 8 X s 1864 1202 m -1 Y 1 X 7 Y 1 X -1 Y 2 X
 1 7 d 1 X -1 Y 3 X -1 Y s 1873 1212 m 3 X 1 -1 d 1 X -2 Y 4 X s 1882 1209 m 1 X 10 Y 2 X -1 Y 3 X -1 Y 2 X 10 Y 1 X s 1891 1227 m 6 X -1 Y 3 X s 1900 1226 m 6 X -1 Y 2 X s 1908 1225 m 6 X 1 -1 d 2 X s 1917 1224 m 9 X s 1926 1224 m -1 Y 2 X -1 Y 7 X
 s 1935 1222 m 2 X -1 Y 3 X -1 Y 3 X 1 -1 d s 1944 1219 m 1 X 1 -1 d 1 X -1 Y 1 X -1 Y 3 X -1 Y 1 X s 1952 1215 m 1 X -1 Y 2 X 23 Y 6 X s 1961 1237 m 9 X s 1970 1237 m 9 X s 1979 1237 m 9 X s 1988 1237 m 8 X s 1996 1237 m 9 X s 2005 1237 m 9 X s 2014
 1237 m 9 X s 2023 1237 m 9 X s 2032 1237 m 8 X s 2040 1237 m 1 X s[  ] 0 sd 9 lw 0.49 0.6 0.82 c black 0 0 0.933333 c 245 1237 m 9 X s 254 1237 m 9 X s 263 1237 m 8 X s 271 1237 m 9 X s 280 1237 m 9 X s 289 1237 m 9 X s 298 1237 m 9 X s 307 1237 m 8
 X s 315 1237 m 9 X s 324 1237 m 9 X s 333 1237 m 9 X s 342 1237 m 9 X s 351 1237 m 8 X s 359 1237 m 9 X s 368 1237 m 9 X s 377 1237 m 9 X s 386 1237 m 9 X s 395 1237 m 8 X s 403 1237 m 9 X s 412 1237 m 9 X s 421 1237 m 9 X s 430 1237 m 9 X s 439
 1237 m 8 X s 447 1237 m 9 X s 456 1237 m 9 X s 465 1237 m 9 X s 474 1237 m 9 X s 483 1237 m 8 X s 491 1237 m 9 X s 500 1237 m 9 X s 509 1237 m 9 X s 518 1237 m 9 X s 527 1237 m 8 X s 535 1237 m 9 X s 544 1237 m 9 X s 553 1237 m 9 X s 562 1237 m 9 X
 s 571 1237 m 8 X s 579 1237 m 9 X s 588 1237 m 9 X s 597 1237 m 9 X s 606 1237 m 9 X s 615 1237 m 8 X s 623 1237 m 9 X s 632 1237 m 3 X -6 Y 6 X s 641 1231 m 9 X s 650 1231 m 9 X s 659 1231 m -7 Y 8 X s 667 1224 m 9 X s 676 1224 m 9 X s 685 1224 m 9
 X s 694 1224 m 9 X s 703 1224 m 8 X s 711 1224 m 9 X s 720 1224 m 9 X s 729 1224 m 9 X s 738 1224 m 9 X s 747 1224 m 8 X s 755 1224 m 9 X s 764 1224 m 9 X -7 Y s 773 1217 m -6 Y 9 X s 782 1211 m 9 X s 791 1211 m 8 X s 799 1211 m 9 X s 808 1211 m 9 X
 s 817 1211 m 8 X 1 -7 d s 826 1204 m 9 X s 835 1204 m 8 X s 843 1204 m 9 X s 852 1204 m 9 X s 861 1204 m 9 X s 870 1204 m 9 X s 879 1204 m 8 X s 887 1204 m 9 X s 896 1204 m 9 X s 905 1204 m 9 X s 914 1204 m 9 X s 923 1204 m 8 X s 931 1204 m 9 X s
 940 1204 m 9 X s 949 1204 m 9 X s 958 1204 m 6 X -6 Y 3 X s 967 1198 m 8 X s 975 1198 m 5 X -7 Y 4 X s 984 1191 m 9 X s 993 1191 m 9 X s 1002 1191 m 9 X s 1011 1191 m 8 X s 1019 1191 m 8 X 1 -7 d s 1028 1184 m 9 X s 1037 1184 m 9 X s 1046 1184 m 9 X
 s 1055 1184 m 8 X s 1063 1184 m 9 X s 1072 1184 m 9 X s 1081 1184 m 8 X -6 Y 1 X s 1090 1178 m 9 X s 1099 1178 m 8 X s 1107 1178 m 3 X 1 -7 d 4 X 1 -6 d s 1116 1165 m 5 X -7 Y 4 X s 1125 1158 m 9 X s 1134 1158 m 9 X s 1143 1158 m 8 X s 1151 1158 m 9
 X s 1160 1158 m 9 X s 1169 1158 m 9 X s 1178 1158 m 9 X s 1187 1158 m 8 X s 1195 1158 m 9 X s 1204 1158 m 9 X s 1213 1158 m 9 X s 1222 1158 m 1 -7 d 8 X s 1231 1151 m 8 X s 1239 1151 m 9 X s 1248 1151 m 1 X -6 Y 8 X s 1257 1145 m 9 X s 1266 1145 m 9
 X s 1275 1145 m 8 X s 1283 1145 m 2 X -7 Y 7 X s 1292 1138 m 1 -6 d 7 X 1 -7 d s 1301 1125 m 9 X s 1310 1125 m 9 X s 1319 1125 m 8 X s 1327 1125 m 9 X s 1336 1125 m 2 X -7 Y 7 X s 1345 1118 m 2 X -6 Y 4 X -7 Y 3 X s 1354 1105 m 9 X s 1363 1105 m 8 X
 s 1371 1105 m 9 X s 1380 1105 m 4 X 1 -6 d 4 X s 1389 1099 m 9 X s 1398 1099 m 9 X s 1407 1099 m 1 X -7 Y 2 X -6 Y 5 X s 1415 1086 m 1 X -7 Y 8 X s 1424 1079 m 9 X s 1433 1079 m 9 X s 1442 1079 m 9 X s 1451 1079 m 8 X s 1459 1079 m 2 X 1 -7 d 6 X s
 1468 1072 m 6 X -6 Y 3 X s 1477 1066 m 1 X -7 Y 8 X s 1486 1059 m 9 X s 1495 1059 m 3 X -6 Y 5 X s 1503 1053 m 9 X s 1512 1053 m 9 X s 1521 1053 m 6 X -7 Y 3 X s 1530 1046 m 2 X -7 Y 7 X s 1539 1039 m 7 X -6 Y 1 X s 1547 1033 m 3 X -7 Y 4 X -6 Y 2 X
 s 1556 1020 m 2 X -7 Y 3 X -7 Y 4 X s 1565 1006 m 6 X -6 Y 3 X s 1574 1000 m 2 X -7 Y 7 X s 1583 993 m 8 X s 1591 993 m 6 X 1 -6 d 2 X s 1600 987 m -7 Y 9 X s 1609 980 m 9 X s 1618 980 m 9 X s 1627 980 m -7 Y 1 X -6 Y 1 -7 d 6 X s 1635 960 m 9 X s
 1644 960 m 5 X -13 Y 4 X s 1653 947 m 3 X 1 -7 d 5 X s 1662 940 m 2 X -6 Y 1 X -7 Y 2 X -6 Y 4 X s 1671 921 m 5 X -7 Y 2 X -7 Y 1 X s 1679 907 m 9 X s 1688 907 m 3 X -6 Y 3 X -13 Y 1 -7 d 2 X s 1697 881 m 9 X s 1706 881 m -7 Y 2 X -13 Y 2 X -6 Y 1 X
 -7 Y 4 X s 1715 848 m 2 X -7 Y 6 X s 1723 841 m 2 X -6 Y 2 X -7 Y 5 X s 1732 828 m 4 X -6 Y 5 X s 1741 822 m 2 X -7 Y 2 X 1 -7 d 4 X s 1750 808 m 9 X s 1759 808 m 4 X -6 Y 1 X -13 Y 3 X s 1767 789 m 9 X s 1776 789 m 6 X -7 Y 3 X -7 Y s 1785 775 m -6
 Y 2 X -7 Y 1 -6 d 1 X -7 Y 2 X -7 Y 1 -6 d -7 Y 2 X s 1794 729 m 9 X s 1803 729 m 1 X 1 -6 d 5 X -14 Y 2 X s 1812 709 m 8 X s 1820 709 m 2 X -6 Y 5 X 1 -7 d 1 X -6 Y s 1829 690 m 1 X -7 Y 1 X -7 Y 3 X -6 Y 2 X -7 Y 1 X -6 Y 1 X -7 Y s 1838 650 m -7
 Y 3 X -6 Y 2 X -13 Y 1 X -7 Y 1 X -7 Y 1 X 1 -6 d s 1847 604 m 5 X -7 Y 1 X -6 Y 1 X -7 Y 1 -7 d 1 X s 1856 577 m 5 X -6 Y 3 X s 1864 571 m -7 Y 1 -6 d 1 X -7 Y 1 -7 d 2 X -6 Y 1 X -7 Y 1 X -6 Y 2 X -7 Y s 1873 518 m 3 X -7 Y 1 -6 d 1 X -20 Y 4 X s
 1882 485 m 3 X -7 Y 1 X -6 Y 2 X -13 Y 2 X -7 Y 1 X s 1891 452 m 6 X -7 Y 3 X s 1900 445 m 1 X -6 Y 2 X -7 Y 3 X -6 Y 2 X -7 Y s 1908 419 m 2 X 1 -7 d 3 X 1 -6 d 1 X -7 Y 1 X s 1917 399 m 9 X s 1926 399 m -13 Y 2 X -13 Y 7 X s 1935 373 m 2 X -7 Y 3
 X -6 Y 1 X -7 Y 2 X 1 -7 d s 1944 346 m 1 X 1 -6 d 1 X -7 Y 1 X -6 Y 3 X -7 Y 1 X s 1952 320 m 1 X -7 Y 3 X -6 Y 1 -7 d 4 X s 1961 300 m 2 X -6 Y 3 X -7 Y 2 X -7 Y 1 -6 d 1 X s 1970 274 m 5 X 1 -7 d 2 X -13 Y 1 X s 1979 254 m 3 X -7 Y 6 X s 1988 247
 m 6 X -6 Y 2 X -7 Y s 1996 234 m 9 X s 2005 234 m 2 X -6 Y 7 X s 2014 228 m 1 X -7 Y 7 X 1 -7 d s 2023 214 m 9 X s 2032 214 m 1 X -6 Y 7 X s 2040 208 m 1 X s 1 0 0 c black 1 0 0 c 245 1237 m -2 Y 9 X s 254 1235 m 9 X s 263 1235 m 8 X s 271 1235 m 9
 X s 280 1235 m 9 X s 289 1235 m 8 X -3 Y 1 X s 298 1232 m 9 X s 307 1232 m 8 X s 315 1232 m 9 X s 324 1232 m 8 X -3 Y 1 X s 333 1229 m 1 X -2 Y 3 X -3 Y 2 X -2 Y 2 X -3 Y 1 X s 342 1219 m 9 X s 351 1219 m 1 X -3 Y 4 X -2 Y 3 X s 359 1214 m 2 X -5 Y
 3 X -3 Y 3 X -8 Y 1 X s 368 1198 m 1 X -3 Y 2 X 1 -2 d 2 X -3 Y 1 X -2 Y 1 X 1 -3 d s 377 1185 m 1 X -3 Y 1 X -2 Y 3 X -3 Y 1 X -3 Y 2 X -2 Y 1 X s 386 1172 m 1 X -8 Y 1 X -5 Y 1 X 1 -3 d 1 X -5 Y 1 X -3 Y 1 X -2 Y 2 X s 395 1146 m 1 X -8 Y 2 X -8 Y
 2 X -3 Y 2 X -2 Y 1 X -3 Y s 403 1122 m 1 X -2 Y 3 X -3 Y 2 X -3 Y 1 -2 d -3 Y 1 -3 d -5 Y 1 X s 412 1101 m -2 Y 2 X -3 Y 1 X -3 Y 6 X s 421 1093 m 1 X -2 Y 1 X -3 Y 1 -2 d -6 Y 2 X -2 Y 1 X -3 Y 2 X -3 Y 1 X s 430 1072 m 1 -5 d 1 -2 d 3 X 1 -3 d 1
 -3 d -2 Y 1 X -3 Y 1 X s 439 1054 m 2 X -2 Y 1 X -6 Y 5 X s 447 1046 m 4 X -2 Y 1 -3 d 1 X -3 Y 1 X -13 Y 2 X s 456 1025 m 1 X -5 Y 3 X -2 Y 1 X -3 Y 1 X -3 Y 3 X s 465 1012 m 1 X -2 Y 3 X 1 -3 d 2 X 1 -3 d -5 Y 1 X s 474 999 m 3 X -2 Y 1 X -3 Y 1 X
 -3 Y 1 X -2 Y 3 X s 483 989 m 1 X 1 -3 d 1 X -3 Y 1 X -2 Y 2 X -3 Y 1 X -5 Y 1 X s 491 973 m 2 X -3 Y 4 X -2 Y 2 X 1 -3 d s 500 965 m 1 X -2 Y 2 X -3 Y 4 X 1 -3 d 1 X s 509 957 m -2 Y 1 X 1 -3 d -3 Y 4 X -2 Y 1 X -3 Y 2 X s 518 944 m 2 X -2 Y 1 X -3
 Y 1 -3 d -2 Y 4 X -8 Y 1 X s 527 926 m 1 X -3 Y 1 X -2 Y 6 X s 535 921 m 1 X 1 -3 d 1 X 1 -3 d -5 Y 1 X 1 -2 d 1 X -6 Y 1 X -2 Y 1 X s 544 900 m 3 X -3 Y 2 X 1 -5 d 3 X s 553 892 m 8 X -3 Y 1 X s 562 889 m -2 Y 8 X -3 Y 1 X s 571 884 m -3 Y 2 X -2 Y
 4 X -5 Y 2 X -3 Y s 579 871 m 1 X -3 Y 3 X -2 Y 1 X 1 -3 d -2 Y 2 X -3 Y 1 X s 588 858 m 1 X -5 Y 2 X -3 Y 1 X -3 Y 2 X -2 Y 1 X -3 Y 1 -2 d -3 Y 1 X s 597 837 m 1 X -3 Y 3 X -5 Y 1 X -3 Y 2 X 1 -2 d -3 Y 1 X s 606 821 m 9 X s 615 821 m 2 X -2 Y 2 X
 -3 Y 1 X -3 Y 2 X -2 Y 1 X s 623 811 m 2 X -5 Y 1 X 1 -3 d 1 X -3 Y 4 X s 632 800 m 3 X 1 -2 d 2 X -3 Y 3 X s 641 795 m -3 Y 1 X 1 -2 d -5 Y 3 X -6 Y 4 X s 650 779 m -2 Y 1 X -5 Y 2 X 1 -3 d 2 X 1 -3 d -2 Y 1 -3 d 1 X s 659 761 m 1 X -5 Y 3 X -5 Y 1
 -3 d -5 Y 3 X s 667 743 m 1 X -3 Y 1 X -2 Y 3 X -3 Y 1 X -3 Y 1 -2 d -3 Y 2 X s 676 727 m 3 X -3 Y 4 X 1 -2 d -3 Y 1 X s 685 719 m 4 X -2 Y 3 X -3 Y 1 X -5 Y 1 X s 694 709 m 9 X s 703 709 m 1 X -3 Y 2 X -2 Y 2 X -6 Y 1 X -2 Y 2 X s 711 696 m 1 X 1
 -3 d 2 X 1 -3 d 4 X -2 Y s 720 688 m 1 X -3 Y 2 X -2 Y 2 X -3 Y 2 X -3 Y 1 X -2 Y 1 X s 729 675 m 1 X 1 -3 d 2 X -2 Y 3 X -3 Y 2 X s 738 667 m 4 X -3 Y 5 X s 747 664 m -2 Y 1 X -3 Y 7 X s 755 659 m 9 X -3 Y s 764 656 m 1 X -2 Y 2 X -3 Y 2 X -5 Y 4 X
 s 773 646 m 1 X -3 Y 6 X -2 Y 2 X s 782 641 m 1 X 1 -3 d 1 X -3 Y 1 X -2 Y 2 X 1 -3 d 2 X s 791 630 m 1 X -5 Y 2 X 1 -3 d 4 X s 799 622 m 1 X -5 Y 2 X 1 -2 d 1 -3 d 4 X s 808 612 m 4 X -3 Y 3 X -2 Y 2 X s 817 607 m 3 X 1 -3 d 1 X -3 Y 2 X 1 -2 d -3
 Y 1 X s 826 596 m 3 X -2 Y 2 X -3 Y 4 X s 835 591 m 8 X s 843 591 m 3 X 1 -3 d 4 X -2 Y 1 -3 d s 852 583 m 1 X -2 Y 2 X -3 Y 2 X 1 -3 d 1 X -2 Y 2 X s 861 573 m 1 -3 d 8 X s 870 570 m 6 X 1 -3 d 1 X -5 Y 1 X s 879 562 m 3 X -2 Y 5 X s 887 560 m 1 X
 -3 Y 1 X -3 Y 7 X -2 Y s 896 552 m 4 X -3 Y 1 X -2 Y 1 X -3 Y 2 X -3 Y 1 X s 905 541 m 8 X -2 Y 1 X s 914 539 m -3 Y 9 X s 923 536 m 2 X -3 Y 6 X s 931 533 m 7 X -2 Y 1 X -3 Y 1 X -2 Y s 940 526 m 3 X -3 Y 3 X -3 Y 1 -2 d -3 Y 2 X s 949 515 m 3 X -5
 Y 4 X -3 Y 2 X s 958 507 m 4 X -2 Y 5 X s 967 505 m 1 X -3 Y 7 X s 975 502 m 1 X -3 Y 7 X -2 Y 1 X s 984 497 m 5 X -3 Y 1 X -5 Y 3 X -3 Y s 993 486 m 3 X -2 Y 5 X -3 Y 1 X s 1002 481 m 6 X -3 Y 1 X -2 Y 1 X -5 Y 1 X s 1011 471 m -3 Y 8 X s 1019 468
 m 1 X 1 -3 d -2 Y 7 X -3 Y s 1028 460 m 2 X -2 Y 1 X -3 Y 4 X -5 Y 2 X s 1037 450 m 1 X -3 Y 2 X -3 Y 6 X s 1046 444 m 8 X -2 Y 1 X s 1055 442 m 8 X -3 Y s 1063 439 m 9 X s 1072 439 m -2 Y 3 X -3 Y 6 X s 1081 434 m 9 X s 1090 434 m 5 X 1 -3 d 3 X s
 1099 431 m 4 X -5 Y 4 X s 1107 426 m 7 X -2 Y 2 X -3 Y s 1116 421 m 2 X -3 Y 7 X s 1125 418 m -2 Y 9 X s 1134 416 m 3 X 1 -3 d -5 Y 1 X -5 Y 4 X s 1143 403 m 8 X s 1151 403 m 6 X -3 Y 3 X s 1160 400 m 2 X -3 Y 4 X -2 Y 1 X 1 -3 d 1 X s 1169 392 m 9
 X s 1178 392 m -2 Y 2 X -3 Y 6 X -3 Y 1 X s 1187 384 m 8 X s 1195 384 m 3 X 1 -2 d 5 X s 1204 382 m 9 X s 1213 382 m 3 X -3 Y 3 X -3 Y 1 X -2 Y 2 X s 1222 374 m 1 X -3 Y 8 X s 1231 371 m 8 X s 1239 371 m 3 X 1 -2 d 4 X 1 -3 d s 1248 366 m 5 X -3 Y 4
 X s 1257 363 m 3 X -2 Y 6 X s 1266 361 m 9 X s 1275 361 m 2 X 1 -3 d 5 X s 1283 358 m 9 X s 1292 358 m -2 Y 1 X -3 Y 8 X s 1301 353 m 9 X s 1310 353 m 4 X -3 Y 2 X -2 Y 3 X s 1319 348 m 3 X -3 Y 5 X -3 Y s 1327 342 m 9 X s 1336 342 m 9 X s 1345 342
 m 2 X -2 Y 1 -3 d 1 X -2 Y 5 X s 1354 335 m 3 X -3 Y 4 X -3 Y 2 X s 1363 329 m 1 -2 d 6 X -3 Y 1 X s 1371 324 m 1 X -3 Y 8 X -2 Y s 1380 319 m 5 X -3 Y 4 X s 1389 316 m 9 X s 1398 316 m 4 X -2 Y 4 X -3 Y 1 X s 1407 311 m 7 X -3 Y 1 X s 1415 308 m 4
 X -2 Y 5 X s 1424 306 m 9 X s 1433 306 m 1 X -3 Y 8 X s 1442 303 m 2 X -5 Y 3 X 1 -3 d 3 X s 1451 295 m 8 X s 1459 295 m 9 X s 1468 295 m 1 X -2 Y 1 X 1 -3 d 2 X -5 Y 4 X s 1477 285 m 6 X -3 Y 3 X s 1486 282 m -2 Y 3 X -3 Y 6 X s 1495 277 m 8 X s
 1503 277 m 4 X -3 Y 5 X s 1512 274 m 9 X s 1521 274 m -2 Y 1 -3 d 8 X s 1530 269 m 9 X s 1539 269 m 8 X s 1547 269 m 9 X s 1556 269 m 7 X -2 Y 1 X -3 Y 1 X s 1565 264 m 4 X -3 Y 5 X s 1574 261 m 9 X s 1583 261 m 8 X s 1591 261 m 1 X 1 -2 d 7 X s
 1600 259 m 9 X -3 Y s 1609 256 m 9 X s 1618 256 m 9 X s 1627 256 m 8 X -3 Y s 1635 253 m 9 X -2 Y s 1644 251 m 1 X -3 Y 1 -2 d 7 X s 1653 246 m 6 X -3 Y 3 X s 1662 243 m 9 X s 1671 243 m 8 X s 1679 243 m 9 X s 1688 243 m 6 X -3 Y 3 X s 1697 240 m 1
 X -2 Y 8 X s 1706 238 m 9 X s 1715 238 m 1 X -3 Y 7 X s 1723 235 m 3 X -2 Y 6 X s 1732 233 m 9 X s 1741 233 m 5 X -3 Y 4 X s 1750 230 m 4 X -3 Y 5 X s 1759 227 m 5 X 1 -2 d 2 X s 1767 225 m 9 X s 1776 225 m 9 X s 1785 225 m 4 X -3 Y 5 X s 1794 222 m
 7 X -3 Y 2 X s 1803 219 m 9 X s 1812 219 m 8 X s 1820 219 m 9 X s 1829 219 m 4 X -2 Y 5 X s 1838 217 m 9 X s 1847 217 m 3 X -3 Y 6 X s 1856 214 m 8 X s 1864 214 m 1 X -2 Y 3 X 1 -3 d 4 X s 1873 209 m 9 X s 1882 209 m 1 X -3 Y 7 X -2 Y 1 X s 1891 204
 m 9 X s 1900 204 m 8 X s 1908 204 m 9 X s 1917 204 m 9 X s 1926 204 m 9 X s 1935 204 m 9 X s 1944 204 m 8 X s 1952 204 m 3 X -3 Y 6 X s 1961 201 m 9 X s 1970 201 m 9 X s 1979 201 m 9 X s 1988 201 m 8 X s 1996 201 m 9 X s 2005 201 m 9 X s 2014 201 m
 9 X s 2023 201 m 9 X s 2032 201 m 8 X s 2040 201 m 1 X s 0 0.666667 0 c 1 1 1 c black 0 0.666667 0 c 245 1029 m 1 Y 9 X s 254 1030 m 9 X s 263 1030 m 8 X s 271 1030 m 9 X s 280 1030 m 9 X s 289 1030 m 8 X 1 Y 1 X s 298 1031 m 9 X s 307 1031 m 8 X s
 315 1031 m 9 X s 324 1031 m 9 X s 333 1031 m 1 X 1 Y 5 X 1 Y 3 X s 342 1033 m 9 X s 351 1033 m 1 X 1 Y 7 X s 359 1034 m 2 X 1 Y 3 X 1 Y 3 X 1 Y 1 X s 368 1037 m 1 X 1 Y 2 X 1 1 d 3 X 1 Y 2 X s 377 1040 m 1 X 1 Y 4 X 1 Y 3 X 1 Y 1 X s 386 1043 m 1 X
 2 Y 1 X 1 Y 3 X 1 Y 1 X 1 Y 3 X s 395 1048 m 1 X 2 Y 2 X 2 Y 4 X 1 Y 1 X s 403 1053 m 1 X 1 Y 3 X 1 Y 2 X 1 1 d 1 1 d 1 Y 1 X s 412 1058 m 1 Y 3 X 1 Y 6 X s 421 1060 m 2 X 1 Y 1 1 d 1 Y 3 X 1 Y 2 X 1 Y 1 X s 430 1065 m 1 1 d 4 X 1 1 d 1 X 1 Y 1 X 1
 Y 1 X s 439 1069 m 3 X 1 Y 5 X s 447 1070 m 4 X 1 Y 1 1 d 2 X 3 Y 2 X s 456 1075 m 1 X 2 Y 4 X 1 Y 4 X s 465 1078 m 1 X 1 Y 3 X 1 1 d 3 X 2 Y 1 X s 474 1082 m 4 X 1 Y 2 X 1 Y 3 X s 483 1084 m 1 X 1 1 d 2 X 1 Y 2 X 1 Y 1 X 1 Y 1 X s 491 1088 m 2 X 1
 Y 6 X 1 1 d s 500 1090 m 1 X 1 Y 6 X 1 1 d 1 X s 509 1092 m 1 X 1 1 d 1 Y 5 X 1 Y 2 X s 518 1095 m 2 X 1 Y 1 X 1 1 d 1 Y 4 X 2 Y 1 X s 527 1100 m 2 X 1 Y 6 X s 535 1101 m 1 X 1 1 d 2 X 2 Y 3 X 2 Y 2 X s 544 1106 m 3 X 1 Y 2 X 1 2 d 3 X s 553 1109 m
 9 X s 562 1109 m 1 Y 8 X 1 Y 1 X s 571 1111 m 2 X 1 Y 4 X 1 Y 2 X 1 Y s 579 1114 m 1 X 1 Y 4 X 1 1 d 1 Y 2 X 1 Y 1 X s 588 1118 m 1 X 1 Y 2 X 1 Y 3 X 1 Y 1 X 1 Y 1 1 d 1 X s 597 1123 m 1 X 1 Y 3 X 1 Y 1 X 1 Y 2 X 1 1 d 1 Y 1 X s 606 1128 m 9 X s 615
 1128 m 4 X 1 Y 1 X 1 Y 2 X 1 Y 1 X s 623 1131 m 2 X 1 Y 1 X 1 1 d 1 X 1 Y 4 X s 632 1134 m 3 X -4 Y 3 X 1 Y 3 X s 641 1131 m 1 Y 1 X 1 1 d 1 Y 3 X 2 Y 4 X s 650 1136 m 1 X 2 Y 2 X 1 1 d 3 X 1 Y 1 1 d 1 X s 659 1141 m -4 Y 1 X 1 Y 3 X 2 Y 1 1 d 1 Y 3
 X s 667 1142 m 1 X 1 Y 1 X 1 Y 3 X 1 Y 1 X 1 1 d 1 Y 2 X s 676 1147 m 3 X 1 Y 4 X 1 1 d 1 X s 685 1149 m 4 X 1 Y 3 X 1 Y 1 X 2 Y 1 X s 694 1153 m 9 X s 703 1153 m 1 X 1 Y 4 X 2 Y 1 X 1 Y 2 X s 711 1157 m 1 X 1 1 d 7 X 1 Y s 720 1159 m 1 X 1 Y 2 X 1
 Y 2 X 1 Y 2 X 1 Y 2 X s 729 1163 m 1 X 1 1 d 2 X 1 Y 3 X 1 Y 2 X s 738 1166 m 4 X 1 Y 5 X s 747 1167 m 1 Y 1 X 1 Y 7 X s 755 1169 m 9 X s 764 1169 m 1 X 1 Y 2 X 1 Y 2 X 2 Y 4 X -4 Y s 773 1169 m -4 Y 1 X 1 Y 8 X s 782 1166 m 1 X 1 1 d 1 X 1 Y 1 X 1
 Y 2 X 1 1 d 2 X s 791 1170 m 1 X 2 Y 2 X 1 1 d 4 X s 799 1173 m 1 X 1 Y 2 X 1 1 d 1 1 d 4 X s 808 1176 m 4 X 1 Y 3 X 1 Y 2 X s 817 1178 m 3 X 1 1 d 1 X 1 Y 2 X 1 1 d 1 Y 1 -5 d s 826 1177 m 3 X 1 Y 2 X 1 Y 4 X s 835 1179 m 8 X s 843 1179 m 3 X 1 1 d
 4 X 1 Y 1 1 d s 852 1182 m 1 X 1 Y 2 X 1 Y 2 X 1 1 d 1 X 1 Y 2 X s 861 1186 m 1 1 d 8 X s 870 1187 m 6 X 1 1 d 1 X 2 Y 1 X s 879 1190 m 8 X s 887 1190 m 1 X 1 Y 1 X 1 Y 7 X 1 Y s 896 1193 m 4 X 1 Y 1 X 1 Y 1 X 1 Y 2 X 1 Y 1 X s 905 1197 m 8 X 1 Y 1
 X s 914 1198 m 1 Y 9 X s 923 1199 m 2 X 1 Y 6 X s 931 1200 m 7 X 1 Y 1 X 1 Y 1 X 1 Y s 940 1203 m 3 X 1 Y 3 X 1 Y 1 1 d 1 Y 2 X s 949 1207 m 3 X 2 Y 4 X 1 Y 2 X s 958 1210 m 4 X 1 Y 2 X -4 Y 3 X s 967 1207 m 1 X 1 Y 7 X s 975 1208 m 1 X 1 Y 4 X -4 Y
 3 X 1 Y 1 X s 984 1206 m 5 X 1 Y 1 X 2 Y 3 X 1 Y s 993 1210 m 3 X 1 Y 5 X 1 Y 1 X s 1002 1212 m 6 X 1 Y 1 X 1 Y 1 X 2 Y 1 X s 1011 1216 m 1 Y 8 X s 1019 1217 m 1 X 1 1 d 1 Y 6 X 1 -4 d 1 Y s 1028 1216 m 2 X 1 Y 1 X 2 Y 4 X 2 Y 2 X s 1037 1221 m 1 X
 1 Y 2 X 1 Y 6 X s 1046 1223 m 8 X 1 Y 1 X s 1055 1224 m 8 X 1 Y s 1063 1225 m 9 X s 1072 1225 m 1 Y 3 X 1 Y 6 X s 1081 1227 m 8 X -4 Y 1 X s 1090 1223 m 5 X 1 1 d 3 X s 1099 1224 m 4 X 3 Y 4 X s 1107 1227 m 3 X 1 -5 d 3 X 2 Y 1 X 1 -5 d 1 Y s 1116
 1220 m 2 X 2 Y 3 X -5 Y 4 X s 1125 1217 m 2 Y 9 X s 1134 1219 m 3 X 1 1 d 2 Y 1 X 2 Y 4 X s 1143 1224 m 8 X s 1151 1224 m 6 X 1 Y 3 X s 1160 1225 m 2 X 2 Y 4 X 1 Y 1 X 1 1 d 1 X s 1169 1229 m 9 X s 1178 1229 m 1 Y 2 X 1 Y 6 X 2 Y 1 X s 1187 1233 m 8
 X s 1195 1233 m 3 X 1 1 d 5 X s 1204 1234 m 9 X s 1213 1234 m 3 X 1 Y 3 X 1 Y 1 X 1 Y 2 X s 1222 1237 m 1 -4 d 1 Y 8 X s 1231 1234 m 8 X s 1239 1234 m 3 X 1 2 d 4 X 1 1 d s 1248 1237 m 1 X -4 Y 4 X 1 Y 4 X s 1257 1234 m 3 X 1 Y 6 X s 1266 1235 m 9 X
 s 1275 1235 m 2 X 1 1 d 5 X s 1283 1236 m 2 X -4 Y 7 X s 1292 1232 m 1 Y 1 -4 d 2 Y 7 X 1 -5 d s 1301 1226 m 9 X s 1310 1226 m 4 X 2 Y 2 X 1 Y 3 X s 1319 1229 m 3 X 1 Y 5 X 1 Y s 1327 1231 m 9 X s 1336 1231 m 2 X -4 Y 7 X s 1345 1227 m 2 X -4 Y 1 Y
 1 2 d 1 X 1 Y 2 X -4 Y 3 X s 1354 1223 m 3 X 1 Y 4 X 1 Y 2 X s 1363 1225 m 1 2 d 6 X 1 Y 1 X s 1371 1228 m 1 X 1 Y 8 X 1 Y s 1380 1230 m 4 X 1 -4 d 2 Y 4 X s 1389 1228 m 9 X s 1398 1228 m 4 X 1 Y 4 X 1 Y 1 X s 1407 1230 m 1 X -4 Y 2 X -4 Y 4 X 1 Y 1
 X s 1415 1223 m 1 X -4 Y 3 X 1 Y 5 X s 1424 1220 m 9 X s 1433 1220 m 1 X 2 Y 8 X s 1442 1222 m 2 X 2 Y 3 X 1 2 d 3 X s 1451 1226 m 8 X s 1459 1226 m 2 X 1 -4 d 6 X s 1468 1222 m 1 X 1 Y 1 X 1 1 d 2 X 3 Y 1 X -4 Y 3 X s 1477 1223 m 1 X -4 Y 5 X 1 Y 3
 X s 1486 1220 m 1 Y 3 X 2 Y 6 X s 1495 1223 m 3 X -4 Y 5 X s 1503 1219 m 4 X 1 Y 5 X s 1512 1220 m 9 X s 1521 1220 m 1 Y 1 2 d 5 X -4 Y 3 X s 1530 1219 m 2 X -5 Y 7 X s 1539 1214 m 7 X -4 Y 1 X s 1547 1210 m 3 X -4 Y 4 X -5 Y 2 X s 1556 1201 m 2 X
 -4 Y 3 X -4 Y 2 X 1 Y 1 X 2 Y 1 X s 1565 1196 m 4 X 1 Y 2 X -4 Y 3 X s 1574 1193 m 2 X -5 Y 7 X s 1583 1188 m 8 X s 1591 1188 m 1 X 1 2 d 4 X 1 -4 d 2 X s 1600 1186 m -5 Y 9 X 2 Y s 1609 1183 m 9 X s 1618 1183 m 9 X s 1627 1183 m -5 Y 1 X -4 Y 1 -5
 d 6 X 2 Y s 1635 1171 m 9 X 1 Y s 1644 1172 m 1 X 2 Y 1 2 d 3 X -9 Y 4 X s 1653 1167 m 3 X 1 -5 d 2 X 2 Y 3 X s 1662 1164 m 2 X -5 Y 1 X -4 Y 2 X -5 Y 4 X s 1671 1150 m 5 X -5 Y 2 X -4 Y 1 X s 1679 1141 m 9 X s 1688 1141 m 3 X -5 Y 3 X -9 Y 1 Y 1 -4
 d 2 X s 1697 1124 m 1 X 1 Y 8 X s 1706 1125 m -4 Y 2 X -10 Y 2 X -5 Y 1 X -5 Y 4 X s 1715 1101 m 1 X 2 Y 1 X -5 Y 6 X s 1723 1098 m 2 X -4 Y 1 X 1 Y 1 X -5 Y 5 X s 1732 1090 m 4 X -5 Y 5 X s 1741 1085 m 2 X -4 Y 2 X 1 -5 d 1 Y 4 X s 1750 1077 m 4 X
 2 Y 5 X s 1759 1079 m 4 X -5 Y 1 X -10 Y 1 2 d 2 X s 1767 1066 m 9 X s 1776 1066 m 6 X -5 Y 3 X -5 Y s 1785 1056 m -5 Y 2 X -5 Y 1 -6 d 1 X -5 Y 2 Y 2 X -5 Y 1 -5 d -6 Y 2 X s 1794 1021 m 7 X 2 Y 2 X s 1803 1023 m 1 X 1 -5 d 5 X -11 Y 2 X s 1812
 1007 m 8 X s 1820 1007 m 2 X -5 Y 5 X 1 -6 d 1 X -5 Y s 1829 991 m 1 X -6 Y 1 X -5 Y 2 X 2 Y 1 X -6 Y 2 X -6 Y 1 X -5 Y 1 X -6 Y s 1838 959 m -6 Y 3 X -6 Y 2 X -11 Y 1 X -6 Y 1 X -6 Y 1 X 1 -7 d s 1847 917 m 3 X 3 Y 2 X -6 Y 1 X -7 Y 1 X -6 Y 1 -6 d
 1 X s 1856 895 m 5 X -6 Y 3 X s 1864 889 m -7 Y 1 -6 d 2 Y 1 X -6 Y 1 -7 d 1 X 1 3 d -7 Y 1 X -7 Y 1 X -6 Y 2 X -7 Y s 1873 841 m 3 X -7 Y 1 -7 d 1 X -21 Y 4 X s 1882 806 m 1 X 3 Y 2 X -8 Y 1 X -7 Y 2 X -15 Y 2 X 3 Y -8 Y 1 X s 1891 774 m 6 X -7 Y 3
 X s 1900 767 m 1 X -8 Y 2 X -8 Y 3 X -8 Y 2 X -8 Y s 1908 735 m 2 X 1 -8 d 3 X 1 -9 d 1 X -8 Y 1 X s 1917 710 m 9 X s 1926 710 m -18 Y 2 X -18 Y 7 X s 1935 674 m 2 X -9 Y 3 X -10 Y 1 X -9 Y 2 X 1 -10 d s 1944 636 m 1 X 1 -10 d 1 X -11 Y 1 X -11 Y 3
 X -11 Y 1 X s 1952 593 m 1 X -11 Y 2 X 5 Y 1 X -12 Y 1 -12 d 4 X s 1961 563 m 2 X -12 Y 3 X -13 Y 2 X -13 Y 1 -14 d 1 X s 1970 511 m 5 X 1 -14 d 2 X -31 Y 1 X s 1979 466 m 3 X -18 Y 6 X s 1988 448 m 6 X -18 Y 2 X -20 Y s 1996 410 m 9 X s 2005 410 m
 2 X -22 Y 7 X s 2014 388 m 1 X -25 Y 7 X 1 -30 d s 2023 333 m 9 X s 2032 333 m 1 X -38 Y 7 X s 2040 295 m 1 X s black 3 lw 245 201 m 1796 X s 398 241 m -40 Y s 436 221 m -20 Y s 474 221 m -20 Y s 512 221 m -20 Y s 550 221 m -20 Y s 588 241 m -40 Y s
 626 221 m -20 Y s 664 221 m -20 Y s 702 221 m -20 Y s 740 221 m -20 Y s 778 241 m -40 Y s 816 221 m -20 Y s 854 221 m -20 Y s 892 221 m -20 Y s 930 221 m -20 Y s 968 241 m -40 Y s 1006 221 m -20 Y s 1044 221 m -20 Y s 1082 221 m -20 Y s 1120 221 m
 -20 Y s 1158 241 m -40 Y s 1196 221 m -20 Y s 1234 221 m -20 Y s 1272 221 m -20 Y s 1310 221 m -20 Y s 1348 241 m -40 Y s 1386 221 m -20 Y s 1424 221 m -20 Y s 1462 221 m -20 Y s 1500 221 m -20 Y s 1538 241 m -40 Y s 1576 221 m -20 Y s 1614 221 m
 -20 Y s 1652 221 m -20 Y s 1690 221 m -20 Y s 1728 241 m -40 Y s 1766 221 m -20 Y s 1804 221 m -20 Y s 1842 221 m -20 Y s 1880 221 m -20 Y s 1918 241 m -40 Y s 398 241 m -40 Y s 360 221 m -20 Y s 322 221 m -20 Y s 284 221 m -20 Y s 246 221 m -20 Y s
 1918 241 m -40 Y s 1956 221 m -20 Y s 1994 221 m -20 Y s 2032 221 m -20 Y s 245 201 m 1140 Y s 291 201 m -46 X s 268 253 m -23 X s 268 305 m -23 X s 268 357 m -23 X s 291 408 m -46 X s 268 460 m -23 X s 268 512 m -23 X s 268 564 m -23 X s 291 616 m
 -46 X s 268 667 m -23 X s 268 719 m -23 X s 268 771 m -23 X s 291 823 m -46 X s 268 875 m -23 X s 268 926 m -23 X s 268 978 m -23 X s 291 1030 m -46 X s 268 1082 m -23 X s 268 1134 m -23 X s 268 1185 m -23 X s 291 1237 m -46 X s 291 1237 m -46 X s
 268 1289 m -23 X s 268 1341 m -23 X s 0.490196 0.545098 0.615686 c 1 1 1 c 0.490196 0.545098 0.615686 c 907 201 245 1341 bl 245 1341 m 907 X s 1152 1341 m 201 Y s 1152 1542 m -907 X s 245 1542 m -201 Y s black
 gsave  2268 1676 0 0 C 515.735 1471.36 t 0 r /Helvetica-Bold findfont 56.8825 sf 0 0 m (Signal efficiency) show NC gr  0 0 0.933333 c 9 lw 286 1492 m 190 X s black
 gsave  2268 1676 0 0 C 515.735 1368.97 t 0 r /Helvetica-Bold findfont 56.8825 sf 0 0 m (Background efficiency) show NC gr  1 0 0 c 286 1391 m 190 X s 0.490196 0.545098 0.615686 c 3 lw 1 1 1 c 0.490196 0.545098 0.615686 c 889 201 1152 1341 bl 1152
 1341 m 889 X s 2041 1341 m 201 Y s 2041 1542 m -889 X s 1152 1542 m -201 Y s black
 gsave  2268 1676 0 0 C 1418.27 1494.11 t 0 r /Helvetica-Bold findfont 56.8825 sf 0 0 m (Signal purity) show NC gr  0 0 0.933333 c[  52 12 ] 0 sd 6 lw 1192 1509 m 187 X s black
 gsave  2268 1676 0 0 C 1418.27 1429.65 t 0 r /Helvetica-Bold findfont 56.8825 sf 0 0 m (Signal efficiency*purity) show NC gr  0 0 0.933333 c[  22 12 ] 0 sd 1192 1441 m 187 X s black
 gsave  2268 1676 0 0 C 1501.7 1361.39 t 0 r /Helvetica-Bold findfont 56.8825 sf 0 0 m (S+B) show NC gr [  ] 0 sd 1483 1407 m 7 -49 d s 3 lw 1490 1358 m 8 64 d s 1498 1422 m 114 X s
 gsave  2268 1676 0 0 C 1418.27 1361.39 t 0 r /Helvetica-Bold findfont 56.8825 sf 0 0 m (S/) show NC gr  0 0.666667 0 c 9 lw 1192 1374 m 187 X s black 3 lw 245 1237 m 1796 X s
 gsave  2268 1676 0 0 C 337.503 386.801 t 0 r /Helvetica-Bold findfont 53.0904 sf 0 0 m (For 1000 signal and 1000 background) show NC gr 
 gsave  2268 1676 0 0 C 1058.01 318.542 t 0 r /Helvetica-Bold findfont 53.0904 sf 0 0 m ( is) show NC gr 
 gsave  2268 1676 0 0 C 955.626 318.542 t 0 r /Helvetica-Bold findfont 53.0904 sf 0 0 m (S+B) show NC gr  6 lw 933 360 m 7 -45 d s 3 lw 940 315 m 8 60 d s 948 375 m 110 X s
 gsave  2268 1676 0 0 C 337.503 318.542 t 0 r /Helvetica-Bold findfont 53.0904 sf 0 0 m (events the maximum S/) show NC gr 
 gsave  2268 1676 0 0 C 337.503 254.075 t 0 r /Helvetica-Bold findfont 53.0904 sf 0 0 m (27.97 when cutting at  0.53) show NC gr  0.490196 0.545098 0.615686 c 0.364706 0.419608 0.490196 c 1471 96 23 1572 bf 0.490196 0.545098 0.615686 c 23 1572 m 1471
 X s 1494 1572 m 96 Y s 1494 1668 m -1471 X s 23 1668 m -96 Y s 1 1 1 c black 1 1 1 c
 gsave  2268 1676 0 0 C 75.8434 1600.29 t 0 r /Helvetica-Bold findfont 75.8434 sf 0 0 m (Cut efficiencies and optimal cut value) show NC gr  0 0.666667 0 c 2041 201 m 1140 Y s black 0 0.666667 0 c
 gsave  2268 1676 0 0 C 2203.25 963.211 t 90 r /Helvetica-Bold findfont 64.4669 sf 0 0 m (Significance) show NC gr  1995 201 m 46 X s 2018 238 m 23 X s 2018 275 m 23 X s 2018 312 m 23 X s 2018 349 m 23 X s 1995 386 m 46 X s 2018 423 m 23 X s 2018 460
 m 23 X s 2018 497 m 23 X s 2018 535 m 23 X s 1995 572 m 46 X s 2018 609 m 23 X s 2018 646 m 23 X s 2018 683 m 23 X s 2018 720 m 23 X s 1995 757 m 46 X s 2018 794 m 23 X s 2018 831 m 23 X s 2018 868 m 23 X s 2018 905 m 23 X s 1995 942 m 46 X s 2018
 979 m 23 X s 2018 1016 m 23 X s 2018 1053 m 23 X s 2018 1090 m 23 X s 1995 1127 m 46 X s 2018 1164 m 23 X s 2018 1201 m 23 X s 2018 1238 m 23 X s 2018 1275 m 23 X s 1995 1312 m 46 X s 1995 1312 m 46 X s black 0 0.666667 0 c
 gsave  2268 1676 0 0 C 2051.56 178.232 t 0 r /Helvetica-Bold findfont 64.4669 sf 0 0 m (0) show NC gr  black 0 0.666667 0 c
 gsave  2268 1676 0 0 C 2051.56 360.256 t 0 r /Helvetica-Bold findfont 64.4669 sf 0 0 m (5) show NC gr  black 0 0.666667 0 c
 gsave  2268 1676 0 0 C 2051.56 546.072 t 0 r /Helvetica-Bold findfont 64.4669 sf 0 0 m (10) show NC gr  black 0 0.666667 0 c
 gsave  2268 1676 0 0 C 2051.56 731.888 t 0 r /Helvetica-Bold findfont 64.4669 sf 0 0 m (15) show NC gr  black 0 0.666667 0 c
 gsave  2268 1676 0 0 C 2051.56 917.705 t 0 r /Helvetica-Bold findfont 64.4669 sf 0 0 m (20) show NC gr  black 0 0.666667 0 c
 gsave  2268 1676 0 0 C 2051.56 1103.52 t 0 r /Helvetica-Bold findfont 64.4669 sf 0 0 m (25) show NC gr  black 0 0.666667 0 c
 gsave  2268 1676 0 0 C 2051.56 1289.34 t 0 r /Helvetica-Bold findfont 64.4669 sf 0 0 m (30) show NC gr 
 gr  gr showpage
end
%%EOF
