%!PS-Adobe-2.0 EPSF-2.0
%%BoundingBox:  0 0 567 419
%%Title: DataSet/plots/mvaeffs_MLPBPMSE.eps: Cut efficiencies for MLPBPMSE classifier
%%Creator: ROOT Version 6.08/06
%%CreationDate: Mon Jul 30 13:52:29 2018
%%DocumentNeededResources: ProcSet (FontSetInit)
%%EndComments
%%BeginProlog
80 dict begin
/s {stroke} def /l {lineto} def /m {moveto} def /t {translate} def
/r {rotate} def /rl {roll}  def /R {repeat} def
/d {rlineto} def /rm {rmoveto} def /gr {grestore} def /f {eofill} def
/c {setrgbcolor} def /black {0 setgray} def /sd {setdash} def
/cl {closepath} def /sf {scalefont setfont} def /lw {setlinewidth} def
/box {m dup 0 exch d exch 0 d 0 exch neg d cl} def
/NC{systemdict begin initclip end}def/C{NC box clip newpath}def
/bl {box s} def /bf {gsave box gsave f grestore 1 lw [] 0 sd s grestore} def /Y { 0 exch d} def /X { 0 d} def 
/K {{pop pop 0 moveto} exch kshow} bind def
/ita {/ang 15 def gsave [1 0 ang dup sin exch cos div 1 0 0] concat} def 
/mp {newpath /y exch def /x exch def} def
/side {[w .77 mul w .23 mul] .385 w mul sd w 0 l currentpoint t -144 r} def
/mr {mp x y w2 0 360 arc} def /m24 {mr s} def /m20 {mr f} def
/mb {mp x y w2 add m w2 neg 0 d 0 w neg d w 0 d 0 w d cl} def
/mt {mp x y w2 add m w2 neg w neg d w 0 d cl} def
/m21 {mb f} def /m25 {mb s} def /m22 {mt f} def /m26{mt s} def
/m23 {mp x y w2 sub m w2 w d w neg 0 d cl f} def
/m27 {mp x y w2 add m w3 neg w2 neg d w3 w2 neg d w3 w2 d cl s} def
/m28 {mp x w2 sub y w2 sub w3 add m w3 0 d  0 w3 neg d w3 0 d 0 w3 d w3 0 d  0 w3 d w3 neg 0 d 0 w3 d w3 neg 0 d 0 w3 neg d w3 neg 0 d cl s } def
/m29 {mp gsave x w2 sub y w2 add w3 sub m currentpoint t 4 {side} repeat cl fill gr} def
/m30 {mp gsave x w2 sub y w2 add w3 sub m currentpoint t 4 {side} repeat cl s gr} def
/m31 {mp x y w2 sub m 0 w d x w2 sub y m w 0 d x w2 sub y w2 add m w w neg d x w2 sub y w2 sub m w w d s} def
/m32 {mp x y w2 sub m w2 w d w neg 0 d cl s} def
/m33 {mp x y w2 add m w3 neg w2 neg d w3 w2 neg d w3 w2 d cl f} def
/m34 {mp x w2 sub y w2 sub w3 add m w3 0 d  0 w3 neg d w3 0 d 0 w3 d w3 0 d  0 w3 d w3 neg 0 d 0 w3 d w3 neg 0 d 0 w3 neg d w3 neg 0 d cl f } def
/m2 {mp x y w2 sub m 0 w d x w2 sub y m w 0 d s} def
/m5 {mp x w2 sub y w2 sub m w w d x w2 sub y w2 add m w w neg d s} def
%%IncludeResource: ProcSet (FontSetInit)
%%IncludeResource: font Times-Roman
%%IncludeResource: font Times-Italic
%%IncludeResource: font Times-Bold
%%IncludeResource: font Times-BoldItalic
%%IncludeResource: font Helvetica
%%IncludeResource: font Helvetica-Oblique
%%IncludeResource: font Helvetica-Bold
%%IncludeResource: font Helvetica-BoldOblique
%%IncludeResource: font Courier
%%IncludeResource: font Courier-Oblique
%%IncludeResource: font Courier-Bold
%%IncludeResource: font Courier-BoldOblique
%%IncludeResource: font Symbol
%%IncludeResource: font ZapfDingbats
/reEncode {exch findfont dup length dict begin {1 index /FID eq  {pop pop} {def} ifelse } forall /Encoding exch def currentdict end dup /FontName get exch definefont pop } def [/Times-Bold /Times-Italic /Times-BoldItalic /Helvetica /Helvetica-Oblique
 /Helvetica-Bold /Helvetica-BoldOblique /Courier /Courier-Oblique /Courier-Bold /Courier-BoldOblique /Times-Roman /AvantGarde-Book /AvantGarde-BookOblique /AvantGarde-Demi /AvantGarde-DemiOblique /Bookman-Demi /Bookman-DemiItalic /Bookman-Light
 /Bookman-LightItalic /Helvetica-Narrow /Helvetica-Narrow-Bold /Helvetica-Narrow-BoldOblique /Helvetica-Narrow-Oblique /NewCenturySchlbk-Roman /NewCenturySchlbk-Bold /NewCenturySchlbk-BoldItalic /NewCenturySchlbk-Italic /Palatino-Bold
 /Palatino-BoldItalic /Palatino-Italic /Palatino-Roman ] {ISOLatin1Encoding reEncode } forall
%%EndProlog
%%BeginSetup
%%EndSetup
newpath  gsave  .25 .25 scale  gsave  0 0 t 0.490196 0.545098 0.615686 c[  ] 0 sd 3 lw 1 1 1 c 2268 1676 0 0 bf black 1 1 1 c 1796 1140 245 201 bf black 1796 1140 245 201 bl 1 1 1 c 1796 1140 245 201 bf black 1796 1140 245 201 bl 245 201 m 1796 X s[
 4 8] 0 sd 245 1341 m -1140 Y s 604 1341 m -1140 Y s 963 1341 m -1140 Y s 1323 1341 m -1140 Y s 1682 1341 m -1140 Y s 2041 1341 m -1140 Y s 245 1341 m -1140 Y s 2041 1341 m -1140 Y s[  ] 0 sd 245 201 m 1140 Y s[ 4 8] 0 sd 2041 201 m -1796 X s 2041
 408 m -1796 X s 2041 616 m -1796 X s 2041 823 m -1796 X s 2041 1030 m -1796 X s 2041 1237 m -1796 X s 2041 1237 m -1796 X s 0 0 0.933333 c[  22 12 ] 0 sd 6 lw 0.49 0.6 0.82 c black 0 0 0.933333 c 245 719 m 45 Y 1 5 d 27 Y 1 -2 d 9 Y 1 3 d 6 Y -3 Y 1
 Y 1 4 d 9 Y 1 -4 d 3 Y 1 1 d 3 Y 1 X 6 Y 1 X 3 Y 1 1 d s 254 836 m 4 Y 1 X 7 Y 1 1 d 2 Y 1 X 2 Y 1 1 d 6 Y 1 3 d 2 Y 1 X 1 Y 1 1 d 4 Y 1 X 1 1 d s 263 871 m 1 X 3 Y 1 3 d -6 Y 1 Y 1 1 d 1 Y 1 1 d 3 Y 2 X 2 Y 1 X -5 Y 2 Y 1 X 3 Y s 271 880 m 1 X 1 Y
 1 X 3 Y 1 X 2 Y 1 1 d 2 Y 4 X 3 Y 1 2 d 2 Y s 280 896 m 1 X 1 Y 1 X 3 Y 1 X 4 Y 1 1 d 1 Y 1 X 2 Y 1 X 4 Y 1 1 d 2 Y 1 X 2 Y 1 X s 289 917 m 1 Y 1 X 1 Y 1 2 d 3 Y 1 X 5 Y 1 X 1 Y 2 X 2 Y 1 X 1 Y 1 2 d 1 1 d s 298 936 m 1 X 3 Y 1 1 d 2 Y -7 Y 2 X 2 Y
 5 X s 307 937 m 1 Y 1 X 3 Y 1 X 2 Y 1 X 1 Y 1 X 2 Y 4 X s 315 946 m 1 X 4 Y 1 X 1 1 d 2 X 2 Y 2 X 1 Y 1 X 2 Y 1 X s 324 956 m 4 X 1 Y 1 X 2 Y 1 1 d 1 2 d 2 X s 333 962 m 4 X 2 Y 4 X 1 Y 1 X s 342 965 m 2 X 2 Y 1 X 1 Y 1 2 d 1 X 4 Y 1 X 2 Y 3 X s 351
 976 m 1 X 5 Y 1 X 1 Y 2 X 2 Y 1 2 d 1 X 1 Y 2 X s 359 987 m 2 X 2 Y 7 X s 368 989 m 2 X 1 Y 1 X 2 Y 1 2 d 1 Y 5 X s 377 995 m 8 X 2 Y 1 X s 386 997 m 2 Y 5 X 1 Y 4 X s 395 1000 m 7 X 4 Y 1 X s 403 1004 m 1 X -7 Y 1 X 2 Y 2 X 2 Y 5 X s 412 1001 m 1 X
 2 Y 3 X 1 1 d 1 X 2 Y 1 X 2 Y 2 X s 421 1008 m 5 X 1 -7 d 3 X s 430 1001 m 3 X 1 2 d 1 2 d 4 X s 439 1005 m 1 X 1 2 d 4 X 1 Y 1 2 d 1 X 2 Y s 447 1012 m 1 X 2 Y 2 X 1 Y 6 X s 456 1015 m 3 X 2 Y 6 X s 465 1017 m 4 X 2 Y 2 X 2 Y 1 X 2 Y 2 X s 474 1023
 m 2 Y 9 X s 483 1025 m 8 X s 491 1025 m 9 X s 500 1025 m 8 X 1 Y 1 X s 509 1026 m 3 X 2 Y 6 X s 518 1028 m 9 X s 527 1028 m 4 X 2 Y -6 Y 4 X s 535 1024 m 9 X s 544 1024 m 3 X 2 Y 3 X 1 Y 3 X 2 Y s 553 1029 m 9 X s 562 1029 m 4 X 2 Y 4 X 2 Y 1 X s
 571 1033 m 5 X 2 Y 3 X s 579 1035 m 4 X 2 Y 5 X s 588 1037 m 9 X s 597 1037 m 1 2 d 1 X 2 Y 7 X s 606 1041 m 9 X s 615 1041 m 8 X s 623 1041 m 9 X s 632 1041 m 9 X s 641 1041 m 9 X s 650 1041 m 2 X 2 Y 6 X -7 Y 1 X s 659 1036 m 4 X 2 Y 2 X 2 Y 2 X s
 667 1040 m 9 X s 676 1040 m 4 X -6 Y 4 X 2 Y 1 X s 685 1036 m 9 X s 694 1036 m 4 X 2 Y 5 X s 703 1038 m 7 X 1 Y 1 X s 711 1039 m 9 X s 720 1039 m 9 X s 729 1039 m 9 X s 738 1039 m 9 X s 747 1039 m 8 X s 755 1039 m 4 X -6 Y 5 X s 764 1033 m 9 X s 773
 1033 m 5 X -6 Y 4 X s 782 1027 m 9 X s 791 1027 m 8 X s 799 1027 m 9 X s 808 1027 m 9 X s 817 1027 m 9 X s 826 1027 m 2 X 1 Y 1 -6 d 6 X s 835 1022 m 8 X 2 Y s 843 1024 m 3 X -7 Y 6 X s 852 1017 m 9 X s 861 1017 m 3 X 2 Y 6 X s 870 1019 m 9 X s 879
 1019 m 8 X s 887 1019 m 9 X s 896 1019 m 9 X s 905 1019 m 9 X s 914 1019 m 8 X 2 Y 1 X s 923 1021 m 8 X s 931 1021 m 9 X s 940 1021 m 3 X -6 Y 6 X s 949 1015 m 5 X 2 Y 4 X s 958 1017 m 4 X 1 -7 d 4 X s 967 1010 m 8 X s 975 1010 m 2 X 3 Y 1 X 2 Y 6 X
 s 984 1015 m 9 X s 993 1015 m 9 X s 1002 1015 m 9 X s 1011 1015 m 1 X 2 Y 2 X 1 2 d 4 X s 1019 1019 m 9 X s 1028 1019 m 4 X 2 Y 1 X 2 Y 4 X s 1037 1023 m 7 X -7 Y 2 X s 1046 1016 m 2 Y 1 X 2 Y 8 X s 1055 1020 m 8 X s 1063 1020 m 9 X s 1072 1020 m 4
 X 2 Y 5 X s 1081 1022 m 3 Y 9 X s 1090 1025 m 9 X s 1099 1025 m 4 X 1 -7 d 3 X s 1107 1018 m 7 X 1 -7 d 1 X s 1116 1011 m 7 X 1 3 d 1 X s 1125 1014 m 9 X s 1134 1014 m 6 X 2 Y 3 X s 1143 1016 m 8 X s 1151 1016 m 6 X 1 -7 d 1 X -6 Y 1 X s 1160 1003 m
 3 X 2 Y 6 X s 1169 1005 m 3 X 2 Y 6 X s 1178 1007 m 9 X s 1187 1007 m 2 X 2 Y 6 X s 1195 1009 m 8 X 2 Y 1 X s 1204 1011 m 9 X s 1213 1011 m 9 X s 1222 1011 m 8 X 2 Y 1 X s 1231 1013 m 3 X -6 Y 5 X s 1239 1007 m 9 X s 1248 1007 m 8 X 2 Y 1 X s 1257
 1009 m 9 X s 1266 1009 m 9 X s 1275 1009 m 8 X s 1283 1009 m 9 X s 1292 1009 m 9 X s 1301 1009 m 9 X 2 Y s 1310 1011 m 9 X s 1319 1011 m -6 Y 8 X s 1327 1005 m 9 X s 1336 1005 m 5 X 2 Y 4 X s 1345 1007 m 9 X s 1354 1007 m -7 Y 9 X s 1363 1000 m 8 X
 s 1371 1000 m 9 X s 1380 1000 m 1 -6 d 8 X s 1389 994 m 9 X s 1398 994 m 6 X 1 -7 d -6 Y 2 X s 1407 981 m 8 X s 1415 981 m 9 X s 1424 981 m 2 X 2 Y 6 X -7 Y 1 X s 1433 976 m 9 X s 1442 976 m 9 X s 1451 976 m 2 Y 8 X s 1459 978 m 8 X 3 Y 1 X s 1468
 981 m 9 X s 1477 981 m 9 X s 1486 981 m 9 X s 1495 981 m 8 X s 1503 981 m 7 X 2 Y 2 X s 1512 983 m 9 X s 1521 983 m 8 X -7 Y 1 X s 1530 976 m 9 X s 1539 976 m 8 X s 1547 976 m 3 X -6 Y 6 X s 1556 970 m 7 X -7 Y 2 X s 1565 963 m 9 X s 1574 963 m 9 X
 s 1583 963 m 2 X -6 Y 6 X s 1591 957 m 8 X 2 Y 1 X s 1600 959 m 1 X 2 Y 8 X s 1609 961 m 9 X s 1618 961 m 9 X s 1627 961 m 2 Y 8 X -6 Y s 1635 957 m 9 X s 1644 957 m 3 X -7 Y 6 X s 1653 950 m 9 X s 1662 950 m 3 X -6 Y 6 X s 1671 944 m 8 X s 1679 944
 m 9 X s 1688 944 m 4 X 1 2 d 4 X s 1697 946 m 1 X 1 2 d 1 X -6 Y 1 X 2 Y 4 X -7 Y 1 X s 1706 937 m 9 X s 1715 937 m 8 X s 1723 937 m 6 X 3 Y 3 X s 1732 940 m 5 X 2 Y 4 X -7 Y s 1741 935 m 9 X s 1750 935 m 1 X -6 Y 1 X -7 Y 6 X -6 Y 1 X s 1759 916 m
 8 X s 1767 916 m 7 X -7 Y 2 X s 1776 909 m 3 X -6 Y 6 X s 1785 903 m 1 X 1 -7 d 3 X 2 Y 1 X -6 Y 1 X 2 Y 2 X s 1794 894 m 3 X -6 Y 6 X s 1803 888 m 3 X 2 Y 4 X 2 Y 2 X s 1812 892 m 8 X s 1820 892 m 4 X 1 -6 d 4 X s 1829 886 m 1 2 d -7 Y 8 X s 1838
 881 m 4 X 1 -6 d 3 X 2 Y 1 X s 1847 877 m 9 X s 1856 877 m -6 Y 8 X s 1864 871 m 9 X s 1873 871 m 1 -7 d 2 X -7 Y 4 X -6 Y 2 X s 1882 851 m 6 X 1 -7 d 2 X s 1891 844 m 7 X -6 Y 2 X s 1900 838 m -7 Y 2 X 1 3 d -14 Y 5 X s 1908 820 m 1 X -6 Y 7 X -7 Y
 1 X -6 Y s 1917 801 m 2 Y 8 X -7 Y 1 X s 1926 796 m 2 X -6 Y 6 X -7 Y 1 X s 1935 783 m 2 X 1 -6 d 4 X -7 Y 2 X s 1944 770 m -7 Y 1 X -6 Y 7 X s 1952 757 m 1 X -7 Y 1 X -6 Y 2 Y 1 X 3 Y 3 X 1 -7 d 2 X s 1961 742 m 1 X -7 Y 4 X -13 Y 4 X s 1970 722 m
 1 X -6 Y 3 X -7 Y 3 X -7 Y 1 X -6 Y 1 -7 d s 1979 689 m 1 X 3 Y 4 X -7 Y 1 X 1 -7 d -13 Y 2 X s 1988 665 m -6 Y 1 -7 d -13 Y 1 X 2 Y 4 X 1 -13 d 1 X s 1996 628 m 5 X -6 Y 2 X -7 Y 1 X -4 Y 1 -7 d -6 Y s 2005 598 m 2 X 1 -7 d 1 -7 d 2 X -6 Y 2 Y 1 X
 -6 Y 2 X s 2014 574 m 2 X -27 Y 1 X -6 Y 2 X -13 Y 1 X -20 Y 1 X -13 Y 1 X 1 -7 d s 2023 488 m -13 Y 1 X -20 Y 1 X 3 Y 1 -14 d -6 Y 1 -7 d -20 Y 1 -4 d 1 X -13 Y 1 X -4 Y 1 X 3 Y 1 -7 d s 2032 386 m -13 Y 1 -7 d -13 Y 1 X -13 Y 1 -7 d 1 X -13 Y 1 -7
 d 1 -6 d -7 Y 1 -6 d -33 Y 1 X -40 Y s 2040 221 m -7 Y 1 X -6 Y s black[  ] 0 sd 3 lw 245 201 m 1796 X s
 gsave  2268 1676 0 0 C 663.629 30.3373 t 0 r /Helvetica-Bold findfont 72.0512 sf 0 0 m (Cut value applied on MLPBPMSE output) show NC gr  245 241 m -40 Y s 335 221 m -20 Y s 425 221 m -20 Y s 514 221 m -20 Y s 604 241 m -40 Y s 694 221 m -20 Y s 784
 221 m -20 Y s 874 221 m -20 Y s 963 241 m -40 Y s 1053 221 m -20 Y s 1143 221 m -20 Y s 1233 221 m -20 Y s 1323 241 m -40 Y s 1412 221 m -20 Y s 1502 221 m -20 Y s 1592 221 m -20 Y s 1682 241 m -40 Y s 1772 221 m -20 Y s 1861 221 m -20 Y s 1951 221
 m -20 Y s 2041 241 m -40 Y s 245 241 m -40 Y s 2041 241 m -40 Y s
 gsave  2268 1676 0 0 C 223.738 128.934 t 0 r /Helvetica-Bold findfont 64.4669 sf 0 0 m (0) show NC gr 
 gsave  2268 1676 0 0 C 557.449 128.934 t 0 r /Helvetica-Bold findfont 64.4669 sf 0 0 m (0.2) show NC gr 
 gsave  2268 1676 0 0 C 917.705 128.934 t 0 r /Helvetica-Bold findfont 64.4669 sf 0 0 m (0.4) show NC gr 
 gsave  2268 1676 0 0 C 1274.17 128.934 t 0 r /Helvetica-Bold findfont 64.4669 sf 0 0 m (0.6) show NC gr 
 gsave  2268 1676 0 0 C 1634.42 128.934 t 0 r /Helvetica-Bold findfont 64.4669 sf 0 0 m (0.8) show NC gr 
 gsave  2268 1676 0 0 C 2025.02 128.934 t 0 r /Helvetica-Bold findfont 64.4669 sf 0 0 m (1) show NC gr  245 201 m 1140 Y s
 gsave  2268 1676 0 0 C 64.4669 731.888 t 90 r /Helvetica-Bold findfont 72.0512 sf 0 0 m (Efficiency \(Purity\)) show NC gr  291 201 m -46 X s 268 253 m -23 X s 268 305 m -23 X s 268 357 m -23 X s 291 408 m -46 X s 268 460 m -23 X s 268 512 m -23 X s
 268 564 m -23 X s 291 616 m -46 X s 268 667 m -23 X s 268 719 m -23 X s 268 771 m -23 X s 291 823 m -46 X s 268 875 m -23 X s 268 926 m -23 X s 268 978 m -23 X s 291 1030 m -46 X s 268 1082 m -23 X s 268 1134 m -23 X s 268 1185 m -23 X s 291 1237 m
 -46 X s 291 1237 m -46 X s 268 1289 m -23 X s 268 1341 m -23 X s
 gsave  2268 1676 0 0 C 182.024 178.232 t 0 r /Helvetica-Bold findfont 64.4669 sf 0 0 m (0) show NC gr 
 gsave  2268 1676 0 0 C 128.934 383.009 t 0 r /Helvetica-Bold findfont 64.4669 sf 0 0 m (0.2) show NC gr 
 gsave  2268 1676 0 0 C 125.142 591.578 t 0 r /Helvetica-Bold findfont 64.4669 sf 0 0 m (0.4) show NC gr 
 gsave  2268 1676 0 0 C 128.934 796.355 t 0 r /Helvetica-Bold findfont 64.4669 sf 0 0 m (0.6) show NC gr 
 gsave  2268 1676 0 0 C 125.142 1004.92 t 0 r /Helvetica-Bold findfont 64.4669 sf 0 0 m (0.8) show NC gr 
 gsave  2268 1676 0 0 C 189.608 1213.49 t 0 r /Helvetica-Bold findfont 64.4669 sf 0 0 m (1) show NC gr  0 0 0.933333 c[  52 12 ] 0 sd 6 lw 0.49 0.6 0.82 c black 0 0 0.933333 c 245 719 m 45 Y 1 5 d 27 Y 1 2 d 9 Y 1 3 d 8 Y 1 4 d 9 Y 1 X 4 Y 1 1 d 3 Y
 1 X 6 Y 1 X 3 Y 1 1 d s 254 849 m 3 Y 1 X 7 Y 1 1 d 3 Y 1 X 2 Y 1 1 d 5 Y 1 4 d 2 Y 1 X 1 Y 1 1 d 4 Y 1 X 1 1 d s 263 884 m 1 X 3 Y 1 3 d -2 Y 1 Y 1 2 d 1 Y 1 1 d 2 Y 2 X 3 Y 1 X 1 Y 1 X 4 Y s 271 903 m 1 X 1 Y 1 X 2 Y 1 X 3 Y 1 1 d 1 Y 4 X 4 Y 1 1
 d 3 Y s 280 919 m 1 X 1 Y 1 X 3 Y 1 X 4 Y 1 1 d 2 Y 1 X 1 Y 1 X 4 Y 1 1 d 3 Y 1 X 1 Y 1 X s 289 940 m 2 Y 1 X 1 Y 1 2 d 2 Y 1 X 6 Y 1 X 1 Y 2 X 2 Y 1 X 1 Y 1 2 d 1 1 d s 298 960 m 1 X 3 Y 1 2 d 1 Y -1 Y 2 X 1 Y 5 X s 307 966 m 2 Y 1 X 3 Y 1 X 1 Y 1
 X 2 Y 1 X 1 Y 4 X s 315 975 m 1 X 5 Y 1 X 1 1 d 2 X 2 Y 2 X 1 Y 1 X 2 Y 1 X s 324 986 m 4 X 1 Y 1 X 2 Y 1 2 d 1 1 d 2 X s 333 992 m 4 X 2 Y 4 X 1 Y 1 X s 342 995 m 2 X 2 Y 1 X 2 Y 1 1 d 1 X 5 Y 1 X 2 Y 3 X s 351 1007 m 1 X 5 Y 1 X 1 Y 2 X 2 Y 1 2 d
 1 X 1 Y 2 X s 359 1018 m 2 X 2 Y 7 X s 368 1020 m 2 X 2 Y 1 X 2 Y 1 1 d 2 Y 5 X s 377 1027 m 8 X 2 Y 1 X s 386 1029 m 1 Y 5 X 2 Y 4 X s 395 1032 m 7 X 4 Y 1 X s 403 1036 m 1 X -1 Y 1 X 1 Y 2 X 2 Y 5 X s 412 1038 m 1 X 2 Y 3 X 1 2 d 1 X 2 Y 1 X 1 Y 2
 X s 421 1045 m 5 X 1 -1 d 3 X s 430 1044 m 3 X 1 2 d 1 2 d 4 X s 439 1048 m 1 X 1 2 d 4 X 2 Y 1 2 d 1 X 1 Y s 447 1055 m 1 X 2 Y 2 X 2 Y 6 X s 456 1059 m 3 X 2 Y 6 X s 465 1061 m 4 X 2 Y 2 X 2 Y 1 X 2 Y 2 X s 474 1067 m 2 Y 9 X s 483 1069 m 8 X s
 491 1069 m 9 X s 500 1069 m 8 X 2 Y 1 X s 509 1071 m 3 X 2 Y 6 X s 518 1073 m 9 X s 527 1073 m 4 X 2 Y -1 Y 4 X s 535 1074 m 9 X s 544 1074 m 3 X 2 Y 3 X 2 Y 3 X 2 Y s 553 1080 m 9 X s 562 1080 m 4 X 2 Y 4 X 2 Y 1 X s 571 1084 m 5 X 2 Y 3 X s 579
 1086 m 4 X 2 Y 5 X s 588 1088 m 9 X s 597 1088 m 1 2 d 1 X 2 Y 7 X s 606 1092 m 9 X s 615 1092 m 8 X s 623 1092 m 9 X s 632 1092 m 9 X s 641 1092 m 9 X s 650 1092 m 2 X 2 Y 6 X -1 Y 1 X s 659 1093 m 4 X 2 Y 2 X 2 Y 2 X s 667 1097 m 9 X s 676 1097 m
 4 X -1 Y 4 X 2 Y 1 X s 685 1098 m 9 X s 694 1098 m 4 X 3 Y 5 X s 703 1101 m 7 X 2 Y 1 X s 711 1103 m 9 X s 720 1103 m 9 X s 729 1103 m 9 X s 738 1103 m 9 X s 747 1103 m 8 X s 755 1103 m 4 X -1 Y 5 X s 764 1102 m 9 X s 773 1102 m 5 X -1 Y 4 X s 782
 1101 m 9 X s 791 1101 m 8 X s 799 1101 m 9 X s 808 1101 m 9 X s 817 1101 m 9 X s 826 1101 m 2 X 2 Y 1 -1 d 6 X s 835 1102 m 8 X 3 Y s 843 1105 m 3 X -1 Y 6 X s 852 1104 m 9 X s 861 1104 m 3 X 2 Y 6 X s 870 1106 m 9 X s 879 1106 m 8 X s 887 1106 m 9
 X s 896 1106 m 9 X s 905 1106 m 9 X s 914 1106 m 8 X 2 Y 1 X s 923 1108 m 8 X s 931 1108 m 9 X s 940 1108 m 3 X -1 Y 6 X s 949 1107 m 5 X 3 Y 4 X s 958 1110 m 4 X 1 -1 d 4 X s 967 1109 m 8 X s 975 1109 m 2 X 2 Y 1 X 2 Y 6 X s 984 1113 m 9 X s 993
 1113 m 9 X s 1002 1113 m 9 X s 1011 1113 m 1 X 3 Y 2 X 1 2 d 4 X s 1019 1118 m 9 X s 1028 1118 m 4 X 2 Y 1 X 2 Y 4 X s 1037 1122 m 9 X s 1046 1122 m 2 Y 1 X 2 Y 8 X s 1055 1126 m 8 X s 1063 1126 m 9 X s 1072 1126 m 4 X 3 Y 5 X s 1081 1129 m 2 Y 9 X
 s 1090 1131 m 9 X s 1099 1131 m 4 X 1 -1 d 3 X s 1107 1130 m 9 X s 1116 1130 m 7 X 1 2 d 1 X s 1125 1132 m 9 X s 1134 1132 m 6 X 3 Y 3 X s 1143 1135 m 8 X s 1151 1135 m 6 X 1 -1 d 1 X -1 Y 1 X s 1160 1133 m 3 X 3 Y 6 X s 1169 1136 m 3 X 2 Y 6 X s
 1178 1138 m 9 X s 1187 1138 m 2 X 3 Y 6 X s 1195 1141 m 8 X 2 Y 1 X s 1204 1143 m 9 X s 1213 1143 m 9 X s 1222 1143 m 8 X 3 Y 1 X s 1231 1146 m 3 X -1 Y 5 X s 1239 1145 m 9 X s 1248 1145 m 8 X 3 Y 1 X s 1257 1148 m 9 X s 1266 1148 m 9 X s 1275 1148
 m 8 X s 1283 1148 m 9 X s 1292 1148 m 9 X s 1301 1148 m 9 X 2 Y s 1310 1150 m 9 X s 1319 1150 m 8 X s 1327 1150 m 9 X s 1336 1150 m 5 X 2 Y 4 X s 1345 1152 m 9 X s 1354 1152 m 9 X s 1363 1152 m 8 X s 1371 1152 m 9 X s 1380 1152 m 1 -1 d 8 X s 1389
 1151 m 9 X s 1398 1151 m 6 X 1 -1 d 2 X s 1407 1150 m 8 X s 1415 1150 m 9 X s 1424 1150 m 2 X 3 Y 6 X -1 Y 1 X s 1433 1152 m 9 X s 1442 1152 m 9 X s 1451 1152 m 3 Y 8 X s 1459 1155 m 8 X 2 Y 1 X s 1468 1157 m 9 X s 1477 1157 m 9 X s 1486 1157 m 9 X
 s 1495 1157 m 8 X s 1503 1157 m 7 X 3 Y 2 X s 1512 1160 m 9 X s 1521 1160 m 9 X s 1530 1160 m 9 X s 1539 1160 m 8 X s 1547 1160 m 3 X -1 Y 6 X s 1556 1159 m 7 X -1 Y 2 X s 1565 1158 m 9 X s 1574 1158 m 9 X s 1583 1158 m 8 X s 1591 1158 m 8 X 3 Y 1 X
 s 1600 1161 m 1 X 2 Y 8 X s 1609 1163 m 9 X s 1618 1163 m 9 X s 1627 1163 m 3 Y 8 X s 1635 1166 m 9 X s 1644 1166 m 3 X -1 Y 6 X s 1653 1165 m 9 X s 1662 1165 m 9 X s 1671 1165 m 8 X s 1679 1165 m 9 X s 1688 1165 m 4 X 1 3 d 4 X s 1697 1168 m 1 X 1
 3 d 1 X -1 Y 1 X 3 Y 5 X s 1706 1173 m 9 X s 1715 1173 m 8 X s 1723 1173 m 6 X 3 Y 3 X s 1732 1176 m 5 X 3 Y 4 X -1 Y s 1741 1178 m 9 X s 1750 1178 m 2 X -1 Y 7 X s 1759 1177 m 8 X s 1767 1177 m 7 X -1 Y 2 X s 1776 1176 m 9 X s 1785 1176 m 1 X 1 -1
 d 3 X 3 Y 2 X 3 Y 2 X s 1794 1181 m 9 X s 1803 1181 m 3 X 3 Y 4 X 4 Y 2 X s 1812 1188 m 8 X s 1820 1188 m 4 X 1 -1 d 4 X s 1829 1187 m 1 4 d -1 Y 8 X s 1838 1190 m 8 X 3 Y 1 X s 1847 1193 m 9 X s 1856 1193 m 8 X s 1864 1193 m 9 X s 1873 1193 m 1 -1
 d 8 X s 1882 1192 m 6 X 1 -1 d 2 X s 1891 1191 m 9 X s 1900 1191 m -1 Y 2 X 1 4 d -1 Y 5 X s 1908 1193 m 8 X -1 Y 1 X s 1917 1192 m 4 Y 8 X -1 Y 1 X s 1926 1195 m 8 X -1 Y 1 X s 1935 1194 m 9 X s 1944 1194 m -1 Y 8 X s 1952 1193 m 1 X -1 Y 1 X 4 Y 1
 X 4 Y 6 X s 1961 1200 m 5 X -1 Y 4 X s 1970 1199 m 1 X -1 Y 6 X -1 Y 1 X 1 -1 d s 1979 1196 m 1 X 5 Y 5 X 1 -1 d -1 Y 2 X s 1988 1199 m 1 -1 d -1 Y 1 X 6 Y 4 X 1 -1 d 1 X s 1996 1202 m 5 X -1 Y 3 X 5 Y 1 X -1 Y s 2005 1205 m 3 X 1 -1 d 2 X 6 Y 3 X s
 2014 1210 m 2 X -2 Y 1 X -1 Y 2 X -1 Y 1 X -2 Y 1 X -1 Y 1 X 1 -1 d s 2023 1202 m -2 Y 1 X -2 Y 1 X 9 Y 1 -1 d -1 Y 1 -1 d -3 Y 1 11 d 1 X -1 Y 1 X 12 Y 1 X 14 Y 1 X s 2032 1237 m 8 X s 2040 1237 m 1 X s[  ] 0 sd 9 lw 0.49 0.6 0.82 c black 0 0
 0.933333 c 245 1237 m 1 X 1 -6 d 1 X -7 Y 1 X 1 -7 d 4 X s 254 1217 m 9 X s 263 1217 m 2 X -6 Y 5 X -7 Y 1 X s 271 1204 m 9 X s 280 1204 m 9 X s 289 1204 m 9 X s 298 1204 m 2 X -6 Y 7 X s 307 1198 m 8 X s 315 1198 m 9 X s 324 1198 m 9 X s 333 1198 m
 9 X s 342 1198 m 9 X s 351 1198 m 8 X s 359 1198 m 9 X s 368 1198 m 9 X s 377 1198 m 9 X s 386 1198 m 9 X s 395 1198 m 8 X s 403 1198 m 1 X -7 Y 8 X s 412 1191 m 9 X s 421 1191 m 5 X 1 -7 d 3 X s 430 1184 m 9 X s 439 1184 m 8 X s 447 1184 m 9 X s
 456 1184 m 9 X s 465 1184 m 9 X s 474 1184 m 9 X s 483 1184 m 8 X s 491 1184 m 9 X s 500 1184 m 9 X s 509 1184 m 9 X s 518 1184 m 9 X s 527 1184 m 4 X -6 Y 4 X s 535 1178 m 9 X s 544 1178 m 9 X s 553 1178 m 9 X s 562 1178 m 9 X s 571 1178 m 8 X s
 579 1178 m 9 X s 588 1178 m 9 X s 597 1178 m 9 X s 606 1178 m 9 X s 615 1178 m 8 X s 623 1178 m 9 X s 632 1178 m 9 X s 641 1178 m 9 X s 650 1178 m 8 X -7 Y 1 X s 659 1171 m 8 X s 667 1171 m 9 X s 676 1171 m 4 X -6 Y 5 X s 685 1165 m 9 X s 694 1165 m
 9 X s 703 1165 m 8 X s 711 1165 m 9 X s 720 1165 m 9 X s 729 1165 m 9 X s 738 1165 m 9 X s 747 1165 m 8 X s 755 1165 m 4 X -7 Y 5 X s 764 1158 m 9 X s 773 1158 m 5 X -7 Y 4 X s 782 1151 m 9 X s 791 1151 m 8 X s 799 1151 m 9 X s 808 1151 m 9 X s 817
 1151 m 9 X s 826 1151 m 2 X 1 -6 d 6 X s 835 1145 m 8 X s 843 1145 m 3 X -7 Y 6 X s 852 1138 m 9 X s 861 1138 m 9 X s 870 1138 m 9 X s 879 1138 m 8 X s 887 1138 m 9 X s 896 1138 m 9 X s 905 1138 m 9 X s 914 1138 m 9 X s 923 1138 m 8 X s 931 1138 m 9
 X s 940 1138 m 3 X -6 Y 6 X s 949 1132 m 9 X s 958 1132 m 4 X 1 -7 d 4 X s 967 1125 m 8 X s 975 1125 m 9 X s 984 1125 m 9 X s 993 1125 m 9 X s 1002 1125 m 9 X s 1011 1125 m 8 X s 1019 1125 m 9 X s 1028 1125 m 9 X s 1037 1125 m 7 X -7 Y 2 X s 1046
 1118 m 9 X s 1055 1118 m 8 X s 1063 1118 m 9 X s 1072 1118 m 9 X s 1081 1118 m 9 X s 1090 1118 m 9 X s 1099 1118 m 4 X 1 -6 d 3 X s 1107 1112 m 7 X 1 -7 d 1 X s 1116 1105 m 9 X s 1125 1105 m 9 X s 1134 1105 m 9 X s 1143 1105 m 8 X s 1151 1105 m 6 X
 1 -6 d 1 X -7 Y 1 X s 1160 1092 m 9 X s 1169 1092 m 9 X s 1178 1092 m 9 X s 1187 1092 m 8 X s 1195 1092 m 9 X s 1204 1092 m 9 X s 1213 1092 m 9 X s 1222 1092 m 9 X s 1231 1092 m 3 X -6 Y 5 X s 1239 1086 m 9 X s 1248 1086 m 9 X s 1257 1086 m 9 X s
 1266 1086 m 9 X s 1275 1086 m 8 X s 1283 1086 m 9 X s 1292 1086 m 9 X s 1301 1086 m 9 X s 1310 1086 m 9 X s 1319 1086 m -7 Y 8 X s 1327 1079 m 9 X s 1336 1079 m 9 X s 1345 1079 m 9 X s 1354 1079 m -7 Y 9 X s 1363 1072 m 8 X s 1371 1072 m 9 X s 1380
 1072 m 1 -6 d 8 X s 1389 1066 m 9 X s 1398 1066 m 6 X 1 -7 d -6 Y 2 X s 1407 1053 m 8 X s 1415 1053 m 9 X s 1424 1053 m 8 X -7 Y 1 X s 1433 1046 m 9 X s 1442 1046 m 9 X s 1451 1046 m 8 X s 1459 1046 m 9 X s 1468 1046 m 9 X s 1477 1046 m 9 X s 1486
 1046 m 9 X s 1495 1046 m 8 X s 1503 1046 m 9 X s 1512 1046 m 9 X s 1521 1046 m 8 X -7 Y 1 X s 1530 1039 m 9 X s 1539 1039 m 8 X s 1547 1039 m 3 X -6 Y 6 X s 1556 1033 m 7 X -7 Y 2 X s 1565 1026 m 9 X s 1574 1026 m 9 X s 1583 1026 m 2 X -6 Y 6 X s
 1591 1020 m 9 X s 1600 1020 m 9 X s 1609 1020 m 9 X s 1618 1020 m 9 X s 1627 1020 m 8 X -7 Y s 1635 1013 m 9 X s 1644 1013 m 3 X -7 Y 6 X s 1653 1006 m 9 X s 1662 1006 m 3 X -6 Y 6 X s 1671 1000 m 8 X s 1679 1000 m 9 X s 1688 1000 m 9 X s 1697 1000
 m 3 X -7 Y 5 X -6 Y 1 X s 1706 987 m 9 X s 1715 987 m 8 X s 1723 987 m 9 X s 1732 987 m 9 X -7 Y s 1741 980 m 9 X s 1750 980 m 1 X -7 Y 1 X -6 Y 6 X -7 Y 1 X s 1759 960 m 8 X s 1767 960 m 7 X -6 Y 2 X s 1776 954 m 3 X -7 Y 6 X s 1785 947 m 1 X 1 -7
 d 4 X -6 Y 3 X s 1794 934 m 3 X -7 Y 6 X s 1803 927 m 9 X s 1812 927 m 8 X s 1820 927 m 4 X 1 -6 d 4 X s 1829 921 m 1 X -7 Y 8 X s 1838 914 m 4 X 1 -7 d 4 X s 1847 907 m 9 X s 1856 907 m -6 Y 8 X s 1864 901 m 9 X s 1873 901 m 1 -7 d 2 X -6 Y 4 X -7
 Y 2 X s 1882 881 m 6 X 1 -7 d 2 X s 1891 874 m 7 X -6 Y 2 X s 1900 868 m -7 Y 3 X -13 Y 5 X s 1908 848 m 1 X -7 Y 7 X -6 Y 1 X -7 Y s 1917 828 m 8 X -6 Y 1 X s 1926 822 m 2 X -7 Y 6 X -7 Y 1 X s 1935 808 m 2 X 1 -6 d 4 X -7 Y 2 X s 1944 795 m -6 Y 1
 X -7 Y 7 X s 1952 782 m 1 X -7 Y 1 X -6 Y 4 X 1 -7 d 2 X s 1961 762 m 1 X -6 Y 4 X -14 Y 4 X s 1970 742 m 1 X -6 Y 3 X -7 Y 3 X -6 Y 1 X -7 Y 1 -7 d s 1979 709 m 5 X -6 Y 1 X 1 -7 d -13 Y 2 X s 1988 683 m -7 Y 1 -6 d -13 Y 5 X 1 -14 d 1 X s 1996 643
 m 5 X -6 Y 2 X -7 Y 1 X -6 Y 1 -7 d -7 Y s 2005 610 m 2 X 1 -6 d 1 -7 d 2 X -6 Y 1 X -7 Y 2 X s 2014 584 m 2 X -26 Y 1 X -7 Y 2 X -13 Y 1 X -20 Y 1 X -13 Y 1 X 1 -7 d s 2023 498 m -13 Y 1 X -20 Y 1 X 1 -13 d -7 Y 1 -6 d -20 Y 1 -7 d 1 X -13 Y 1 X -6
 Y 1 X 1 -7 d s 2032 386 m -13 Y 1 -7 d -13 Y 1 X -13 Y 1 -7 d 1 X -13 Y 1 -7 d 1 -6 d -7 Y 1 -6 d -33 Y 1 X -40 Y s 2040 221 m -7 Y 1 X -6 Y s 1 0 0 c black 1 0 0 c 245 1237 m -165 Y 1 -15 d -87 Y 1 -10 d -26 Y 1 -11 d -26 Y 1 -10 d -26 Y 1 -3 d -11
 Y 1 -2 d -8 Y 1 X -16 Y 1 X -8 Y 1 -2 d s 254 811 m -8 Y 1 X -18 Y 1 -3 d -5 Y 1 X -5 Y 1 -3 d -13 Y 1 -8 d -5 Y 1 X -3 Y 1 -2 d -8 Y 1 X 1 -3 d s 263 727 m 1 X -8 Y 1 -5 d -3 Y 1 -2 d -3 Y 1 -2 d -6 Y 2 X -5 Y 1 X -5 Y 1 X -8 Y s 271 680 m 1 X -3 Y
 1 X -5 Y 1 X -5 Y 1 -3 d -2 Y 4 X -8 Y 1 -3 d -5 Y s 280 646 m 1 X -3 Y 1 X -5 Y 1 X -8 Y 1 -2 d -3 Y 1 X -3 Y 1 X -7 Y 1 -3 d -5 Y 1 X -3 Y 1 X s 289 604 m -3 Y 1 X -2 Y 1 -3 d -5 Y 1 X -10 Y 1 X -3 Y 2 X -3 Y 1 X -2 Y 1 -3 d 1 -3 d s 298 567 m 1 X
 -5 Y 1 -2 d -3 Y 2 X -3 Y 5 X s 307 554 m -2 Y 1 X -5 Y 1 X -3 Y 1 X -3 Y 1 X -2 Y 4 X s 315 539 m 1 X -8 Y 1 X 1 -3 d 2 X -2 Y 2 X -3 Y 1 X -3 Y 1 X s 324 520 m 4 X -2 Y 1 X -3 Y 1 -2 d 1 -3 d 2 X s 333 510 m 4 X -3 Y 4 X -2 Y 1 X s 342 505 m 2 X
 -3 Y 1 X -3 Y 1 -2 d 1 X -8 Y 1 X -3 Y 3 X s 351 486 m 1 X -8 Y 1 X -2 Y 2 X -3 Y 1 -2 d 1 X -3 Y 2 X s 359 468 m 2 X -3 Y 7 X s 368 465 m 2 X -2 Y 1 X -3 Y 1 -2 d -3 Y 5 X s 377 455 m 8 X -3 Y 1 X s 386 452 m -2 Y 5 X -3 Y 4 X s 395 447 m 7 X -5 Y
 1 X s 403 442 m 2 X -3 Y 2 X -2 Y 5 X s 412 437 m 1 X -3 Y 3 X 1 -3 d 1 X -2 Y 1 X -3 Y 2 X s 421 426 m 9 X s 430 426 m 3 X 1 -2 d 1 -3 d 4 X s 439 421 m 1 X 1 -3 d 4 X -2 Y 1 -3 d 1 X -3 Y s 447 410 m 1 X -2 Y 2 X -3 Y 6 X s 456 405 m 3 X -2 Y 6 X
 s 465 403 m 4 X -3 Y 2 X -3 Y 1 X -2 Y 2 X s 474 395 m -3 Y 9 X s 483 392 m 8 X s 491 392 m 9 X s 500 392 m 8 X -2 Y 1 X s 509 390 m 3 X -3 Y 6 X s 518 387 m 9 X s 527 387 m 4 X -3 Y 4 X s 535 384 m 9 X s 544 384 m 3 X -2 Y 3 X -3 Y 3 X -3 Y s 553
 376 m 9 X s 562 376 m 4 X -2 Y 4 X -3 Y 1 X s 571 371 m 5 X -2 Y 3 X s 579 369 m 4 X -3 Y 5 X s 588 366 m 9 X s 597 366 m 1 -3 d 1 X -2 Y 7 X s 606 361 m 9 X s 615 361 m 8 X s 623 361 m 9 X s 632 361 m 9 X s 641 361 m 9 X s 650 361 m 2 X -3 Y 7 X s
 659 358 m 4 X -2 Y 2 X -3 Y 2 X s 667 353 m 9 X s 676 353 m 8 X -3 Y 1 X s 685 350 m 9 X s 694 350 m 4 X -2 Y 5 X s 703 348 m 7 X -3 Y 1 X s 711 345 m 9 X s 720 345 m 9 X s 729 345 m 9 X s 738 345 m 9 X s 747 345 m 8 X s 755 345 m 9 X s 764 345 m 9
 X s 773 345 m 9 X s 782 345 m 9 X s 791 345 m 8 X s 799 345 m 9 X s 808 345 m 9 X s 817 345 m 9 X s 826 345 m 2 X -3 Y 7 X s 835 342 m 8 X -2 Y s 843 340 m 9 X s 852 340 m 9 X s 861 340 m 3 X -3 Y 6 X s 870 337 m 9 X s 879 337 m 8 X s 887 337 m 9 X
 s 896 337 m 9 X s 905 337 m 9 X s 914 337 m 8 X -2 Y 1 X s 923 335 m 8 X s 931 335 m 9 X s 940 335 m 9 X s 949 335 m 5 X -3 Y 4 X s 958 332 m 9 X s 967 332 m 8 X s 975 332 m 2 X -3 Y 1 X -2 Y 6 X s 984 327 m 9 X s 993 327 m 9 X s 1002 327 m 9 X s
 1011 327 m 1 X -3 Y 2 X 1 -3 d 4 X s 1019 321 m 9 X s 1028 321 m 4 X -2 Y 1 X -3 Y 4 X s 1037 316 m 9 X s 1046 316 m -2 Y 1 X -3 Y 8 X s 1055 311 m 8 X s 1063 311 m 9 X s 1072 311 m 4 X -3 Y 5 X s 1081 308 m -2 Y 9 X s 1090 306 m 9 X s 1099 306 m 8
 X s 1107 306 m 9 X s 1116 306 m 7 X 1 -3 d 1 X s 1125 303 m 9 X s 1134 303 m 6 X -2 Y 3 X s 1143 301 m 8 X s 1151 301 m 9 X s 1160 301 m 3 X -3 Y 6 X s 1169 298 m 3 X -3 Y 6 X s 1178 295 m 9 X s 1187 295 m 2 X -2 Y 6 X s 1195 293 m 8 X -3 Y 1 X s
 1204 290 m 9 X s 1213 290 m 9 X s 1222 290 m 8 X -3 Y 1 X s 1231 287 m 8 X s 1239 287 m 9 X s 1248 287 m 8 X -2 Y 1 X s 1257 285 m 9 X s 1266 285 m 9 X s 1275 285 m 8 X s 1283 285 m 9 X s 1292 285 m 9 X s 1301 285 m 9 X -3 Y s 1310 282 m 9 X s 1319
 282 m 8 X s 1327 282 m 9 X s 1336 282 m 5 X -2 Y 4 X s 1345 280 m 9 X s 1354 280 m 9 X s 1363 280 m 8 X s 1371 280 m 9 X s 1380 280 m 9 X s 1389 280 m 9 X s 1398 280 m 9 X s 1407 280 m 8 X s 1415 280 m 9 X s 1424 280 m 2 X -3 Y 7 X s 1433 277 m 9 X
 s 1442 277 m 9 X s 1451 277 m -3 Y 8 X s 1459 274 m 8 X -2 Y 1 X s 1468 272 m 9 X s 1477 272 m 9 X s 1486 272 m 9 X s 1495 272 m 8 X s 1503 272 m 7 X -3 Y 2 X s 1512 269 m 9 X s 1521 269 m 9 X s 1530 269 m 9 X s 1539 269 m 8 X s 1547 269 m 9 X s
 1556 269 m 9 X s 1565 269 m 9 X s 1574 269 m 9 X s 1583 269 m 8 X s 1591 269 m 8 X -2 Y 1 X s 1600 267 m 1 X -3 Y 8 X s 1609 264 m 9 X s 1618 264 m 9 X s 1627 264 m -3 Y 8 X s 1635 261 m 9 X s 1644 261 m 9 X s 1653 261 m 9 X s 1662 261 m 9 X s 1671
 261 m 8 X s 1679 261 m 9 X s 1688 261 m 4 X 1 -2 d 4 X s 1697 259 m 1 X 1 -3 d 2 X -3 Y 5 X s 1706 253 m 9 X s 1715 253 m 8 X s 1723 253 m 6 X -2 Y 3 X s 1732 251 m 5 X -3 Y 4 X s 1741 248 m 9 X s 1750 248 m 9 X s 1759 248 m 8 X s 1767 248 m 9 X s
 1776 248 m 9 X s 1785 248 m 5 X -2 Y 2 X -3 Y 2 X s 1794 243 m 9 X s 1803 243 m 3 X -3 Y 4 X -2 Y 2 X s 1812 238 m 8 X s 1820 238 m 9 X s 1829 238 m 1 -3 d 8 X s 1838 235 m 8 X -2 Y 1 X s 1847 233 m 9 X s 1856 233 m 8 X s 1864 233 m 9 X s 1873 233 m
 9 X s 1882 233 m 9 X s 1891 233 m 9 X s 1900 233 m 2 X 1 -3 d 5 X s 1908 230 m 9 X s 1917 230 m -3 Y 9 X s 1926 227 m 9 X s 1935 227 m 9 X s 1944 227 m 8 X s 1952 227 m 2 X -2 Y 1 X -3 Y 6 X s 1961 222 m 9 X s 1970 222 m 9 X s 1979 222 m 1 X -3 Y 8
 X s 1988 219 m 2 X -2 Y 6 X s 1996 217 m 8 X -3 Y 1 X s 2005 214 m 6 X -2 Y 3 X s 2014 212 m 9 X s 2023 212 m 2 X -3 Y 2 X 1 -3 d 2 X -2 Y 1 X -3 Y 1 X s 2032 201 m 8 X s 2040 201 m 1 X s 0 0.666667 0 c 1 1 1 c black 0 0.666667 0 c 245 1014 m 35 Y 1
 3 d 20 Y 1 -1 d 6 Y 1 3 d 4 Y -2 Y 1 3 d 7 Y 1 -3 d 2 Y 1 1 d 2 Y 1 X 5 Y 1 X 2 Y 1 X s 254 1101 m 3 Y 1 X 5 Y 1 1 d 1 Y 1 X 1 Y 1 1 d 4 Y 1 2 d 2 Y 1 X 1 Y 1 X 3 Y 1 X 1 1 d s 263 1126 m 1 X 2 Y 1 1 d -4 Y 1 Y 1 1 d 1 Y 1 1 d 1 Y 2 X 2 Y 1 X -3 Y 1
 X 3 Y s 271 1132 m 1 X 1 Y 1 X 1 Y 1 X 2 Y 1 1 d 1 Y 4 X 2 Y 1 1 d 2 Y s 280 1143 m 1 X 1 Y 1 X 1 Y 1 X 3 Y 1 1 d 1 Y 1 X 1 Y 1 X 2 Y 1 1 d 2 Y 1 X 1 Y 1 X s 289 1157 m 1 Y 1 X 1 1 d 2 Y 1 X 4 Y 1 X 1 Y 2 X 1 Y 1 X 1 Y 1 X 1 1 d s 298 1169 m 1 X 2 Y
 1 1 d 1 Y -4 Y 2 X 1 Y 5 X s 307 1170 m 1 Y 1 X 2 Y 1 X 1 Y 1 X 1 Y 1 X 1 Y 4 X s 315 1176 m 1 X 3 Y 1 X 1 1 d 2 X 1 Y 3 X 1 Y 1 X s 324 1182 m 4 X 1 Y 1 X 1 Y 1 1 d 1 1 d 2 X s 333 1186 m 4 X 1 Y 4 X 1 Y 1 X s 342 1188 m 2 X 1 Y 1 X 1 Y 1 1 d 1 X 3
 Y 1 X 1 Y 3 X s 351 1195 m 1 X 3 Y 1 X 1 Y 2 X 2 Y 1 1 d 1 X 1 Y 2 X s 359 1203 m 2 X 1 Y 7 X s 368 1204 m 2 X 1 Y 1 X 1 Y 1 1 d 1 Y 5 X s 377 1208 m 8 X 1 Y 1 X s 386 1209 m 1 Y 5 X 1 Y 4 X s 395 1211 m 7 X 2 Y 1 X s 403 1213 m 1 X -4 Y 1 X 1 Y 2 X
 1 Y 5 X s 412 1211 m 1 X 1 Y 3 X 1 1 d 1 X 1 Y 1 X 2 Y 2 X s 421 1216 m 5 X 1 -4 d 3 X s 430 1212 m 3 X 1 1 d 1 1 d 4 X s 439 1214 m 1 X 1 1 d 4 X 1 Y 1 1 d 1 X 1 Y s 447 1218 m 1 X 1 Y 2 X 1 Y 6 X s 456 1220 m 3 X 2 Y 6 X s 465 1222 m 4 X 1 Y 2 X 1
 Y 1 X 1 Y 2 X s 474 1225 m 1 Y 9 X s 483 1226 m 8 X s 491 1226 m 9 X s 500 1226 m 8 X 1 Y 1 X s 509 1227 m 3 X 1 Y 6 X s 518 1228 m 9 X s 527 1228 m 4 X 2 Y -4 Y 4 X s 535 1226 m 9 X s 544 1226 m 3 X 1 Y 3 X 1 Y 3 X 1 Y s 553 1229 m 9 X s 562 1229 m
 4 X 1 Y 4 X 1 Y 1 X s 571 1231 m 5 X 2 Y 3 X s 579 1233 m 4 X 1 Y 5 X s 588 1234 m 9 X s 597 1234 m 1 1 d 1 X 1 Y 7 X s 606 1236 m 9 X s 615 1236 m 8 X s 623 1236 m 9 X s 632 1236 m 9 X s 641 1236 m 9 X s 650 1236 m 2 X 1 Y 6 X -4 Y 1 X s 659 1233 m
 4 X 2 Y 2 X 1 Y 2 X s 667 1236 m 9 X s 676 1236 m 4 X -4 Y 4 X 1 Y 1 X s 685 1233 m 9 X s 694 1233 m 4 X 1 Y 5 X s 703 1234 m 7 X 1 Y 1 X s 711 1235 m 9 X s 720 1235 m 9 X s 729 1235 m 9 X s 738 1235 m 9 X s 747 1235 m 8 X s 755 1235 m 4 X -4 Y 5 X
 s 764 1231 m 9 X s 773 1231 m 5 X -4 Y 4 X s 782 1227 m 9 X s 791 1227 m 8 X s 799 1227 m 9 X s 808 1227 m 9 X s 817 1227 m 9 X s 826 1227 m 2 X 2 Y 1 -4 d 6 X s 835 1225 m 8 X 1 Y s 843 1226 m 3 X -4 Y 6 X s 852 1222 m 9 X s 861 1222 m 3 X 1 Y 6 X
 s 870 1223 m 9 X s 879 1223 m 8 X s 887 1223 m 9 X s 896 1223 m 9 X s 905 1223 m 9 X s 914 1223 m 8 X 1 Y 1 X s 923 1224 m 8 X s 931 1224 m 9 X s 940 1224 m 3 X -4 Y 6 X s 949 1220 m 5 X 1 Y 4 X s 958 1221 m 4 X 1 -4 d 4 X s 967 1217 m 8 X s 975
 1217 m 2 X 2 Y 1 X 1 Y 6 X s 984 1220 m 9 X s 993 1220 m 9 X s 1002 1220 m 9 X s 1011 1220 m 1 X 1 Y 2 X 1 1 d 4 X s 1019 1222 m 9 X s 1028 1222 m 4 X 2 Y 1 X 1 Y 4 X s 1037 1225 m 7 X -4 Y 2 X s 1046 1221 m 1 Y 1 X 1 Y 8 X s 1055 1223 m 8 X s 1063
 1223 m 9 X s 1072 1223 m 4 X 2 Y 5 X s 1081 1225 m 1 Y 9 X s 1090 1226 m 9 X s 1099 1226 m 4 X 1 -4 d 3 X s 1107 1222 m 7 X 1 -4 d 1 X s 1116 1218 m 7 X 1 1 d 1 X s 1125 1219 m 9 X s 1134 1219 m 6 X 2 Y 3 X s 1143 1221 m 8 X s 1151 1221 m 6 X 1 -5 d
 1 X -4 Y 1 X s 1160 1212 m 3 X 2 Y 6 X s 1169 1214 m 3 X 1 Y 6 X s 1178 1215 m 9 X s 1187 1215 m 2 X 1 Y 6 X s 1195 1216 m 8 X 2 Y 1 X s 1204 1218 m 9 X s 1213 1218 m 9 X s 1222 1218 m 8 X 1 Y 1 X s 1231 1219 m 3 X -4 Y 5 X s 1239 1215 m 9 X s 1248
 1215 m 8 X 1 Y 1 X s 1257 1216 m 9 X s 1266 1216 m 9 X s 1275 1216 m 8 X s 1283 1216 m 9 X s 1292 1216 m 9 X s 1301 1216 m 9 X 2 Y s 1310 1218 m 9 X s 1319 1218 m -4 Y 8 X s 1327 1214 m 9 X s 1336 1214 m 5 X 1 Y 4 X s 1345 1215 m 9 X s 1354 1215 m
 -4 Y 9 X s 1363 1211 m 8 X s 1371 1211 m 9 X s 1380 1211 m 1 -4 d 8 X s 1389 1207 m 9 X s 1398 1207 m 6 X 1 -4 d -5 Y 2 X s 1407 1198 m 8 X s 1415 1198 m 9 X s 1424 1198 m 2 X 2 Y 6 X -4 Y 1 X s 1433 1196 m 9 X s 1442 1196 m 9 X s 1451 1196 m 1 Y 8
 X s 1459 1197 m 8 X 1 Y 1 X s 1468 1198 m 9 X s 1477 1198 m 9 X s 1486 1198 m 9 X s 1495 1198 m 8 X s 1503 1198 m 7 X 2 Y 2 X s 1512 1200 m 9 X s 1521 1200 m 8 X -4 Y 1 X s 1530 1196 m 9 X s 1539 1196 m 8 X s 1547 1196 m 3 X -5 Y 6 X s 1556 1191 m 7
 X -4 Y 2 X s 1565 1187 m 9 X s 1574 1187 m 9 X s 1583 1187 m 2 X -4 Y 6 X s 1591 1183 m 8 X 1 Y 1 X s 1600 1184 m 1 X 2 Y 8 X s 1609 1186 m 9 X s 1618 1186 m 9 X s 1627 1186 m 1 Y 8 X -4 Y s 1635 1183 m 9 X s 1644 1183 m 3 X -4 Y 6 X s 1653 1179 m 9
 X s 1662 1179 m 3 X -4 Y 6 X s 1671 1175 m 8 X s 1679 1175 m 9 X s 1688 1175 m 4 X 1 1 d 4 X s 1697 1176 m 1 X 1 1 d 1 X -4 Y 1 X 2 Y 4 X -5 Y 1 X s 1706 1170 m 9 X s 1715 1170 m 8 X s 1723 1170 m 6 X 2 Y 3 X s 1732 1172 m 5 X 1 Y 4 X -4 Y s 1741
 1169 m 9 X s 1750 1169 m 1 X -4 Y 1 X -5 Y 6 X -4 Y 1 X s 1759 1156 m 8 X s 1767 1156 m 7 X -4 Y 2 X s 1776 1152 m 3 X -5 Y 6 X s 1785 1147 m 1 X 1 -4 d 3 X 1 Y 1 X -4 Y 1 X 1 Y 2 X s 1794 1141 m 3 X -4 Y 6 X s 1803 1137 m 3 X 2 Y 4 X 1 Y 2 X s 1812
 1140 m 8 X s 1820 1140 m 4 X 1 -4 d 4 X s 1829 1136 m 1 1 d -4 Y 8 X s 1838 1133 m 4 X 1 -5 d 3 X 2 Y 1 X s 1847 1130 m 9 X s 1856 1130 m -5 Y 8 X s 1864 1125 m 9 X s 1873 1125 m 1 -4 d 2 X -5 Y 4 X -4 Y 2 X s 1882 1112 m 6 X 1 -5 d 2 X s 1891 1107
 m 7 X -5 Y 2 X s 1900 1102 m -4 Y 2 X 1 1 d -9 Y 5 X s 1908 1090 m 1 X -5 Y 7 X -5 Y 1 X -4 Y s 1917 1076 m 1 Y 8 X -4 Y 1 X s 1926 1073 m 2 X -5 Y 6 X -5 Y 1 X s 1935 1063 m 2 X 1 -5 d 4 X -5 Y 2 X s 1944 1053 m -5 Y 1 X -5 Y 7 X s 1952 1043 m 1 X
 -5 Y 1 X -5 Y 2 Y 1 X 2 Y 3 X 1 -5 d 2 X s 1961 1032 m 1 X -5 Y 4 X -11 Y 4 X s 1970 1016 m 1 X -5 Y 3 X -5 Y 3 X -5 Y 1 X -5 Y 1 -6 d s 1979 990 m 1 X 2 Y 4 X -5 Y 1 X 1 -5 d -11 Y 2 X s 1988 971 m -6 Y 1 -5 d -12 Y 1 X 3 Y 4 X 1 -12 d 1 X s 1996
 939 m 5 X -5 Y 2 X -6 Y 1 X -4 Y 1 -6 d -6 Y s 2005 912 m 2 X 1 -6 d 1 -6 d 2 X -6 Y 3 Y 1 X -6 Y 2 X s 2014 891 m 2 X -25 Y 1 X -7 Y 2 X -13 Y 1 X -19 Y 1 X -14 Y 1 X 1 -7 d s 2023 806 m -14 Y 1 X -22 Y 1 X 3 Y 1 -15 d -7 Y 1 -8 d -24 Y 1 -5 d 1 X
 -17 Y 1 X -5 Y 1 X 3 Y 1 -8 d s 2032 687 m -18 Y 1 -9 d -19 Y 1 X -19 Y 1 -10 d 1 X -22 Y 1 -11 d 1 -11 d -11 Y 1 -13 d -68 Y 1 X -116 Y s 2040 360 m -29 Y 1 X -38 Y s black 3 lw 245 201 m 1796 X s 245 241 m -40 Y s 335 221 m -20 Y s 425 221 m -20 Y
 s 514 221 m -20 Y s 604 241 m -40 Y s 694 221 m -20 Y s 784 221 m -20 Y s 874 221 m -20 Y s 963 241 m -40 Y s 1053 221 m -20 Y s 1143 221 m -20 Y s 1233 221 m -20 Y s 1323 241 m -40 Y s 1412 221 m -20 Y s 1502 221 m -20 Y s 1592 221 m -20 Y s 1682
 241 m -40 Y s 1772 221 m -20 Y s 1861 221 m -20 Y s 1951 221 m -20 Y s 2041 241 m -40 Y s 245 241 m -40 Y s 2041 241 m -40 Y s 245 201 m 1140 Y s 291 201 m -46 X s 268 253 m -23 X s 268 305 m -23 X s 268 357 m -23 X s 291 408 m -46 X s 268 460 m -23
 X s 268 512 m -23 X s 268 564 m -23 X s 291 616 m -46 X s 268 667 m -23 X s 268 719 m -23 X s 268 771 m -23 X s 291 823 m -46 X s 268 875 m -23 X s 268 926 m -23 X s 268 978 m -23 X s 291 1030 m -46 X s 268 1082 m -23 X s 268 1134 m -23 X s 268 1185
 m -23 X s 291 1237 m -46 X s 291 1237 m -46 X s 268 1289 m -23 X s 268 1341 m -23 X s 0.490196 0.545098 0.615686 c 1 1 1 c 0.490196 0.545098 0.615686 c 907 201 245 1341 bl 245 1341 m 907 X s 1152 1341 m 201 Y s 1152 1542 m -907 X s 245 1542 m -201 Y
 s black
 gsave  2268 1676 0 0 C 515.735 1471.36 t 0 r /Helvetica-Bold findfont 56.8825 sf 0 0 m (Signal efficiency) show NC gr  0 0 0.933333 c 9 lw 286 1492 m 190 X s black
 gsave  2268 1676 0 0 C 515.735 1368.97 t 0 r /Helvetica-Bold findfont 56.8825 sf 0 0 m (Background efficiency) show NC gr  1 0 0 c 286 1391 m 190 X s 0.490196 0.545098 0.615686 c 3 lw 1 1 1 c 0.490196 0.545098 0.615686 c 889 201 1152 1341 bl 1152
 1341 m 889 X s 2041 1341 m 201 Y s 2041 1542 m -889 X s 1152 1542 m -201 Y s black
 gsave  2268 1676 0 0 C 1418.27 1494.11 t 0 r /Helvetica-Bold findfont 56.8825 sf 0 0 m (Signal purity) show NC gr  0 0 0.933333 c[  52 12 ] 0 sd 6 lw 1192 1509 m 187 X s black
 gsave  2268 1676 0 0 C 1418.27 1429.65 t 0 r /Helvetica-Bold findfont 56.8825 sf 0 0 m (Signal efficiency*purity) show NC gr  0 0 0.933333 c[  22 12 ] 0 sd 1192 1441 m 187 X s black
 gsave  2268 1676 0 0 C 1501.7 1361.39 t 0 r /Helvetica-Bold findfont 56.8825 sf 0 0 m (S+B) show NC gr [  ] 0 sd 1483 1407 m 7 -49 d s 3 lw 1490 1358 m 8 64 d s 1498 1422 m 114 X s
 gsave  2268 1676 0 0 C 1418.27 1361.39 t 0 r /Helvetica-Bold findfont 56.8825 sf 0 0 m (S/) show NC gr  0 0.666667 0 c 9 lw 1192 1374 m 187 X s black 3 lw 245 1237 m 1796 X s
 gsave  2268 1676 0 0 C 337.503 386.801 t 0 r /Helvetica-Bold findfont 53.0904 sf 0 0 m (For 1000 signal and 1000 background) show NC gr 
 gsave  2268 1676 0 0 C 1058.01 318.542 t 0 r /Helvetica-Bold findfont 53.0904 sf 0 0 m ( is) show NC gr 
 gsave  2268 1676 0 0 C 955.626 318.542 t 0 r /Helvetica-Bold findfont 53.0904 sf 0 0 m (S+B) show NC gr  6 lw 933 360 m 7 -45 d s 3 lw 940 315 m 8 60 d s 948 375 m 110 X s
 gsave  2268 1676 0 0 C 337.503 318.542 t 0 r /Helvetica-Bold findfont 53.0904 sf 0 0 m (events the maximum S/) show NC gr 
 gsave  2268 1676 0 0 C 337.503 254.075 t 0 r /Helvetica-Bold findfont 53.0904 sf 0 0 m (28.50 when cutting at  0.23) show NC gr  0.490196 0.545098 0.615686 c 0.364706 0.419608 0.490196 c 1471 96 23 1572 bf 0.490196 0.545098 0.615686 c 23 1572 m 1471
 X s 1494 1572 m 96 Y s 1494 1668 m -1471 X s 23 1668 m -96 Y s 1 1 1 c black 1 1 1 c
 gsave  2268 1676 0 0 C 75.8434 1600.29 t 0 r /Helvetica-Bold findfont 75.8434 sf 0 0 m (Cut efficiencies and optimal cut value) show NC gr  0 0.666667 0 c 2041 201 m 1140 Y s black 0 0.666667 0 c
 gsave  2268 1676 0 0 C 2203.25 963.211 t 90 r /Helvetica-Bold findfont 64.4669 sf 0 0 m (Significance) show NC gr  1995 201 m 46 X s 2018 237 m 23 X s 2018 274 m 23 X s 2018 310 m 23 X s 2018 347 m 23 X s 1995 383 m 46 X s 2018 419 m 23 X s 2018 456
 m 23 X s 2018 492 m 23 X s 2018 528 m 23 X s 1995 565 m 46 X s 2018 601 m 23 X s 2018 637 m 23 X s 2018 674 m 23 X s 2018 710 m 23 X s 1995 747 m 46 X s 2018 783 m 23 X s 2018 819 m 23 X s 2018 856 m 23 X s 2018 892 m 23 X s 1995 928 m 46 X s 2018
 965 m 23 X s 2018 1001 m 23 X s 2018 1037 m 23 X s 2018 1074 m 23 X s 1995 1110 m 46 X s 2018 1146 m 23 X s 2018 1183 m 23 X s 2018 1219 m 23 X s 2018 1256 m 23 X s 1995 1292 m 46 X s 1995 1292 m 46 X s 2018 1328 m 23 X s black 0 0.666667 0 c
 gsave  2268 1676 0 0 C 2051.56 178.232 t 0 r /Helvetica-Bold findfont 64.4669 sf 0 0 m (0) show NC gr  black 0 0.666667 0 c
 gsave  2268 1676 0 0 C 2051.56 356.464 t 0 r /Helvetica-Bold findfont 64.4669 sf 0 0 m (5) show NC gr  black 0 0.666667 0 c
 gsave  2268 1676 0 0 C 2051.56 538.488 t 0 r /Helvetica-Bold findfont 64.4669 sf 0 0 m (10) show NC gr  black 0 0.666667 0 c
 gsave  2268 1676 0 0 C 2051.56 720.512 t 0 r /Helvetica-Bold findfont 64.4669 sf 0 0 m (15) show NC gr  black 0 0.666667 0 c
 gsave  2268 1676 0 0 C 2051.56 902.536 t 0 r /Helvetica-Bold findfont 64.4669 sf 0 0 m (20) show NC gr  black 0 0.666667 0 c
 gsave  2268 1676 0 0 C 2051.56 1084.56 t 0 r /Helvetica-Bold findfont 64.4669 sf 0 0 m (25) show NC gr  black 0 0.666667 0 c
 gsave  2268 1676 0 0 C 2051.56 1266.58 t 0 r /Helvetica-Bold findfont 64.4669 sf 0 0 m (30) show NC gr 
 gr  gr showpage
end
%%EOF
