%!PS-Adobe-2.0 EPSF-2.0
%%BoundingBox:  0 0 567 419
%%Title: DataSet/plots/mvaeffs_PDERS.eps: Cut efficiencies for PDERS classifier
%%Creator: ROOT Version 6.08/06
%%CreationDate: Mon Jul 30 13:52:28 2018
%%DocumentNeededResources: ProcSet (FontSetInit)
%%EndComments
%%BeginProlog
80 dict begin
/s {stroke} def /l {lineto} def /m {moveto} def /t {translate} def
/r {rotate} def /rl {roll}  def /R {repeat} def
/d {rlineto} def /rm {rmoveto} def /gr {grestore} def /f {eofill} def
/c {setrgbcolor} def /black {0 setgray} def /sd {setdash} def
/cl {closepath} def /sf {scalefont setfont} def /lw {setlinewidth} def
/box {m dup 0 exch d exch 0 d 0 exch neg d cl} def
/NC{systemdict begin initclip end}def/C{NC box clip newpath}def
/bl {box s} def /bf {gsave box gsave f grestore 1 lw [] 0 sd s grestore} def /Y { 0 exch d} def /X { 0 d} def 
/K {{pop pop 0 moveto} exch kshow} bind def
/ita {/ang 15 def gsave [1 0 ang dup sin exch cos div 1 0 0] concat} def 
/mp {newpath /y exch def /x exch def} def
/side {[w .77 mul w .23 mul] .385 w mul sd w 0 l currentpoint t -144 r} def
/mr {mp x y w2 0 360 arc} def /m24 {mr s} def /m20 {mr f} def
/mb {mp x y w2 add m w2 neg 0 d 0 w neg d w 0 d 0 w d cl} def
/mt {mp x y w2 add m w2 neg w neg d w 0 d cl} def
/m21 {mb f} def /m25 {mb s} def /m22 {mt f} def /m26{mt s} def
/m23 {mp x y w2 sub m w2 w d w neg 0 d cl f} def
/m27 {mp x y w2 add m w3 neg w2 neg d w3 w2 neg d w3 w2 d cl s} def
/m28 {mp x w2 sub y w2 sub w3 add m w3 0 d  0 w3 neg d w3 0 d 0 w3 d w3 0 d  0 w3 d w3 neg 0 d 0 w3 d w3 neg 0 d 0 w3 neg d w3 neg 0 d cl s } def
/m29 {mp gsave x w2 sub y w2 add w3 sub m currentpoint t 4 {side} repeat cl fill gr} def
/m30 {mp gsave x w2 sub y w2 add w3 sub m currentpoint t 4 {side} repeat cl s gr} def
/m31 {mp x y w2 sub m 0 w d x w2 sub y m w 0 d x w2 sub y w2 add m w w neg d x w2 sub y w2 sub m w w d s} def
/m32 {mp x y w2 sub m w2 w d w neg 0 d cl s} def
/m33 {mp x y w2 add m w3 neg w2 neg d w3 w2 neg d w3 w2 d cl f} def
/m34 {mp x w2 sub y w2 sub w3 add m w3 0 d  0 w3 neg d w3 0 d 0 w3 d w3 0 d  0 w3 d w3 neg 0 d 0 w3 d w3 neg 0 d 0 w3 neg d w3 neg 0 d cl f } def
/m2 {mp x y w2 sub m 0 w d x w2 sub y m w 0 d s} def
/m5 {mp x w2 sub y w2 sub m w w d x w2 sub y w2 add m w w neg d s} def
%%IncludeResource: ProcSet (FontSetInit)
%%IncludeResource: font Times-Roman
%%IncludeResource: font Times-Italic
%%IncludeResource: font Times-Bold
%%IncludeResource: font Times-BoldItalic
%%IncludeResource: font Helvetica
%%IncludeResource: font Helvetica-Oblique
%%IncludeResource: font Helvetica-Bold
%%IncludeResource: font Helvetica-BoldOblique
%%IncludeResource: font Courier
%%IncludeResource: font Courier-Oblique
%%IncludeResource: font Courier-Bold
%%IncludeResource: font Courier-BoldOblique
%%IncludeResource: font Symbol
%%IncludeResource: font ZapfDingbats
/reEncode {exch findfont dup length dict begin {1 index /FID eq  {pop pop} {def} ifelse } forall /Encoding exch def currentdict end dup /FontName get exch definefont pop } def [/Times-Bold /Times-Italic /Times-BoldItalic /Helvetica /Helvetica-Oblique
 /Helvetica-Bold /Helvetica-BoldOblique /Courier /Courier-Oblique /Courier-Bold /Courier-BoldOblique /Times-Roman /AvantGarde-Book /AvantGarde-BookOblique /AvantGarde-Demi /AvantGarde-DemiOblique /Bookman-Demi /Bookman-DemiItalic /Bookman-Light
 /Bookman-LightItalic /Helvetica-Narrow /Helvetica-Narrow-Bold /Helvetica-Narrow-BoldOblique /Helvetica-Narrow-Oblique /NewCenturySchlbk-Roman /NewCenturySchlbk-Bold /NewCenturySchlbk-BoldItalic /NewCenturySchlbk-Italic /Palatino-Bold
 /Palatino-BoldItalic /Palatino-Italic /Palatino-Roman ] {ISOLatin1Encoding reEncode } forall
%%EndProlog
%%BeginSetup
%%EndSetup
newpath  gsave  .25 .25 scale  gsave  0 0 t 0.490196 0.545098 0.615686 c[  ] 0 sd 3 lw 1 1 1 c 2268 1676 0 0 bf black 1 1 1 c 1796 1140 245 201 bf black 1796 1140 245 201 bl 1 1 1 c 1796 1140 245 201 bf black 1796 1140 245 201 bl 245 201 m 1796 X s[
 4 8] 0 sd 422 1341 m -1140 Y s 616 1341 m -1140 Y s 811 1341 m -1140 Y s 1005 1341 m -1140 Y s 1199 1341 m -1140 Y s 1394 1341 m -1140 Y s 1588 1341 m -1140 Y s 1782 1341 m -1140 Y s 1977 1341 m -1140 Y s 422 1341 m -1140 Y s 1977 1341 m -1140 Y s[ 
 ] 0 sd 245 201 m 1140 Y s[ 4 8] 0 sd 2041 201 m -1796 X s 2041 408 m -1796 X s 2041 616 m -1796 X s 2041 823 m -1796 X s 2041 1030 m -1796 X s 2041 1237 m -1796 X s 2041 1237 m -1796 X s 0 0 0.933333 c[  22 12 ] 0 sd 6 lw 0.49 0.6 0.82 c black 0 0
 0.933333 c 245 719 m 1 Y 8 X 1 1 d s 254 721 m 8 X 1 Y 1 X s 263 722 m 8 X s 271 722 m 3 X 1 Y 5 X 1 Y 1 X s 280 724 m 1 X 1 Y 4 X 1 1 d 3 X s 289 726 m 1 X 1 Y 4 X 1 Y 1 1 d 2 X 1 Y 1 X s 298 730 m 1 X 1 Y 8 X s 307 731 m 8 X s 315 731 m 7 X 1 Y 1
 1 d 1 X s 324 733 m 9 X s 333 733 m 1 Y 9 X s 342 734 m 1 Y 6 X 1 Y 1 1 d 2 X s 351 737 m 8 X s 359 737 m 9 X s 368 737 m 9 X s 377 737 m 1 X 1 Y 6 X 1 Y 2 X s 386 739 m 9 X s 395 739 m 8 X s 403 739 m 5 X 1 Y 4 X s 412 740 m 9 X s 421 740 m 9 X s
 430 740 m 6 X 2 Y 3 X s 439 742 m 8 X s 447 742 m 9 X s 456 742 m 9 X s 465 742 m 3 X 1 Y 4 X 1 Y 2 X s 474 744 m 2 X 1 Y 7 X s 483 745 m 4 X 1 Y 2 X 1 1 d 1 X s 491 747 m 8 X 1 Y 1 X s 500 748 m 1 X 1 Y 2 X 1 Y 2 X 1 Y 1 X 1 Y 3 X s 509 752 m 4 X 1
 Y 4 X 1 Y 1 X s 518 754 m 1 X 2 Y 6 X 1 Y 2 X s 527 757 m 2 X 1 Y 3 X 1 Y 3 X s 535 759 m 7 X 1 Y 2 X 1 Y s 544 761 m 4 X 1 Y 3 X 1 Y 1 X 1 Y 1 X s 553 764 m 3 X 1 Y 1 X 1 Y 2 X 1 Y 3 X s 562 767 m 1 Y 2 X 1 1 d 6 X s 571 769 m 3 X 1 Y 1 X 1 Y 2 X 1
 Y 2 X s 579 772 m 2 X 1 Y 5 X 1 Y 1 X 1 Y 1 X 1 Y s 588 776 m 1 X 1 Y 3 X 1 Y 1 X 1 Y 1 X 1 Y 1 1 d 1 X 1 Y 1 X s 597 782 m 2 X 1 Y 7 X s 606 783 m 1 X 1 Y 1 2 d 3 X 1 Y 1 X 1 Y 1 X 1 1 d 1 X s 615 789 m 1 X 1 1 d 6 X s 623 790 m 4 X 1 Y 3 X 1 Y 2 X
 s 632 792 m 2 X 1 Y 1 X 1 Y 1 X 1 Y 1 X 1 Y 2 X 1 Y 2 X s 641 797 m 3 X 1 Y 4 X 1 Y 1 X 1 Y 1 X s 650 800 m 1 Y 2 X 1 Y 1 X 1 Y 1 X 1 Y 4 X 1 Y 1 X s 659 805 m 8 X s 667 805 m 4 X 1 Y 1 X 1 Y 3 X 1 1 d s 676 808 m 2 X 1 1 d 3 X 1 Y 1 X -6 Y 2 X s
 685 804 m 1 Y 1 X 1 Y 7 X 1 Y 1 X s 694 807 m 6 X 1 Y 1 X 1 Y 2 X s 703 809 m 1 Y 1 X 1 Y 5 X 2 Y 1 X 1 1 d s 711 814 m 1 X 2 Y 6 X 1 Y 2 X s 720 817 m 5 X 1 Y 1 X 2 Y 3 X s 729 820 m 3 X 1 Y 5 X 1 Y 1 X s 738 822 m 2 X 1 1 d 1 X 1 Y 3 X 1 Y 1 X 1 Y
 1 X s 747 826 m 1 X 1 1 d 1 Y 2 X 1 Y 2 X 2 Y 2 X s 755 831 m 2 X 1 1 d 1 X 1 Y 5 X s 764 833 m 1 X 2 Y 1 X 1 Y 2 X 1 Y 1 X 1 Y 2 X 1 1 d 1 Y 1 X s 773 840 m 1 X 1 Y 2 X 1 Y 3 X 1 Y 3 X s 782 843 m 5 X 1 1 d 2 X 2 Y 1 X s 791 846 m 3 Y 3 X 1 Y 2 X 1
 Y 1 X 1 1 d 1 X s 799 852 m 1 1 d 1 X 1 Y 1 X -6 Y 1 X 1 1 d 1 Y 3 X 1 1 d 2 Y s 808 853 m 4 X 2 Y 1 X 1 Y 2 X 1 Y 2 X s 817 857 m 1 X 1 Y 2 X 1 Y 2 X 1 Y 1 X 1 Y 3 X s 826 861 m 1 Y 1 1 d 4 X 3 Y 1 1 d 2 Y 1 1 d 1 Y 2 X s 835 871 m 1 Y 1 X 1 1 d 1
 X 1 1 d 4 X s 843 874 m 5 X 3 Y 1 X 2 Y 3 X s 852 879 m 4 X -6 Y 1 X 4 Y 4 X s 861 877 m 6 X 1 Y 3 X s 870 878 m 3 X 3 Y 3 X 1 Y 3 X s 879 882 m 1 X 2 Y 3 X 1 1 d 3 X s 887 885 m 3 X 1 Y 6 X s 896 886 m 1 1 d 7 X 1 Y 1 X s 905 888 m 2 Y 4 X 1 Y 5 X
 s 914 891 m 1 Y 1 X 2 Y 4 X 2 Y 2 X 1 Y 1 X 1 Y 1 X s 923 898 m 1 Y 5 X 2 Y 3 X s 931 901 m 2 X 1 Y 5 X 1 Y 1 X 1 1 d 2 Y s 940 906 m 1 X 1 Y 1 X 1 Y 4 X -6 Y 3 X s 949 902 m 3 X 1 Y 6 X s 958 903 m 1 X 3 Y 4 X 1 Y 1 1 d 1 X 2 Y 1 X 1 1 d s 967 911
 m 2 X 1 Y 4 X 2 Y 1 X 2 Y 1 X s 975 916 m 4 X 2 Y 4 X 1 Y 1 X s 984 919 m 2 X 1 1 d 2 Y 1 X 1 Y 4 X 1 Y 1 X s 993 924 m 8 X -6 Y 1 3 d s 1002 921 m 1 Y 1 X 2 Y 4 X 1 Y 1 X 1 Y 1 X 2 Y 1 X 1 Y 1 X s 1011 929 m 8 X s 1019 929 m 1 1 d 2 Y 2 X 1 Y 5 X 2
 Y 1 1 d s 1028 936 m 6 X 1 Y 1 2 d 1 Y 2 X s 1037 940 m 4 X 2 Y 4 X 2 Y 1 X s 1046 944 m 2 Y 2 X 3 Y 2 X 1 Y 1 X 2 Y 4 X s 1055 952 m 2 X 1 Y 3 X -6 Y 1 X 1 Y 2 X s 1063 948 m 2 X -6 Y 2 X 2 Y 3 X 3 Y 2 X 1 Y s 1072 948 m 7 X 2 Y 2 X s 1081 950 m 3
 X 1 Y 1 X 2 Y -6 Y 3 X 3 Y 1 X -7 Y 2 Y 1 X s 1090 945 m 5 X 1 Y 1 X 2 Y 3 X s 1099 948 m 3 X 3 Y 1 X 1 Y 3 X 2 Y 1 X s 1107 954 m 1 -6 d 1 1 d 2 X 1 2 d 1 Y 2 X 2 Y 2 X -6 Y s 1116 948 m 6 X 1 Y 1 X 1 2 d 2 Y 1 X s 1125 953 m 8 X 3 Y 1 X s 1134 956
 m 1 1 d 2 X 2 Y 6 X s 1143 959 m 2 Y 2 X 1 Y 4 X 2 Y 1 X -7 Y 1 X 2 Y s 1151 959 m 1 2 d 4 X 1 Y 4 X 2 Y s 1160 964 m 3 X 2 Y 4 X -7 Y 2 X s 1169 959 m 1 X 2 Y 4 X -6 Y 3 Y 3 X 1 2 d s 1178 960 m 1 1 d 1 X 1 -6 d 2 Y 3 X 2 Y 3 X s 1187 959 m 4 X -7
 Y 3 X -6 Y 1 X s 1195 946 m 2 X 2 Y 2 X 1 -13 d 3 X -7 Y 1 X s 1204 928 m 2 X 2 Y 7 X s 1213 930 m 1 2 d 1 X 1 2 d 2 X 1 Y 3 X 2 Y 1 X s 1222 937 m 2 X 2 Y 7 X s 1231 939 m 1 X 2 Y -7 Y 2 X 2 Y -6 Y 5 X s 1239 930 m 3 X -7 Y 6 X s 1248 923 m 1 2 d 8
 X s 1257 925 m 3 X -6 Y 2 X 1 Y -6 Y 4 X 2 Y s 1266 916 m 2 X -7 Y 7 X s 1275 909 m 6 X 2 Y 2 X s 1283 911 m 2 X -6 Y 4 X 1 Y 3 X s 1292 906 m 8 X 2 Y 1 X s 1301 908 m 9 X s 1310 908 m 6 X 2 Y 3 X s 1319 910 m 8 X s 1327 910 m 2 X -6 Y 2 X 1 Y 5 X s
 1336 905 m 1 X 1 2 d 2 X -13 Y 5 X s 1345 894 m 9 X s 1354 894 m 7 X 1 -6 d 1 X s 1363 888 m 1 X 1 2 d 3 X 1 2 d 2 X 1 Y s 1371 893 m 3 X 2 Y 1 X 2 Y 2 X 2 Y 3 X s 1380 899 m 9 X s 1389 899 m -7 Y 1 X 2 Y 8 X s 1398 894 m 3 X 2 Y 3 X 2 Y 3 X s 1407
 898 m 1 X -7 Y 3 X -6 Y 4 X 2 Y s 1415 887 m 6 X 2 Y 2 X 4 Y 1 X -7 Y s 1424 886 m 3 X -6 Y 2 X 2 Y 3 X -13 Y 1 X s 1433 869 m 9 X s 1442 869 m 2 Y 2 X 1 Y 7 X s 1451 872 m -6 Y 6 X 2 Y 1 2 d 1 X s 1459 870 m 5 X 2 Y 3 X -7 Y 1 X 2 Y s 1468 867 m 1
 X 2 Y 7 X -6 Y 1 X s 1477 863 m 1 X 1 2 d 5 X 2 Y 2 X -5 Y s 1486 862 m 9 X s 1495 862 m 2 X 2 Y 2 X 2 Y 4 X -6 Y s 1503 860 m 1 2 d 8 X s 1512 862 m 2 X -7 Y 1 X 4 Y 2 X 1 -6 d 3 X s 1521 853 m 5 X -7 Y 3 X -6 Y 1 X s 1530 840 m 5 X -5 Y 4 X s 1539
 835 m 2 X -6 Y 6 X s 1547 829 m 1 X 1 -7 d -6 Y 7 X s 1556 816 m 8 X 2 Y 1 X s 1565 818 m 6 X -7 Y 2 Y 3 X s 1574 813 m 2 X 2 Y 1 X 2 Y 3 X -6 Y 3 X s 1583 811 m -7 Y 6 X 1 2 d 1 X s 1591 806 m 7 X -6 Y 2 X s 1600 800 m 5 X 2 Y 4 X s 1609 802 m 2 X
 -13 Y 7 X s 1618 789 m 2 X -7 Y 2 X 2 Y 2 X 1 3 d 2 X 2 Y s 1627 789 m 2 Y 3 X -7 Y 1 X -6 Y 1 X 2 Y 1 X 2 Y 1 X 2 Y 1 X s 1635 784 m 5 X 2 Y 3 X 2 Y 1 X -6 Y s 1644 782 m 1 X -7 Y 1 X -6 Y 3 X 1 2 d 3 X s 1653 771 m 2 X 2 Y 2 X -6 Y 3 X 1 -7 d 2 Y
 1 -6 d s 1662 756 m 4 X -7 Y 1 X -6 Y 4 X s 1671 743 m -13 Y 6 X 2 Y 1 -7 d 1 X s 1679 725 m 2 X -6 Y 4 X 2 Y 2 X 2 Y 1 X s 1688 723 m 4 X -6 Y 3 X 1 -7 d 2 Y 1 -6 d s 1697 706 m 1 X -7 Y 8 X s 1706 699 m 1 X 1 2 d 1 X -6 Y 6 X s 1715 695 m 1 X 1 -7
 d 6 X s 1723 688 m 1 X -6 Y 1 X -7 Y 6 X 2 Y 1 X s 1732 677 m 1 X -6 Y 8 X s 1741 671 m 3 X -7 Y 6 X -6 Y s 1750 658 m 1 X -7 Y 2 X -4 Y 2 X -7 Y 3 Y 4 X -7 Y s 1759 636 m 8 X s 1767 636 m 1 X -7 Y 1 3 d 1 X 2 Y 5 X 1 -13 d s 1776 621 m 1 X -7 Y 5 X
 -6 Y 1 -7 d 2 X s 1785 601 m -4 Y 9 X s 1794 597 m 1 X -7 Y 6 X 3 Y 1 X 2 Y 1 X s 1803 595 m 1 -6 d 1 X -7 Y 1 X -7 Y 2 X 1 -6 d 2 Y 1 X -6 Y 2 X s 1812 565 m 1 X -14 Y 5 X -6 Y 1 X -7 Y 1 X s 1820 538 m 4 X -13 Y 4 X -26 Y 1 -7 d s 1829 492 m 1 X 3
 Y 2 X -7 Y 1 X -7 Y 1 X -6 Y 2 X -7 Y 2 X s 1838 468 m 2 X -13 Y 1 X -7 Y 2 X 1 -6 d 2 X -7 Y 1 X s 1847 435 m 6 X -6 Y 1 -7 d 2 X s 1856 422 m 6 X 1 -6 d 1 X -7 Y s 1864 409 m 1 X -7 Y 1 X 1 -6 d -7 Y 1 X -6 Y 1 -7 d 4 X s 1873 376 m 4 X -7 Y 2 X
 -6 Y 3 X s 1882 363 m 2 X -7 Y 2 X 1 -6 d 4 X -7 Y s 1891 343 m 4 X 2 Y 2 X 1 -6 d 1 X -7 Y 1 X s 1900 332 m 1 X -6 Y 1 X 2 Y 3 X -6 Y 3 X s 1908 322 m 1 X -7 Y 5 X 2 Y 3 X s 1917 317 m 2 X -6 Y 4 X -7 Y 3 X s 1926 304 m 6 X 1 -6 d 2 X s 1935 298 m
 5 X 2 Y 4 X s 1944 300 m -6 Y 3 X -7 Y 2 X -7 Y 3 X s 1952 280 m 1 X -6 Y 2 X 1 -7 d 4 X 1 -6 d s 1961 261 m 2 X -14 Y 1 -6 d 6 X s 1970 241 m 4 X -7 Y 5 X s 1979 234 m 8 X -6 Y 1 X s 1988 228 m 7 X -7 Y 1 X s 1996 221 m 9 X s 2005 221 m 1 X -7 Y 8
 X s 2014 214 m 9 X s 2023 214 m -6 Y 9 X s 2032 208 m 8 X s 2040 208 m 1 X s black[  ] 0 sd 3 lw 245 201 m 1796 X s
 gsave  2268 1676 0 0 C 822.9 30.3373 t 0 r /Helvetica-Bold findfont 72.0512 sf 0 0 m (Cut value applied on PDERS output) show NC gr  422 241 m -40 Y s 461 221 m -20 Y s 500 221 m -20 Y s 539 221 m -20 Y s 577 221 m -20 Y s 616 241 m -40 Y s 655 221
 m -20 Y s 694 221 m -20 Y s 733 221 m -20 Y s 772 221 m -20 Y s 811 241 m -40 Y s 850 221 m -20 Y s 888 221 m -20 Y s 927 221 m -20 Y s 966 221 m -20 Y s 1005 241 m -40 Y s 1044 221 m -20 Y s 1083 221 m -20 Y s 1122 221 m -20 Y s 1160 221 m -20 Y s
 1199 241 m -40 Y s 1238 221 m -20 Y s 1277 221 m -20 Y s 1316 221 m -20 Y s 1355 221 m -20 Y s 1394 241 m -40 Y s 1433 221 m -20 Y s 1471 221 m -20 Y s 1510 221 m -20 Y s 1549 221 m -20 Y s 1588 241 m -40 Y s 1627 221 m -20 Y s 1666 221 m -20 Y s
 1705 221 m -20 Y s 1744 221 m -20 Y s 1782 241 m -40 Y s 1821 221 m -20 Y s 1860 221 m -20 Y s 1899 221 m -20 Y s 1938 221 m -20 Y s 1977 241 m -40 Y s 422 241 m -40 Y s 383 221 m -20 Y s 344 221 m -20 Y s 305 221 m -20 Y s 266 221 m -20 Y s 1977
 241 m -40 Y s 2016 221 m -20 Y s
 gsave  2268 1676 0 0 C 379.217 128.934 t 0 r /Helvetica-Bold findfont 64.4669 sf 0 0 m (0.1) show NC gr 
 gsave  2268 1676 0 0 C 568.825 128.934 t 0 r /Helvetica-Bold findfont 64.4669 sf 0 0 m (0.2) show NC gr 
 gsave  2268 1676 0 0 C 762.226 128.934 t 0 r /Helvetica-Bold findfont 64.4669 sf 0 0 m (0.3) show NC gr 
 gsave  2268 1676 0 0 C 959.419 128.934 t 0 r /Helvetica-Bold findfont 64.4669 sf 0 0 m (0.4) show NC gr 
 gsave  2268 1676 0 0 C 1152.82 128.934 t 0 r /Helvetica-Bold findfont 64.4669 sf 0 0 m (0.5) show NC gr 
 gsave  2268 1676 0 0 C 1346.22 128.934 t 0 r /Helvetica-Bold findfont 64.4669 sf 0 0 m (0.6) show NC gr 
 gsave  2268 1676 0 0 C 1539.62 128.934 t 0 r /Helvetica-Bold findfont 64.4669 sf 0 0 m (0.7) show NC gr 
 gsave  2268 1676 0 0 C 1736.81 128.934 t 0 r /Helvetica-Bold findfont 64.4669 sf 0 0 m (0.8) show NC gr 
 gsave  2268 1676 0 0 C 1930.21 128.934 t 0 r /Helvetica-Bold findfont 64.4669 sf 0 0 m (0.9) show NC gr  245 201 m 1140 Y s
 gsave  2268 1676 0 0 C 64.4669 731.888 t 90 r /Helvetica-Bold findfont 72.0512 sf 0 0 m (Efficiency \(Purity\)) show NC gr  291 201 m -46 X s 268 253 m -23 X s 268 305 m -23 X s 268 357 m -23 X s 291 408 m -46 X s 268 460 m -23 X s 268 512 m -23 X s
 268 564 m -23 X s 291 616 m -46 X s 268 667 m -23 X s 268 719 m -23 X s 268 771 m -23 X s 291 823 m -46 X s 268 875 m -23 X s 268 926 m -23 X s 268 978 m -23 X s 291 1030 m -46 X s 268 1082 m -23 X s 268 1134 m -23 X s 268 1185 m -23 X s 291 1237 m
 -46 X s 291 1237 m -46 X s 268 1289 m -23 X s 268 1341 m -23 X s
 gsave  2268 1676 0 0 C 182.024 178.232 t 0 r /Helvetica-Bold findfont 64.4669 sf 0 0 m (0) show NC gr 
 gsave  2268 1676 0 0 C 128.934 383.009 t 0 r /Helvetica-Bold findfont 64.4669 sf 0 0 m (0.2) show NC gr 
 gsave  2268 1676 0 0 C 125.142 591.578 t 0 r /Helvetica-Bold findfont 64.4669 sf 0 0 m (0.4) show NC gr 
 gsave  2268 1676 0 0 C 128.934 796.355 t 0 r /Helvetica-Bold findfont 64.4669 sf 0 0 m (0.6) show NC gr 
 gsave  2268 1676 0 0 C 125.142 1004.92 t 0 r /Helvetica-Bold findfont 64.4669 sf 0 0 m (0.8) show NC gr 
 gsave  2268 1676 0 0 C 189.608 1213.49 t 0 r /Helvetica-Bold findfont 64.4669 sf 0 0 m (1) show NC gr  0 0 0.933333 c[  52 12 ] 0 sd 6 lw 0.49 0.6 0.82 c black 0 0 0.933333 c 245 719 m 1 Y 8 X 1 1 d s 254 721 m 8 X 1 Y 1 X s 263 722 m 8 X s 271 722
 m 3 X 1 Y 5 X 1 Y 1 X s 280 724 m 1 X 1 Y 4 X 1 1 d 3 X s 289 726 m 1 X 1 Y 4 X 1 Y 1 1 d 2 X 1 Y 1 X s 298 730 m 1 X 1 Y 8 X s 307 731 m 8 X s 315 731 m 7 X 1 Y 1 1 d 1 X s 324 733 m 9 X s 333 733 m 1 Y 9 X s 342 734 m 1 Y 6 X 1 Y 1 1 d 2 X s 351
 737 m 8 X s 359 737 m 9 X s 368 737 m 9 X s 377 737 m 1 X 1 Y 6 X 1 Y 2 X s 386 739 m 9 X s 395 739 m 8 X s 403 739 m 5 X 1 Y 4 X s 412 740 m 9 X s 421 740 m 9 X s 430 740 m 6 X 2 Y 3 X s 439 742 m 8 X s 447 742 m 9 X s 456 742 m 9 X s 465 742 m 3 X
 1 Y 4 X 1 Y 2 X s 474 744 m 2 X 1 Y 7 X s 483 745 m 4 X 1 Y 2 X 1 1 d 1 X s 491 747 m 8 X 1 Y 1 X s 500 748 m 1 X 1 Y 2 X 1 Y 2 X 1 Y 1 X 1 Y 3 X s 509 752 m 4 X 1 Y 4 X 1 Y 1 X s 518 754 m 1 X 2 Y 6 X 1 Y 2 X s 527 757 m 2 X 1 Y 3 X 1 Y 3 X s 535
 759 m 7 X 1 Y 2 X 1 Y s 544 761 m 4 X 1 Y 3 X 1 Y 1 X 1 Y 1 X s 553 764 m 3 X 1 Y 1 X 1 Y 2 X 1 Y 3 X s 562 767 m 1 Y 2 X 1 1 d 6 X s 571 769 m 3 X 1 Y 1 X 1 Y 2 X 1 Y 2 X s 579 772 m 2 X 1 Y 5 X 1 Y 1 X 1 Y 1 X 1 Y s 588 776 m 1 X 1 Y 3 X 1 Y 1 X 1
 Y 1 X 1 Y 1 1 d 1 X 1 Y 1 X s 597 782 m 2 X 1 Y 7 X s 606 783 m 1 X 1 Y 1 2 d 3 X 1 Y 1 X 1 Y 1 X 1 1 d 1 X s 615 789 m 1 X 1 1 d 6 X s 623 790 m 4 X 1 Y 3 X 1 Y 2 X s 632 792 m 2 X 1 Y 1 X 1 Y 1 X 1 Y 1 X 1 Y 2 X 1 Y 2 X s 641 797 m 3 X 1 Y 4 X 1 Y
 1 X 1 Y 1 X s 650 800 m 1 Y 2 X 1 Y 1 X 1 Y 1 X 1 Y 4 X 1 Y 1 X s 659 805 m 8 X s 667 805 m 4 X 1 Y 1 X 1 Y 3 X 1 1 d s 676 808 m 2 X 1 1 d 3 X 1 Y 1 X -2 Y 2 X s 685 808 m 1 Y 1 X 1 Y 7 X 1 Y 1 X s 694 811 m 6 X 1 Y 1 X 1 Y 2 X s 703 813 m 1 Y 1 X
 1 Y 5 X 2 Y 2 X 1 Y s 711 818 m 1 X 2 Y 6 X 1 Y 2 X s 720 821 m 5 X 1 Y 1 X 2 Y 3 X s 729 824 m 3 X 1 Y 5 X 1 Y 1 X s 738 826 m 2 X 1 1 d 1 X 1 Y 3 X 1 Y 1 X 1 Y 1 X s 747 830 m 1 X 1 1 d 1 Y 2 X 1 Y 2 X 2 Y 2 X s 755 835 m 2 X 1 1 d 1 X 1 Y 5 X s
 764 837 m 1 X 2 Y 1 X 1 Y 2 X 1 Y 1 X 1 Y 2 X 1 1 d 1 Y 1 X s 773 844 m 1 X 1 Y 2 X 1 Y 3 X 1 Y 3 X s 782 847 m 5 X 1 1 d 2 X 2 Y 1 X s 791 850 m 3 Y 3 X 1 Y 2 X 1 Y 1 X 1 1 d 1 X s 799 856 m 1 1 d 1 X 1 Y 1 X -1 Y 1 X 1 1 d 1 Y 3 X 1 1 d 1 Y s 808
 861 m 4 X 2 Y 1 X 1 Y 2 X 1 Y 2 X s 817 865 m 1 X 1 Y 2 X 1 Y 2 X 2 Y 1 X 1 Y 3 X s 826 870 m 1 Y 1 1 d 4 X 2 Y 1 1 d 2 Y 1 2 d 1 Y 2 X s 835 880 m 1 Y 1 X 1 1 d 1 X 1 1 d 4 X s 843 883 m 5 X 2 Y 1 X 3 Y 3 X s 852 888 m 4 X -2 Y 1 X 4 Y 4 X s 861
 890 m 6 X 1 Y 3 X s 870 891 m 3 X 4 Y 3 X 1 Y 3 X s 879 896 m 1 X 1 Y 3 X 1 1 d 3 X s 887 898 m 3 X 1 Y 6 X s 896 899 m 1 2 d 7 X 1 Y 1 X s 905 902 m 1 Y 4 X 1 Y 5 X s 914 904 m 1 Y 1 X 3 Y 4 X 1 Y 2 X 1 Y 1 X 2 Y 1 X s 923 912 m 1 Y 5 X 1 Y 3 X s
 931 914 m 2 X 1 Y 5 X 2 Y 1 X 1 1 d 1 Y s 940 919 m 1 X 2 Y 1 X 1 Y 4 X -2 Y 3 X s 949 920 m 3 X 2 Y 6 X s 958 922 m 1 X 2 Y 4 X 2 Y 1 1 d 1 X 1 Y 1 X 1 2 d s 967 930 m 2 X 1 Y 4 X 1 Y 1 X 3 Y 1 X s 975 935 m 4 X 1 Y 4 X 2 Y 1 X s 984 938 m 2 X 1 1
 d 1 Y 1 X 2 Y 4 X 1 Y 1 X s 993 943 m 8 X -1 Y 1 3 d s 1002 945 m 1 Y 1 X 1 Y 4 X 2 Y 1 X 1 Y 1 X 2 Y 1 X 1 Y 1 X s 1011 953 m 8 X s 1019 953 m 1 1 d 2 Y 2 X 1 Y 5 X 2 Y 1 1 d s 1028 960 m 6 X 2 Y 1 1 d 2 Y 2 X s 1037 965 m 4 X 1 Y 4 X 3 Y 1 X s
 1046 969 m 1 Y 2 X 3 Y 2 X 2 Y 1 X 1 Y 4 X s 1055 976 m 2 X 2 Y 3 X -1 Y 1 X 1 Y 2 X s 1063 978 m 2 X -1 Y 2 X 1 Y 3 X 4 Y 2 X 1 Y s 1072 983 m 7 X 2 Y 2 X s 1081 985 m 3 X 1 Y 1 X 2 Y -1 Y 3 X 3 Y 1 X -2 Y 2 Y 1 X s 1090 990 m 5 X 2 Y 1 X 1 Y 3 X s
 1099 993 m 3 X 4 Y 1 X 1 Y 3 X 2 Y 1 X s 1107 1000 m 1 -1 d 1 1 d 2 X 1 2 d 2 Y 2 X 1 Y 2 X -1 Y s 1116 1004 m 6 X 2 Y 1 X 1 1 d 2 Y 1 X s 1125 1009 m 8 X 4 Y 1 X s 1134 1013 m 1 1 d 2 X 2 Y 6 X s 1143 1016 m 2 Y 2 X 2 Y 4 X 1 Y 1 X -1 Y 1 X 2 Y s
 1151 1022 m 1 2 d 4 X 1 Y 4 X 2 Y s 1160 1027 m 3 X 2 Y 4 X -1 Y 2 X s 1169 1028 m 1 X 2 Y 4 X -1 Y 3 Y 3 X 1 2 d s 1178 1034 m 1 2 d 1 X 1 -1 d 2 Y 3 X 2 Y 3 X s 1187 1039 m 4 X -2 Y 3 X -1 Y 1 X s 1195 1036 m 2 X 2 Y 2 X 1 -2 d 3 X -1 Y 1 X s 1204
 1035 m 2 X 2 Y 7 X s 1213 1037 m 1 2 d 1 X 1 2 d 2 X 2 Y 3 X 1 Y 1 X s 1222 1044 m 2 X 2 Y 7 X s 1231 1046 m 1 X 2 Y -1 Y 2 X 2 Y -1 Y 5 X s 1239 1048 m 3 X -1 Y 6 X s 1248 1047 m 1 2 d 8 X s 1257 1049 m 3 X -1 Y 2 X 2 Y -1 Y 4 X 2 Y s 1266 1051 m 2
 X -1 Y 7 X s 1275 1050 m 6 X 2 Y 2 X s 1283 1052 m 2 X -1 Y 4 X 2 Y 3 X s 1292 1053 m 8 X 2 Y 1 X s 1301 1055 m 9 X s 1310 1055 m 6 X 2 Y 3 X s 1319 1057 m 8 X s 1327 1057 m 2 X -1 Y 2 X 2 Y 5 X s 1336 1058 m 1 X 1 2 d 2 X -2 Y 5 X s 1345 1058 m 9 X
 s 1354 1058 m 7 X 1 -1 d 1 X s 1363 1057 m 1 X 1 2 d 3 X 1 2 d 2 X 3 Y s 1371 1064 m 3 X 2 Y 1 X 2 Y 2 X 2 Y 3 X s 1380 1070 m 9 X s 1389 1070 m -1 Y 1 X 3 Y 8 X s 1398 1072 m 3 X 2 Y 3 X 2 Y 3 X s 1407 1076 m 1 X -1 Y 3 X -1 Y 4 X 2 Y s 1415 1076 m
 6 X 3 Y 2 X 5 Y 1 X -1 Y s 1424 1083 m 3 X -1 Y 2 X 2 Y 3 X -2 Y 1 X s 1433 1082 m 9 X s 1442 1082 m 2 Y 2 X 3 Y 7 X s 1451 1087 m -1 Y 6 X 2 Y 1 3 d 1 X s 1459 1091 m 5 X 2 Y 3 X -1 Y 1 X 3 Y s 1468 1095 m 1 X 3 Y 7 X -1 Y 1 X s 1477 1097 m 1 X 1 2
 d 5 X 3 Y 2 X 2 Y s 1486 1104 m 9 X s 1495 1104 m 2 X 2 Y 2 X 3 Y 4 X -1 Y s 1503 1108 m 1 3 d 8 X s 1512 1111 m 2 X -1 Y 1 X 5 Y 2 X 1 -1 d 3 X s 1521 1114 m 5 X -1 Y 3 X -1 Y 1 X s 1530 1112 m 5 X 2 Y 4 X s 1539 1114 m 2 X -1 Y 6 X s 1547 1113 m 1
 X 1 -1 d -1 Y 7 X s 1556 1111 m 8 X 3 Y 1 X s 1565 1114 m 6 X -1 Y 3 Y 3 X s 1574 1116 m 2 X 3 Y 1 X 3 Y 6 X s 1583 1122 m -1 Y 6 X 1 3 d 1 X s 1591 1124 m 7 X -1 Y 2 X s 1600 1123 m 5 X 3 Y 4 X s 1609 1126 m 2 X -2 Y 7 X s 1618 1124 m 2 X -1 Y 2 X
 3 Y 2 X 1 3 d 2 X 4 Y s 1627 1133 m 3 Y 3 X -1 Y 1 X -1 Y 1 X 4 Y 1 X 3 Y 1 X 4 Y 1 X s 1635 1145 m 5 X 3 Y 3 X 4 Y 1 X -1 Y s 1644 1151 m 1 X -1 Y 1 X -1 Y 3 X 1 4 d 3 X s 1653 1153 m 2 X 4 Y 2 X -1 Y 3 X 1 -1 d 4 Y 1 -1 d s 1662 1158 m 4 X -1 Y 1
 X -1 Y 4 X s 1671 1156 m -1 Y 6 X 4 Y 1 -1 d 1 X s 1679 1158 m 2 X -1 Y 4 X 4 Y 2 X 4 Y 1 X s 1688 1165 m 7 X 1 -1 d 4 Y 1 -1 d s 1697 1167 m 1 X -1 Y 8 X s 1706 1166 m 1 X 1 5 d 1 X -1 Y 6 X s 1715 1170 m 1 X 1 -1 d 6 X s 1723 1169 m 1 X -1 Y 7 X 4
 Y 1 X s 1732 1172 m 1 X -1 Y 8 X s 1741 1171 m 9 X -1 Y s 1750 1170 m 1 X -1 Y 2 X 4 Y 2 X -1 Y 5 Y 4 X s 1759 1177 m 8 X s 1767 1177 m 1 X -1 Y 1 5 d 1 X 5 Y 5 X 1 -1 d s 1776 1185 m 1 X -1 Y 5 X -1 Y 3 X s 1785 1183 m 5 Y 9 X s 1794 1188 m 1 X -1
 Y 6 X 6 Y 1 X 6 Y 1 X s 1803 1199 m 1 -1 d 2 X -1 Y 2 X 1 -1 d 7 Y 1 X -1 Y 2 X s 1812 1202 m 1 X -1 Y 6 X -1 Y 1 X s 1820 1200 m 4 X -1 Y 4 X -4 Y 1 -1 d s 1829 1194 m 1 X 9 Y 2 X -1 Y 1 X -1 Y 1 X -1 Y 4 X s 1838 1200 m 2 X -2 Y 1 X -1 Y 2 X 1 -1
 d 2 X -1 Y 1 X s 1847 1195 m 6 X -1 Y 1 -2 d 2 X s 1856 1192 m 6 X 1 -1 d 1 X -1 Y s 1864 1190 m 1 X -2 Y 1 X 1 -1 d -2 Y 1 X -1 Y 1 -2 d 4 X s 1873 1182 m 4 X -2 Y 2 X -2 Y 3 X s 1882 1178 m 2 X -3 Y 2 X 1 -2 d 4 X -3 Y s 1891 1170 m 4 X 16 Y 2 X 1
 -2 d 1 X -2 Y 1 X s 1900 1182 m 1 X -3 Y 1 X 19 Y 3 X -2 Y 3 X s 1908 1196 m 1 X -2 Y 5 X 21 Y 3 X s 1917 1215 m 2 X -1 Y 4 X -2 Y 3 X s 1926 1212 m 6 X 1 -1 d 2 X s 1935 1211 m 5 X 26 Y 4 X s 1944 1237 m 8 X s 1952 1237 m 9 X s 1961 1237 m 9 X s
 1970 1237 m 9 X s 1979 1237 m 9 X s 1988 1237 m 8 X s 1996 1237 m 9 X s 2005 1237 m 9 X s 2014 1237 m 9 X s 2023 1237 m 9 X s 2032 1237 m 8 X s 2040 1237 m 1 X s[  ] 0 sd 9 lw 0.49 0.6 0.82 c black 0 0 0.933333 c 245 1237 m 9 X s 254 1237 m 9 X s
 263 1237 m 8 X s 271 1237 m 9 X s 280 1237 m 9 X s 289 1237 m 9 X s 298 1237 m 9 X s 307 1237 m 8 X s 315 1237 m 9 X s 324 1237 m 9 X s 333 1237 m 9 X s 342 1237 m 9 X s 351 1237 m 8 X s 359 1237 m 9 X s 368 1237 m 9 X s 377 1237 m 9 X s 386 1237 m
 9 X s 395 1237 m 8 X s 403 1237 m 9 X s 412 1237 m 9 X s 421 1237 m 9 X s 430 1237 m 9 X s 439 1237 m 8 X s 447 1237 m 9 X s 456 1237 m 9 X s 465 1237 m 9 X s 474 1237 m 9 X s 483 1237 m 8 X s 491 1237 m 9 X s 500 1237 m 9 X s 509 1237 m 9 X s 518
 1237 m 9 X s 527 1237 m 8 X s 535 1237 m 9 X s 544 1237 m 9 X s 553 1237 m 9 X s 562 1237 m 9 X s 571 1237 m 8 X s 579 1237 m 9 X s 588 1237 m 9 X s 597 1237 m 9 X s 606 1237 m 9 X s 615 1237 m 8 X s 623 1237 m 9 X s 632 1237 m 9 X s 641 1237 m 9 X
 s 650 1237 m 9 X s 659 1237 m 8 X s 667 1237 m 9 X s 676 1237 m 7 X -6 Y 2 X s 685 1231 m 9 X s 694 1231 m 9 X s 703 1231 m 8 X s 711 1231 m 9 X s 720 1231 m 9 X s 729 1231 m 9 X s 738 1231 m 9 X s 747 1231 m 8 X s 755 1231 m 9 X s 764 1231 m 9 X s
 773 1231 m 9 X s 782 1231 m 9 X s 791 1231 m 8 X s 799 1231 m 3 X -7 Y 6 X s 808 1224 m 9 X s 817 1224 m 9 X s 826 1224 m 9 X s 835 1224 m 8 X s 843 1224 m 9 X s 852 1224 m 4 X -7 Y 5 X s 861 1217 m 9 X s 870 1217 m 9 X s 879 1217 m 8 X s 887 1217 m
 9 X s 896 1217 m 9 X s 905 1217 m 9 X s 914 1217 m 9 X s 923 1217 m 8 X s 931 1217 m 9 X s 940 1217 m 6 X -6 Y 3 X s 949 1211 m 9 X s 958 1211 m 9 X s 967 1211 m 8 X s 975 1211 m 9 X s 984 1211 m 9 X s 993 1211 m 8 X -7 Y 1 X s 1002 1204 m 9 X s
 1011 1204 m 8 X s 1019 1204 m 9 X s 1028 1204 m 9 X s 1037 1204 m 9 X s 1046 1204 m 9 X s 1055 1204 m 5 X -6 Y 3 X s 1063 1198 m 2 X -7 Y 7 X s 1072 1191 m 9 X s 1081 1191 m 4 X -7 Y 4 X -6 Y 1 X s 1090 1178 m 9 X s 1099 1178 m 8 X s 1107 1178 m 1
 -7 d 8 X -6 Y s 1116 1165 m 9 X s 1125 1165 m 9 X s 1134 1165 m 9 X s 1143 1165 m 7 X -7 Y 1 X s 1151 1158 m 9 X s 1160 1158 m 7 X -7 Y 2 X s 1169 1151 m 5 X -6 Y 4 X s 1178 1145 m 2 X 1 -7 d 6 X s 1187 1138 m 4 X -6 Y 3 X -7 Y 1 X s 1195 1125 m 4 X
 1 -13 d 3 X -7 Y 1 X s 1204 1105 m 9 X s 1213 1105 m 9 X s 1222 1105 m 9 X s 1231 1105 m 1 X -6 Y 2 X -7 Y 5 X s 1239 1092 m 3 X -6 Y 6 X s 1248 1086 m 9 X s 1257 1086 m 3 X -7 Y 2 X -7 Y 4 X s 1266 1072 m 2 X -6 Y 7 X s 1275 1066 m 8 X s 1283 1066
 m 2 X -7 Y 7 X s 1292 1059 m 9 X s 1301 1059 m 9 X s 1310 1059 m 9 X s 1319 1059 m 8 X s 1327 1059 m 2 X -6 Y 7 X s 1336 1053 m 4 X -14 Y 5 X s 1345 1039 m 9 X s 1354 1039 m 7 X 1 -6 d 1 X s 1363 1033 m 8 X s 1371 1033 m 9 X s 1380 1033 m 9 X s 1389
 1033 m -7 Y 9 X s 1398 1026 m 9 X s 1407 1026 m 1 X -6 Y 3 X -7 Y 4 X s 1415 1013 m 9 X -7 Y s 1424 1006 m 3 X -6 Y 5 X -13 Y 1 X s 1433 987 m 9 X s 1442 987 m 9 X s 1451 987 m -7 Y 8 X s 1459 980 m 8 X -7 Y 1 X s 1468 973 m 8 X -6 Y 1 X s 1477 967
 m 9 X -7 Y s 1486 960 m 9 X s 1495 960 m 8 X -6 Y s 1503 954 m 9 X s 1512 954 m 2 X -7 Y 3 X 1 -7 d 3 X s 1521 940 m 5 X -6 Y 3 X -7 Y 1 X s 1530 927 m 5 X -6 Y 4 X s 1539 921 m 2 X -7 Y 6 X s 1547 914 m 1 X 1 -7 d -6 Y 7 X s 1556 901 m 9 X s 1565
 901 m 6 X -7 Y 3 X s 1574 894 m 6 X -6 Y 3 X s 1583 888 m -7 Y 8 X s 1591 881 m 7 X -7 Y 2 X s 1600 874 m 9 X s 1609 874 m 2 X -13 Y 7 X s 1618 861 m 2 X -6 Y 7 X s 1627 855 m 3 X -7 Y 1 X -7 Y 4 X s 1635 841 m 9 X -6 Y s 1644 835 m 1 X -7 Y 1 X -6
 Y 7 X s 1653 822 m 4 X -7 Y 3 X 1 -7 d 1 -6 d s 1662 802 m 4 X -7 Y 1 X -6 Y 4 X s 1671 789 m -14 Y 6 X 1 -6 d 1 X s 1679 769 m 2 X -7 Y 7 X s 1688 762 m 4 X -6 Y 3 X 1 -7 d 1 -7 d s 1697 742 m 1 X -6 Y 8 X s 1706 736 m 3 X -7 Y 6 X s 1715 729 m 1 X
 1 -6 d 6 X s 1723 723 m 1 X -7 Y 1 X -7 Y 7 X s 1732 709 m 1 X -6 Y 8 X s 1741 703 m 3 X -7 Y 6 X -6 Y s 1750 690 m 1 X -7 Y 2 X -7 Y 2 X -6 Y 4 X -7 Y s 1759 663 m 8 X s 1767 663 m 1 X -6 Y 7 X 1 -14 d s 1776 643 m 1 X -6 Y 5 X -7 Y 1 -6 d 2 X s
 1785 624 m -7 Y 9 X s 1794 617 m 1 X -7 Y 8 X s 1803 610 m 1 -6 d 1 X -7 Y 1 X -6 Y 2 X 1 -7 d 1 X -7 Y 2 X s 1812 577 m 1 X -13 Y 5 X -6 Y 1 X -7 Y 1 X s 1820 551 m 4 X -13 Y 4 X -27 Y 1 -6 d s 1829 505 m 3 X -7 Y 1 X -6 Y 1 X -7 Y 2 X -7 Y 2 X s
 1838 478 m 2 X -13 Y 1 X -6 Y 2 X 1 -7 d 2 X -7 Y 1 X s 1847 445 m 6 X -6 Y 1 -7 d 2 X s 1856 432 m 6 X 1 -6 d 1 X -7 Y s 1864 419 m 1 X -7 Y 1 X 1 -6 d -7 Y 1 X -6 Y 1 -7 d 4 X s 1873 386 m 4 X -7 Y 2 X -6 Y 3 X s 1882 373 m 2 X -7 Y 2 X 1 -6 d 4 X
 -7 Y s 1891 353 m 6 X 1 -7 d 1 X -6 Y 1 X s 1900 340 m 1 X -7 Y 4 X -6 Y 3 X s 1908 327 m 1 X -7 Y 8 X s 1917 320 m 2 X -7 Y 4 X -6 Y 3 X s 1926 307 m 6 X 1 -7 d 2 X s 1935 300 m 9 X s 1944 300 m -6 Y 3 X -7 Y 2 X -7 Y 3 X s 1952 280 m 1 X -6 Y 2 X
 1 -7 d 4 X 1 -6 d s 1961 261 m 2 X -14 Y 1 -6 d 6 X s 1970 241 m 4 X -7 Y 5 X s 1979 234 m 8 X -6 Y 1 X s 1988 228 m 7 X -7 Y 1 X s 1996 221 m 9 X s 2005 221 m 1 X -7 Y 8 X s 2014 214 m 9 X s 2023 214 m -6 Y 9 X s 2032 208 m 8 X s 2040 208 m 1 X s 1
 0 0 c black 1 0 0 c 245 1237 m -2 Y 8 X 1 -3 d s 254 1232 m 5 X 1 -3 d 2 X -2 Y 1 X s 263 1227 m 8 X s 271 1227 m 3 X -3 Y 1 X -2 Y 4 X -3 Y 1 X s 280 1219 m 1 X -3 Y 1 X -2 Y 3 X 1 -3 d 3 X s 289 1211 m 1 X -2 Y 3 X 1 -3 d -3 Y 1 -2 d -3 Y 2 X -3 Y
 1 X s 298 1195 m 1 X -2 Y 8 X s 307 1193 m 3 X -3 Y 5 X s 315 1190 m 7 X -2 Y 1 -3 d 1 X s 324 1185 m 6 X -3 Y 3 X s 333 1182 m -2 Y 9 X s 342 1180 m -6 Y 6 X -2 Y 1 -3 d 2 X s 351 1169 m 8 X s 359 1169 m 9 X s 368 1169 m 9 X s 377 1169 m 1 X -2 Y 6
 X -6 Y 2 X s 386 1161 m 9 X s 395 1161 m 8 X s 403 1161 m 5 X -2 Y 4 X s 412 1159 m 9 X s 421 1159 m 8 X -3 Y 1 X s 430 1156 m 6 X -5 Y 1 X -3 Y 2 X s 439 1148 m 8 X s 447 1148 m 9 X s 456 1148 m 9 X s 465 1148 m 3 X -2 Y 4 X -3 Y 2 X s 474 1143 m 2
 X -3 Y 6 X -2 Y 1 X s 483 1138 m 4 X -3 Y 2 X 1 -2 d 1 X s 491 1133 m 1 X -3 Y 7 X -3 Y 1 X s 500 1127 m 1 X -2 Y 2 X -3 Y 1 X 1 -2 d -3 Y 1 X -3 Y 3 X s 509 1114 m 4 X -2 Y 1 X -3 Y 3 X -3 Y 1 X s 518 1106 m 1 X -5 Y 5 X -2 Y 1 X -3 Y 2 X s 527
 1096 m 2 X -3 Y 3 X -2 Y 3 X s 535 1091 m 6 X -3 Y 1 X -2 Y 2 X -3 Y s 544 1083 m 4 X -5 Y 3 X -3 Y 1 X -3 Y 1 X s 553 1072 m 3 X -2 Y 1 X -5 Y 2 X -3 Y 3 X s 562 1062 m -3 Y 2 X 1 -2 d 5 X 1 -3 d s 571 1054 m 3 X -2 Y 1 X -3 Y 2 X -3 Y 2 X s 579
 1046 m 2 X -2 Y 3 X -3 Y 2 X -3 Y 1 X -2 Y 1 X -3 Y s 588 1033 m 1 X -2 Y 2 X 1 -3 d -3 Y 1 X -2 Y 1 X -3 Y 1 -2 d 1 X -3 Y 1 -3 d s 597 1012 m 2 X -2 Y 7 X s 606 1010 m 1 X -3 Y 1 -5 d -3 Y 3 X -2 Y 1 X -3 Y 1 X 1 -3 d 1 X s 615 991 m 1 X 1 -2 d 6
 X s 623 989 m 4 X -3 Y 3 X -3 Y 2 X -2 Y s 632 981 m 2 X -3 Y 1 X -2 Y 1 X -3 Y 1 X -3 Y 2 X -2 Y 2 X s 641 968 m 3 X -3 Y 1 X -2 Y 3 X -3 Y 1 X -3 Y 1 X s 650 957 m -2 Y 2 X -3 Y 1 X -3 Y 1 X -2 Y 4 X -3 Y 1 X s 659 944 m 1 X -2 Y 7 X s 667 942 m 4
 X -3 Y 1 X -3 Y 3 X 1 -2 d s 676 934 m 2 X 1 -3 d 3 X -2 Y 3 X s 685 929 m -3 Y 1 X -3 Y 7 X -2 Y 1 X s 694 921 m 6 X -3 Y 1 X -3 Y 2 X s 703 915 m -2 Y 1 X -3 Y 5 X -5 Y 1 X 1 -3 d -2 Y s 711 900 m 1 X -5 Y 6 X -3 Y 2 X s 720 892 m 5 X -3 Y 1 X -5
 Y 3 X s 729 884 m 3 X -3 Y 5 X -2 Y 1 X s 738 879 m 2 X 1 -3 d 1 X -2 Y 3 X -3 Y 1 X -3 Y 1 X s 747 868 m 1 X 1 -2 d -3 Y 2 X -2 Y 2 X -6 Y 2 X s 755 855 m 2 X 1 -2 d 1 X -3 Y 5 X s 764 850 m 1 X -5 Y 1 X -3 Y 2 X -2 Y 1 X -3 Y 2 X 1 -3 d -2 Y 1 X s
 773 832 m 1 X -3 Y 2 X -3 Y 3 X -2 Y 3 X s 782 824 m 5 X 1 -3 d 2 X -5 Y 1 X s 791 816 m -8 Y 3 X -2 Y 2 X -3 Y 1 X 1 -3 d 1 X s 799 800 m 1 -2 d 1 X -3 Y 2 X 1 -3 d -2 Y 3 X 1 -3 d -2 Y s 808 785 m 4 X -6 Y 1 X -2 Y 2 X -3 Y 2 X s 817 774 m 1 X -2
 Y 2 X -3 Y 2 X -3 Y 1 X -2 Y 3 X s 826 764 m -3 Y 1 -3 d 4 X -5 Y 1 -2 d -6 Y 1 -2 d -3 Y 2 X s 835 740 m -2 Y 1 X 1 -3 d 1 X 1 -3 d 4 X s 843 732 m 5 X -5 Y 1 X -5 Y 3 X s 852 722 m 5 X -8 Y 4 X s 861 714 m 6 X -3 Y 3 X s 870 711 m 3 X -7 Y 3 X -3
 Y 3 X s 879 701 m 1 X -3 Y 3 X 1 -2 d 3 X s 887 696 m 3 X -3 Y 6 X s 896 693 m 1 -3 d 7 X -2 Y 1 X s 905 688 m -3 Y 4 X -2 Y 5 X s 914 683 m -3 Y 1 X -5 Y 4 X -3 Y 2 X -2 Y 1 X -3 Y 1 X s 923 667 m -3 Y 5 X -2 Y 3 X s 931 662 m 2 X -3 Y 5 X -3 Y 1 X
 1 -2 d -3 Y s 940 651 m 1 X -2 Y 1 X -3 Y 7 X s 949 646 m 3 X -3 Y 6 X s 958 643 m 1 X -5 Y 4 X -3 Y 1 -2 d 1 X -3 Y 1 X 1 -2 d s 967 628 m 2 X -3 Y 4 X -3 Y 1 X -5 Y 1 X s 975 617 m 4 X -2 Y 4 X -3 Y 1 X s 984 612 m 2 X 1 -3 d -2 Y 1 X -3 Y 4 X -3
 Y 1 X s 993 601 m 8 X 1 -5 d s 1002 596 m -2 Y 1 X -3 Y 4 X -3 Y 1 X -2 Y 1 X -3 Y 1 X -2 Y 1 X s 1011 581 m 8 X s 1019 581 m 1 -3 d -3 Y 2 X -2 Y 5 X -3 Y 1 -3 d s 1028 567 m 6 X -2 Y 1 -3 d -2 Y 2 X s 1037 560 m 4 X -3 Y 4 X -5 Y 1 X s 1046 552 m
 -3 Y 2 X -5 Y 2 X -3 Y 1 X -2 Y 4 X s 1055 539 m 2 X -3 Y 4 X -3 Y 2 X s 1063 533 m 4 X -2 Y 3 X -5 Y 2 X -3 Y s 1072 523 m 7 X -3 Y 2 X s 1081 520 m 3 X -2 Y 1 X -3 Y 3 X -5 Y 1 X -3 Y 1 X s 1090 507 m 5 X -2 Y 1 X -3 Y 3 X s 1099 502 m 3 X -5 Y 1
 X -3 Y 3 X -2 Y 1 X s 1107 492 m 1 X 1 -3 d 2 X 1 -3 d -2 Y 2 X -3 Y 2 X s 1116 481 m 6 X -3 Y 1 X 1 -2 d -3 Y 1 X s 1125 473 m 8 X -5 Y 1 X s 1134 468 m 1 -3 d 2 X -2 Y 6 X s 1143 463 m -3 Y 2 X -2 Y 4 X -3 Y 2 X -3 Y s 1151 452 m 1 -2 d 4 X -3 Y 4
 X -3 Y s 1160 444 m 3 X -2 Y 6 X s 1169 442 m 1 X -3 Y 4 X -5 Y 3 X 1 -3 d s 1178 431 m 1 -2 d 2 X -3 Y 3 X -2 Y 3 X s 1187 424 m 8 X s 1195 424 m 2 X -3 Y 7 X s 1204 421 m 2 X -3 Y 7 X s 1213 418 m 1 -2 d 1 X 1 -3 d 2 X -3 Y 3 X -2 Y 1 X s 1222 408
 m 2 X -3 Y 7 X s 1231 405 m 1 X -2 Y 2 X -3 Y 5 X s 1239 400 m 9 X s 1248 400 m 1 -3 d 8 X s 1257 397 m 5 X -2 Y 4 X -3 Y s 1266 392 m 9 X s 1275 392 m 6 X -2 Y 2 X s 1283 390 m 6 X -3 Y 3 X s 1292 387 m 8 X -3 Y 1 X s 1301 384 m 9 X s 1310 384 m 6
 X -2 Y 3 X s 1319 382 m 8 X s 1327 382 m 4 X -3 Y 5 X s 1336 379 m 1 X 1 -3 d 7 X s 1345 376 m 9 X s 1354 376 m 9 X s 1363 376 m 1 X 1 -2 d 3 X 1 -3 d 2 X -2 Y s 1371 369 m 3 X -3 Y 1 X -3 Y 2 X -2 Y 3 X s 1380 361 m 9 X s 1389 361 m 1 X -3 Y 8 X s
 1398 358 m 3 X -2 Y 3 X -3 Y 3 X s 1407 353 m 8 X -3 Y s 1415 350 m 6 X -2 Y 2 X -6 Y 1 X s 1424 342 m 5 X -2 Y 4 X s 1433 340 m 9 X s 1442 340 m -3 Y 2 X -2 Y 7 X s 1451 335 m 6 X -3 Y 1 -3 d 1 X s 1459 329 m 5 X -2 Y 4 X -3 Y s 1468 324 m 1 X -3 Y
 8 X s 1477 321 m 1 X 1 -2 d 5 X -3 Y 2 X -2 Y s 1486 314 m 9 X s 1495 314 m 2 X -3 Y 2 X -3 Y 4 X s 1503 308 m 1 -2 d 8 X s 1512 306 m 3 X -5 Y 6 X s 1521 301 m 9 X s 1530 301 m 5 X -3 Y 4 X s 1539 298 m 8 X s 1547 298 m 9 X s 1556 298 m 8 X -3 Y 1
 X s 1565 295 m 6 X -2 Y 3 X s 1574 293 m 2 X -3 Y 1 X -3 Y 6 X s 1583 287 m 6 X 1 -2 d 1 X s 1591 285 m 9 X s 1600 285 m 5 X -3 Y 4 X s 1609 282 m 9 X s 1618 282 m 4 X -2 Y 2 X 1 -3 d 2 X -3 Y s 1627 274 m -2 Y 5 X -3 Y 1 X -2 Y 1 X -3 Y 1 X s 1635
 264 m 5 X -3 Y 3 X -2 Y 1 X s 1644 259 m 5 X 1 -3 d 3 X s 1653 256 m 2 X -3 Y 6 X -2 Y 1 X s 1662 251 m 9 X s 1671 251 m 6 X -3 Y 2 X s 1679 248 m 6 X -2 Y 2 X -3 Y 1 X s 1688 243 m 8 X -3 Y 1 X s 1697 240 m 9 X s 1706 240 m 1 X 1 -2 d 7 X s 1715
 238 m 8 X s 1723 238 m 8 X -3 Y 1 X s 1732 235 m 9 X s 1741 235 m 9 X s 1750 235 m 3 X -2 Y 2 X -3 Y 4 X s 1759 230 m 8 X s 1767 230 m 1 X 1 -3 d 1 X -2 Y 6 X s 1776 225 m 9 X s 1785 225 m -3 Y 9 X s 1794 222 m 7 X -3 Y 1 X -2 Y 1 X s 1803 217 m 6 X
 -3 Y 3 X s 1812 214 m 8 X s 1820 214 m 9 X s 1829 214 m 1 X -2 Y 8 X s 1838 212 m 9 X s 1847 212 m 9 X s 1856 212 m 8 X s 1864 212 m 9 X s 1873 212 m 9 X s 1882 212 m 9 X s 1891 212 m 4 X -3 Y 5 X s 1900 209 m 2 X -3 Y 6 X s 1908 206 m 6 X -2 Y 3 X
 s 1917 204 m 9 X s 1926 204 m 9 X s 1935 204 m 5 X -3 Y 4 X s 1944 201 m 8 X s 1952 201 m 9 X s 1961 201 m 9 X s 1970 201 m 9 X s 1979 201 m 9 X s 1988 201 m 8 X s 1996 201 m 9 X s 2005 201 m 9 X s 2014 201 m 9 X s 2023 201 m 9 X s 2032 201 m 8 X s
 2040 201 m 1 X s 0 0.666667 0 c 1 1 1 c black 0 0.666667 0 c 245 1054 m 1 Y 9 X s 254 1055 m 5 X 1 1 d 3 X s 263 1056 m 8 X s 271 1056 m 3 X 1 Y 5 X 1 Y 1 X s 280 1058 m 2 X 1 Y 7 X s 289 1059 m 1 X 1 Y 3 X 1 1 d 1 1 d 2 X 1 Y 1 X s 298 1063 m 9 X s
 307 1063 m 3 X 1 Y 5 X s 315 1064 m 7 X 1 1 d 1 X s 324 1065 m 6 X 1 Y 3 X s 333 1066 m 9 X s 342 1066 m 1 Y 6 X 1 Y 3 X s 351 1068 m 8 X s 359 1068 m 9 X s 368 1068 m 9 X s 377 1068 m 1 X 1 Y 6 X 1 Y 2 X s 386 1070 m 9 X s 395 1070 m 8 X s 403 1070
 m 5 X 1 Y 4 X s 412 1071 m 9 X s 421 1071 m 9 X s 430 1071 m 6 X 1 Y 1 X 1 Y 2 X s 439 1073 m 8 X s 447 1073 m 9 X s 456 1073 m 9 X s 465 1073 m 3 X 1 Y 6 X s 474 1074 m 2 X 1 Y 7 X s 483 1075 m 4 X 1 Y 4 X s 491 1076 m 1 X 1 Y 7 X 1 Y 1 X s 500
 1078 m 3 X 1 Y 2 X 1 Y 1 X 1 Y 3 X s 509 1081 m 5 X 1 Y 4 X s 518 1082 m 1 X 2 Y 6 X 1 Y 2 X s 527 1085 m 5 X 1 Y 3 X s 535 1086 m 7 X 1 Y 2 X 1 Y s 544 1088 m 4 X 1 Y 3 X 1 Y 2 X s 553 1090 m 3 X 1 Y 1 X 1 Y 2 X 1 Y 3 X s 562 1093 m 2 X 1 1 d 6 X s
 571 1094 m 3 X 1 Y 1 X 1 Y 4 X s 579 1096 m 2 X 1 Y 3 X 1 Y 3 X 1 Y 1 X s 588 1099 m 1 X 1 Y 2 X 1 1 d 1 X 1 Y 1 X 1 Y 2 X 1 Y 1 X s 597 1104 m 2 X 1 Y 7 X s 606 1105 m 1 X 1 Y 1 1 d 1 Y 4 X 1 Y 1 X 1 1 d 1 X s 615 1110 m 8 X s 623 1110 m 4 X 1 Y 3
 X 1 Y 2 X s 632 1112 m 2 X 1 Y 1 X 1 Y 2 X 1 Y 2 X 1 Y 2 X s 641 1116 m 4 X 1 Y 3 X 1 Y 2 X s 650 1118 m 1 Y 2 X 1 Y 2 X 1 Y 4 X 1 Y 1 X s 659 1122 m 8 X s 667 1122 m 4 X 1 Y 1 X 1 Y 4 X s 676 1124 m 2 X 1 1 d 3 X 1 Y 1 X -4 Y 2 X s 685 1122 m 1 X 1
 Y 7 X 1 Y 1 X s 694 1124 m 7 X 1 Y 2 X s 703 1125 m 1 Y 6 X 2 Y 2 X 1 Y s 711 1129 m 1 X 2 Y 8 X s 720 1131 m 5 X 1 Y 1 X 1 Y 3 X s 729 1133 m 3 X 1 Y 5 X 1 Y 1 X s 738 1135 m 2 X 1 1 d 4 X 1 Y 1 X 1 Y 1 X s 747 1138 m 2 X 1 Y 2 X 1 Y 2 X 1 Y 2 X s
 755 1141 m 2 X 1 1 d 1 X 1 Y 5 X s 764 1143 m 1 X 1 Y 1 X 1 Y 2 X 1 Y 3 X 1 1 d 1 Y 1 X s 773 1148 m 1 X 1 Y 5 X 1 Y 3 X s 782 1150 m 5 X 1 1 d 2 X 1 Y 1 X s 791 1152 m 3 Y 3 X 1 Y 3 X 1 1 d 1 X s 799 1157 m 1 1 d 1 X 1 Y 1 X -5 Y 1 X 1 1 d 1 Y 3 X
 1 1 d 1 Y s 808 1158 m 4 X 1 Y 1 X 1 Y 2 X 1 Y 2 X s 817 1161 m 3 X 1 Y 2 X 1 Y 1 X 1 Y 3 X s 826 1164 m 1 Y 5 X 2 Y 1 1 d 1 Y 1 1 d 1 Y 2 X s 835 1171 m 1 Y 1 X 1 1 d 6 X s 843 1173 m 5 X 2 Y 1 X 2 Y 3 X s 852 1177 m 4 X -4 Y 1 X 2 Y 4 X s 861 1175
 m 6 X 1 Y 3 X s 870 1176 m 3 X 2 Y 3 X 1 Y 3 X s 879 1179 m 1 X 1 Y 3 X 1 1 d 3 X s 887 1181 m 3 X 1 Y 6 X s 896 1182 m 1 1 d 8 X s 905 1183 m 1 Y 4 X 1 Y 5 X s 914 1185 m 1 Y 1 X 2 Y 4 X 1 Y 2 X 1 Y 2 X s 923 1190 m 1 Y 5 X 1 Y 3 X s 931 1192 m 2 X
 1 Y 5 X 1 Y 1 X 1 1 d 1 Y s 940 1196 m 1 X 1 Y 5 X -4 Y 3 X s 949 1193 m 3 X 1 Y 6 X s 958 1194 m 1 X 2 Y 4 X 1 Y 1 1 d 1 X 1 Y 1 X 1 1 d s 967 1200 m 6 X 1 Y 1 X 2 Y 1 X s 975 1203 m 4 X 1 Y 4 X 1 Y 1 X s 984 1205 m 2 X 1 1 d 1 Y 1 X 1 Y 4 X 1 Y 1
 X s 993 1209 m 8 X -4 Y 1 1 d s 1002 1206 m 1 Y 1 X 1 Y 4 X 1 Y 1 X 1 Y 1 X 1 Y 1 X 1 Y 1 X s 1011 1212 m 8 X s 1019 1212 m 1 1 d 1 Y 2 X 1 Y 5 X 1 Y 1 1 d s 1028 1217 m 6 X 1 Y 1 1 d 1 Y 2 X s 1037 1220 m 4 X 1 Y 4 X 2 Y 1 X s 1046 1223 m 1 Y 2 X 2
 Y 2 X 1 Y 1 X 1 Y 4 X s 1055 1228 m 2 X 1 Y 3 X -4 Y 1 X 1 Y 2 X s 1063 1226 m 2 X -5 Y 2 X 1 Y 3 X 2 Y 2 X 1 Y s 1072 1225 m 7 X 1 Y 2 X s 1081 1226 m 3 X 1 Y 1 X 1 Y -4 Y 3 X 2 Y 1 X -4 Y 1 Y 1 X s 1090 1223 m 5 X 1 Y 1 X 1 Y 3 X s 1099 1225 m 3 X
 2 Y 1 X 1 Y 3 X 1 Y 1 X s 1107 1229 m 1 -4 d 1 1 d 2 X 1 1 d 1 Y 2 X 1 Y 2 X -4 Y s 1116 1225 m 6 X 1 Y 1 X 1 1 d 1 Y 1 X s 1125 1228 m 8 X 2 Y 1 X s 1134 1230 m 1 2 d 2 X 1 Y 6 X s 1143 1233 m 1 Y 2 X 1 Y 4 X 1 Y 1 X -4 Y 1 X 1 Y s 1151 1233 m 1 1
 d 4 X 1 Y 4 X 1 Y s 1160 1236 m 3 X 1 Y 4 X -4 Y 2 X s 1169 1233 m 1 X 1 Y 4 X -4 Y 2 Y 3 X 1 1 d s 1178 1233 m 1 1 d 1 X 1 -4 d 1 Y 3 X 1 Y 3 X s 1187 1232 m 4 X -4 Y 3 X -4 Y 1 X s 1195 1224 m 2 X 1 Y 2 X 1 -9 d 3 X -4 Y 1 X s 1204 1212 m 2 X 1 Y
 7 X s 1213 1213 m 1 1 d 1 X 1 1 d 2 X 1 Y 3 X 2 Y 1 X s 1222 1218 m 2 X 1 Y 7 X s 1231 1219 m 1 X 1 Y -4 Y 2 X 1 Y -5 Y 5 X s 1239 1212 m 3 X -4 Y 6 X s 1248 1208 m 1 1 d 8 X s 1257 1209 m 3 X -4 Y 2 X 1 Y -4 Y 4 X 1 Y s 1266 1203 m 2 X -5 Y 7 X s
 1275 1198 m 6 X 2 Y 2 X s 1283 1200 m 2 X -5 Y 4 X 1 Y 3 X s 1292 1196 m 8 X 2 Y 1 X s 1301 1198 m 9 X s 1310 1198 m 6 X 1 Y 3 X s 1319 1199 m 8 X s 1327 1199 m 2 X -5 Y 2 X 2 Y 5 X s 1336 1196 m 1 X 1 1 d 2 X -9 Y 5 X s 1345 1188 m 9 X s 1354 1188
 m 7 X 1 -5 d 1 X s 1363 1183 m 1 X 1 1 d 3 X 1 2 d 2 X 1 Y s 1371 1187 m 3 X 1 Y 1 X 2 Y 2 X 1 Y 3 X s 1380 1191 m 9 X s 1389 1191 m -5 Y 1 X 2 Y 8 X s 1398 1188 m 3 X 1 Y 3 X 1 Y 3 X s 1407 1190 m 1 X -4 Y 3 X -5 Y 4 X 1 Y s 1415 1182 m 6 X 2 Y 2 X
 2 Y 1 X -4 Y s 1424 1182 m 3 X -5 Y 2 X 2 Y 3 X -10 Y 1 X s 1433 1169 m 9 X s 1442 1169 m 2 Y 2 X 1 Y 7 X s 1451 1172 m -5 Y 6 X 2 Y 1 1 d 1 X s 1459 1170 m 5 X 2 Y 3 X -5 Y 1 X 1 Y s 1468 1168 m 1 X 2 Y 7 X -5 Y 1 X s 1477 1165 m 1 X 1 1 d 5 X 2 Y
 2 X -3 Y s 1486 1165 m 9 X s 1495 1165 m 2 X 1 Y 2 X 1 Y 4 X -4 Y s 1503 1163 m 1 1 d 8 X s 1512 1164 m 2 X -5 Y 1 X 3 Y 2 X 1 -4 d 3 X s 1521 1158 m 5 X -5 Y 3 X -5 Y 1 X s 1530 1148 m 5 X -3 Y 4 X s 1539 1145 m 2 X -5 Y 6 X s 1547 1140 m 1 X 1 -5
 d -5 Y 7 X s 1556 1130 m 8 X 2 Y 1 X s 1565 1132 m 6 X -5 Y 1 Y 3 X s 1574 1128 m 2 X 2 Y 1 X 1 Y 3 X -5 Y 3 X s 1583 1126 m -5 Y 6 X 1 2 d 1 X s 1591 1123 m 7 X -5 Y 2 X s 1600 1118 m 5 X 2 Y 4 X s 1609 1120 m 2 X -10 Y 7 X s 1618 1110 m 2 X -5 Y 2
 X 1 Y 2 X 1 2 d 2 X 1 Y s 1627 1109 m 2 Y 3 X -5 Y 1 X -5 Y 1 X 2 Y 1 X 1 Y 1 X 2 Y 1 X s 1635 1106 m 5 X 2 Y 3 X 1 Y 1 X -5 Y s 1644 1104 m 1 X -5 Y 1 X -5 Y 3 X 1 2 d 3 X s 1653 1096 m 2 X 1 Y 2 X -5 Y 3 X 1 -5 d 2 Y 1 -5 d s 1662 1084 m 4 X -6 Y
 1 X -5 Y 4 X s 1671 1073 m -10 Y 6 X 1 Y 1 -5 d 1 X s 1679 1059 m 2 X -5 Y 4 X 1 Y 2 X 2 Y 1 X s 1688 1057 m 4 X -5 Y 3 X 1 -6 d 2 Y 1 -5 d s 1697 1043 m 1 X -6 Y 8 X s 1706 1037 m 1 X 1 2 d 1 X -5 Y 6 X s 1715 1034 m 1 X 1 -6 d 6 X s 1723 1028 m 1
 X -5 Y 1 X -6 Y 6 X 2 Y 1 X s 1732 1019 m 1 X -6 Y 8 X s 1741 1013 m 3 X -5 Y 6 X -6 Y s 1750 1002 m 1 X -6 Y 2 X -4 Y 2 X -6 Y 2 Y 4 X -5 Y s 1759 983 m 8 X s 1767 983 m 1 X -6 Y 1 2 d 1 X 2 Y 5 X 1 -12 d s 1776 969 m 1 X -6 Y 5 X -6 Y 1 -6 d 2 X s
 1785 951 m -4 Y 9 X s 1794 947 m 1 X -7 Y 6 X 3 Y 1 X 2 Y 1 X s 1803 945 m 1 -6 d 1 X -7 Y 1 X -6 Y 2 X 1 -6 d 2 Y 1 X -6 Y 2 X s 1812 916 m 1 X -13 Y 5 X -7 Y 1 X -7 Y 1 X s 1820 889 m 4 X -13 Y 4 X -28 Y 1 -8 d s 1829 840 m 1 X 3 Y 2 X -7 Y 1 X -8
 Y 1 X -7 Y 2 X -7 Y 2 X s 1838 814 m 2 X -16 Y 1 X -8 Y 2 X 1 -7 d 2 X -8 Y 1 X s 1847 775 m 6 X -9 Y 1 -8 d 2 X s 1856 758 m 6 X 1 -8 d 1 X -9 Y s 1864 741 m 1 X -8 Y 1 X 1 -9 d -9 Y 1 X -9 Y 1 -9 d 4 X s 1873 697 m 4 X -10 Y 2 X -9 Y 3 X s 1882
 678 m 2 X -10 Y 2 X 1 -10 d 4 X -10 Y s 1891 648 m 4 X 3 Y 2 X 1 -10 d 1 X -11 Y 1 X s 1900 630 m 1 X -11 Y 1 X 4 Y 3 X -11 Y 3 X s 1908 612 m 1 X -11 Y 5 X 4 Y 3 X s 1917 605 m 2 X -12 Y 4 X -11 Y 3 X s 1926 582 m 6 X 1 -13 d 2 X s 1935 569 m 5 X 5
 Y 4 X s 1944 574 m -13 Y 3 X -13 Y 2 X -13 Y 3 X s 1952 535 m 1 X -15 Y 2 X 1 -14 d 4 X 1 -16 d s 1961 490 m 2 X -34 Y 1 -19 d 6 X s 1970 437 m 4 X -21 Y 5 X s 1979 416 m 8 X -22 Y 1 X s 1988 394 m 7 X -26 Y 1 X s 1996 368 m 9 X s 2005 368 m 1 X -31
 Y 8 X s 2014 337 m 9 X s 2023 337 m -40 Y 9 X s 2032 297 m 8 X s 2040 297 m 1 X s black 3 lw 245 201 m 1796 X s 422 241 m -40 Y s 461 221 m -20 Y s 500 221 m -20 Y s 539 221 m -20 Y s 577 221 m -20 Y s 616 241 m -40 Y s 655 221 m -20 Y s 694 221 m
 -20 Y s 733 221 m -20 Y s 772 221 m -20 Y s 811 241 m -40 Y s 850 221 m -20 Y s 888 221 m -20 Y s 927 221 m -20 Y s 966 221 m -20 Y s 1005 241 m -40 Y s 1044 221 m -20 Y s 1083 221 m -20 Y s 1122 221 m -20 Y s 1160 221 m -20 Y s 1199 241 m -40 Y s
 1238 221 m -20 Y s 1277 221 m -20 Y s 1316 221 m -20 Y s 1355 221 m -20 Y s 1394 241 m -40 Y s 1433 221 m -20 Y s 1471 221 m -20 Y s 1510 221 m -20 Y s 1549 221 m -20 Y s 1588 241 m -40 Y s 1627 221 m -20 Y s 1666 221 m -20 Y s 1705 221 m -20 Y s
 1744 221 m -20 Y s 1782 241 m -40 Y s 1821 221 m -20 Y s 1860 221 m -20 Y s 1899 221 m -20 Y s 1938 221 m -20 Y s 1977 241 m -40 Y s 422 241 m -40 Y s 383 221 m -20 Y s 344 221 m -20 Y s 305 221 m -20 Y s 266 221 m -20 Y s 1977 241 m -40 Y s 2016
 221 m -20 Y s 245 201 m 1140 Y s 291 201 m -46 X s 268 253 m -23 X s 268 305 m -23 X s 268 357 m -23 X s 291 408 m -46 X s 268 460 m -23 X s 268 512 m -23 X s 268 564 m -23 X s 291 616 m -46 X s 268 667 m -23 X s 268 719 m -23 X s 268 771 m -23 X s
 291 823 m -46 X s 268 875 m -23 X s 268 926 m -23 X s 268 978 m -23 X s 291 1030 m -46 X s 268 1082 m -23 X s 268 1134 m -23 X s 268 1185 m -23 X s 291 1237 m -46 X s 291 1237 m -46 X s 268 1289 m -23 X s 268 1341 m -23 X s 0.490196 0.545098
 0.615686 c 1 1 1 c 0.490196 0.545098 0.615686 c 907 201 245 1341 bl 245 1341 m 907 X s 1152 1341 m 201 Y s 1152 1542 m -907 X s 245 1542 m -201 Y s black
 gsave  2268 1676 0 0 C 515.735 1471.36 t 0 r /Helvetica-Bold findfont 56.8825 sf 0 0 m (Signal efficiency) show NC gr  0 0 0.933333 c 9 lw 286 1492 m 190 X s black
 gsave  2268 1676 0 0 C 515.735 1368.97 t 0 r /Helvetica-Bold findfont 56.8825 sf 0 0 m (Background efficiency) show NC gr  1 0 0 c 286 1391 m 190 X s 0.490196 0.545098 0.615686 c 3 lw 1 1 1 c 0.490196 0.545098 0.615686 c 889 201 1152 1341 bl 1152
 1341 m 889 X s 2041 1341 m 201 Y s 2041 1542 m -889 X s 1152 1542 m -201 Y s black
 gsave  2268 1676 0 0 C 1418.27 1494.11 t 0 r /Helvetica-Bold findfont 56.8825 sf 0 0 m (Signal purity) show NC gr  0 0 0.933333 c[  52 12 ] 0 sd 6 lw 1192 1509 m 187 X s black
 gsave  2268 1676 0 0 C 1418.27 1429.65 t 0 r /Helvetica-Bold findfont 56.8825 sf 0 0 m (Signal efficiency*purity) show NC gr  0 0 0.933333 c[  22 12 ] 0 sd 1192 1441 m 187 X s black
 gsave  2268 1676 0 0 C 1501.7 1361.39 t 0 r /Helvetica-Bold findfont 56.8825 sf 0 0 m (S+B) show NC gr [  ] 0 sd 1483 1407 m 7 -49 d s 3 lw 1490 1358 m 8 64 d s 1498 1422 m 114 X s
 gsave  2268 1676 0 0 C 1418.27 1361.39 t 0 r /Helvetica-Bold findfont 56.8825 sf 0 0 m (S/) show NC gr  0 0.666667 0 c 9 lw 1192 1374 m 187 X s black 3 lw 245 1237 m 1796 X s
 gsave  2268 1676 0 0 C 337.503 386.801 t 0 r /Helvetica-Bold findfont 53.0904 sf 0 0 m (For 1000 signal and 1000 background) show NC gr 
 gsave  2268 1676 0 0 C 1058.01 318.542 t 0 r /Helvetica-Bold findfont 53.0904 sf 0 0 m ( is) show NC gr 
 gsave  2268 1676 0 0 C 955.626 318.542 t 0 r /Helvetica-Bold findfont 53.0904 sf 0 0 m (S+B) show NC gr  6 lw 933 360 m 7 -45 d s 3 lw 940 315 m 8 60 d s 948 375 m 110 X s
 gsave  2268 1676 0 0 C 337.503 318.542 t 0 r /Helvetica-Bold findfont 53.0904 sf 0 0 m (events the maximum S/) show NC gr 
 gsave  2268 1676 0 0 C 337.503 254.075 t 0 r /Helvetica-Bold findfont 53.0904 sf 0 0 m (27.17 when cutting at  0.48) show NC gr  0.490196 0.545098 0.615686 c 0.364706 0.419608 0.490196 c 1471 96 23 1572 bf 0.490196 0.545098 0.615686 c 23 1572 m 1471
 X s 1494 1572 m 96 Y s 1494 1668 m -1471 X s 23 1668 m -96 Y s 1 1 1 c black 1 1 1 c
 gsave  2268 1676 0 0 C 75.8434 1600.29 t 0 r /Helvetica-Bold findfont 75.8434 sf 0 0 m (Cut efficiencies and optimal cut value) show NC gr  0 0.666667 0 c 2041 201 m 1140 Y s black 0 0.666667 0 c
 gsave  2268 1676 0 0 C 2203.25 963.211 t 90 r /Helvetica-Bold findfont 64.4669 sf 0 0 m (Significance) show NC gr  1995 201 m 46 X s 2018 239 m 23 X s 2018 277 m 23 X s 2018 316 m 23 X s 2018 354 m 23 X s 1995 392 m 46 X s 2018 430 m 23 X s 2018 468
 m 23 X s 2018 506 m 23 X s 2018 544 m 23 X s 1995 583 m 46 X s 2018 621 m 23 X s 2018 659 m 23 X s 2018 697 m 23 X s 2018 735 m 23 X s 1995 773 m 46 X s 2018 811 m 23 X s 2018 850 m 23 X s 2018 888 m 23 X s 2018 926 m 23 X s 1995 964 m 46 X s 2018
 1002 m 23 X s 2018 1040 m 23 X s 2018 1078 m 23 X s 2018 1117 m 23 X s 1995 1155 m 46 X s 1995 1155 m 46 X s 2018 1193 m 23 X s 2018 1231 m 23 X s 2018 1269 m 23 X s 2018 1307 m 23 X s black 0 0.666667 0 c
 gsave  2268 1676 0 0 C 2051.56 178.232 t 0 r /Helvetica-Bold findfont 64.4669 sf 0 0 m (0) show NC gr  black 0 0.666667 0 c
 gsave  2268 1676 0 0 C 2051.56 367.84 t 0 r /Helvetica-Bold findfont 64.4669 sf 0 0 m (5) show NC gr  black 0 0.666667 0 c
 gsave  2268 1676 0 0 C 2051.56 557.449 t 0 r /Helvetica-Bold findfont 64.4669 sf 0 0 m (10) show NC gr  black 0 0.666667 0 c
 gsave  2268 1676 0 0 C 2051.56 747.057 t 0 r /Helvetica-Bold findfont 64.4669 sf 0 0 m (15) show NC gr  black 0 0.666667 0 c
 gsave  2268 1676 0 0 C 2051.56 940.458 t 0 r /Helvetica-Bold findfont 64.4669 sf 0 0 m (20) show NC gr  black 0 0.666667 0 c
 gsave  2268 1676 0 0 C 2051.56 1130.07 t 0 r /Helvetica-Bold findfont 64.4669 sf 0 0 m (25) show NC gr 
 gr  gr showpage
end
%%EOF
