%!PS-Adobe-2.0 EPSF-2.0
%%BoundingBox:  0 0 567 419
%%Title: DataSet/plots/mvaeffs_KNN.eps: Cut efficiencies for KNN classifier
%%Creator: ROOT Version 6.08/06
%%CreationDate: Mon Jul 30 13:52:29 2018
%%DocumentNeededResources: ProcSet (FontSetInit)
%%EndComments
%%BeginProlog
80 dict begin
/s {stroke} def /l {lineto} def /m {moveto} def /t {translate} def
/r {rotate} def /rl {roll}  def /R {repeat} def
/d {rlineto} def /rm {rmoveto} def /gr {grestore} def /f {eofill} def
/c {setrgbcolor} def /black {0 setgray} def /sd {setdash} def
/cl {closepath} def /sf {scalefont setfont} def /lw {setlinewidth} def
/box {m dup 0 exch d exch 0 d 0 exch neg d cl} def
/NC{systemdict begin initclip end}def/C{NC box clip newpath}def
/bl {box s} def /bf {gsave box gsave f grestore 1 lw [] 0 sd s grestore} def /Y { 0 exch d} def /X { 0 d} def 
/K {{pop pop 0 moveto} exch kshow} bind def
/ita {/ang 15 def gsave [1 0 ang dup sin exch cos div 1 0 0] concat} def 
/mp {newpath /y exch def /x exch def} def
/side {[w .77 mul w .23 mul] .385 w mul sd w 0 l currentpoint t -144 r} def
/mr {mp x y w2 0 360 arc} def /m24 {mr s} def /m20 {mr f} def
/mb {mp x y w2 add m w2 neg 0 d 0 w neg d w 0 d 0 w d cl} def
/mt {mp x y w2 add m w2 neg w neg d w 0 d cl} def
/m21 {mb f} def /m25 {mb s} def /m22 {mt f} def /m26{mt s} def
/m23 {mp x y w2 sub m w2 w d w neg 0 d cl f} def
/m27 {mp x y w2 add m w3 neg w2 neg d w3 w2 neg d w3 w2 d cl s} def
/m28 {mp x w2 sub y w2 sub w3 add m w3 0 d  0 w3 neg d w3 0 d 0 w3 d w3 0 d  0 w3 d w3 neg 0 d 0 w3 d w3 neg 0 d 0 w3 neg d w3 neg 0 d cl s } def
/m29 {mp gsave x w2 sub y w2 add w3 sub m currentpoint t 4 {side} repeat cl fill gr} def
/m30 {mp gsave x w2 sub y w2 add w3 sub m currentpoint t 4 {side} repeat cl s gr} def
/m31 {mp x y w2 sub m 0 w d x w2 sub y m w 0 d x w2 sub y w2 add m w w neg d x w2 sub y w2 sub m w w d s} def
/m32 {mp x y w2 sub m w2 w d w neg 0 d cl s} def
/m33 {mp x y w2 add m w3 neg w2 neg d w3 w2 neg d w3 w2 d cl f} def
/m34 {mp x w2 sub y w2 sub w3 add m w3 0 d  0 w3 neg d w3 0 d 0 w3 d w3 0 d  0 w3 d w3 neg 0 d 0 w3 d w3 neg 0 d 0 w3 neg d w3 neg 0 d cl f } def
/m2 {mp x y w2 sub m 0 w d x w2 sub y m w 0 d s} def
/m5 {mp x w2 sub y w2 sub m w w d x w2 sub y w2 add m w w neg d s} def
%%IncludeResource: ProcSet (FontSetInit)
%%IncludeResource: font Times-Roman
%%IncludeResource: font Times-Italic
%%IncludeResource: font Times-Bold
%%IncludeResource: font Times-BoldItalic
%%IncludeResource: font Helvetica
%%IncludeResource: font Helvetica-Oblique
%%IncludeResource: font Helvetica-Bold
%%IncludeResource: font Helvetica-BoldOblique
%%IncludeResource: font Courier
%%IncludeResource: font Courier-Oblique
%%IncludeResource: font Courier-Bold
%%IncludeResource: font Courier-BoldOblique
%%IncludeResource: font Symbol
%%IncludeResource: font ZapfDingbats
/reEncode {exch findfont dup length dict begin {1 index /FID eq  {pop pop} {def} ifelse } forall /Encoding exch def currentdict end dup /FontName get exch definefont pop } def [/Times-Bold /Times-Italic /Times-BoldItalic /Helvetica /Helvetica-Oblique
 /Helvetica-Bold /Helvetica-BoldOblique /Courier /Courier-Oblique /Courier-Bold /Courier-BoldOblique /Times-Roman /AvantGarde-Book /AvantGarde-BookOblique /AvantGarde-Demi /AvantGarde-DemiOblique /Bookman-Demi /Bookman-DemiItalic /Bookman-Light
 /Bookman-LightItalic /Helvetica-Narrow /Helvetica-Narrow-Bold /Helvetica-Narrow-BoldOblique /Helvetica-Narrow-Oblique /NewCenturySchlbk-Roman /NewCenturySchlbk-Bold /NewCenturySchlbk-BoldItalic /NewCenturySchlbk-Italic /Palatino-Bold
 /Palatino-BoldItalic /Palatino-Italic /Palatino-Roman ] {ISOLatin1Encoding reEncode } forall
%%EndProlog
%%BeginSetup
%%EndSetup
newpath  gsave  .25 .25 scale  gsave  0 0 t 0.490196 0.545098 0.615686 c[  ] 0 sd 3 lw 1 1 1 c 2268 1676 0 0 bf black 1 1 1 c 1796 1140 245 201 bf black 1796 1140 245 201 bl 1 1 1 c 1796 1140 245 201 bf black 1796 1140 245 201 bl 245 201 m 1796 X s[
 4 8] 0 sd 245 1341 m -1140 Y s 604 1341 m -1140 Y s 963 1341 m -1140 Y s 1323 1341 m -1140 Y s 1682 1341 m -1140 Y s 2041 1341 m -1140 Y s 2041 1341 m -1140 Y s[  ] 0 sd 245 201 m 1140 Y s[ 4 8] 0 sd 2041 201 m -1796 X s 2041 408 m -1796 X s 2041
 616 m -1796 X s 2041 823 m -1796 X s 2041 1030 m -1796 X s 2041 1237 m -1796 X s 2041 1237 m -1796 X s 0 0 0.933333 c[  22 12 ] 0 sd 6 lw 0.49 0.6 0.82 c black 0 0 0.933333 c 245 719 m 185 Y 9 X s 254 904 m 9 X s 263 904 m 8 X s 271 904 m 9 X s 280
 904 m 9 X s 289 904 m 9 X s 298 904 m 9 X s 307 904 m 8 X s 315 904 m 9 X s 324 904 m 9 X s 333 904 m 9 X s 342 904 m 9 X s 351 904 m 8 X s 359 904 m 9 X s 368 904 m 9 X s 377 904 m 9 X s 386 904 m 9 X s 395 904 m 8 X s 403 904 m 9 X s 412 904 m 9 X
 s 421 904 m 9 X s 430 904 m 9 X s 439 904 m 8 X s 447 904 m 5 X 66 Y 4 X s 456 970 m 9 X s 465 970 m 9 X s 474 970 m 9 X s 483 970 m 8 X s 491 970 m 9 X s 500 970 m 9 X s 509 970 m 9 X s 518 970 m 9 X s 527 970 m 8 X s 535 970 m 9 X s 544 970 m 9 X
 s 553 970 m 9 X s 562 970 m 9 X s 571 970 m 8 X s 579 970 m 9 X s 588 970 m 9 X s 597 970 m 9 X s 606 970 m 9 X s 615 970 m 8 X s 623 970 m 9 X s 632 970 m 1 X 44 Y 8 X s 641 1014 m 9 X s 650 1014 m 9 X s 659 1014 m 8 X s 667 1014 m 9 X s 676 1014 m
 9 X s 685 1014 m 9 X s 694 1014 m 9 X s 703 1014 m 8 X s 711 1014 m 9 X s 720 1014 m 9 X s 729 1014 m 9 X s 738 1014 m 9 X s 747 1014 m 8 X s 755 1014 m 9 X s 764 1014 m 9 X s 773 1014 m 9 X s 782 1014 m 9 X s 791 1014 m 17 Y 8 X s 799 1031 m 9 X s
 808 1031 m 9 X s 817 1031 m 9 X s 826 1031 m 9 X s 835 1031 m 8 X s 843 1031 m 9 X s 852 1031 m 9 X s 861 1031 m 9 X s 870 1031 m 9 X s 879 1031 m 8 X s 887 1031 m 9 X s 896 1031 m 9 X s 905 1031 m 9 X s 914 1031 m 9 X s 923 1031 m 8 X s 931 1031 m
 1 X -11 Y 8 X s 940 1020 m 9 X s 949 1020 m 9 X s 958 1020 m 9 X s 967 1020 m 8 X s 975 1020 m 9 X s 984 1020 m 9 X s 993 1020 m 9 X s 1002 1020 m 9 X s 1011 1020 m 8 X s 1019 1020 m 9 X s 1028 1020 m 9 X s 1037 1020 m 9 X s 1046 1020 m 9 X s 1055
 1020 m 2 X 17 Y 6 X s 1063 1037 m 9 X s 1072 1037 m 9 X s 1081 1037 m 9 X s 1090 1037 m 9 X s 1099 1037 m 8 X s 1107 1037 m 9 X s 1116 1037 m 9 X s 1125 1037 m 9 X s 1134 1037 m 9 X s 1143 1037 m 8 X s 1151 1037 m 9 X s 1160 1037 m 9 X s 1169 1037 m
 1 X -5 Y 8 X s 1178 1032 m 9 X s 1187 1032 m 8 X s 1195 1032 m 9 X s 1204 1032 m 9 X s 1213 1032 m 9 X s 1222 1032 m 9 X s 1231 1032 m 8 X s 1239 1032 m 9 X s 1248 1032 m 9 X s 1257 1032 m 9 X s 1266 1032 m 5 X 1 -31 d 3 X s 1275 1001 m 8 X s 1283
 1001 m 9 X s 1292 1001 m 9 X s 1301 1001 m 9 X s 1310 1001 m 9 X s 1319 1001 m 8 X s 1327 1001 m 9 X s 1336 1001 m 9 X s 1345 1001 m 9 X s 1354 1001 m 9 X s 1363 1001 m 1 X -14 Y 7 X s 1371 987 m 9 X s 1380 987 m 9 X s 1389 987 m 9 X s 1398 987 m 9
 X s 1407 987 m 8 X s 1415 987 m 9 X s 1424 987 m 9 X s 1433 987 m 9 X s 1442 987 m 6 X -6 Y 3 X s 1451 981 m 8 X s 1459 981 m 9 X s 1468 981 m 9 X s 1477 981 m 9 X s 1486 981 m 9 X s 1495 981 m 8 X s 1503 981 m 9 X s 1512 981 m 9 X s 1521 981 m 3 X
 1 -7 d 5 X s 1530 974 m 9 X s 1539 974 m 8 X s 1547 974 m 9 X s 1556 974 m 9 X s 1565 974 m 9 X s 1574 974 m 9 X s 1583 974 m 8 X s 1591 974 m 4 X -13 Y 5 X s 1600 961 m 9 X s 1609 961 m 9 X s 1618 961 m 9 X s 1627 961 m 8 X s 1635 961 m 9 X s 1644
 961 m 9 X s 1653 961 m 7 X -34 Y 2 X s 1662 927 m 9 X s 1671 927 m 8 X s 1679 927 m 9 X s 1688 927 m 9 X s 1697 927 m 9 X s 1706 927 m 9 X s 1715 927 m 5 X -55 Y 3 X s 1723 872 m 9 X s 1732 872 m 9 X s 1741 872 m 9 X s 1750 872 m 9 X s 1759 872 m 8
 X s 1767 872 m 9 X -70 Y s 1776 802 m 9 X s 1785 802 m 9 X s 1794 802 m 9 X s 1803 802 m 9 X s 1812 802 m 8 X s 1820 802 m 8 X -103 Y 1 X s 1829 699 m 9 X s 1838 699 m 9 X s 1847 699 m 9 X s 1856 699 m 8 X s 1864 699 m 9 X s 1873 699 m 3 X 1 -104 d
 5 X s 1882 595 m 9 X s 1891 595 m 9 X s 1900 595 m 8 X s 1908 595 m 9 X s 1917 595 m 4 X 1 -120 d 4 X s 1926 475 m 9 X s 1935 475 m 9 X s 1944 475 m 8 X s 1952 475 m 9 X s 1961 475 m 3 X -90 Y 6 X s 1970 385 m 9 X s 1979 385 m 9 X s 1988 385 m 8 X s
 1996 385 m 7 X 1 -136 d 1 X s 2005 249 m 9 X s 2014 249 m 9 X s 2023 249 m 9 X s 2032 249 m 8 X s 2040 249 m 1 X s black[  ] 0 sd 3 lw 245 201 m 1796 X s
 gsave  2268 1676 0 0 C 913.913 30.3373 t 0 r /Helvetica-Bold findfont 72.0512 sf 0 0 m (Cut value applied on KNN output) show NC gr  245 241 m -40 Y s 335 221 m -20 Y s 425 221 m -20 Y s 514 221 m -20 Y s 604 241 m -40 Y s 694 221 m -20 Y s 784 221
 m -20 Y s 874 221 m -20 Y s 963 241 m -40 Y s 1053 221 m -20 Y s 1143 221 m -20 Y s 1233 221 m -20 Y s 1323 241 m -40 Y s 1412 221 m -20 Y s 1502 221 m -20 Y s 1592 221 m -20 Y s 1682 241 m -40 Y s 1772 221 m -20 Y s 1861 221 m -20 Y s 1951 221 m
 -20 Y s 2041 241 m -40 Y s 2041 241 m -40 Y s
 gsave  2268 1676 0 0 C 223.738 128.934 t 0 r /Helvetica-Bold findfont 64.4669 sf 0 0 m (0) show NC gr 
 gsave  2268 1676 0 0 C 557.449 128.934 t 0 r /Helvetica-Bold findfont 64.4669 sf 0 0 m (0.2) show NC gr 
 gsave  2268 1676 0 0 C 917.705 128.934 t 0 r /Helvetica-Bold findfont 64.4669 sf 0 0 m (0.4) show NC gr 
 gsave  2268 1676 0 0 C 1274.17 128.934 t 0 r /Helvetica-Bold findfont 64.4669 sf 0 0 m (0.6) show NC gr 
 gsave  2268 1676 0 0 C 1634.42 128.934 t 0 r /Helvetica-Bold findfont 64.4669 sf 0 0 m (0.8) show NC gr 
 gsave  2268 1676 0 0 C 2025.02 128.934 t 0 r /Helvetica-Bold findfont 64.4669 sf 0 0 m (1) show NC gr  245 201 m 1140 Y s
 gsave  2268 1676 0 0 C 64.4669 731.888 t 90 r /Helvetica-Bold findfont 72.0512 sf 0 0 m (Efficiency \(Purity\)) show NC gr  291 201 m -46 X s 268 253 m -23 X s 268 305 m -23 X s 268 357 m -23 X s 291 408 m -46 X s 268 460 m -23 X s 268 512 m -23 X s
 268 564 m -23 X s 291 616 m -46 X s 268 667 m -23 X s 268 719 m -23 X s 268 771 m -23 X s 291 823 m -46 X s 268 875 m -23 X s 268 926 m -23 X s 268 978 m -23 X s 291 1030 m -46 X s 268 1082 m -23 X s 268 1134 m -23 X s 268 1185 m -23 X s 291 1237 m
 -46 X s 291 1237 m -46 X s 268 1289 m -23 X s 268 1341 m -23 X s
 gsave  2268 1676 0 0 C 182.024 178.232 t 0 r /Helvetica-Bold findfont 64.4669 sf 0 0 m (0) show NC gr 
 gsave  2268 1676 0 0 C 128.934 383.009 t 0 r /Helvetica-Bold findfont 64.4669 sf 0 0 m (0.2) show NC gr 
 gsave  2268 1676 0 0 C 125.142 591.578 t 0 r /Helvetica-Bold findfont 64.4669 sf 0 0 m (0.4) show NC gr 
 gsave  2268 1676 0 0 C 128.934 796.355 t 0 r /Helvetica-Bold findfont 64.4669 sf 0 0 m (0.6) show NC gr 
 gsave  2268 1676 0 0 C 125.142 1004.92 t 0 r /Helvetica-Bold findfont 64.4669 sf 0 0 m (0.8) show NC gr 
 gsave  2268 1676 0 0 C 189.608 1213.49 t 0 r /Helvetica-Bold findfont 64.4669 sf 0 0 m (1) show NC gr  0 0 0.933333 c[  52 12 ] 0 sd 6 lw 0.49 0.6 0.82 c black 0 0 0.933333 c 245 719 m 189 Y 9 X s 254 908 m 9 X s 263 908 m 8 X s 271 908 m 9 X s 280
 908 m 9 X s 289 908 m 9 X s 298 908 m 9 X s 307 908 m 8 X s 315 908 m 9 X s 324 908 m 9 X s 333 908 m 9 X s 342 908 m 9 X s 351 908 m 8 X s 359 908 m 9 X s 368 908 m 9 X s 377 908 m 9 X s 386 908 m 9 X s 395 908 m 8 X s 403 908 m 9 X s 412 908 m 9 X
 s 421 908 m 9 X s 430 908 m 9 X s 439 908 m 8 X s 447 908 m 5 X 72 Y 4 X s 456 980 m 9 X s 465 980 m 9 X s 474 980 m 9 X s 483 980 m 8 X s 491 980 m 9 X s 500 980 m 9 X s 509 980 m 9 X s 518 980 m 9 X s 527 980 m 8 X s 535 980 m 9 X s 544 980 m 9 X
 s 553 980 m 9 X s 562 980 m 9 X s 571 980 m 8 X s 579 980 m 9 X s 588 980 m 9 X s 597 980 m 9 X s 606 980 m 9 X s 615 980 m 8 X s 623 980 m 9 X s 632 980 m 1 X 50 Y 8 X s 641 1030 m 9 X s 650 1030 m 9 X s 659 1030 m 8 X s 667 1030 m 9 X s 676 1030 m
 9 X s 685 1030 m 9 X s 694 1030 m 9 X s 703 1030 m 8 X s 711 1030 m 9 X s 720 1030 m 9 X s 729 1030 m 9 X s 738 1030 m 9 X s 747 1030 m 8 X s 755 1030 m 9 X s 764 1030 m 9 X s 773 1030 m 9 X s 782 1030 m 9 X s 791 1030 m 28 Y 8 X s 799 1058 m 9 X s
 808 1058 m 9 X s 817 1058 m 9 X s 826 1058 m 9 X s 835 1058 m 8 X s 843 1058 m 9 X s 852 1058 m 9 X s 861 1058 m 9 X s 870 1058 m 9 X s 879 1058 m 8 X s 887 1058 m 9 X s 896 1058 m 9 X s 905 1058 m 9 X s 914 1058 m 9 X s 923 1058 m 8 X s 931 1058 m
 1 X 12 Y 8 X s 940 1070 m 9 X s 949 1070 m 9 X s 958 1070 m 9 X s 967 1070 m 8 X s 975 1070 m 9 X s 984 1070 m 9 X s 993 1070 m 9 X s 1002 1070 m 9 X s 1011 1070 m 8 X s 1019 1070 m 9 X s 1028 1070 m 9 X s 1037 1070 m 9 X s 1046 1070 m 9 X s 1055
 1070 m 2 X 36 Y 6 X s 1063 1106 m 9 X s 1072 1106 m 9 X s 1081 1106 m 9 X s 1090 1106 m 9 X s 1099 1106 m 8 X s 1107 1106 m 9 X s 1116 1106 m 9 X s 1125 1106 m 9 X s 1134 1106 m 9 X s 1143 1106 m 8 X s 1151 1106 m 9 X s 1160 1106 m 9 X s 1169 1106 m
 1 X 13 Y 8 X s 1178 1119 m 9 X s 1187 1119 m 8 X s 1195 1119 m 9 X s 1204 1119 m 9 X s 1213 1119 m 9 X s 1222 1119 m 9 X s 1231 1119 m 8 X s 1239 1119 m 9 X s 1248 1119 m 9 X s 1257 1119 m 9 X s 1266 1119 m 5 X 1 5 d 3 X s 1275 1124 m 8 X s 1283
 1124 m 9 X s 1292 1124 m 9 X s 1301 1124 m 9 X s 1310 1124 m 9 X s 1319 1124 m 8 X s 1327 1124 m 9 X s 1336 1124 m 9 X s 1345 1124 m 9 X s 1354 1124 m 9 X s 1363 1124 m 1 X 12 Y 7 X s 1371 1136 m 9 X s 1380 1136 m 9 X s 1389 1136 m 9 X s 1398 1136 m
 9 X s 1407 1136 m 8 X s 1415 1136 m 9 X s 1424 1136 m 9 X s 1433 1136 m 9 X s 1442 1136 m 6 X 7 Y 3 X s 1451 1143 m 8 X s 1459 1143 m 9 X s 1468 1143 m 9 X s 1477 1143 m 9 X s 1486 1143 m 9 X s 1495 1143 m 8 X s 1503 1143 m 9 X s 1512 1143 m 9 X s
 1521 1143 m 3 X 1 6 d 5 X s 1530 1149 m 9 X s 1539 1149 m 8 X s 1547 1149 m 9 X s 1556 1149 m 9 X s 1565 1149 m 9 X s 1574 1149 m 9 X s 1583 1149 m 8 X s 1591 1149 m 4 X 14 Y 5 X s 1600 1163 m 9 X s 1609 1163 m 9 X s 1618 1163 m 9 X s 1627 1163 m 8
 X s 1635 1163 m 9 X s 1644 1163 m 9 X s 1653 1163 m 7 X 12 Y 2 X s 1662 1175 m 9 X s 1671 1175 m 8 X s 1679 1175 m 9 X s 1688 1175 m 9 X s 1697 1175 m 9 X s 1706 1175 m 9 X s 1715 1175 m 5 X 1 Y 3 X s 1723 1176 m 9 X s 1732 1176 m 9 X s 1741 1176 m
 9 X s 1750 1176 m 9 X s 1759 1176 m 8 X s 1767 1176 m 9 X -2 Y s 1776 1174 m 9 X s 1785 1174 m 9 X s 1794 1174 m 9 X s 1803 1174 m 9 X s 1812 1174 m 8 X s 1820 1174 m 8 X 5 Y 1 X s 1829 1179 m 9 X s 1838 1179 m 9 X s 1847 1179 m 9 X s 1856 1179 m 8
 X s 1864 1179 m 9 X s 1873 1179 m 3 X 1 20 d 5 X s 1882 1199 m 9 X s 1891 1199 m 9 X s 1900 1199 m 8 X s 1908 1199 m 9 X s 1917 1199 m 4 X 1 1 d 4 X s 1926 1200 m 9 X s 1935 1200 m 9 X s 1944 1200 m 8 X s 1952 1200 m 9 X s 1961 1200 m 3 X -4 Y 6 X s
 1970 1196 m 9 X s 1979 1196 m 9 X s 1988 1196 m 8 X s 1996 1196 m 7 X 1 -52 d 1 X s 2005 1144 m 9 X s 2014 1144 m 9 X s 2023 1144 m 9 X s 2032 1144 m 8 X s 2040 1144 m 1 X s[  ] 0 sd 9 lw 0.49 0.6 0.82 c black 0 0 0.933333 c 245 1237 m -6 Y 9 X s
 254 1231 m 9 X s 263 1231 m 8 X s 271 1231 m 9 X s 280 1231 m 9 X s 289 1231 m 9 X s 298 1231 m 9 X s 307 1231 m 8 X s 315 1231 m 9 X s 324 1231 m 9 X s 333 1231 m 9 X s 342 1231 m 9 X s 351 1231 m 8 X s 359 1231 m 9 X s 368 1231 m 9 X s 377 1231 m
 9 X s 386 1231 m 9 X s 395 1231 m 8 X s 403 1231 m 9 X s 412 1231 m 9 X s 421 1231 m 9 X s 430 1231 m 9 X s 439 1231 m 8 X s 447 1231 m 5 X -7 Y 4 X s 456 1224 m 9 X s 465 1224 m 9 X s 474 1224 m 9 X s 483 1224 m 8 X s 491 1224 m 9 X s 500 1224 m 9
 X s 509 1224 m 9 X s 518 1224 m 9 X s 527 1224 m 8 X s 535 1224 m 9 X s 544 1224 m 9 X s 553 1224 m 9 X s 562 1224 m 9 X s 571 1224 m 8 X s 579 1224 m 9 X s 588 1224 m 9 X s 597 1224 m 9 X s 606 1224 m 9 X s 615 1224 m 8 X s 623 1224 m 9 X s 632
 1224 m 1 X -7 Y 8 X s 641 1217 m 9 X s 650 1217 m 9 X s 659 1217 m 8 X s 667 1217 m 9 X s 676 1217 m 9 X s 685 1217 m 9 X s 694 1217 m 9 X s 703 1217 m 8 X s 711 1217 m 9 X s 720 1217 m 9 X s 729 1217 m 9 X s 738 1217 m 9 X s 747 1217 m 8 X s 755
 1217 m 9 X s 764 1217 m 9 X s 773 1217 m 9 X s 782 1217 m 9 X s 791 1217 m -13 Y 8 X s 799 1204 m 9 X s 808 1204 m 9 X s 817 1204 m 9 X s 826 1204 m 9 X s 835 1204 m 8 X s 843 1204 m 9 X s 852 1204 m 9 X s 861 1204 m 9 X s 870 1204 m 9 X s 879 1204
 m 8 X s 887 1204 m 9 X s 896 1204 m 9 X s 905 1204 m 9 X s 914 1204 m 9 X s 923 1204 m 8 X s 931 1204 m 1 X -26 Y 8 X s 940 1178 m 9 X s 949 1178 m 9 X s 958 1178 m 9 X s 967 1178 m 8 X s 975 1178 m 9 X s 984 1178 m 9 X s 993 1178 m 9 X s 1002 1178
 m 9 X s 1011 1178 m 8 X s 1019 1178 m 9 X s 1028 1178 m 9 X s 1037 1178 m 9 X s 1046 1178 m 9 X s 1055 1178 m 2 X -20 Y 6 X s 1063 1158 m 9 X s 1072 1158 m 9 X s 1081 1158 m 9 X s 1090 1158 m 9 X s 1099 1158 m 8 X s 1107 1158 m 9 X s 1116 1158 m 9 X
 s 1125 1158 m 9 X s 1134 1158 m 9 X s 1143 1158 m 8 X s 1151 1158 m 9 X s 1160 1158 m 9 X s 1169 1158 m 1 X -20 Y 8 X s 1178 1138 m 9 X s 1187 1138 m 8 X s 1195 1138 m 9 X s 1204 1138 m 9 X s 1213 1138 m 9 X s 1222 1138 m 9 X s 1231 1138 m 8 X s
 1239 1138 m 9 X s 1248 1138 m 9 X s 1257 1138 m 9 X s 1266 1138 m 5 X 1 -39 d 3 X s 1275 1099 m 8 X s 1283 1099 m 9 X s 1292 1099 m 9 X s 1301 1099 m 9 X s 1310 1099 m 9 X s 1319 1099 m 8 X s 1327 1099 m 9 X s 1336 1099 m 9 X s 1345 1099 m 9 X s
 1354 1099 m 9 X s 1363 1099 m 1 X -27 Y 7 X s 1371 1072 m 9 X s 1380 1072 m 9 X s 1389 1072 m 9 X s 1398 1072 m 9 X s 1407 1072 m 8 X s 1415 1072 m 9 X s 1424 1072 m 9 X s 1433 1072 m 9 X s 1442 1072 m 6 X -13 Y 3 X s 1451 1059 m 8 X s 1459 1059 m 9
 X s 1468 1059 m 9 X s 1477 1059 m 9 X s 1486 1059 m 9 X s 1495 1059 m 8 X s 1503 1059 m 9 X s 1512 1059 m 9 X s 1521 1059 m 3 X 1 -13 d 5 X s 1530 1046 m 9 X s 1539 1046 m 8 X s 1547 1046 m 9 X s 1556 1046 m 9 X s 1565 1046 m 9 X s 1574 1046 m 9 X s
 1583 1046 m 8 X s 1591 1046 m 4 X -26 Y 5 X s 1600 1020 m 9 X s 1609 1020 m 9 X s 1618 1020 m 9 X s 1627 1020 m 8 X s 1635 1020 m 9 X s 1644 1020 m 9 X s 1653 1020 m 7 X -47 Y 2 X s 1662 973 m 9 X s 1671 973 m 8 X s 1679 973 m 9 X s 1688 973 m 9 X s
 1697 973 m 9 X s 1706 973 m 9 X s 1715 973 m 5 X -59 Y 3 X s 1723 914 m 9 X s 1732 914 m 9 X s 1741 914 m 9 X s 1750 914 m 9 X s 1759 914 m 8 X s 1767 914 m 9 X -73 Y s 1776 841 m 9 X s 1785 841 m 9 X s 1794 841 m 9 X s 1803 841 m 9 X s 1812 841 m 8
 X s 1820 841 m 8 X -112 Y 1 X s 1829 729 m 9 X s 1838 729 m 9 X s 1847 729 m 9 X s 1856 729 m 8 X s 1864 729 m 9 X s 1873 729 m 3 X 1 -119 d 5 X s 1882 610 m 9 X s 1891 610 m 9 X s 1900 610 m 8 X s 1908 610 m 9 X s 1917 610 m 4 X 1 -125 d 4 X s 1926
 485 m 9 X s 1935 485 m 9 X s 1944 485 m 8 X s 1952 485 m 9 X s 1961 485 m 3 X -92 Y 6 X s 1970 393 m 9 X s 1979 393 m 9 X s 1988 393 m 8 X s 1996 393 m 7 X 1 -139 d 1 X s 2005 254 m 9 X s 2014 254 m 9 X s 2023 254 m 9 X s 2032 254 m 8 X s 2040 254 m
 1 X s 1 0 0 c black 1 0 0 c 245 1237 m -557 Y 9 X s 254 680 m 9 X s 263 680 m 8 X s 271 680 m 9 X s 280 680 m 9 X s 289 680 m 9 X s 298 680 m 9 X s 307 680 m 8 X s 315 680 m 9 X s 324 680 m 9 X s 333 680 m 9 X s 342 680 m 9 X s 351 680 m 8 X s 359
 680 m 9 X s 368 680 m 9 X s 377 680 m 9 X s 386 680 m 9 X s 395 680 m 8 X s 403 680 m 9 X s 412 680 m 9 X s 421 680 m 9 X s 430 680 m 9 X s 439 680 m 8 X s 447 680 m 5 X -141 Y 4 X s 456 539 m 9 X s 465 539 m 9 X s 474 539 m 9 X s 483 539 m 8 X s
 491 539 m 9 X s 500 539 m 9 X s 509 539 m 9 X s 518 539 m 9 X s 527 539 m 8 X s 535 539 m 9 X s 544 539 m 9 X s 553 539 m 9 X s 562 539 m 9 X s 571 539 m 8 X s 579 539 m 9 X s 588 539 m 9 X s 597 539 m 9 X s 606 539 m 9 X s 615 539 m 8 X s 623 539 m
 9 X s 632 539 m 1 X -84 Y 8 X s 641 455 m 9 X s 650 455 m 9 X s 659 455 m 8 X s 667 455 m 9 X s 676 455 m 9 X s 685 455 m 9 X s 694 455 m 9 X s 703 455 m 8 X s 711 455 m 9 X s 720 455 m 9 X s 729 455 m 9 X s 738 455 m 9 X s 747 455 m 8 X s 755 455 m
 9 X s 764 455 m 9 X s 773 455 m 9 X s 782 455 m 9 X s 791 455 m -45 Y 8 X s 799 410 m 9 X s 808 410 m 9 X s 817 410 m 9 X s 826 410 m 9 X s 835 410 m 8 X s 843 410 m 9 X s 852 410 m 9 X s 861 410 m 9 X s 870 410 m 9 X s 879 410 m 8 X s 887 410 m 9 X
 s 896 410 m 9 X s 905 410 m 9 X s 914 410 m 9 X s 923 410 m 8 X s 931 410 m 1 X -20 Y 8 X s 940 390 m 9 X s 949 390 m 9 X s 958 390 m 9 X s 967 390 m 8 X s 975 390 m 9 X s 984 390 m 9 X s 993 390 m 9 X s 1002 390 m 9 X s 1011 390 m 8 X s 1019 390 m
 9 X s 1028 390 m 9 X s 1037 390 m 9 X s 1046 390 m 9 X s 1055 390 m 2 X -50 Y 6 X s 1063 340 m 9 X s 1072 340 m 9 X s 1081 340 m 9 X s 1090 340 m 9 X s 1099 340 m 8 X s 1107 340 m 9 X s 1116 340 m 9 X s 1125 340 m 9 X s 1134 340 m 9 X s 1143 340 m 8
 X s 1151 340 m 9 X s 1160 340 m 9 X s 1169 340 m 1 X -19 Y 8 X s 1178 321 m 9 X s 1187 321 m 8 X s 1195 321 m 9 X s 1204 321 m 9 X s 1213 321 m 9 X s 1222 321 m 9 X s 1231 321 m 8 X s 1239 321 m 9 X s 1248 321 m 9 X s 1257 321 m 9 X s 1266 321 m 5 X
 1 -10 d 3 X s 1275 311 m 8 X s 1283 311 m 9 X s 1292 311 m 9 X s 1301 311 m 9 X s 1310 311 m 9 X s 1319 311 m 8 X s 1327 311 m 9 X s 1336 311 m 9 X s 1345 311 m 9 X s 1354 311 m 9 X s 1363 311 m 1 X -16 Y 7 X s 1371 295 m 9 X s 1380 295 m 9 X s 1389
 295 m 9 X s 1398 295 m 9 X s 1407 295 m 8 X s 1415 295 m 9 X s 1424 295 m 9 X s 1433 295 m 9 X s 1442 295 m 6 X -8 Y 3 X s 1451 287 m 8 X s 1459 287 m 9 X s 1468 287 m 9 X s 1477 287 m 9 X s 1486 287 m 9 X s 1495 287 m 8 X s 1503 287 m 9 X s 1512
 287 m 9 X s 1521 287 m 3 X 1 -7 d 5 X s 1530 280 m 9 X s 1539 280 m 8 X s 1547 280 m 9 X s 1556 280 m 9 X s 1565 280 m 9 X s 1574 280 m 9 X s 1583 280 m 8 X s 1591 280 m 4 X -16 Y 5 X s 1600 264 m 9 X s 1609 264 m 9 X s 1618 264 m 9 X s 1627 264 m 8
 X s 1635 264 m 9 X s 1644 264 m 9 X s 1653 264 m 7 X -13 Y 2 X s 1662 251 m 9 X s 1671 251 m 8 X s 1679 251 m 9 X s 1688 251 m 9 X s 1697 251 m 9 X s 1706 251 m 9 X s 1715 251 m 5 X -5 Y 3 X s 1723 246 m 9 X s 1732 246 m 9 X s 1741 246 m 9 X s 1750
 246 m 9 X s 1759 246 m 8 X s 1767 246 m 9 X -3 Y s 1776 243 m 9 X s 1785 243 m 9 X s 1794 243 m 9 X s 1803 243 m 9 X s 1812 243 m 8 X s 1820 243 m 8 X -10 Y 1 X s 1829 233 m 9 X s 1838 233 m 9 X s 1847 233 m 9 X s 1856 233 m 8 X s 1864 233 m 9 X s
 1873 233 m 3 X 1 -16 d 5 X s 1882 217 m 9 X s 1891 217 m 9 X s 1900 217 m 8 X s 1908 217 m 9 X s 1917 217 m 4 X 1 -5 d 4 X s 1926 212 m 9 X s 1935 212 m 9 X s 1944 212 m 8 X s 1952 212 m 9 X s 1961 212 m 3 X -3 Y 6 X s 1970 209 m 9 X s 1979 209 m 9
 X s 1988 209 m 8 X s 1996 209 m 7 X 1 -3 d 1 X s 2005 206 m 9 X s 2014 206 m 9 X s 2023 206 m 9 X s 2032 206 m 8 X s 2040 206 m 1 X s 0 0.666667 0 c 1 1 1 c black 0 0.666667 0 c 245 1017 m 134 Y 9 X s 254 1151 m 9 X s 263 1151 m 8 X s 271 1151 m 9 X
 s 280 1151 m 9 X s 289 1151 m 9 X s 298 1151 m 9 X s 307 1151 m 8 X s 315 1151 m 9 X s 324 1151 m 9 X s 333 1151 m 9 X s 342 1151 m 9 X s 351 1151 m 8 X s 359 1151 m 9 X s 368 1151 m 9 X s 377 1151 m 9 X s 386 1151 m 9 X s 395 1151 m 8 X s 403 1151
 m 9 X s 412 1151 m 9 X s 421 1151 m 9 X s 430 1151 m 9 X s 439 1151 m 8 X s 447 1151 m 5 X 44 Y 4 X s 456 1195 m 9 X s 465 1195 m 9 X s 474 1195 m 9 X s 483 1195 m 8 X s 491 1195 m 9 X s 500 1195 m 9 X s 509 1195 m 9 X s 518 1195 m 9 X s 527 1195 m
 8 X s 535 1195 m 9 X s 544 1195 m 9 X s 553 1195 m 9 X s 562 1195 m 9 X s 571 1195 m 8 X s 579 1195 m 9 X s 588 1195 m 9 X s 597 1195 m 9 X s 606 1195 m 9 X s 615 1195 m 8 X s 623 1195 m 9 X s 632 1195 m 1 X 28 Y 8 X s 641 1223 m 9 X s 650 1223 m 9
 X s 659 1223 m 8 X s 667 1223 m 9 X s 676 1223 m 9 X s 685 1223 m 9 X s 694 1223 m 9 X s 703 1223 m 8 X s 711 1223 m 9 X s 720 1223 m 9 X s 729 1223 m 9 X s 738 1223 m 9 X s 747 1223 m 8 X s 755 1223 m 9 X s 764 1223 m 9 X s 773 1223 m 9 X s 782
 1223 m 9 X s 791 1223 m 11 Y 8 X s 799 1234 m 9 X s 808 1234 m 9 X s 817 1234 m 9 X s 826 1234 m 9 X s 835 1234 m 8 X s 843 1234 m 9 X s 852 1234 m 9 X s 861 1234 m 9 X s 870 1234 m 9 X s 879 1234 m 8 X s 887 1234 m 9 X s 896 1234 m 9 X s 905 1234 m
 9 X s 914 1234 m 9 X s 923 1234 m 8 X s 931 1234 m 1 X -7 Y 8 X s 940 1227 m 9 X s 949 1227 m 9 X s 958 1227 m 9 X s 967 1227 m 8 X s 975 1227 m 9 X s 984 1227 m 9 X s 993 1227 m 9 X s 1002 1227 m 9 X s 1011 1227 m 8 X s 1019 1227 m 9 X s 1028 1227
 m 9 X s 1037 1227 m 9 X s 1046 1227 m 9 X s 1055 1227 m 2 X 10 Y 6 X s 1063 1237 m 9 X s 1072 1237 m 9 X s 1081 1237 m 9 X s 1090 1237 m 9 X s 1099 1237 m 8 X s 1107 1237 m 9 X s 1116 1237 m 9 X s 1125 1237 m 9 X s 1134 1237 m 9 X s 1143 1237 m 8 X
 s 1151 1237 m 9 X s 1160 1237 m 9 X s 1169 1237 m 1 X -3 Y 8 X s 1178 1234 m 9 X s 1187 1234 m 8 X s 1195 1234 m 9 X s 1204 1234 m 9 X s 1213 1234 m 9 X s 1222 1234 m 9 X s 1231 1234 m 8 X s 1239 1234 m 9 X s 1248 1234 m 9 X s 1257 1234 m 9 X s 1266
 1234 m 5 X 1 -19 d 3 X s 1275 1215 m 8 X s 1283 1215 m 9 X s 1292 1215 m 9 X s 1301 1215 m 9 X s 1310 1215 m 9 X s 1319 1215 m 8 X s 1327 1215 m 9 X s 1336 1215 m 9 X s 1345 1215 m 9 X s 1354 1215 m 9 X s 1363 1215 m 1 X -9 Y 7 X s 1371 1206 m 9 X s
 1380 1206 m 9 X s 1389 1206 m 9 X s 1398 1206 m 9 X s 1407 1206 m 8 X s 1415 1206 m 9 X s 1424 1206 m 9 X s 1433 1206 m 9 X s 1442 1206 m 6 X -4 Y 3 X s 1451 1202 m 8 X s 1459 1202 m 9 X s 1468 1202 m 9 X s 1477 1202 m 9 X s 1486 1202 m 9 X s 1495
 1202 m 8 X s 1503 1202 m 9 X s 1512 1202 m 9 X s 1521 1202 m 3 X 1 -4 d 5 X s 1530 1198 m 9 X s 1539 1198 m 8 X s 1547 1198 m 9 X s 1556 1198 m 9 X s 1565 1198 m 9 X s 1574 1198 m 9 X s 1583 1198 m 8 X s 1591 1198 m 4 X -9 Y 5 X s 1600 1189 m 9 X s
 1609 1189 m 9 X s 1618 1189 m 9 X s 1627 1189 m 8 X s 1635 1189 m 9 X s 1644 1189 m 9 X s 1653 1189 m 7 X -23 Y 2 X s 1662 1166 m 9 X s 1671 1166 m 8 X s 1679 1166 m 9 X s 1688 1166 m 9 X s 1697 1166 m 9 X s 1706 1166 m 9 X s 1715 1166 m 5 X -37 Y 3
 X s 1723 1129 m 9 X s 1732 1129 m 9 X s 1741 1129 m 9 X s 1750 1129 m 9 X s 1759 1129 m 8 X s 1767 1129 m 9 X -49 Y s 1776 1080 m 9 X s 1785 1080 m 9 X s 1794 1080 m 9 X s 1803 1080 m 9 X s 1812 1080 m 8 X s 1820 1080 m 8 X -79 Y 1 X s 1829 1001 m 9
 X s 1838 1001 m 9 X s 1847 1001 m 9 X s 1856 1001 m 8 X s 1864 1001 m 9 X s 1873 1001 m 3 X 1 -88 d 5 X s 1882 913 m 9 X s 1891 913 m 9 X s 1900 913 m 8 X s 1908 913 m 9 X s 1917 913 m 4 X 1 -119 d 4 X s 1926 794 m 9 X s 1935 794 m 9 X s 1944 794 m
 8 X s 1952 794 m 9 X s 1961 794 m 3 X -107 Y 6 X s 1970 687 m 9 X s 1979 687 m 9 X s 1988 687 m 8 X s 1996 687 m 7 X 1 -237 d 1 X s 2005 450 m 9 X s 2014 450 m 9 X s 2023 450 m 9 X s 2032 450 m 8 X s 2040 450 m 1 X s black 3 lw 245 201 m 1796 X s
 245 241 m -40 Y s 335 221 m -20 Y s 425 221 m -20 Y s 514 221 m -20 Y s 604 241 m -40 Y s 694 221 m -20 Y s 784 221 m -20 Y s 874 221 m -20 Y s 963 241 m -40 Y s 1053 221 m -20 Y s 1143 221 m -20 Y s 1233 221 m -20 Y s 1323 241 m -40 Y s 1412 221 m
 -20 Y s 1502 221 m -20 Y s 1592 221 m -20 Y s 1682 241 m -40 Y s 1772 221 m -20 Y s 1861 221 m -20 Y s 1951 221 m -20 Y s 2041 241 m -40 Y s 2041 241 m -40 Y s 245 201 m 1140 Y s 291 201 m -46 X s 268 253 m -23 X s 268 305 m -23 X s 268 357 m -23 X
 s 291 408 m -46 X s 268 460 m -23 X s 268 512 m -23 X s 268 564 m -23 X s 291 616 m -46 X s 268 667 m -23 X s 268 719 m -23 X s 268 771 m -23 X s 291 823 m -46 X s 268 875 m -23 X s 268 926 m -23 X s 268 978 m -23 X s 291 1030 m -46 X s 268 1082 m
 -23 X s 268 1134 m -23 X s 268 1185 m -23 X s 291 1237 m -46 X s 291 1237 m -46 X s 268 1289 m -23 X s 268 1341 m -23 X s 0.490196 0.545098 0.615686 c 1 1 1 c 0.490196 0.545098 0.615686 c 907 201 245 1341 bl 245 1341 m 907 X s 1152 1341 m 201 Y s
 1152 1542 m -907 X s 245 1542 m -201 Y s black
 gsave  2268 1676 0 0 C 515.735 1471.36 t 0 r /Helvetica-Bold findfont 56.8825 sf 0 0 m (Signal efficiency) show NC gr  0 0 0.933333 c 9 lw 286 1492 m 190 X s black
 gsave  2268 1676 0 0 C 515.735 1368.97 t 0 r /Helvetica-Bold findfont 56.8825 sf 0 0 m (Background efficiency) show NC gr  1 0 0 c 286 1391 m 190 X s 0.490196 0.545098 0.615686 c 3 lw 1 1 1 c 0.490196 0.545098 0.615686 c 889 201 1152 1341 bl 1152
 1341 m 889 X s 2041 1341 m 201 Y s 2041 1542 m -889 X s 1152 1542 m -201 Y s black
 gsave  2268 1676 0 0 C 1418.27 1494.11 t 0 r /Helvetica-Bold findfont 56.8825 sf 0 0 m (Signal purity) show NC gr  0 0 0.933333 c[  52 12 ] 0 sd 6 lw 1192 1509 m 187 X s black
 gsave  2268 1676 0 0 C 1418.27 1429.65 t 0 r /Helvetica-Bold findfont 56.8825 sf 0 0 m (Signal efficiency*purity) show NC gr  0 0 0.933333 c[  22 12 ] 0 sd 1192 1441 m 187 X s black
 gsave  2268 1676 0 0 C 1501.7 1361.39 t 0 r /Helvetica-Bold findfont 56.8825 sf 0 0 m (S+B) show NC gr [  ] 0 sd 1483 1407 m 7 -49 d s 3 lw 1490 1358 m 8 64 d s 1498 1422 m 114 X s
 gsave  2268 1676 0 0 C 1418.27 1361.39 t 0 r /Helvetica-Bold findfont 56.8825 sf 0 0 m (S/) show NC gr  0 0.666667 0 c 9 lw 1192 1374 m 187 X s black 3 lw 245 1237 m 1796 X s
 gsave  2268 1676 0 0 C 337.503 386.801 t 0 r /Helvetica-Bold findfont 53.0904 sf 0 0 m (For 1000 signal and 1000 background) show NC gr 
 gsave  2268 1676 0 0 C 1058.01 318.542 t 0 r /Helvetica-Bold findfont 53.0904 sf 0 0 m ( is) show NC gr 
 gsave  2268 1676 0 0 C 955.626 318.542 t 0 r /Helvetica-Bold findfont 53.0904 sf 0 0 m (S+B) show NC gr  6 lw 933 360 m 7 -45 d s 3 lw 940 315 m 8 60 d s 948 375 m 110 X s
 gsave  2268 1676 0 0 C 337.503 318.542 t 0 r /Helvetica-Bold findfont 53.0904 sf 0 0 m (events the maximum S/) show NC gr 
 gsave  2268 1676 0 0 C 337.503 254.075 t 0 r /Helvetica-Bold findfont 53.0904 sf 0 0 m (28.40 when cutting at  0.45) show NC gr  0.490196 0.545098 0.615686 c 0.364706 0.419608 0.490196 c 1471 96 23 1572 bf 0.490196 0.545098 0.615686 c 23 1572 m 1471
 X s 1494 1572 m 96 Y s 1494 1668 m -1471 X s 23 1668 m -96 Y s 1 1 1 c black 1 1 1 c
 gsave  2268 1676 0 0 C 75.8434 1600.29 t 0 r /Helvetica-Bold findfont 75.8434 sf 0 0 m (Cut efficiencies and optimal cut value) show NC gr  0 0.666667 0 c 2041 201 m 1140 Y s black 0 0.666667 0 c
 gsave  2268 1676 0 0 C 2203.25 963.211 t 90 r /Helvetica-Bold findfont 64.4669 sf 0 0 m (Significance) show NC gr  1995 201 m 46 X s 2018 238 m 23 X s 2018 274 m 23 X s 2018 311 m 23 X s 2018 347 m 23 X s 1995 384 m 46 X s 2018 420 m 23 X s 2018 457
 m 23 X s 2018 493 m 23 X s 2018 529 m 23 X s 1995 566 m 46 X s 2018 602 m 23 X s 2018 639 m 23 X s 2018 675 m 23 X s 2018 712 m 23 X s 1995 748 m 46 X s 2018 785 m 23 X s 2018 821 m 23 X s 2018 858 m 23 X s 2018 894 m 23 X s 1995 931 m 46 X s 2018
 967 m 23 X s 2018 1004 m 23 X s 2018 1040 m 23 X s 2018 1077 m 23 X s 1995 1113 m 46 X s 2018 1150 m 23 X s 2018 1186 m 23 X s 2018 1223 m 23 X s 2018 1259 m 23 X s 1995 1296 m 46 X s 1995 1296 m 46 X s 2018 1332 m 23 X s black 0 0.666667 0 c
 gsave  2268 1676 0 0 C 2051.56 178.232 t 0 r /Helvetica-Bold findfont 64.4669 sf 0 0 m (0) show NC gr  black 0 0.666667 0 c
 gsave  2268 1676 0 0 C 2051.56 360.256 t 0 r /Helvetica-Bold findfont 64.4669 sf 0 0 m (5) show NC gr  black 0 0.666667 0 c
 gsave  2268 1676 0 0 C 2051.56 542.28 t 0 r /Helvetica-Bold findfont 64.4669 sf 0 0 m (10) show NC gr  black 0 0.666667 0 c
 gsave  2268 1676 0 0 C 2051.56 724.304 t 0 r /Helvetica-Bold findfont 64.4669 sf 0 0 m (15) show NC gr  black 0 0.666667 0 c
 gsave  2268 1676 0 0 C 2051.56 906.328 t 0 r /Helvetica-Bold findfont 64.4669 sf 0 0 m (20) show NC gr  black 0 0.666667 0 c
 gsave  2268 1676 0 0 C 2051.56 1088.35 t 0 r /Helvetica-Bold findfont 64.4669 sf 0 0 m (25) show NC gr  black 0 0.666667 0 c
 gsave  2268 1676 0 0 C 2051.56 1270.38 t 0 r /Helvetica-Bold findfont 64.4669 sf 0 0 m (30) show NC gr 
 gr  gr showpage
end
%%EOF
