%!PS-Adobe-2.0 EPSF-2.0
%%BoundingBox:  0 0 567 419
%%Title: DataSet/plots/mvaeffs_MLPBPCE.eps: Cut efficiencies for MLPBPCE classifier
%%Creator: ROOT Version 6.08/06
%%CreationDate: Thu May 31 18:08:03 2018
%%DocumentNeededResources: ProcSet (FontSetInit)
%%EndComments
%%BeginProlog
80 dict begin
/s {stroke} def /l {lineto} def /m {moveto} def /t {translate} def
/r {rotate} def /rl {roll}  def /R {repeat} def
/d {rlineto} def /rm {rmoveto} def /gr {grestore} def /f {eofill} def
/c {setrgbcolor} def /black {0 setgray} def /sd {setdash} def
/cl {closepath} def /sf {scalefont setfont} def /lw {setlinewidth} def
/box {m dup 0 exch d exch 0 d 0 exch neg d cl} def
/NC{systemdict begin initclip end}def/C{NC box clip newpath}def
/bl {box s} def /bf {gsave box gsave f grestore 1 lw [] 0 sd s grestore} def /Y { 0 exch d} def /X { 0 d} def 
/K {{pop pop 0 moveto} exch kshow} bind def
/ita {/ang 15 def gsave [1 0 ang dup sin exch cos div 1 0 0] concat} def 
/mp {newpath /y exch def /x exch def} def
/side {[w .77 mul w .23 mul] .385 w mul sd w 0 l currentpoint t -144 r} def
/mr {mp x y w2 0 360 arc} def /m24 {mr s} def /m20 {mr f} def
/mb {mp x y w2 add m w2 neg 0 d 0 w neg d w 0 d 0 w d cl} def
/mt {mp x y w2 add m w2 neg w neg d w 0 d cl} def
/m21 {mb f} def /m25 {mb s} def /m22 {mt f} def /m26{mt s} def
/m23 {mp x y w2 sub m w2 w d w neg 0 d cl f} def
/m27 {mp x y w2 add m w3 neg w2 neg d w3 w2 neg d w3 w2 d cl s} def
/m28 {mp x w2 sub y w2 sub w3 add m w3 0 d  0 w3 neg d w3 0 d 0 w3 d w3 0 d  0 w3 d w3 neg 0 d 0 w3 d w3 neg 0 d 0 w3 neg d w3 neg 0 d cl s } def
/m29 {mp gsave x w2 sub y w2 add w3 sub m currentpoint t 4 {side} repeat cl fill gr} def
/m30 {mp gsave x w2 sub y w2 add w3 sub m currentpoint t 4 {side} repeat cl s gr} def
/m31 {mp x y w2 sub m 0 w d x w2 sub y m w 0 d x w2 sub y w2 add m w w neg d x w2 sub y w2 sub m w w d s} def
/m32 {mp x y w2 sub m w2 w d w neg 0 d cl s} def
/m33 {mp x y w2 add m w3 neg w2 neg d w3 w2 neg d w3 w2 d cl f} def
/m34 {mp x w2 sub y w2 sub w3 add m w3 0 d  0 w3 neg d w3 0 d 0 w3 d w3 0 d  0 w3 d w3 neg 0 d 0 w3 d w3 neg 0 d 0 w3 neg d w3 neg 0 d cl f } def
/m2 {mp x y w2 sub m 0 w d x w2 sub y m w 0 d s} def
/m5 {mp x w2 sub y w2 sub m w w d x w2 sub y w2 add m w w neg d s} def
%%IncludeResource: ProcSet (FontSetInit)
%%IncludeResource: font Times-Roman
%%IncludeResource: font Times-Italic
%%IncludeResource: font Times-Bold
%%IncludeResource: font Times-BoldItalic
%%IncludeResource: font Helvetica
%%IncludeResource: font Helvetica-Oblique
%%IncludeResource: font Helvetica-Bold
%%IncludeResource: font Helvetica-BoldOblique
%%IncludeResource: font Courier
%%IncludeResource: font Courier-Oblique
%%IncludeResource: font Courier-Bold
%%IncludeResource: font Courier-BoldOblique
%%IncludeResource: font Symbol
%%IncludeResource: font ZapfDingbats
/reEncode {exch findfont dup length dict begin {1 index /FID eq  {pop pop} {def} ifelse } forall /Encoding exch def currentdict end dup /FontName get exch definefont pop } def [/Times-Bold /Times-Italic /Times-BoldItalic /Helvetica /Helvetica-Oblique
 /Helvetica-Bold /Helvetica-BoldOblique /Courier /Courier-Oblique /Courier-Bold /Courier-BoldOblique /Times-Roman /AvantGarde-Book /AvantGarde-BookOblique /AvantGarde-Demi /AvantGarde-DemiOblique /Bookman-Demi /Bookman-DemiItalic /Bookman-Light
 /Bookman-LightItalic /Helvetica-Narrow /Helvetica-Narrow-Bold /Helvetica-Narrow-BoldOblique /Helvetica-Narrow-Oblique /NewCenturySchlbk-Roman /NewCenturySchlbk-Bold /NewCenturySchlbk-BoldItalic /NewCenturySchlbk-Italic /Palatino-Bold
 /Palatino-BoldItalic /Palatino-Italic /Palatino-Roman ] {ISOLatin1Encoding reEncode } forall
%%EndProlog
%%BeginSetup
%%EndSetup
newpath  gsave  .25 .25 scale  gsave  0 0 t 0.490196 0.545098 0.615686 c[  ] 0 sd 3 lw 1 1 1 c 2268 1676 0 0 bf black 1 1 1 c 1796 1140 245 201 bf black 1796 1140 245 201 bl 1 1 1 c 1796 1140 245 201 bf black 1796 1140 245 201 bl 245 201 m 1796 X s[
 4 8] 0 sd 245 1341 m -1140 Y s 425 1341 m -1140 Y s 604 1341 m -1140 Y s 784 1341 m -1140 Y s 963 1341 m -1140 Y s 1143 1341 m -1140 Y s 1323 1341 m -1140 Y s 1502 1341 m -1140 Y s 1682 1341 m -1140 Y s 1861 1341 m -1140 Y s 2041 1341 m -1140 Y s
 245 1341 m -1140 Y s 2041 1341 m -1140 Y s[  ] 0 sd 245 201 m 1140 Y s[ 4 8] 0 sd 2041 201 m -1796 X s 2041 408 m -1796 X s 2041 616 m -1796 X s 2041 823 m -1796 X s 2041 1030 m -1796 X s 2041 1237 m -1796 X s 2041 1237 m -1796 X s 0 0 0.933333 c[ 
 22 12 ] 0 sd 6 lw 0.49 0.6 0.82 c black 0 0 0.933333 c 245 719 m 110 Y 1 X 9 Y 1 2 d 7 Y 1 X 124 Y 1 X 10 Y 1 X 1 3 d 3 Y 1 X 3 Y 1 X 3 Y 1 X s 254 993 m 1 X 5 Y 1 X 1 Y 1 X 1 2 d 2 Y 4 X 3 Y 1 X s 263 1006 m 1 X 1 Y 1 X 2 Y 1 X 2 Y 1 1 d 1 X 2 Y 1
 1 d 2 Y 1 X 2 Y 1 X s 271 1019 m 1 X 3 Y 2 X 1 2 d 1 X 1 Y 2 X 2 Y 1 2 d 1 X s 280 1029 m 1 X 1 Y 1 X 1 2 d 5 X 2 Y 1 X s 289 1034 m 1 X 2 Y 3 X 1 Y 5 X 2 Y s 298 1039 m 1 X 2 Y 3 X 2 Y 5 X s 307 1043 m 8 X 1 Y s 315 1044 m 2 X 4 Y 4 X 1 2 d 2 X s
 324 1050 m 2 X 1 Y 1 X 2 Y 1 2 d 2 Y 1 X 2 Y 1 X 1 Y 1 X 1 2 d 1 X s 333 1062 m 5 X 1 2 d 1 X 2 Y 2 X s 342 1066 m 2 X 2 Y 7 X s 351 1068 m 8 X s 359 1068 m 9 X 2 Y s 368 1070 m 1 X 1 Y 2 X 2 Y 6 X s 377 1073 m 7 X -6 Y 2 X s 386 1067 m 1 X 2 Y 8 X
 s 395 1069 m 8 X s 403 1069 m 4 X 2 Y 5 X s 412 1071 m 6 X 2 Y 2 X 1 Y 1 X s 421 1074 m 4 X 2 Y 5 X 2 Y s 430 1078 m 9 X s 439 1078 m 1 X 2 Y 7 X s 447 1080 m 9 X s 456 1080 m 9 X s 465 1080 m 1 X 2 Y 2 X 2 Y 1 X 2 Y 5 X s 474 1086 m 9 X s 483 1086
 m 2 X 2 Y 1 X 2 Y 3 X 2 Y 2 X s 491 1092 m 3 X 4 Y 6 X s 500 1096 m 9 X s 509 1096 m 9 X s 518 1096 m 5 X 2 Y 4 X s 527 1098 m 8 X s 535 1098 m 9 X s 544 1098 m 9 X s 553 1098 m 3 X 2 Y 3 X 2 Y 3 X s 562 1102 m 9 X s 571 1102 m 8 X s 579 1102 m 9 X
 s 588 1102 m 9 X s 597 1102 m 1 X 1 -7 d 7 X s 606 1095 m 9 X s 615 1095 m 5 X 2 Y 3 X s 623 1097 m 9 X s 632 1097 m 9 X s 641 1097 m 6 X 3 Y 3 X s 650 1100 m 2 Y 3 X 2 Y 1 X 2 Y 5 X s 659 1106 m 2 Y 1 2 d 7 X s 667 1110 m 5 X 2 Y 4 X s 676 1112 m 9
 X s 685 1112 m 1 X -7 Y 5 X 5 Y 3 X s 694 1110 m 9 X s 703 1110 m 8 X s 711 1110 m 9 X s 720 1110 m 4 X 2 Y 5 X s 729 1112 m 9 X s 738 1112 m 9 X s 747 1112 m 8 X s 755 1112 m 2 X 2 Y 5 X 2 Y 2 X s 764 1116 m 9 X s 773 1116 m 9 X s 782 1116 m 8 X 2
 Y 1 X s 791 1118 m 4 X 1 2 d 3 X s 799 1120 m 1 X -6 Y 3 X 2 Y 1 X -7 Y 4 X s 808 1109 m 9 X s 817 1109 m 9 X s 826 1109 m 9 X s 835 1109 m 1 X 1 -6 d 6 X s 843 1103 m 9 X s 852 1103 m 9 X s 861 1103 m 9 X s 870 1103 m 9 X s 879 1103 m 8 X s 887
 1103 m 9 X s 896 1103 m 9 X s 905 1103 m 9 X s 914 1103 m 8 X 2 Y 1 X s 923 1105 m 8 X s 931 1105 m 9 X s 940 1105 m 2 X 2 Y 7 X s 949 1107 m 9 X s 958 1107 m 3 X -6 Y 6 X s 967 1101 m 8 X s 975 1101 m 9 X s 984 1101 m 9 X s 993 1101 m 9 X s 1002
 1101 m 9 X s 1011 1101 m 5 X -7 Y 3 X s 1019 1094 m 9 X s 1028 1094 m 5 X 2 Y 4 X s 1037 1096 m 4 X -6 Y 5 X s 1046 1090 m 9 X s 1055 1090 m 7 X 2 Y 1 X s 1063 1092 m 9 X s 1072 1092 m 9 X s 1081 1092 m 9 X s 1090 1092 m 9 X s 1099 1092 m 8 X s 1107
 1092 m 9 X s 1116 1092 m 9 X s 1125 1092 m 9 X s 1134 1092 m 4 X 2 Y 4 X 2 Y 1 X s 1143 1096 m 8 X s 1151 1096 m 9 X s 1160 1096 m 9 X s 1169 1096 m 9 X s 1178 1096 m 3 X 3 Y 6 X s 1187 1099 m 5 X -7 Y 1 X 2 Y 2 X s 1195 1094 m 5 X -6 Y 1 -7 d 3 X s
 1204 1081 m 9 X s 1213 1081 m 9 X s 1222 1081 m 9 X s 1231 1081 m 8 X s 1239 1081 m 7 X 1 2 d 1 X 3 Y s 1248 1086 m 9 X s 1257 1086 m 9 X s 1266 1086 m 6 X 2 Y 1 X 2 Y 2 X s 1275 1090 m 8 X s 1283 1090 m 9 X s 1292 1090 m 6 X 1 -6 d 2 X s 1301 1084
 m 3 X 2 Y 6 X s 1310 1086 m 9 X s 1319 1086 m 2 X 1 2 d 5 X s 1327 1088 m 9 X s 1336 1088 m 9 X s 1345 1088 m 9 X s 1354 1088 m 9 X s 1363 1088 m 8 X s 1371 1088 m 8 X -6 Y 1 X s 1380 1082 m 9 X s 1389 1082 m 2 X 2 Y 7 X s 1398 1084 m 9 X s 1407
 1084 m 8 X s 1415 1084 m 9 X s 1424 1084 m 9 X s 1433 1084 m 9 X s 1442 1084 m 9 X s 1451 1084 m 8 X s 1459 1084 m 9 X s 1468 1084 m 9 X s 1477 1084 m 9 X s 1486 1084 m 9 X s 1495 1084 m 8 X s 1503 1084 m 1 X 1 2 d 7 X s 1512 1086 m 9 X s 1521 1086
 m 2 X 3 Y 7 X s 1530 1089 m 9 X s 1539 1089 m 8 X s 1547 1089 m 9 X s 1556 1089 m 9 X s 1565 1089 m 9 X s 1574 1089 m 9 X s 1583 1089 m 8 X s 1591 1089 m 9 X s 1600 1089 m 9 X s 1609 1089 m 8 X -7 Y 1 X s 1618 1082 m 9 X s 1627 1082 m 8 X s 1635
 1082 m 9 X s 1644 1082 m 3 X -6 Y 2 X 2 Y 4 X s 1653 1078 m 6 X -7 Y 3 X s 1662 1071 m 2 X -6 Y 7 X s 1671 1065 m 8 X s 1679 1065 m 9 X s 1688 1065 m 5 X 2 Y 4 X s 1697 1067 m 7 X 2 Y 1 X 3 Y 1 X s 1706 1072 m 5 X 5 Y 4 X s 1715 1077 m 8 X s 1723
 1077 m 9 X s 1732 1077 m 1 X 2 Y 6 X -6 Y 2 X s 1741 1073 m 9 X s 1750 1073 m 5 X -7 Y 2 X -7 Y 2 X s 1759 1059 m 8 X s 1767 1059 m 9 X s 1776 1059 m 9 X 3 Y s 1785 1062 m 1 X -13 Y 3 X -7 Y 2 X -7 Y 3 X s 1794 1035 m 1 X -6 Y 1 X -7 Y 7 X s 1803
 1022 m 3 X 3 Y 4 X 1 2 d 1 X s 1812 1027 m 6 X -6 Y 2 X s 1820 1021 m 9 X s 1829 1021 m 6 X 1 -7 d 2 X s 1838 1014 m 4 X -7 Y 5 X s 1847 1007 m 7 X -6 Y 2 X s 1856 1001 m 3 X -7 Y 1 -6 d 1 X -7 Y 3 X s 1864 981 m 1 X -7 Y 4 X -6 Y 4 X s 1873 968 m 1
 X 1 -7 d 1 X 1 -6 d 5 X s 1882 955 m 2 X -14 Y 7 X s 1891 941 m 1 -6 d 2 X -7 Y 6 X s 1900 928 m 4 X 3 Y 1 X 2 Y 1 X -6 Y 2 X s 1908 927 m 3 X -7 Y 2 X -7 Y 4 X 3 Y s 1917 916 m 6 X 1 -7 d 2 X s 1926 909 m 4 X -6 Y 1 X 1 -7 d 1 X -7 Y 2 X s 1935 889
 m 7 X -13 Y 2 X s 1944 876 m 6 X -6 Y 2 X -7 Y s 1952 863 m 1 X -7 Y 6 X -6 Y 2 X s 1961 850 m -7 Y 2 X -10 Y 2 X 1 2 d 1 X -7 Y 3 X s 1970 828 m 1 X 3 Y 2 X 1 -7 d -6 Y 2 Y 1 X 3 Y 1 X -7 Y 1 X -6 Y 2 X s 1979 810 m 3 X -13 Y 1 X -7 Y 1 X -7 Y 2 X
 -6 Y 2 X s 1988 777 m 1 X -13 Y 1 X -7 Y 2 X -13 Y 2 X -7 Y 2 X s 1996 737 m 1 -6 d 3 X -14 Y 1 X -6 Y 2 X -13 Y 1 X -7 Y 1 X s 2005 691 m 1 X -7 Y 1 -6 d -7 Y 1 X -13 Y 1 X -13 Y 1 -13 d 4 X -7 Y s 2014 625 m 2 X -7 Y 2 X -33 Y 1 X -19 Y 1 X 2 Y -6
 Y 1 -7 d -13 Y 2 X s 2023 542 m -46 Y 1 -7 d 2 X -7 Y 1 X -6 Y 1 X -33 Y 1 -7 d -6 Y 1 X -7 Y 1 X -7 Y 1 X s 2032 416 m -33 Y 1 X -6 Y 1 -7 d -6 Y 1 -14 d -19 Y 1 -7 d -4 Y 1 -7 d -6 Y 1 X -13 Y 1 -7 d -26 Y 1 -14 d -13 Y s 2040 234 m -6 Y 1 X -7 Y
 s black[  ] 0 sd 3 lw 245 201 m 1796 X s
 gsave  2268 1676 0 0 C 720.512 30.3373 t 0 r /Helvetica-Bold findfont 72.0512 sf 0 0 m (Cut value applied on MLPBPCE output) show NC gr  245 241 m -40 Y s 281 221 m -20 Y s 317 221 m -20 Y s 353 221 m -20 Y s 389 221 m -20 Y s 425 241 m -40 Y s 460
 221 m -20 Y s 496 221 m -20 Y s 532 221 m -20 Y s 568 221 m -20 Y s 604 241 m -40 Y s 640 221 m -20 Y s 676 221 m -20 Y s 712 221 m -20 Y s 748 221 m -20 Y s 784 241 m -40 Y s 820 221 m -20 Y s 856 221 m -20 Y s 891 221 m -20 Y s 927 221 m -20 Y s
 963 241 m -40 Y s 999 221 m -20 Y s 1035 221 m -20 Y s 1071 221 m -20 Y s 1107 221 m -20 Y s 1143 241 m -40 Y s 1179 221 m -20 Y s 1215 221 m -20 Y s 1251 221 m -20 Y s 1287 221 m -20 Y s 1323 241 m -40 Y s 1358 221 m -20 Y s 1394 221 m -20 Y s 1430
 221 m -20 Y s 1466 221 m -20 Y s 1502 241 m -40 Y s 1538 221 m -20 Y s 1574 221 m -20 Y s 1610 221 m -20 Y s 1646 221 m -20 Y s 1682 241 m -40 Y s 1718 221 m -20 Y s 1754 221 m -20 Y s 1790 221 m -20 Y s 1825 221 m -20 Y s 1861 241 m -40 Y s 1897
 221 m -20 Y s 1933 221 m -20 Y s 1969 221 m -20 Y s 2005 221 m -20 Y s 2041 241 m -40 Y s 245 241 m -40 Y s 2041 241 m -40 Y s
 gsave  2268 1676 0 0 C 223.738 128.934 t 0 r /Helvetica-Bold findfont 64.4669 sf 0 0 m (0) show NC gr 
 gsave  2268 1676 0 0 C 379.217 128.934 t 0 r /Helvetica-Bold findfont 64.4669 sf 0 0 m (0.1) show NC gr 
 gsave  2268 1676 0 0 C 557.449 128.934 t 0 r /Helvetica-Bold findfont 64.4669 sf 0 0 m (0.2) show NC gr 
 gsave  2268 1676 0 0 C 735.681 128.934 t 0 r /Helvetica-Bold findfont 64.4669 sf 0 0 m (0.3) show NC gr 
 gsave  2268 1676 0 0 C 917.705 128.934 t 0 r /Helvetica-Bold findfont 64.4669 sf 0 0 m (0.4) show NC gr 
 gsave  2268 1676 0 0 C 1095.94 128.934 t 0 r /Helvetica-Bold findfont 64.4669 sf 0 0 m (0.5) show NC gr 
 gsave  2268 1676 0 0 C 1274.17 128.934 t 0 r /Helvetica-Bold findfont 64.4669 sf 0 0 m (0.6) show NC gr 
 gsave  2268 1676 0 0 C 1456.19 128.934 t 0 r /Helvetica-Bold findfont 64.4669 sf 0 0 m (0.7) show NC gr 
 gsave  2268 1676 0 0 C 1634.42 128.934 t 0 r /Helvetica-Bold findfont 64.4669 sf 0 0 m (0.8) show NC gr 
 gsave  2268 1676 0 0 C 1812.66 128.934 t 0 r /Helvetica-Bold findfont 64.4669 sf 0 0 m (0.9) show NC gr 
 gsave  2268 1676 0 0 C 2025.02 128.934 t 0 r /Helvetica-Bold findfont 64.4669 sf 0 0 m (1) show NC gr  245 201 m 1140 Y s
 gsave  2268 1676 0 0 C 64.4669 731.888 t 90 r /Helvetica-Bold findfont 72.0512 sf 0 0 m (Efficiency \(Purity\)) show NC gr  291 201 m -46 X s 268 253 m -23 X s 268 305 m -23 X s 268 357 m -23 X s 291 408 m -46 X s 268 460 m -23 X s 268 512 m -23 X s
 268 564 m -23 X s 291 616 m -46 X s 268 667 m -23 X s 268 719 m -23 X s 268 771 m -23 X s 291 823 m -46 X s 268 875 m -23 X s 268 926 m -23 X s 268 978 m -23 X s 291 1030 m -46 X s 268 1082 m -23 X s 268 1134 m -23 X s 268 1185 m -23 X s 291 1237 m
 -46 X s 291 1237 m -46 X s 268 1289 m -23 X s 268 1341 m -23 X s
 gsave  2268 1676 0 0 C 182.024 178.232 t 0 r /Helvetica-Bold findfont 64.4669 sf 0 0 m (0) show NC gr 
 gsave  2268 1676 0 0 C 128.934 383.009 t 0 r /Helvetica-Bold findfont 64.4669 sf 0 0 m (0.2) show NC gr 
 gsave  2268 1676 0 0 C 125.142 591.578 t 0 r /Helvetica-Bold findfont 64.4669 sf 0 0 m (0.4) show NC gr 
 gsave  2268 1676 0 0 C 128.934 796.355 t 0 r /Helvetica-Bold findfont 64.4669 sf 0 0 m (0.6) show NC gr 
 gsave  2268 1676 0 0 C 125.142 1004.92 t 0 r /Helvetica-Bold findfont 64.4669 sf 0 0 m (0.8) show NC gr 
 gsave  2268 1676 0 0 C 189.608 1213.49 t 0 r /Helvetica-Bold findfont 64.4669 sf 0 0 m (1) show NC gr  0 0 0.933333 c[  52 12 ] 0 sd 6 lw 0.49 0.6 0.82 c black 0 0 0.933333 c 245 719 m 110 Y 1 4 d 9 Y 1 2 d 7 Y 1 X 125 Y 1 X 10 Y 1 X 1 3 d 3 Y 1 X 3
 Y 1 X 3 Y 1 X s 254 998 m 1 X 5 Y 1 X 2 Y 1 X 1 1 d 2 Y 4 X 3 Y 1 X s 263 1011 m 1 X 2 Y 1 X 1 Y 1 X 2 Y 1 1 d 1 X 2 Y 1 2 d 1 Y 1 X 2 Y 1 X s 271 1024 m 1 X 3 Y 2 X 1 2 d 1 X 2 Y 2 X 1 Y 1 2 d 1 X s 280 1034 m 1 X 2 Y 1 X 1 1 d 5 X 2 Y 1 X s 289
 1039 m 1 X 2 Y 3 X 2 Y 5 X 1 Y s 298 1044 m 1 X 2 Y 3 X 2 Y 5 X s 307 1048 m 8 X 2 Y s 315 1050 m 2 X 3 Y 4 X 1 2 d 2 X s 324 1055 m 2 X 2 Y 1 X 2 Y 1 1 d 2 Y 1 X 2 Y 1 X 2 Y 1 X 1 2 d 1 X s 333 1068 m 5 X 1 2 d 1 X 1 Y 2 X s 342 1071 m 2 X 2 Y 7 X
 s 351 1073 m 8 X s 359 1073 m 9 X 2 Y s 368 1075 m 1 X 2 Y 2 X 2 Y 6 X s 377 1079 m 7 X -1 Y 2 X s 386 1078 m 1 X 2 Y 8 X s 395 1080 m 8 X s 403 1080 m 4 X 2 Y 5 X s 412 1082 m 6 X 2 Y 2 X 2 Y 1 X s 421 1086 m 4 X 2 Y 5 X 2 Y s 430 1090 m 9 X s 439
 1090 m 1 X 2 Y 7 X s 447 1092 m 9 X s 456 1092 m 9 X s 465 1092 m 1 X 1 Y 2 X 2 Y 1 X 2 Y 5 X s 474 1097 m 9 X s 483 1097 m 2 X 2 Y 1 X 2 Y 3 X 2 Y 2 X s 491 1103 m 3 X 4 Y 6 X s 500 1107 m 9 X s 509 1107 m 9 X s 518 1107 m 5 X 3 Y 4 X s 527 1110 m
 8 X s 535 1110 m 9 X s 544 1110 m 9 X s 553 1110 m 3 X 2 Y 3 X 2 Y 3 X s 562 1114 m 9 X s 571 1114 m 8 X s 579 1114 m 9 X s 588 1114 m 9 X s 597 1114 m 1 X 1 -1 d 7 X s 606 1113 m 9 X s 615 1113 m 5 X 2 Y 3 X s 623 1115 m 9 X s 632 1115 m 9 X s 641
 1115 m 6 X 2 Y 3 X s 650 1117 m 2 Y 3 X 2 Y 1 X 2 Y 5 X s 659 1123 m 2 Y 1 3 d 7 X s 667 1128 m 5 X 2 Y 4 X s 676 1130 m 9 X s 685 1130 m 1 X -1 Y 5 X 4 Y 3 X s 694 1133 m 9 X s 703 1133 m 8 X s 711 1133 m 9 X s 720 1133 m 4 X 3 Y 5 X s 729 1136 m 9
 X s 738 1136 m 9 X s 747 1136 m 8 X s 755 1136 m 2 X 2 Y 5 X 2 Y 2 X s 764 1140 m 9 X s 773 1140 m 9 X s 782 1140 m 8 X 2 Y 1 X s 791 1142 m 4 X 1 2 d 3 X s 799 1144 m 4 X 2 Y 5 X s 808 1146 m 9 X s 817 1146 m 9 X s 826 1146 m 9 X s 835 1146 m 1 X 1
 -1 d 6 X s 843 1145 m 9 X s 852 1145 m 9 X s 861 1145 m 9 X s 870 1145 m 9 X s 879 1145 m 8 X s 887 1145 m 9 X s 896 1145 m 9 X s 905 1145 m 9 X s 914 1145 m 8 X 2 Y 1 X s 923 1147 m 8 X s 931 1147 m 9 X s 940 1147 m 2 X 3 Y 7 X s 949 1150 m 9 X s
 958 1150 m 3 X -1 Y 6 X s 967 1149 m 8 X s 975 1149 m 9 X s 984 1149 m 9 X s 993 1149 m 9 X s 1002 1149 m 9 X s 1011 1149 m 5 X -1 Y 3 X s 1019 1148 m 9 X s 1028 1148 m 5 X 3 Y 4 X s 1037 1151 m 4 X -1 Y 5 X s 1046 1150 m 9 X s 1055 1150 m 7 X 3 Y 1
 X s 1063 1153 m 9 X s 1072 1153 m 9 X s 1081 1153 m 9 X s 1090 1153 m 9 X s 1099 1153 m 8 X s 1107 1153 m 9 X s 1116 1153 m 9 X s 1125 1153 m 9 X s 1134 1153 m 4 X 2 Y 4 X 2 Y 1 X s 1143 1157 m 8 X s 1151 1157 m 9 X s 1160 1157 m 9 X s 1169 1157 m 9
 X s 1178 1157 m 3 X 3 Y 6 X s 1187 1160 m 5 X -1 Y 1 X 3 Y 2 X s 1195 1162 m 5 X -1 Y 4 X s 1204 1161 m 9 X s 1213 1161 m 9 X s 1222 1161 m 9 X s 1231 1161 m 8 X s 1239 1161 m 7 X 1 2 d 1 X 3 Y s 1248 1166 m 9 X s 1257 1166 m 9 X s 1266 1166 m 6 X 2
 Y 1 X 3 Y 2 X s 1275 1171 m 8 X s 1283 1171 m 9 X s 1292 1171 m 6 X 1 -1 d 2 X s 1301 1170 m 3 X 3 Y 6 X s 1310 1173 m 9 X s 1319 1173 m 2 X 1 2 d 5 X s 1327 1175 m 9 X s 1336 1175 m 9 X s 1345 1175 m 9 X s 1354 1175 m 9 X s 1363 1175 m 8 X s 1371
 1175 m 9 X s 1380 1175 m 9 X s 1389 1175 m 2 X 2 Y 7 X s 1398 1177 m 9 X s 1407 1177 m 8 X s 1415 1177 m 9 X s 1424 1177 m 9 X s 1433 1177 m 9 X s 1442 1177 m 9 X s 1451 1177 m 8 X s 1459 1177 m 9 X s 1468 1177 m 9 X s 1477 1177 m 9 X s 1486 1177 m
 9 X s 1495 1177 m 8 X s 1503 1177 m 1 X 1 3 d 7 X s 1512 1180 m 9 X s 1521 1180 m 2 X 2 Y 7 X s 1530 1182 m 9 X s 1539 1182 m 8 X s 1547 1182 m 9 X s 1556 1182 m 9 X s 1565 1182 m 9 X s 1574 1182 m 9 X s 1583 1182 m 8 X s 1591 1182 m 9 X s 1600 1182
 m 9 X s 1609 1182 m 9 X s 1618 1182 m 9 X s 1627 1182 m 8 X s 1635 1182 m 9 X s 1644 1182 m 5 X 2 Y 4 X s 1653 1184 m 9 X s 1662 1184 m 9 X s 1671 1184 m 8 X s 1679 1184 m 9 X s 1688 1184 m 5 X 2 Y 4 X s 1697 1186 m 7 X 3 Y 1 X 3 Y 1 X s 1706 1192 m
 5 X 5 Y 4 X s 1715 1197 m 8 X s 1723 1197 m 9 X s 1732 1197 m 1 X 3 Y 8 X s 1741 1200 m 9 X s 1750 1200 m 5 X -1 Y 4 X s 1759 1199 m 8 X s 1767 1199 m 9 X s 1776 1199 m 9 X 3 Y s 1785 1202 m 4 X -1 Y 5 X s 1794 1201 m 2 X -1 Y 7 X s 1803 1200 m 3 X
 3 Y 4 X 1 3 d 1 X s 1812 1206 m 8 X s 1820 1206 m 9 X s 1829 1206 m 9 X s 1838 1206 m 9 X s 1847 1206 m 7 X -1 Y 2 X s 1856 1205 m 8 X s 1864 1205 m 1 X -1 Y 8 X s 1873 1204 m 9 X s 1882 1204 m 2 X -1 Y 7 X s 1891 1203 m 3 X -1 Y 6 X s 1900 1202 m 4
 X 4 Y 1 X 3 Y 3 X s 1908 1209 m 9 X 3 Y s 1917 1212 m 9 X s 1926 1212 m 5 X 1 -1 d 3 X s 1935 1211 m 9 X s 1944 1211 m 6 X -1 Y 2 X s 1952 1210 m 9 X s 1961 1210 m -1 Y 2 X 4 Y 2 X 1 4 d 4 X s 1970 1217 m 1 X 4 Y 2 X 1 -1 d 4 Y 1 X 5 Y 4 X s 1979
 1229 m 3 X -1 Y 6 X s 1988 1228 m 4 X -1 Y 4 X s 1996 1227 m 8 X -1 Y 1 X s 2005 1226 m 4 X -1 Y 5 X s 2014 1225 m 4 X -1 Y 1 X -1 Y 1 X 7 Y 1 X -1 Y 2 X s 2023 1229 m -1 Y 5 X -2 Y 2 X -1 Y 2 X s 2032 1225 m -2 Y 1 X -1 Y 1 X -1 Y 1 -1 d -3 Y 1 -1
 d 21 Y 4 X s 2040 1237 m 1 X s[  ] 0 sd 9 lw 0.49 0.6 0.82 c black 0 0 0.933333 c 245 1237 m 1 -6 d 8 X s 254 1231 m 9 X s 263 1231 m 8 X s 271 1231 m 9 X s 280 1231 m 9 X s 289 1231 m 9 X s 298 1231 m 9 X s 307 1231 m 8 X s 315 1231 m 9 X s 324
 1231 m 9 X s 333 1231 m 9 X s 342 1231 m 9 X s 351 1231 m 8 X s 359 1231 m 9 X s 368 1231 m 9 X s 377 1231 m 7 X -7 Y 2 X s 386 1224 m 9 X s 395 1224 m 8 X s 403 1224 m 9 X s 412 1224 m 9 X s 421 1224 m 9 X s 430 1224 m 9 X s 439 1224 m 8 X s 447
 1224 m 9 X s 456 1224 m 9 X s 465 1224 m 9 X s 474 1224 m 9 X s 483 1224 m 8 X s 491 1224 m 9 X s 500 1224 m 9 X s 509 1224 m 9 X s 518 1224 m 9 X s 527 1224 m 8 X s 535 1224 m 9 X s 544 1224 m 9 X s 553 1224 m 9 X s 562 1224 m 9 X s 571 1224 m 8 X
 s 579 1224 m 9 X s 588 1224 m 9 X s 597 1224 m 1 X 1 -7 d 7 X s 606 1217 m 9 X s 615 1217 m 8 X s 623 1217 m 9 X s 632 1217 m 9 X s 641 1217 m 9 X s 650 1217 m 9 X s 659 1217 m 8 X s 667 1217 m 9 X s 676 1217 m 9 X s 685 1217 m 1 X -6 Y 8 X s 694
 1211 m 9 X s 703 1211 m 8 X s 711 1211 m 9 X s 720 1211 m 9 X s 729 1211 m 9 X s 738 1211 m 9 X s 747 1211 m 8 X s 755 1211 m 9 X s 764 1211 m 9 X s 773 1211 m 9 X s 782 1211 m 9 X s 791 1211 m 8 X s 799 1211 m 1 X -7 Y 4 X -6 Y 4 X s 808 1198 m 9 X
 s 817 1198 m 9 X s 826 1198 m 9 X s 835 1198 m 1 X 1 -7 d 6 X s 843 1191 m 9 X s 852 1191 m 9 X s 861 1191 m 9 X s 870 1191 m 9 X s 879 1191 m 8 X s 887 1191 m 9 X s 896 1191 m 9 X s 905 1191 m 9 X s 914 1191 m 9 X s 923 1191 m 8 X s 931 1191 m 9 X
 s 940 1191 m 9 X s 949 1191 m 9 X s 958 1191 m 3 X -7 Y 6 X s 967 1184 m 8 X s 975 1184 m 9 X s 984 1184 m 9 X s 993 1184 m 9 X s 1002 1184 m 9 X s 1011 1184 m 5 X -6 Y 3 X s 1019 1178 m 9 X s 1028 1178 m 9 X s 1037 1178 m 4 X -7 Y 5 X s 1046 1171 m
 9 X s 1055 1171 m 8 X s 1063 1171 m 9 X s 1072 1171 m 9 X s 1081 1171 m 9 X s 1090 1171 m 9 X s 1099 1171 m 8 X s 1107 1171 m 9 X s 1116 1171 m 9 X s 1125 1171 m 9 X s 1134 1171 m 9 X s 1143 1171 m 8 X s 1151 1171 m 9 X s 1160 1171 m 9 X s 1169 1171
 m 9 X s 1178 1171 m 9 X s 1187 1171 m 5 X -6 Y 3 X s 1195 1165 m 5 X -7 Y 1 -7 d 3 X s 1204 1151 m 9 X s 1213 1151 m 9 X s 1222 1151 m 9 X s 1231 1151 m 8 X s 1239 1151 m 9 X s 1248 1151 m 9 X s 1257 1151 m 9 X s 1266 1151 m 9 X s 1275 1151 m 8 X s
 1283 1151 m 9 X s 1292 1151 m 6 X 1 -6 d 2 X s 1301 1145 m 9 X s 1310 1145 m 9 X s 1319 1145 m 8 X s 1327 1145 m 9 X s 1336 1145 m 9 X s 1345 1145 m 9 X s 1354 1145 m 9 X s 1363 1145 m 8 X s 1371 1145 m 8 X -7 Y 1 X s 1380 1138 m 9 X s 1389 1138 m 9
 X s 1398 1138 m 9 X s 1407 1138 m 8 X s 1415 1138 m 9 X s 1424 1138 m 9 X s 1433 1138 m 9 X s 1442 1138 m 9 X s 1451 1138 m 8 X s 1459 1138 m 9 X s 1468 1138 m 9 X s 1477 1138 m 9 X s 1486 1138 m 9 X s 1495 1138 m 8 X s 1503 1138 m 9 X s 1512 1138 m
 9 X s 1521 1138 m 9 X s 1530 1138 m 9 X s 1539 1138 m 8 X s 1547 1138 m 9 X s 1556 1138 m 9 X s 1565 1138 m 9 X s 1574 1138 m 9 X s 1583 1138 m 8 X s 1591 1138 m 9 X s 1600 1138 m 9 X s 1609 1138 m 8 X -6 Y 1 X s 1618 1132 m 9 X s 1627 1132 m 8 X s
 1635 1132 m 9 X s 1644 1132 m 3 X -7 Y 6 X s 1653 1125 m 6 X -7 Y 3 X s 1662 1118 m 2 X -6 Y 7 X s 1671 1112 m 8 X s 1679 1112 m 9 X s 1688 1112 m 9 X s 1697 1112 m 9 X s 1706 1112 m 9 X s 1715 1112 m 8 X s 1723 1112 m 9 X s 1732 1112 m 7 X -7 Y 2 X
 s 1741 1105 m 9 X s 1750 1105 m 5 X -6 Y 2 X -7 Y 2 X s 1759 1092 m 8 X s 1767 1092 m 9 X s 1776 1092 m 9 X s 1785 1092 m 1 X -13 Y 3 X -7 Y 2 X -6 Y 3 X s 1794 1066 m 1 X -7 Y 1 X -6 Y 7 X s 1803 1053 m 9 X s 1812 1053 m 6 X -7 Y 2 X s 1820 1046 m
 9 X s 1829 1046 m 6 X 1 -7 d 2 X s 1838 1039 m 4 X -6 Y 5 X s 1847 1033 m 7 X -7 Y 2 X s 1856 1026 m 3 X -6 Y 1 -7 d 1 X -7 Y 3 X s 1864 1006 m 1 X -6 Y 4 X -7 Y 4 X s 1873 993 m 1 X 1 -6 d 1 X 1 -7 d 5 X s 1882 980 m 2 X -13 Y 7 X s 1891 967 m 1 -7
 d 2 X -6 Y 6 X s 1900 954 m 6 X -7 Y 2 X s 1908 947 m 3 X -7 Y 2 X -6 Y 4 X s 1917 934 m 6 X 1 -7 d 2 X s 1926 927 m 4 X -6 Y 1 X 1 -7 d 1 X -7 Y 2 X s 1935 907 m 7 X -13 Y 2 X s 1944 894 m 6 X -6 Y 2 X -7 Y s 1952 881 m 1 X -7 Y 6 X -6 Y 2 X s 1961
 868 m -7 Y 2 X -13 Y 4 X -7 Y 3 X s 1970 841 m 3 X 1 -6 d -7 Y 2 X -6 Y 1 X -7 Y 2 X s 1979 815 m 3 X -13 Y 1 X -7 Y 1 X -6 Y 2 X -7 Y 2 X s 1988 782 m 1 X -13 Y 1 X -7 Y 2 X -13 Y 2 X -7 Y 2 X s 1996 742 m 1 -6 d 3 X -13 Y 1 X -7 Y 2 X -13 Y 1 X -7
 Y 1 X s 2005 696 m 1 X -6 Y 1 -7 d -7 Y 1 X -13 Y 1 X -13 Y 1 -13 d 4 X -7 Y s 2014 630 m 2 X -6 Y 2 X -33 Y 1 X -20 Y 1 X -7 Y 1 -6 d -14 Y 2 X s 2023 544 m -46 Y 1 -6 d 2 X -7 Y 1 X -7 Y 1 X -33 Y 1 -6 d -7 Y 1 X -6 Y 1 X -7 Y 1 X s 2032 419 m -33
 Y 1 X -7 Y 1 -6 d -7 Y 1 -13 d -20 Y 1 -6 d -7 Y 1 -7 d -6 Y 1 X -13 Y 1 -7 d -26 Y 1 -14 d -13 Y s 2040 234 m -6 Y 1 X -7 Y s 1 0 0 c black 1 0 0 c 245 1237 m -361 Y 1 -15 d -24 Y 1 -5 d -19 Y 1 X -264 Y 1 X -18 Y 1 X 1 -5 d -6 Y 1 X -5 Y 1 X -5 Y
 1 X s 254 510 m 1 X -8 Y 1 X -3 Y 1 X 1 -2 d -3 Y 4 X -5 Y 1 X s 263 489 m 1 X -3 Y 1 X -2 Y 1 X -3 Y 1 -3 d 1 X -2 Y 1 -3 d -2 Y 1 X -3 Y 1 X s 271 468 m 1 X -5 Y 2 X 1 -3 d 1 X -2 Y 2 X -3 Y 1 -3 d 1 X s 280 452 m 1 X -2 Y 1 X 1 -3 d 5 X -3 Y 1 X
 s 289 444 m 1 X -2 Y 3 X -3 Y 5 X -2 Y s 298 437 m 1 X -3 Y 3 X -3 Y 5 X s 307 431 m 8 X -2 Y s 315 429 m 2 X -5 Y 4 X 1 -3 d 2 X s 324 421 m 2 X -3 Y 1 X -2 Y 1 -3 d -3 Y 1 X -2 Y 1 X -3 Y 1 X 1 -2 d 1 X s 333 403 m 5 X 1 -3 d 1 X -3 Y 2 X s 342
 397 m 2 X -2 Y 7 X s 351 395 m 8 X s 359 395 m 9 X -3 Y s 368 392 m 1 X -2 Y 2 X -3 Y 6 X s 377 387 m 9 X s 386 387 m 1 X -3 Y 8 X s 395 384 m 8 X s 403 384 m 4 X -2 Y 5 X s 412 382 m 6 X -3 Y 2 X -3 Y 1 X s 421 376 m 4 X -2 Y 5 X -3 Y s 430 371 m 9
 X s 439 371 m 1 X -2 Y 7 X s 447 369 m 9 X s 456 369 m 9 X s 465 369 m 1 X -3 Y 2 X -3 Y 1 X -2 Y 5 X s 474 361 m 9 X s 483 361 m 2 X -3 Y 1 X -2 Y 3 X -3 Y 2 X s 491 353 m 3 X -5 Y 6 X s 500 348 m 9 X s 509 348 m 9 X s 518 348 m 5 X -3 Y 4 X s 527
 345 m 8 X s 535 345 m 9 X s 544 345 m 9 X s 553 345 m 3 X -3 Y 3 X -2 Y 3 X s 562 340 m 9 X s 571 340 m 8 X s 579 340 m 9 X s 588 340 m 9 X s 597 340 m 9 X s 606 340 m 9 X s 615 340 m 5 X -3 Y 3 X s 623 337 m 9 X s 632 337 m 9 X s 641 337 m 6 X -2 Y
 3 X s 650 335 m -3 Y 3 X -3 Y 1 X -2 Y 5 X s 659 327 m -3 Y 1 -3 d 7 X s 667 321 m 5 X -2 Y 4 X s 676 319 m 9 X s 685 319 m 6 X -5 Y 3 X s 694 314 m 9 X s 703 314 m 8 X s 711 314 m 9 X s 720 314 m 4 X -3 Y 5 X s 729 311 m 9 X s 738 311 m 9 X s 747
 311 m 8 X s 755 311 m 2 X -3 Y 5 X -2 Y 2 X s 764 306 m 9 X s 773 306 m 9 X s 782 306 m 8 X -3 Y 1 X s 791 303 m 4 X 1 -2 d 3 X s 799 301 m 4 X -3 Y 5 X s 808 298 m 9 X s 817 298 m 9 X s 826 298 m 9 X s 835 298 m 8 X s 843 298 m 9 X s 852 298 m 9 X
 s 861 298 m 9 X s 870 298 m 9 X s 879 298 m 8 X s 887 298 m 9 X s 896 298 m 9 X s 905 298 m 9 X s 914 298 m 8 X -3 Y 1 X s 923 295 m 8 X s 931 295 m 9 X s 940 295 m 2 X -2 Y 7 X s 949 293 m 9 X s 958 293 m 9 X s 967 293 m 8 X s 975 293 m 9 X s 984
 293 m 9 X s 993 293 m 9 X s 1002 293 m 9 X s 1011 293 m 8 X s 1019 293 m 9 X s 1028 293 m 5 X -3 Y 4 X s 1037 290 m 9 X s 1046 290 m 9 X s 1055 290 m 7 X -3 Y 1 X s 1063 287 m 9 X s 1072 287 m 9 X s 1081 287 m 9 X s 1090 287 m 9 X s 1099 287 m 8 X s
 1107 287 m 9 X s 1116 287 m 9 X s 1125 287 m 9 X s 1134 287 m 4 X -2 Y 4 X -3 Y 1 X s 1143 282 m 8 X s 1151 282 m 9 X s 1160 282 m 9 X s 1169 282 m 9 X s 1178 282 m 3 X -2 Y 6 X s 1187 280 m 6 X -3 Y 2 X s 1195 277 m 9 X s 1204 277 m 9 X s 1213 277
 m 9 X s 1222 277 m 9 X s 1231 277 m 8 X s 1239 277 m 7 X 1 -3 d 1 X -2 Y s 1248 272 m 9 X s 1257 272 m 9 X s 1266 272 m 6 X -3 Y 1 X -2 Y 2 X s 1275 267 m 8 X s 1283 267 m 9 X s 1292 267 m 9 X s 1301 267 m 3 X -3 Y 6 X s 1310 264 m 9 X s 1319 264 m
 2 X 1 -3 d 5 X s 1327 261 m 9 X s 1336 261 m 9 X s 1345 261 m 9 X s 1354 261 m 9 X s 1363 261 m 8 X s 1371 261 m 9 X s 1380 261 m 9 X s 1389 261 m 2 X -2 Y 7 X s 1398 259 m 9 X s 1407 259 m 8 X s 1415 259 m 9 X s 1424 259 m 9 X s 1433 259 m 9 X s
 1442 259 m 9 X s 1451 259 m 8 X s 1459 259 m 9 X s 1468 259 m 9 X s 1477 259 m 9 X s 1486 259 m 9 X s 1495 259 m 8 X s 1503 259 m 1 X 1 -3 d 7 X s 1512 256 m 9 X s 1521 256 m 2 X -3 Y 7 X s 1530 253 m 9 X s 1539 253 m 8 X s 1547 253 m 9 X s 1556 253
 m 9 X s 1565 253 m 9 X s 1574 253 m 9 X s 1583 253 m 8 X s 1591 253 m 9 X s 1600 253 m 9 X s 1609 253 m 9 X s 1618 253 m 9 X s 1627 253 m 8 X s 1635 253 m 9 X s 1644 253 m 5 X -2 Y 4 X s 1653 251 m 9 X s 1662 251 m 9 X s 1671 251 m 8 X s 1679 251 m
 9 X s 1688 251 m 5 X -3 Y 4 X s 1697 248 m 7 X -2 Y 1 X -3 Y 1 X s 1706 243 m 5 X -5 Y 4 X s 1715 238 m 8 X s 1723 238 m 9 X s 1732 238 m 1 X -3 Y 8 X s 1741 235 m 9 X s 1750 235 m 9 X s 1759 235 m 8 X s 1767 235 m 9 X s 1776 235 m 9 X -2 Y s 1785
 233 m 9 X s 1794 233 m 9 X s 1803 233 m 3 X -3 Y 4 X 1 -3 d 1 X s 1812 227 m 8 X s 1820 227 m 9 X s 1829 227 m 9 X s 1838 227 m 9 X s 1847 227 m 9 X s 1856 227 m 8 X s 1864 227 m 9 X s 1873 227 m 9 X s 1882 227 m 9 X s 1891 227 m 9 X s 1900 227 m 4
 X -2 Y 1 X -3 Y 3 X s 1908 222 m 9 X -3 Y s 1917 219 m 9 X s 1926 219 m 9 X s 1935 219 m 9 X s 1944 219 m 8 X s 1952 219 m 9 X s 1961 219 m 2 X -2 Y 2 X 1 -3 d 4 X s 1970 214 m 1 X -2 Y 3 X -3 Y 1 X -3 Y 4 X s 1979 206 m 9 X s 1988 206 m 8 X s 1996
 206 m 9 X s 2005 206 m 9 X s 2014 206 m 6 X -2 Y 3 X s 2023 204 m 9 X s 2032 204 m 4 X -3 Y 4 X s 2040 201 m 1 X s 0 0.666667 0 c 1 1 1 c black 0 0.666667 0 c 245 979 m 78 Y 1 X 6 Y 1 2 d 4 Y 1 X 80 Y 1 X 6 Y 1 X 1 2 d 2 Y 1 X 2 Y 1 X 2 Y 1 X s 254
 1163 m 1 X 3 Y 1 X 1 Y 1 X 1 1 d 1 Y 4 X 2 Y 1 X s 263 1171 m 1 X 1 Y 2 X 1 Y 1 1 d 1 X 1 Y 1 1 d 1 Y 1 X 1 Y 1 X s 271 1178 m 1 X 2 Y 2 X 1 1 d 1 X 1 Y 2 X 1 Y 1 1 d 1 X s 280 1184 m 1 X 1 Y 1 X 1 1 d 5 X 1 Y 1 X s 289 1187 m 1 X 1 Y 3 X 1 Y 5 X 1
 Y s 298 1190 m 1 X 1 Y 3 X 1 Y 5 X s 307 1192 m 8 X 1 Y s 315 1193 m 2 X 3 Y 4 X 1 1 d 2 X s 324 1197 m 2 X 1 Y 1 X 1 Y 1 1 d 1 Y 1 X 1 Y 1 X 1 Y 1 X 1 1 d 1 X s 333 1204 m 5 X 1 1 d 1 X 1 Y 2 X s 342 1206 m 2 X 1 Y 7 X s 351 1207 m 8 X s 359 1207 m
 9 X 1 Y s 368 1208 m 1 X 1 Y 2 X 1 Y 6 X s 377 1210 m 7 X -3 Y 2 X s 386 1207 m 1 X 1 Y 8 X s 395 1208 m 8 X s 403 1208 m 4 X 1 Y 5 X s 412 1209 m 6 X 1 Y 2 X 1 Y 1 X s 421 1211 m 4 X 1 Y 5 X 1 Y s 430 1213 m 9 X s 439 1213 m 1 X 1 Y 7 X s 447 1214
 m 9 X s 456 1214 m 9 X s 465 1214 m 1 X 2 Y 2 X 1 Y 1 X 1 Y 5 X s 474 1218 m 9 X s 483 1218 m 2 X 1 Y 1 X 1 Y 3 X 1 Y 2 X s 491 1221 m 3 X 2 Y 6 X s 500 1223 m 9 X s 509 1223 m 9 X s 518 1223 m 5 X 2 Y 4 X s 527 1225 m 8 X s 535 1225 m 9 X s 544
 1225 m 9 X s 553 1225 m 3 X 1 Y 3 X 1 Y 3 X s 562 1227 m 9 X s 571 1227 m 8 X s 579 1227 m 9 X s 588 1227 m 9 X s 597 1227 m 1 X 1 -4 d 7 X s 606 1223 m 9 X s 615 1223 m 5 X 1 Y 3 X s 623 1224 m 9 X s 632 1224 m 9 X s 641 1224 m 6 X 1 Y 3 X s 650
 1225 m 2 Y 3 X 1 Y 1 X 1 Y 5 X s 659 1229 m 1 Y 1 1 d 7 X s 667 1231 m 5 X 2 Y 4 X s 676 1233 m 9 X s 685 1233 m 1 X -4 Y 5 X 2 Y 3 X s 694 1231 m 9 X s 703 1231 m 8 X s 711 1231 m 9 X s 720 1231 m 4 X 1 Y 5 X s 729 1232 m 9 X s 738 1232 m 9 X s 747
 1232 m 8 X s 755 1232 m 2 X 2 Y 5 X 1 Y 2 X s 764 1235 m 9 X s 773 1235 m 9 X s 782 1235 m 8 X 1 Y 1 X s 791 1236 m 4 X 1 1 d 3 X s 799 1237 m 1 X -3 Y 3 X 1 Y 1 X -4 Y 4 X s 808 1231 m 9 X s 817 1231 m 9 X s 826 1231 m 9 X s 835 1231 m 1 X 1 -4 d 6
 X s 843 1227 m 9 X s 852 1227 m 9 X s 861 1227 m 9 X s 870 1227 m 9 X s 879 1227 m 8 X s 887 1227 m 9 X s 896 1227 m 9 X s 905 1227 m 9 X s 914 1227 m 8 X 2 Y 1 X s 923 1229 m 8 X s 931 1229 m 9 X s 940 1229 m 2 X 1 Y 7 X s 949 1230 m 9 X s 958 1230
 m 3 X -4 Y 6 X s 967 1226 m 8 X s 975 1226 m 9 X s 984 1226 m 9 X s 993 1226 m 9 X s 1002 1226 m 9 X s 1011 1226 m 5 X -4 Y 3 X s 1019 1222 m 9 X s 1028 1222 m 5 X 2 Y 4 X s 1037 1224 m 4 X -4 Y 5 X s 1046 1220 m 9 X s 1055 1220 m 7 X 1 Y 1 X s 1063
 1221 m 9 X s 1072 1221 m 9 X s 1081 1221 m 9 X s 1090 1221 m 9 X s 1099 1221 m 8 X s 1107 1221 m 9 X s 1116 1221 m 9 X s 1125 1221 m 9 X s 1134 1221 m 4 X 1 Y 4 X 2 Y 1 X s 1143 1224 m 8 X s 1151 1224 m 9 X s 1160 1224 m 9 X s 1169 1224 m 9 X s 1178
 1224 m 3 X 1 Y 6 X s 1187 1225 m 5 X -4 Y 1 X 2 Y 2 X s 1195 1223 m 5 X -4 Y 1 -4 d 3 X s 1204 1215 m 9 X s 1213 1215 m 9 X s 1222 1215 m 9 X s 1231 1215 m 8 X s 1239 1215 m 7 X 1 1 d 1 X 2 Y s 1248 1218 m 9 X s 1257 1218 m 9 X s 1266 1218 m 6 X 1 Y
 1 X 1 Y 2 X s 1275 1220 m 8 X s 1283 1220 m 9 X s 1292 1220 m 6 X 1 -4 d 2 X s 1301 1216 m 3 X 2 Y 6 X s 1310 1218 m 9 X s 1319 1218 m 2 X 1 1 d 5 X s 1327 1219 m 9 X s 1336 1219 m 9 X s 1345 1219 m 9 X s 1354 1219 m 9 X s 1363 1219 m 8 X s 1371
 1219 m 8 X -4 Y 1 X s 1380 1215 m 9 X s 1389 1215 m 2 X 2 Y 7 X s 1398 1217 m 9 X s 1407 1217 m 8 X s 1415 1217 m 9 X s 1424 1217 m 9 X s 1433 1217 m 9 X s 1442 1217 m 9 X s 1451 1217 m 8 X s 1459 1217 m 9 X s 1468 1217 m 9 X s 1477 1217 m 9 X s
 1486 1217 m 9 X s 1495 1217 m 8 X s 1503 1217 m 1 X 1 1 d 7 X s 1512 1218 m 9 X s 1521 1218 m 2 X 1 Y 7 X s 1530 1219 m 9 X s 1539 1219 m 8 X s 1547 1219 m 9 X s 1556 1219 m 9 X s 1565 1219 m 9 X s 1574 1219 m 9 X s 1583 1219 m 8 X s 1591 1219 m 9 X
 s 1600 1219 m 9 X s 1609 1219 m 8 X -3 Y 1 X s 1618 1216 m 9 X s 1627 1216 m 8 X s 1635 1216 m 9 X s 1644 1216 m 3 X -4 Y 2 X 1 Y 4 X s 1653 1213 m 6 X -4 Y 3 X s 1662 1209 m 2 X -4 Y 7 X s 1671 1205 m 8 X s 1679 1205 m 9 X s 1688 1205 m 5 X 2 Y 4 X
 s 1697 1207 m 7 X 1 Y 1 X 2 Y 1 X s 1706 1210 m 5 X 2 Y 4 X s 1715 1212 m 8 X s 1723 1212 m 9 X s 1732 1212 m 1 X 2 Y 6 X -4 Y 2 X s 1741 1210 m 9 X s 1750 1210 m 5 X -4 Y 2 X -4 Y 2 X s 1759 1202 m 8 X s 1767 1202 m 9 X s 1776 1202 m 9 X 2 Y s 1785
 1204 m 1 X -8 Y 3 X -4 Y 2 X -4 Y 3 X s 1794 1188 m 1 X -4 Y 1 X -4 Y 7 X s 1803 1180 m 3 X 2 Y 4 X 1 1 d 1 X s 1812 1183 m 6 X -4 Y 2 X s 1820 1179 m 9 X s 1829 1179 m 6 X 1 -4 d 2 X s 1838 1175 m 4 X -4 Y 5 X s 1847 1171 m 7 X -3 Y 2 X s 1856 1168
 m 3 X -4 Y 1 -4 d 1 X -5 Y 3 X s 1864 1155 m 1 X -4 Y 4 X -4 Y 4 X s 1873 1147 m 1 X 1 -4 d 1 X 1 -4 d 5 X s 1882 1139 m 2 X -8 Y 7 X s 1891 1131 m 1 -4 d 2 X -4 Y 6 X s 1900 1123 m 4 X 1 Y 1 X 2 Y 1 X -4 Y 2 X s 1908 1122 m 3 X -5 Y 2 X -4 Y 4 X 2
 Y s 1917 1115 m 6 X 1 -4 d 2 X s 1926 1111 m 4 X -5 Y 1 X 1 -4 d 1 X -4 Y 2 X s 1935 1098 m 7 X -9 Y 2 X s 1944 1089 m 6 X -4 Y 2 X -5 Y s 1952 1080 m 1 X -4 Y 6 X -4 Y 2 X s 1961 1072 m -5 Y 2 X -7 Y 2 X 1 2 d 1 X -5 Y 3 X s 1970 1057 m 1 X 2 Y 2 X
 1 -5 d -4 Y 2 Y 1 X 1 Y 1 X -4 Y 1 X -5 Y 2 X s 1979 1044 m 3 X -9 Y 1 X -5 Y 1 X -4 Y 2 X -5 Y 2 X s 1988 1021 m 1 X -9 Y 1 X -5 Y 2 X -10 Y 2 X -5 Y 2 X s 1996 992 m 1 -5 d 3 X -9 Y 1 X -5 Y 2 X -10 Y 1 X -6 Y 1 X s 2005 957 m 1 X -5 Y 1 -5 d -5 Y
 1 X -10 Y 1 X -11 Y 1 -11 d 4 X -5 Y s 2014 905 m 2 X -6 Y 2 X -28 Y 1 X -17 Y 1 X 2 Y -6 Y 1 -6 d -12 Y 2 X s 2023 832 m -44 Y 1 -7 d 2 X -7 Y 1 X -7 Y 1 X -35 Y 1 -7 d -7 Y 1 X -8 Y 1 X -8 Y 1 X s 2032 702 m -40 Y 1 X -8 Y 1 -9 d -8 Y 1 -18 d -29
 Y 1 -10 d -6 Y 1 -11 d -11 Y 1 X -22 Y 1 -12 d -53 Y 1 -32 d -36 Y s 2040 397 m -20 Y 1 X -24 Y s black 3 lw 245 201 m 1796 X s 245 241 m -40 Y s 281 221 m -20 Y s 317 221 m -20 Y s 353 221 m -20 Y s 389 221 m -20 Y s 425 241 m -40 Y s 460 221 m -20
 Y s 496 221 m -20 Y s 532 221 m -20 Y s 568 221 m -20 Y s 604 241 m -40 Y s 640 221 m -20 Y s 676 221 m -20 Y s 712 221 m -20 Y s 748 221 m -20 Y s 784 241 m -40 Y s 820 221 m -20 Y s 856 221 m -20 Y s 891 221 m -20 Y s 927 221 m -20 Y s 963 241 m
 -40 Y s 999 221 m -20 Y s 1035 221 m -20 Y s 1071 221 m -20 Y s 1107 221 m -20 Y s 1143 241 m -40 Y s 1179 221 m -20 Y s 1215 221 m -20 Y s 1251 221 m -20 Y s 1287 221 m -20 Y s 1323 241 m -40 Y s 1358 221 m -20 Y s 1394 221 m -20 Y s 1430 221 m -20
 Y s 1466 221 m -20 Y s 1502 241 m -40 Y s 1538 221 m -20 Y s 1574 221 m -20 Y s 1610 221 m -20 Y s 1646 221 m -20 Y s 1682 241 m -40 Y s 1718 221 m -20 Y s 1754 221 m -20 Y s 1790 221 m -20 Y s 1825 221 m -20 Y s 1861 241 m -40 Y s 1897 221 m -20 Y
 s 1933 221 m -20 Y s 1969 221 m -20 Y s 2005 221 m -20 Y s 2041 241 m -40 Y s 245 241 m -40 Y s 2041 241 m -40 Y s 245 201 m 1140 Y s 291 201 m -46 X s 268 253 m -23 X s 268 305 m -23 X s 268 357 m -23 X s 291 408 m -46 X s 268 460 m -23 X s 268 512
 m -23 X s 268 564 m -23 X s 291 616 m -46 X s 268 667 m -23 X s 268 719 m -23 X s 268 771 m -23 X s 291 823 m -46 X s 268 875 m -23 X s 268 926 m -23 X s 268 978 m -23 X s 291 1030 m -46 X s 268 1082 m -23 X s 268 1134 m -23 X s 268 1185 m -23 X s
 291 1237 m -46 X s 291 1237 m -46 X s 268 1289 m -23 X s 268 1341 m -23 X s 0.490196 0.545098 0.615686 c 1 1 1 c 0.490196 0.545098 0.615686 c 907 201 245 1341 bl 245 1341 m 907 X s 1152 1341 m 201 Y s 1152 1542 m -907 X s 245 1542 m -201 Y s black
 gsave  2268 1676 0 0 C 515.735 1471.36 t 0 r /Helvetica-Bold findfont 56.8825 sf 0 0 m (Signal efficiency) show NC gr  0 0 0.933333 c 9 lw 286 1492 m 190 X s black
 gsave  2268 1676 0 0 C 515.735 1368.97 t 0 r /Helvetica-Bold findfont 56.8825 sf 0 0 m (Background efficiency) show NC gr  1 0 0 c 286 1391 m 190 X s 0.490196 0.545098 0.615686 c 3 lw 1 1 1 c 0.490196 0.545098 0.615686 c 889 201 1152 1341 bl 1152
 1341 m 889 X s 2041 1341 m 201 Y s 2041 1542 m -889 X s 1152 1542 m -201 Y s black
 gsave  2268 1676 0 0 C 1418.27 1494.11 t 0 r /Helvetica-Bold findfont 56.8825 sf 0 0 m (Signal purity) show NC gr  0 0 0.933333 c[  52 12 ] 0 sd 6 lw 1192 1509 m 187 X s black
 gsave  2268 1676 0 0 C 1418.27 1429.65 t 0 r /Helvetica-Bold findfont 56.8825 sf 0 0 m (Signal efficiency*purity) show NC gr  0 0 0.933333 c[  22 12 ] 0 sd 1192 1441 m 187 X s black
 gsave  2268 1676 0 0 C 1501.7 1361.39 t 0 r /Helvetica-Bold findfont 56.8825 sf 0 0 m (S+B) show NC gr [  ] 0 sd 1483 1407 m 7 -49 d s 3 lw 1490 1358 m 8 64 d s 1498 1422 m 114 X s
 gsave  2268 1676 0 0 C 1418.27 1361.39 t 0 r /Helvetica-Bold findfont 56.8825 sf 0 0 m (S/) show NC gr  0 0.666667 0 c 9 lw 1192 1374 m 187 X s black 3 lw 245 1237 m 1796 X s
 gsave  2268 1676 0 0 C 337.503 386.801 t 0 r /Helvetica-Bold findfont 53.0904 sf 0 0 m (For 1000 signal and 1000 background) show NC gr 
 gsave  2268 1676 0 0 C 1058.01 318.542 t 0 r /Helvetica-Bold findfont 53.0904 sf 0 0 m ( is) show NC gr 
 gsave  2268 1676 0 0 C 955.626 318.542 t 0 r /Helvetica-Bold findfont 53.0904 sf 0 0 m (S+B) show NC gr  6 lw 933 360 m 7 -45 d s 3 lw 940 315 m 8 60 d s 948 375 m 110 X s
 gsave  2268 1676 0 0 C 337.503 318.542 t 0 r /Helvetica-Bold findfont 53.0904 sf 0 0 m (events the maximum S/) show NC gr 
 gsave  2268 1676 0 0 C 337.503 254.075 t 0 r /Helvetica-Bold findfont 53.0904 sf 0 0 m (29.79 when cutting at  0.31) show NC gr  0.490196 0.545098 0.615686 c 0.364706 0.419608 0.490196 c 1471 96 23 1572 bf 0.490196 0.545098 0.615686 c 23 1572 m 1471
 X s 1494 1572 m 96 Y s 1494 1668 m -1471 X s 23 1668 m -96 Y s 1 1 1 c black 1 1 1 c
 gsave  2268 1676 0 0 C 75.8434 1600.29 t 0 r /Helvetica-Bold findfont 75.8434 sf 0 0 m (Cut efficiencies and optimal cut value) show NC gr  0 0.666667 0 c 2041 201 m 1140 Y s black 0 0.666667 0 c
 gsave  2268 1676 0 0 C 2203.25 963.211 t 90 r /Helvetica-Bold findfont 64.4669 sf 0 0 m (Significance) show NC gr  1995 201 m 46 X s 2018 236 m 23 X s 2018 271 m 23 X s 2018 305 m 23 X s 2018 340 m 23 X s 1995 375 m 46 X s 2018 410 m 23 X s 2018 445
 m 23 X s 2018 479 m 23 X s 2018 514 m 23 X s 1995 549 m 46 X s 2018 584 m 23 X s 2018 619 m 23 X s 2018 653 m 23 X s 2018 688 m 23 X s 1995 723 m 46 X s 2018 758 m 23 X s 2018 793 m 23 X s 2018 827 m 23 X s 2018 862 m 23 X s 1995 897 m 46 X s 2018
 932 m 23 X s 2018 966 m 23 X s 2018 1001 m 23 X s 2018 1036 m 23 X s 1995 1071 m 46 X s 2018 1106 m 23 X s 2018 1140 m 23 X s 2018 1175 m 23 X s 2018 1210 m 23 X s 1995 1245 m 46 X s 1995 1245 m 46 X s 2018 1280 m 23 X s 2018 1314 m 23 X s black 0
 0.666667 0 c
 gsave  2268 1676 0 0 C 2051.56 178.232 t 0 r /Helvetica-Bold findfont 64.4669 sf 0 0 m (0) show NC gr  black 0 0.666667 0 c
 gsave  2268 1676 0 0 C 2051.56 348.879 t 0 r /Helvetica-Bold findfont 64.4669 sf 0 0 m (5) show NC gr  black 0 0.666667 0 c
 gsave  2268 1676 0 0 C 2051.56 523.319 t 0 r /Helvetica-Bold findfont 64.4669 sf 0 0 m (10) show NC gr  black 0 0.666667 0 c
 gsave  2268 1676 0 0 C 2051.56 697.759 t 0 r /Helvetica-Bold findfont 64.4669 sf 0 0 m (15) show NC gr  black 0 0.666667 0 c
 gsave  2268 1676 0 0 C 2051.56 872.199 t 0 r /Helvetica-Bold findfont 64.4669 sf 0 0 m (20) show NC gr  black 0 0.666667 0 c
 gsave  2268 1676 0 0 C 2051.56 1046.64 t 0 r /Helvetica-Bold findfont 64.4669 sf 0 0 m (25) show NC gr  black 0 0.666667 0 c
 gsave  2268 1676 0 0 C 2051.56 1221.08 t 0 r /Helvetica-Bold findfont 64.4669 sf 0 0 m (30) show NC gr 
 gr  gr showpage
end
%%EOF
