%!PS-Adobe-2.0 EPSF-2.0
%%BoundingBox:  0 0 567 354
%%Title: DataSet/plots/network.eps: Neural Network Layout for: MLPBPMSE
%%Creator: ROOT Version 6.08/06
%%CreationDate: Thu May 31 15:44:40 2018
%%DocumentNeededResources: ProcSet (FontSetInit)
%%EndComments
%%BeginProlog
80 dict begin
/s {stroke} def /l {lineto} def /m {moveto} def /t {translate} def
/r {rotate} def /rl {roll}  def /R {repeat} def
/d {rlineto} def /rm {rmoveto} def /gr {grestore} def /f {eofill} def
/c {setrgbcolor} def /black {0 setgray} def /sd {setdash} def
/cl {closepath} def /sf {scalefont setfont} def /lw {setlinewidth} def
/box {m dup 0 exch d exch 0 d 0 exch neg d cl} def
/NC{systemdict begin initclip end}def/C{NC box clip newpath}def
/bl {box s} def /bf {gsave box gsave f grestore 1 lw [] 0 sd s grestore} def /Y { 0 exch d} def /X { 0 d} def 
/K {{pop pop 0 moveto} exch kshow} bind def
/ita {/ang 15 def gsave [1 0 ang dup sin exch cos div 1 0 0] concat} def 
/mp {newpath /y exch def /x exch def} def
/side {[w .77 mul w .23 mul] .385 w mul sd w 0 l currentpoint t -144 r} def
/mr {mp x y w2 0 360 arc} def /m24 {mr s} def /m20 {mr f} def
/mb {mp x y w2 add m w2 neg 0 d 0 w neg d w 0 d 0 w d cl} def
/mt {mp x y w2 add m w2 neg w neg d w 0 d cl} def
/m21 {mb f} def /m25 {mb s} def /m22 {mt f} def /m26{mt s} def
/m23 {mp x y w2 sub m w2 w d w neg 0 d cl f} def
/m27 {mp x y w2 add m w3 neg w2 neg d w3 w2 neg d w3 w2 d cl s} def
/m28 {mp x w2 sub y w2 sub w3 add m w3 0 d  0 w3 neg d w3 0 d 0 w3 d w3 0 d  0 w3 d w3 neg 0 d 0 w3 d w3 neg 0 d 0 w3 neg d w3 neg 0 d cl s } def
/m29 {mp gsave x w2 sub y w2 add w3 sub m currentpoint t 4 {side} repeat cl fill gr} def
/m30 {mp gsave x w2 sub y w2 add w3 sub m currentpoint t 4 {side} repeat cl s gr} def
/m31 {mp x y w2 sub m 0 w d x w2 sub y m w 0 d x w2 sub y w2 add m w w neg d x w2 sub y w2 sub m w w d s} def
/m32 {mp x y w2 sub m w2 w d w neg 0 d cl s} def
/m33 {mp x y w2 add m w3 neg w2 neg d w3 w2 neg d w3 w2 d cl f} def
/m34 {mp x w2 sub y w2 sub w3 add m w3 0 d  0 w3 neg d w3 0 d 0 w3 d w3 0 d  0 w3 d w3 neg 0 d 0 w3 d w3 neg 0 d 0 w3 neg d w3 neg 0 d cl f } def
/m2 {mp x y w2 sub m 0 w d x w2 sub y m w 0 d s} def
/m5 {mp x w2 sub y w2 sub m w w d x w2 sub y w2 add m w w neg d s} def
%%IncludeResource: ProcSet (FontSetInit)
%%IncludeResource: font Times-Roman
%%IncludeResource: font Times-Italic
%%IncludeResource: font Times-Bold
%%IncludeResource: font Times-BoldItalic
%%IncludeResource: font Helvetica
%%IncludeResource: font Helvetica-Oblique
%%IncludeResource: font Helvetica-Bold
%%IncludeResource: font Helvetica-BoldOblique
%%IncludeResource: font Courier
%%IncludeResource: font Courier-Oblique
%%IncludeResource: font Courier-Bold
%%IncludeResource: font Courier-BoldOblique
%%IncludeResource: font Symbol
%%IncludeResource: font ZapfDingbats
/reEncode {exch findfont dup length dict begin {1 index /FID eq  {pop pop} {def} ifelse } forall /Encoding exch def currentdict end dup /FontName get exch definefont pop } def [/Times-Bold /Times-Italic /Times-BoldItalic /Helvetica /Helvetica-Oblique
 /Helvetica-Bold /Helvetica-BoldOblique /Courier /Courier-Oblique /Courier-Bold /Courier-BoldOblique /Times-Roman /AvantGarde-Book /AvantGarde-BookOblique /AvantGarde-Demi /AvantGarde-DemiOblique /Bookman-Demi /Bookman-DemiItalic /Bookman-Light
 /Bookman-LightItalic /Helvetica-Narrow /Helvetica-Narrow-Bold /Helvetica-Narrow-BoldOblique /Helvetica-Narrow-Oblique /NewCenturySchlbk-Roman /NewCenturySchlbk-Bold /NewCenturySchlbk-BoldItalic /NewCenturySchlbk-Italic /Palatino-Bold
 /Palatino-BoldItalic /Palatino-Italic /Palatino-Roman ] {ISOLatin1Encoding reEncode } forall
%%EndProlog
%%BeginSetup
%%EndSetup
newpath  gsave  .25 .25 scale  gsave  0 0 t 0.490196 0.545098 0.615686 c[  ] 0 sd 3 lw 0.43 0.48 0.52 c 2268 1418 0 0 bf 0.35 0.33 0.85 c 1 1 0.992157 c 865 84 m -5 18 d -15 12 d -18 2 d -18 -7 d -10 -16 d -18 Y 10 -15 d 18 -8 d 18 3 d 15 12 d f 0.35
 0.33 0.85 c 865 84 m -5 18 d -15 12 d -18 2 d -18 -7 d -10 -16 d -18 Y 10 -15 d 18 -8 d 18 3 d 15 12 d 5 17 d s 0.490196 0.545098 0.615686 c 1 1 0.992157 c 865 165 m -5 18 d -15 12 d -18 2 d -18 -7 d -10 -16 d -18 Y 10 -15 d 18 -8 d 18 3 d 15 12 d f
 0.490196 0.545098 0.615686 c 865 165 m -5 18 d -15 12 d -18 2 d -18 -7 d -10 -16 d -18 Y 10 -15 d 18 -8 d 18 3 d 15 12 d 5 17 d cl s 1 1 0.992157 c 865 246 m -5 18 d -15 11 d -18 3 d -18 -7 d -10 -16 d -18 Y 10 -15 d 18 -8 d 18 3 d 15 12 d f
 0.490196 0.545098 0.615686 c 865 246 m -5 18 d -15 11 d -18 3 d -18 -7 d -10 -16 d -18 Y 10 -15 d 18 -8 d 18 3 d 15 12 d 5 17 d cl s 1 1 0.992157 c 865 327 m -5 17 d -15 12 d -18 3 d -18 -8 d -10 -15 d -18 Y 10 -16 d 18 -7 d 18 3 d 15 11 d f
 0.490196 0.545098 0.615686 c 865 327 m -5 17 d -15 12 d -18 3 d -18 -8 d -10 -15 d -18 Y 10 -16 d 18 -7 d 18 3 d 15 11 d 5 18 d cl s 1 1 0.992157 c 865 408 m -5 17 d -15 12 d -18 3 d -18 -8 d -10 -15 d -18 Y 10 -16 d 18 -7 d 18 2 d 15 12 d f
 0.490196 0.545098 0.615686 c 865 408 m -5 17 d -15 12 d -18 3 d -18 -8 d -10 -15 d -18 Y 10 -16 d 18 -7 d 18 2 d 15 12 d 5 18 d cl s 1 1 0.992157 c 865 489 m -5 17 d -15 12 d -18 3 d -18 -8 d -10 -15 d -18 Y 10 -16 d 18 -7 d 18 2 d 15 12 d f
 0.490196 0.545098 0.615686 c 865 489 m -5 17 d -15 12 d -18 3 d -18 -8 d -10 -15 d -18 Y 10 -16 d 18 -7 d 18 2 d 15 12 d 5 18 d cl s 1 1 0.992157 c 865 570 m -5 17 d -15 12 d -18 3 d -18 -8 d -10 -15 d -18 Y 10 -16 d 18 -7 d 18 2 d 15 12 d f
 0.490196 0.545098 0.615686 c 865 570 m -5 17 d -15 12 d -18 3 d -18 -8 d -10 -15 d -18 Y 10 -16 d 18 -7 d 18 2 d 15 12 d 5 18 d cl s 1 1 0.992157 c 865 651 m -5 17 d -15 12 d -18 3 d -18 -8 d -10 -15 d -19 Y 10 -15 d 18 -7 d 18 2 d 15 12 d f
 0.490196 0.545098 0.615686 c 865 651 m -5 17 d -15 12 d -18 3 d -18 -8 d -10 -15 d -19 Y 10 -15 d 18 -7 d 18 2 d 15 12 d 5 18 d cl s 1 1 0.992157 c 865 731 m -5 18 d -15 12 d -18 2 d -18 -7 d -10 -15 d -19 Y 10 -15 d 18 -8 d 18 3 d 15 12 d f
 0.490196 0.545098 0.615686 c 865 731 m -5 18 d -15 12 d -18 2 d -18 -7 d -10 -15 d -19 Y 10 -15 d 18 -8 d 18 3 d 15 12 d 5 17 d cl s 1 1 0.992157 c 865 812 m -5 18 d -15 12 d -18 2 d -18 -7 d -10 -16 d -18 Y 10 -15 d 18 -8 d 18 3 d 15 12 d f
 0.490196 0.545098 0.615686 c 865 812 m -5 18 d -15 12 d -18 2 d -18 -7 d -10 -16 d -18 Y 10 -15 d 18 -8 d 18 3 d 15 12 d 5 17 d cl s 1 1 0.992157 c 865 893 m -5 18 d -15 12 d -18 2 d -18 -7 d -10 -16 d -18 Y 10 -15 d 18 -8 d 18 3 d 15 12 d f
 0.490196 0.545098 0.615686 c 865 893 m -5 18 d -15 12 d -18 2 d -18 -7 d -10 -16 d -18 Y 10 -15 d 18 -8 d 18 3 d 15 12 d 5 17 d cl s 1 1 0.992157 c 865 974 m -5 18 d -15 12 d -18 2 d -18 -7 d -10 -16 d -18 Y 10 -15 d 18 -8 d 18 3 d 15 12 d f
 0.490196 0.545098 0.615686 c 865 974 m -5 18 d -15 12 d -18 2 d -18 -7 d -10 -16 d -18 Y 10 -15 d 18 -8 d 18 3 d 15 12 d 5 17 d cl s 1 1 0.992157 c 865 1055 m -5 18 d -15 12 d -18 2 d -18 -7 d -10 -16 d -18 Y 10 -15 d 18 -8 d 18 3 d 15 12 d f
 0.490196 0.545098 0.615686 c 865 1055 m -5 18 d -15 12 d -18 2 d -18 -7 d -10 -16 d -18 Y 10 -15 d 18 -8 d 18 3 d 15 12 d 5 17 d cl s 1 1 0.992157 c 865 1136 m -5 17 d -15 12 d -18 3 d -18 -8 d -10 -15 d -18 Y 10 -15 d 18 -8 d 18 3 d 15 11 d f
 0.490196 0.545098 0.615686 c 865 1136 m -5 17 d -15 12 d -18 3 d -18 -8 d -10 -15 d -18 Y 10 -15 d 18 -8 d 18 3 d 15 11 d 5 18 d cl s 1 1 0.992157 c 865 1217 m -5 17 d -15 12 d -18 3 d -18 -8 d -10 -15 d -18 Y 10 -16 d 18 -7 d 18 2 d 15 12 d f
 0.490196 0.545098 0.615686 c 865 1217 m -5 17 d -15 12 d -18 3 d -18 -8 d -10 -15 d -18 Y 10 -16 d 18 -7 d 18 2 d 15 12 d 5 18 d cl s 1 1 0.992157 c 865 1298 m -5 17 d -15 12 d -18 3 d -18 -8 d -10 -15 d -18 Y 10 -16 d 18 -7 d 18 2 d 15 12 d f
 0.490196 0.545098 0.615686 c 865 1298 m -5 17 d -15 12 d -18 3 d -18 -8 d -10 -15 d -18 Y 10 -16 d 18 -7 d 18 2 d 15 12 d 5 18 d cl s 1 1 0.992157 c 865 1379 m -5 17 d -15 12 d -18 3 d -18 -8 d -10 -15 d -18 Y 10 -16 d 18 -7 d 18 2 d 15 12 d f
 0.490196 0.545098 0.615686 c 865 1379 m -5 17 d -15 12 d -18 3 d -18 -8 d -10 -15 d -18 Y 10 -16 d 18 -7 d 18 2 d 15 12 d 5 18 d cl s 1 1 1 c black 1 1 1 c
 gsave  2268 1418 0 0 C 718.11 1358.84 t 0 r  -450 0 t /Helvetica-Bold findfont 52.262 sf 0 0 m (B_ipchi2_ownpv				 :) show NC gr  black 1 1 1 c
 gsave  2268 1418 0 0 C 718.11 1277.94 t 0 r  -453 0 t /Helvetica-Bold findfont 52.262 sf 0 0 m (B_fdchi2_ownpv				 :) show NC gr  black 1 1 1 c
 gsave  2268 1418 0 0 C 718.11 1197.03 t 0 r  -621 0 t /Helvetica-Bold findfont 52.262 sf 0 0 m (B_PVFit_chi2_div_ndof		 :) show NC gr  black 1 1 1 c
 gsave  2268 1418 0 0 C 718.11 1116.13 t 0 r  -535 0 t /Helvetica-Bold findfont 52.262 sf 0 0 m (B_PT_ASYMMETRY				 :) show NC gr  black 1 1 1 c
 gsave  2268 1418 0 0 C 718.11 1035.23 t 0 r  -656 0 t /Helvetica-Bold findfont 52.262 sf 0 0 m (K_1_1270_ipchi2_ownpv		 :) show NC gr  black 1 1 1 c
 gsave  2268 1418 0 0 C 718.11 954.324 t 0 r  -656 0 t /Helvetica-Bold findfont 52.262 sf 0 0 m (K_1_1270_plus_VERTEX		 :) show NC gr  black 1 1 1 c
 gsave  2268 1418 0 0 C 718.11 873.421 t 0 r  -706 0 t /Helvetica-Bold findfont 52.262 sf 0 0 m (Z_D_minus_Z_B_div_error		 :) show NC gr  black 1 1 1 c
 gsave  2268 1418 0 0 C 718.11 792.518 t 0 r  -582 0 t /Helvetica-Bold findfont 52.262 sf 0 0 m (Bach_Min_IPCHI2_PV			 :) show NC gr  black 1 1 1 c
 gsave  2268 1418 0 0 C 718.11 711.614 t 0 r  -379 0 t /Helvetica-Bold findfont 52.262 sf 0 0 m (Bach_Min_PT					 :) show NC gr  black 1 1 1 c
 gsave  2268 1418 0 0 C 718.11 630.711 t 0 r  -635 0 t /Helvetica-Bold findfont 52.262 sf 0 0 m (DdauPi_Min_IPCHI2_PV		 :) show NC gr  black 1 1 1 c
 gsave  2268 1418 0 0 C 718.11 549.808 t 0 r  -647 0 t /Helvetica-Bold findfont 52.262 sf 0 0 m (DdauPi_Max_IPCHI2_PV		 :) show NC gr  black 1 1 1 c
 gsave  2268 1418 0 0 C 718.11 468.905 t 0 r  -615 0 t /Helvetica-Bold findfont 52.262 sf 0 0 m (Max_cos_phi_D0_bach			 :) show NC gr  black 1 1 1 c
 gsave  2268 1418 0 0 C 718.11 388.002 t 0 r  -288 0 t /Helvetica-Bold findfont 52.262 sf 0 0 m (Massh1h2					 :) show NC gr  black 1 1 1 c
 gsave  2268 1418 0 0 C 718.11 307.098 t 0 r  -288 0 t /Helvetica-Bold findfont 52.262 sf 0 0 m (Massh2h3					 :) show NC gr  black 1 1 1 c
 gsave  2268 1418 0 0 C 718.11 226.195 t 0 r  -621 0 t /Helvetica-Bold findfont 52.262 sf 0 0 m (KSdau_Min_IPCHI2_PV			 :) show NC gr  black 1 1 1 c
 gsave  2268 1418 0 0 C 718.11 145.292 t 0 r  -632 0 t /Helvetica-Bold findfont 52.262 sf 0 0 m (KSdau_Max_IPCHI2_PV			 :) show NC gr  0.686275 0.862745 0.92549 c black 0.686275 0.862745 0.92549 c
 gsave  2268 1418 0 0 C 718.11 64.3889 t 0 r  -285 0 t /Helvetica-Bold findfont 52.262 sf 0 0 m (Bias node :) show NC gr  0.35 0.33 0.85 c 1 1 0.992157 c 1461 73 m -7 17 d -18 7 d -17 -7 d -8 -17 d 8 -17 d 17 -7 d 18 7 d f 0.35 0.33 0.85 c 1461 73 m
 -7 17 d -18 7 d -17 -7 d -8 -17 d 8 -17 d 17 -7 d 18 7 d 7 17 d s 0.490196 0.545098 0.615686 c 1 1 0.992157 c 1461 133 m -7 17 d -18 7 d -17 -7 d -8 -17 d 8 -17 d 17 -7 d 18 7 d f 0.490196 0.545098 0.615686 c 1461 133 m -7 17 d -18 7 d -17 -7 d -8
 -17 d 8 -17 d 17 -7 d 18 7 d 7 17 d cl s 1 1 0.992157 c 1461 193 m -7 17 d -18 7 d -17 -7 d -8 -17 d 8 -17 d 17 -7 d 18 7 d f 0.490196 0.545098 0.615686 c 1461 193 m -7 17 d -18 7 d -17 -7 d -8 -17 d 8 -17 d 17 -7 d 18 7 d 7 17 d cl s 1 1 0.992157 c
 1461 253 m -7 17 d -18 7 d -17 -7 d -8 -17 d 8 -17 d 17 -7 d 18 7 d f 0.490196 0.545098 0.615686 c 1461 253 m -7 17 d -18 7 d -17 -7 d -8 -17 d 8 -17 d 17 -7 d 18 7 d 7 17 d cl s 1 1 0.992157 c 1461 313 m -7 16 d -18 7 d -17 -7 d -8 -16 d 8 -17 d 17
 -7 d 18 7 d f 0.490196 0.545098 0.615686 c 1461 313 m -7 16 d -18 7 d -17 -7 d -8 -16 d 8 -17 d 17 -7 d 18 7 d 7 17 d cl s 1 1 0.992157 c 1461 372 m -7 17 d -18 7 d -17 -7 d -8 -17 d 8 -17 d 17 -7 d 18 7 d f 0.490196 0.545098 0.615686 c 1461 372 m
 -7 17 d -18 7 d -17 -7 d -8 -17 d 8 -17 d 17 -7 d 18 7 d 7 17 d cl s 1 1 0.992157 c 1461 432 m -7 17 d -18 7 d -17 -7 d -8 -17 d 8 -17 d 17 -7 d 18 7 d f 0.490196 0.545098 0.615686 c 1461 432 m -7 17 d -18 7 d -17 -7 d -8 -17 d 8 -17 d 17 -7 d 18 7
 d 7 17 d cl s 1 1 0.992157 c 1461 492 m -7 17 d -18 7 d -17 -7 d -8 -17 d 8 -17 d 17 -7 d 18 7 d f 0.490196 0.545098 0.615686 c 1461 492 m -7 17 d -18 7 d -17 -7 d -8 -17 d 8 -17 d 17 -7 d 18 7 d 7 17 d cl s 1 1 0.992157 c 1461 552 m -7 17 d -18 7 d
 -17 -7 d -8 -17 d 8 -17 d 17 -7 d 18 7 d f 0.490196 0.545098 0.615686 c 1461 552 m -7 17 d -18 7 d -17 -7 d -8 -17 d 8 -17 d 17 -7 d 18 7 d 7 17 d cl s 1 1 0.992157 c 1461 612 m -7 16 d -18 7 d -17 -7 d -8 -16 d 8 -17 d 17 -7 d 18 7 d f 0.490196
 0.545098 0.615686 c 1461 612 m -7 16 d -18 7 d -17 -7 d -8 -16 d 8 -17 d 17 -7 d 18 7 d 7 17 d cl s 1 1 0.992157 c 1461 671 m -7 17 d -18 7 d -17 -7 d -8 -17 d 8 -17 d 17 -7 d 18 7 d f 0.490196 0.545098 0.615686 c 1461 671 m -7 17 d -18 7 d -17 -7 d
 -8 -17 d 8 -17 d 17 -7 d 18 7 d 7 17 d cl s 1 1 0.992157 c 1461 731 m -7 17 d -18 7 d -17 -7 d -8 -17 d 8 -17 d 17 -7 d 18 7 d f 0.490196 0.545098 0.615686 c 1461 731 m -7 17 d -18 7 d -17 -7 d -8 -17 d 8 -17 d 17 -7 d 18 7 d 7 17 d cl s 1 1
 0.992157 c 1461 791 m -7 17 d -18 7 d -17 -7 d -8 -17 d 8 -17 d 17 -7 d 18 7 d f 0.490196 0.545098 0.615686 c 1461 791 m -7 17 d -18 7 d -17 -7 d -8 -17 d 8 -17 d 17 -7 d 18 7 d 7 17 d cl s 1 1 0.992157 c 1461 851 m -7 17 d -18 7 d -17 -7 d -8 -17 d
 8 -17 d 17 -7 d 18 7 d f 0.490196 0.545098 0.615686 c 1461 851 m -7 17 d -18 7 d -17 -7 d -8 -17 d 8 -17 d 17 -7 d 18 7 d 7 17 d cl s 1 1 0.992157 c 1461 911 m -7 16 d -18 7 d -17 -7 d -8 -16 d 8 -17 d 17 -7 d 18 7 d f 0.490196 0.545098 0.615686 c
 1461 911 m -7 16 d -18 7 d -17 -7 d -8 -16 d 8 -17 d 17 -7 d 18 7 d 7 17 d cl s 1 1 0.992157 c 1461 970 m -7 17 d -18 7 d -17 -7 d -8 -17 d 8 -17 d 17 -7 d 18 7 d f 0.490196 0.545098 0.615686 c 1461 970 m -7 17 d -18 7 d -17 -7 d -8 -17 d 8 -17 d 17
 -7 d 18 7 d 7 17 d cl s 1 1 0.992157 c 1461 1030 m -7 17 d -18 7 d -17 -7 d -8 -17 d 8 -17 d 17 -7 d 18 7 d f 0.490196 0.545098 0.615686 c 1461 1030 m -7 17 d -18 7 d -17 -7 d -8 -17 d 8 -17 d 17 -7 d 18 7 d 7 17 d cl s 1 1 0.992157 c 1461 1090 m -7
 17 d -18 7 d -17 -7 d -8 -17 d 8 -17 d 17 -7 d 18 7 d f 0.490196 0.545098 0.615686 c 1461 1090 m -7 17 d -18 7 d -17 -7 d -8 -17 d 8 -17 d 17 -7 d 18 7 d 7 17 d cl s 1 1 0.992157 c 1461 1150 m -7 17 d -18 7 d -17 -7 d -8 -17 d 8 -17 d 17 -7 d 18 7 d
 f 0.490196 0.545098 0.615686 c 1461 1150 m -7 17 d -18 7 d -17 -7 d -8 -17 d 8 -17 d 17 -7 d 18 7 d 7 17 d cl s 1 1 0.992157 c 1461 1210 m -7 16 d -18 7 d -17 -7 d -8 -16 d 8 -17 d 17 -7 d 18 7 d f 0.490196 0.545098 0.615686 c 1461 1210 m -7 16 d
 -18 7 d -17 -7 d -8 -16 d 8 -17 d 17 -7 d 18 7 d 7 17 d cl s 1 1 0.992157 c 1461 1269 m -7 17 d -18 7 d -17 -7 d -8 -17 d 8 -17 d 17 -7 d 18 7 d f 0.490196 0.545098 0.615686 c 1461 1269 m -7 17 d -18 7 d -17 -7 d -8 -17 d 8 -17 d 17 -7 d 18 7 d 7 17
 d cl s 1 1 0.992157 c 1461 1329 m -7 17 d -18 7 d -17 -7 d -8 -17 d 8 -17 d 17 -7 d 18 7 d f 0.490196 0.545098 0.615686 c 1461 1329 m -7 17 d -18 7 d -17 -7 d -8 -17 d 8 -17 d 17 -7 d 18 7 d 7 17 d cl s 1 1 0.992157 c 1461 1389 m -7 17 d -18 7 d -17
 -7 d -8 -17 d 8 -17 d 17 -7 d 18 7 d f 0.490196 0.545098 0.615686 c 1461 1389 m -7 17 d -18 7 d -17 -7 d -8 -17 d 8 -17 d 17 -7 d 18 7 d 7 17 d cl s 0 1 0.0533333 c black 0 1 0.0533333 c 865 1379 m 546 10 d s 1395 1398 m 16 -9 d -15 -10 d s 0.506667
 1 0 c 6 lw black 0.506667 1 0 c 865 1379 m 546 -50 d s 1396 1340 m 15 -11 d -16 -8 d s 0.32 1 0 c 3 lw black 0.32 1 0 c 865 1379 m 546 -110 d s 1398 1281 m 13 -12 d -17 -6 d s 0.88 1 0 c 9 lw black 0.88 1 0 c 865 1379 m 546 -169 d s 1399 1223 m 12
 -13 d -18 -5 d s 0 1 0.333333 c 6 lw black 0 1 0.333333 c 865 1379 m 546 -229 d s 1400 1164 m 11 -14 d -18 -3 d s 0 1 0.146667 c 3 lw black 0 1 0.146667 c 865 1379 m 546 -289 d s 1402 1105 m 9 -15 d -18 -1 d s 0 1 0.0533333 c black 0 1 0.0533333 c
 865 1379 m 546 -349 d s 1403 1046 m 8 -16 d -18 1 d s 0.6 1 0 c 6 lw black 0.6 1 0 c 865 1379 m 546 -409 d s 1404 987 m 7 -17 d -18 2 d s 0 1 0.146667 c 3 lw black 0 1 0.146667 c 865 1379 m 546 -468 d s 1405 928 m 6 -17 d -18 3 d s 0.0399999 1 0 c
 black 0 1 0.24 c 6 lw black 0 1 0.24 c 865 1379 m 546 -588 d s 1407 809 m 4 -18 d -17 5 d s 0.133333 1 0 c black 0 1 0.146667 c 3 lw black 0 1 0.146667 c 865 1379 m 546 -708 d s 1409 690 m 2 -19 d -17 7 d s 0 1 0.333333 c 6 lw black 0 1 0.333333 c
 865 1379 m 546 -767 d s 1410 630 m 1 -18 d -16 7 d s 0 1 0.146667 c 3 lw black 0 1 0.146667 c 865 1379 m 546 -827 d s 1410 570 m 1 -18 d -16 8 d s 0.32 1 0 c black 0.32 1 0 c 865 1379 m 546 -887 d s 1411 510 m -18 Y -16 9 d s 0.133333 1 0 c black
 0.506667 1 0 c 6 lw black 0.506667 1 0 c 865 1379 m 546 -1007 d s 1412 391 m -1 -19 d -15 10 d s 0.133333 1 0 c black 0.506667 1 0 c 6 lw black 0.506667 1 0 c 865 1379 m 546 -1126 d s 1413 271 m -2 -18 d -15 10 d s 0.0399999 1 0 c black 0.32 1 0 c 3
 lw black 0.32 1 0 c 865 1379 m 546 -1246 d s 1413 151 m -2 -18 d -14 11 d s black 0.32 1 0 c 865 1298 m 546 91 d s 1394 1395 m 17 -6 d -14 -12 d s 0.133333 1 0 c black 0 1 0.146667 c 3 lw black 0 1 0.146667 c 865 1298 m 546 -29 d s 1396 1279 m 15
 -10 d -16 -8 d s 0.226667 1 0 c black 0.506667 1 0 c 3 lw black 0.506667 1 0 c 865 1298 m 546 -148 d s 1398 1163 m 13 -13 d -17 -5 d s 0 1 0.0533333 c black 0 1 0.0533333 c 865 1298 m 546 -208 d s 1400 1104 m 11 -14 d -18 -3 d s 0 1 0.333333 c 6 lw
 black 0 1 0.333333 c 865 1298 m 546 -268 d s 1401 1045 m 10 -15 d -18 -1 d s 0.133333 1 0 c black 0.413333 1 0 c 3 lw black 0.413333 1 0 c 865 1298 m 546 -387 d s 1404 927 m 7 -16 d -18 1 d s black 0.413333 1 0 c 865 1298 m 546 -447 d s 1405 868 m 6
 -17 d -18 3 d s 0.226667 1 0 c black 0.226667 1 0 c 865 1298 m 546 -507 d s 1406 808 m 5 -17 d -18 4 d s 0.0399999 1 0 c black 0.133333 1 0 c black 0.226667 1 0 c black 0 1 0.333333 c 6 lw black 0 1 0.333333 c 865 1298 m 546 -746 d s 1409 570 m 2
 -18 d -16 7 d s 0.786667 1 0 c 9 lw black 0.786667 1 0 c 865 1298 m 546 -806 d s 1410 510 m 1 -18 d -16 8 d s 0 1 0.146667 c 3 lw black 0 1 0.146667 c 865 1298 m 546 -866 d s 1411 450 m -18 Y -16 9 d s 0.413333 1 0 c black 0.413333 1 0 c 865 1298 m
 546 -926 d s 1411 391 m -19 Y -16 9 d s 0.32 1 0 c black 0.32 1 0 c 865 1298 m 546 -985 d s 1412 331 m -1 -18 d -15 9 d s black 0.32 1 0 c 865 1298 m 546 -1045 d s 1412 271 m -1 -18 d -15 10 d s 0.413333 1 0 c black 0.413333 1 0 c 865 1298 m 546
 -1105 d s 1413 211 m -2 -18 d -15 10 d s 0.506667 1 0 c black 0.506667 1 0 c 865 1298 m 546 -1165 d s 1413 151 m -2 -18 d -15 11 d s 0 1 0.0533333 c black 0 1 0.0533333 c 865 1217 m 546 172 d s 1393 1393 m 18 -4 d -12 -14 d s 0 1 0.333333 c 6 lw
 black 0 1 0.333333 c 865 1217 m 546 112 d s 1394 1335 m 17 -6 d -13 -12 d s 0.32 1 0 c 3 lw black 0.32 1 0 c 865 1217 m 546 52 d s 1395 1277 m 16 -8 d -15 -10 d s 0.0399999 1 0 c black 0.506667 1 0 c 3 lw black 0.506667 1 0 c 865 1217 m 546 -67 d s
 1397 1161 m 14 -11 d -17 -7 d s black 0.506667 1 0 c 865 1217 m 546 -127 d s 1398 1102 m 13 -12 d -17 -5 d s 0.413333 1 0 c black 0.413333 1 0 c 865 1217 m 546 -187 d s 1399 1044 m 12 -14 d -18 -3 d s black 0.413333 1 0 c 865 1217 m 546 -247 d s
 1401 985 m 10 -15 d -18 -1 d s 0 1 0.146667 c black 0 1 0.146667 c 865 1217 m 546 -306 d s 1402 926 m 9 -15 d -18 -1 d s 0.32 1 0 c black 0.32 1 0 c 865 1217 m 546 -366 d s 1403 867 m 8 -16 d -18 1 d s 0 1 0.893333 c 12 lw black 0 1 0.893333 c 865
 1217 m 546 -426 d s 1404 808 m 7 -17 d -18 2 d s 0 1 0.426667 c 6 lw black 0 1 0.426667 c 865 1217 m 546 -486 d s 1406 749 m 5 -18 d -18 4 d s 0 1 0.146667 c 3 lw black 0 1 0.146667 c 865 1217 m 546 -546 d s 1407 689 m 4 -18 d -17 5 d s 0 1 0.426667
 c 6 lw black 0 1 0.426667 c 865 1217 m 546 -605 d s 1408 629 m 3 -17 d -17 5 d s 0.133333 1 0 c black 0.6 1 0 c 6 lw black 0.6 1 0 c 865 1217 m 546 -725 d s 1409 510 m 2 -18 d -17 7 d s 0 0.266667 1 c 24 lw black 0 0.266667 1 c 865 1217 m 546 -785 d
 s 1410 450 m 1 -18 d -16 8 d s 0.226667 1 0 c black 0.0399999 1 0 c black 0.32 1 0 c 3 lw black 0.32 1 0 c 865 1217 m 546 -964 d s 1412 271 m -1 -18 d -15 9 d s 0.693333 1 0 c 6 lw black 0.693333 1 0 c 865 1217 m 546 -1024 d s 1412 211 m -1 -18 d
 -15 10 d s 0 1 0.146667 c 3 lw black 0 1 0.146667 c 865 1217 m 546 -1084 d s 1412 151 m -1 -18 d -15 10 d s 0.226667 1 0 c black 0.226667 1 0 c 865 1136 m 546 253 d s 1393 1391 m 18 -2 d -10 -15 d s 0 1 0.333333 c 6 lw black 0 1 0.333333 c 865 1136
 m 546 193 d s 1393 1332 m 18 -3 d -12 -14 d s 0.0399999 1 0 c black 0 1 0.146667 c 3 lw black 0 1 0.146667 c 865 1136 m 546 74 d s 1394 1216 m 17 -6 d -14 -12 d s 0 1 0.0533333 c black 0 1 0.0533333 c 865 1136 m 546 14 d s 1395 1158 m 16 -8 d -15
 -10 d s 0 1 0.24 c black 0 1 0.24 c 865 1136 m 546 -46 d s 1396 1100 m 15 -10 d -16 -8 d s 0.133333 1 0 c black 0.413333 1 0 c 3 lw black 0.413333 1 0 c 865 1136 m 546 -166 d s 1399 984 m 12 -14 d -17 -4 d s 0.32 1 0 c black 0.32 1 0 c 865 1136 m
 546 -225 d s 1400 925 m 11 -14 d -18 -3 d s 0.0399999 1 0 c black 0.413333 1 0 c 3 lw black 0.413333 1 0 c 865 1136 m 546 -345 d s 1403 807 m 8 -16 d -18 1 d s 0 1 0.613333 c 9 lw black 0 1 0.613333 c 865 1136 m 546 -405 d s 1404 748 m 7 -17 d -18 2
 d s 0.32 1 0 c 3 lw black 0.32 1 0 c 865 1136 m 546 -465 d s 1405 689 m 6 -18 d -18 4 d s black 0.32 1 0 c 865 1136 m 546 -524 d s 1406 629 m 5 -17 d -17 4 d s 0.973333 1 0 c 12 lw black 0.973333 1 0 c 865 1136 m 546 -584 d s 1407 570 m 4 -18 d -17
 5 d s 0 1 0.333333 c 6 lw black 0 1 0.333333 c 865 1136 m 546 -644 d s 1408 510 m 3 -18 d -17 6 d s 0.226667 1 0 c 3 lw black 0.226667 1 0 c 865 1136 m 546 -704 d s 1409 450 m 2 -18 d -17 7 d s 0 1 0.0533333 c black 0 1 0.0533333 c 865 1136 m 546
 -764 d s 1410 391 m 1 -19 d -16 8 d s black 0 1 0.0533333 c 865 1136 m 546 -823 d s 1410 331 m 1 -18 d -16 8 d s 0.133333 1 0 c black 0.0399999 1 0 c black 0.413333 1 0 c 3 lw black 0.413333 1 0 c 865 1136 m 546 -1003 d s 1412 151 m -1 -18 d -15 10
 d s 0 1 0.24 c 6 lw black 0 1 0.24 c 865 1055 m 546 334 d s 1393 1388 m 18 1 d -8 -16 d s 0 1 0.146667 c 3 lw black 0 1 0.146667 c 865 1055 m 546 274 d s 1393 1330 m 18 -1 d -10 -15 d s 0.0399999 1 0 c black 0.133333 1 0 c black 0.506667 1 0 c 6 lw
 black 0.506667 1 0 c 865 1055 m 546 95 d s 1394 1156 m 17 -6 d -14 -12 d s 0 1 0.146667 c 3 lw black 0 1 0.146667 c 865 1055 m 546 35 d s 1395 1098 m 16 -8 d -15 -10 d s 0.0399999 1 0 c black 0.0399999 1 0 c 865 1055 m 546 -25 d s 1396 1040 m 15 -10
 d -16 -8 d s 0.506667 1 0 c 6 lw black 0.506667 1 0 c 865 1055 m 546 -85 d s 1397 982 m 14 -12 d -17 -6 d s 0.0399999 1 0 c black 0 1 0.24 c 6 lw black 0 1 0.24 c 865 1055 m 546 -204 d s 1400 865 m 11 -14 d -18 -3 d s 0 1 0.0533333 c 3 lw black 0 1
 0.0533333 c 865 1055 m 546 -264 d s 1401 806 m 10 -15 d -18 -1 d s 0.0399999 1 0 c black 0 1 0.333333 c 6 lw black 0 1 0.333333 c 865 1055 m 546 -384 d s 1404 688 m 7 -17 d -18 2 d s 0 1 0.146667 c 3 lw black 0 1 0.146667 c 865 1055 m 546 -443 d s
 1405 629 m 6 -17 d -18 2 d s 0.133333 1 0 c black 0.88 1 0 c 9 lw black 0.88 1 0 c 865 1055 m 546 -563 d s 1407 510 m 4 -18 d -17 5 d s 0 1 0.333333 c 6 lw black 0 1 0.333333 c 865 1055 m 546 -623 d s 1408 450 m 3 -18 d -17 6 d s 0.506667 1 0 c
 black 0.506667 1 0 c 865 1055 m 546 -683 d s 1409 390 m 2 -18 d -17 7 d s 0 1 0.146667 c 3 lw black 0 1 0.146667 c 865 1055 m 546 -742 d s 1409 331 m 2 -18 d -16 7 d s 0 1 0.0533333 c black 0 1 0.0533333 c 865 1055 m 546 -802 d s 1410 271 m 1 -18 d
 -16 8 d s 0.0399999 1 0 c black 0.133333 1 0 c black 0 1 0.24 c 3 lw black 0 1 0.24 c 865 974 m 546 415 d s 1393 1387 m 18 2 d -7 -17 d s 0 1 0.0533333 c black 0 1 0.0533333 c 865 974 m 546 355 d s 1393 1328 m 18 1 d -8 -16 d s 0.226667 1 0 c black
 0.0399999 1 0 c black 0 1 0.24 c 3 lw black 0 1 0.24 c 865 974 m 546 176 d s 1393 1154 m 18 -4 d -12 -14 d s 0.693333 1 0 c 6 lw black 0.693333 1 0 c 865 974 m 546 116 d s 1394 1096 m 17 -6 d -13 -12 d s 0 1 0.146667 c 3 lw black 0 1 0.146667 c 865
 974 m 546 56 d s 1395 1038 m 16 -8 d -15 -11 d s 0 1 0.0533333 c black 0 1 0.0533333 c 865 974 m 546 -4 d s 1396 980 m 15 -10 d -16 -9 d s 0.413333 1 0 c black 0.413333 1 0 c 865 974 m 546 -63 d s 1397 921 m 14 -10 d -16 -8 d s 0 1 0.146667 c black
 0 1 0.146667 c 865 974 m 546 -123 d s 1398 863 m 13 -12 d -17 -6 d s 0 1 0.333333 c 6 lw black 0 1 0.333333 c 865 974 m 546 -183 d s 1399 805 m 12 -14 d -18 -4 d s 0.133333 1 0 c black 0.0399999 1 0 c black 0.88 1 0 c 9 lw black 0.88 1 0 c 865 974 m
 546 -362 d s 1403 628 m 8 -16 d -18 1 d s 0.32 1 0 c 3 lw black 0.32 1 0 c 865 974 m 546 -422 d s 1404 569 m 7 -17 d -18 2 d s black 0.32 1 0 c 865 974 m 546 -482 d s 1406 509 m 5 -17 d -18 4 d s 0.0399999 1 0 c black 0.226667 1 0 c black 0 1 0.24 c
 6 lw black 0 1 0.24 c 865 974 m 546 -661 d s 1408 331 m 3 -18 d -17 6 d s 0.32 1 0 c 3 lw black 0.32 1 0 c 865 974 m 546 -721 d s 1409 271 m 2 -18 d -17 7 d s 0.226667 1 0 c black 0 1 0.333333 c 6 lw black 0 1 0.333333 c 865 974 m 546 -841 d s 1410
 151 m 1 -18 d -16 8 d s 0.32 1 0 c 3 lw black 0.32 1 0 c 865 893 m 546 496 d s 1393 1385 m 18 4 d -5 -18 d s 0 1 0.24 c 6 lw black 0 1 0.24 c 865 893 m 546 436 d s 1393 1326 m 18 3 d -6 -17 d s 0.226667 1 0 c black 0.413333 1 0 c 3 lw black 0.413333
 1 0 c 865 893 m 546 317 d s 1393 1210 m 18 X -9 -16 d s 0.506667 1 0 c 6 lw black 0.506667 1 0 c 865 893 m 546 257 d s 1393 1151 m 18 -1 d -10 -15 d s 0 1 0.24 c 3 lw black 0 1 0.24 c 865 893 m 546 197 d s 1393 1093 m 18 -3 d -11 -14 d s 0.32 1 0 c
 black 0.32 1 0 c 865 893 m 546 137 d s 1394 1035 m 17 -5 d -13 -13 d s 0.506667 1 0 c black 0.506667 1 0 c 865 893 m 546 77 d s 1394 977 m 17 -7 d -14 -11 d s 0.6 1 0 c 6 lw black 0.6 1 0 c 865 893 m 546 18 d s 1395 919 m 16 -8 d -15 -10 d s
 0.133333 1 0 c black 0.133333 1 0 c black 0 1 0.146667 c 3 lw black 0 1 0.146667 c 865 893 m 546 -162 d s 1399 744 m 12 -13 d -17 -4 d s 0 1 0.24 c black 0 1 0.24 c 865 893 m 546 -222 d s 1400 686 m 11 -15 d -18 -2 d s 0.32 1 0 c black 0.32 1 0 c
 865 893 m 546 -281 d s 1401 627 m 10 -15 d -18 -1 d s 0.6 1 0 c 6 lw black 0.6 1 0 c 865 893 m 546 -341 d s 1403 568 m 8 -16 d -18 X s 0.0399999 1 0 c black 0.133333 1 0 c black 0.226667 1 0 c black 0 1 0.24 c 6 lw black 0 1 0.24 c 865 893 m 546
 -580 d s 1407 330 m 4 -17 d -17 5 d s 0.32 1 0 c 3 lw black 0.32 1 0 c 865 893 m 546 -640 d s 1408 271 m 3 -18 d -17 6 d s 0.693333 1 0 c 9 lw black 0.693333 1 0 c 865 893 m 546 -700 d s 1409 211 m 2 -18 d -17 7 d s 0 1 0.0533333 c 3 lw black 0 1
 0.0533333 c 865 893 m 546 -760 d s 1410 151 m 1 -18 d -16 8 d s 0.0399999 1 0 c black 0.133333 1 0 c black 0.32 1 0 c 3 lw black 0.32 1 0 c 865 812 m 546 457 d s 1393 1266 m 18 3 d -6 -17 d s black 0.32 1 0 c 865 812 m 546 398 d s 1393 1208 m 18 2 d
 -7 -17 d s black 0.32 1 0 c 865 812 m 546 338 d s 1393 1149 m 18 1 d -8 -16 d s 0 1 0.146667 c black 0 1 0.146667 c 865 812 m 546 278 d s 1393 1091 m 18 -1 d -10 -15 d s 0.32 1 0 c black 0.32 1 0 c 865 812 m 546 218 d s 1393 1033 m 18 -3 d -11 -14 d
 s black 0.32 1 0 c 865 812 m 546 158 d s 1394 975 m 17 -5 d -12 -13 d s black 0.32 1 0 c 865 812 m 546 99 d s 1394 917 m 17 -6 d -14 -12 d s 0.226667 1 0 c black 0.6 1 0 c 6 lw black 0.6 1 0 c 865 812 m 546 -21 d s 1396 801 m 15 -10 d -16 -9 d s
 0.133333 1 0 c black 0 1 0.0533333 c 3 lw black 0 1 0.0533333 c 865 812 m 546 -141 d s 1398 684 m 13 -13 d -17 -5 d s 0.506667 1 0 c 6 lw black 0.506667 1 0 c 865 812 m 546 -200 d s 1400 626 m 11 -14 d -18 -4 d s 0.0399999 1 0 c black 0 1 0.0533333
 c 3 lw black 0 1 0.0533333 c 865 812 m 546 -320 d s 1402 508 m 9 -16 d -18 X s 0.506667 1 0 c 6 lw black 0.506667 1 0 c 865 812 m 546 -380 d s 1404 449 m 7 -17 d -18 2 d s 0.32 1 0 c 3 lw black 0.32 1 0 c 865 812 m 546 -440 d s 1405 389 m 6 -17 d
 -18 3 d s 0.0399999 1 0 c black 0.0399999 1 0 c 865 812 m 546 -499 d s 1406 330 m 5 -17 d -18 4 d s 0.506667 1 0 c 6 lw black 0.506667 1 0 c 865 812 m 546 -559 d s 1407 271 m 4 -18 d -17 5 d s 0.786667 1 0 c 9 lw black 0.786667 1 0 c 865 812 m 546
 -619 d s 1408 211 m 3 -18 d -17 6 d s 0 1 0.24 c 6 lw black 0 1 0.24 c 865 812 m 546 -679 d s 1409 151 m 2 -18 d -17 7 d s 0.413333 1 0 c 3 lw black 0.413333 1 0 c 865 731 m 546 658 d s 1394 1383 m 17 6 d -3 -18 d s 0.133333 1 0 c black 0.226667 1 0
 c 3 lw black 0.226667 1 0 c 865 731 m 546 538 d s 1394 1265 m 17 4 d -5 -17 d s 0 1 0.0533333 c black 0 1 0.0533333 c 865 731 m 546 479 d s 1393 1206 m 18 4 d -6 -18 d s 0 1 0.24 c 6 lw black 0 1 0.24 c 865 731 m 546 419 d s 1393 1147 m 18 3 d -7
 -17 d s 0.32 1 0 c 3 lw black 0.32 1 0 c 865 731 m 546 359 d s 1393 1089 m 18 1 d -8 -16 d s 0.693333 1 0 c 9 lw black 0.693333 1 0 c 865 731 m 546 299 d s 1393 1031 m 18 -1 d -9 -16 d s 0 1 0.24 c 6 lw black 0 1 0.24 c 865 731 m 546 239 d s 1393
 972 m 18 -2 d -11 -14 d s 0.0399999 1 0 c black 0.133333 1 0 c black 0.133333 1 0 c black 0.786667 1 0 c 9 lw black 0.786667 1 0 c 865 731 m 546 X s 1395 740 m 16 -9 d -16 -9 d s 0.0399999 1 0 c black 0.133333 1 0 c black 0 1 0.0533333 c 3 lw black
 0 1 0.0533333 c 865 731 m 546 -179 d s 1399 565 m 12 -13 d -18 -4 d s 0.226667 1 0 c black 0.693333 1 0 c 6 lw black 0.693333 1 0 c 865 731 m 546 -299 d s 1402 448 m 9 -16 d -18 X s 0.413333 1 0 c 3 lw black 0.413333 1 0 c 865 731 m 546 -359 d s
 1403 389 m 8 -17 d -18 1 d s 0.133333 1 0 c black 0 1 0.0533333 c 3 lw black 0 1 0.0533333 c 865 731 m 546 -478 d s 1405 270 m 6 -17 d -18 3 d s 0 1 0.24 c 6 lw black 0 1 0.24 c 865 731 m 546 -538 d s 1406 211 m 5 -18 d -17 5 d s 0.6 1 0 c black 0.6
 1 0 c 865 731 m 546 -598 d s 1407 151 m 4 -18 d -17 6 d s 0.32 1 0 c 3 lw black 0.32 1 0 c 865 651 m 546 738 d s 1395 1382 m 16 7 d -2 -18 d s 0 1 0.0533333 c black 0 1 0.0533333 c 865 651 m 546 678 d s 1394 1322 m 17 7 d -2 -18 d s 0.133333 1 0 c
 black 0.32 1 0 c 3 lw black 0.32 1 0 c 865 651 m 546 559 d s 1394 1205 m 17 5 d -4 -18 d s 0.133333 1 0 c black 0 1 0.24 c 3 lw black 0 1 0.24 c 865 651 m 546 439 d s 1393 1087 m 18 3 d -6 -17 d s 0.506667 1 0 c 6 lw black 0.506667 1 0 c 865 651 m
 546 379 d s 1393 1029 m 18 1 d -7 -16 d s 0.32 1 0 c 3 lw black 0.32 1 0 c 865 651 m 546 319 d s 1393 970 m 18 X -9 -16 d s 0.133333 1 0 c black 0.0399999 1 0 c 3 lw black 0.0399999 1 0 c 865 651 m 546 200 d s 1393 854 m 18 -3 d -11 -14 d s 0.6 1 0
 c 6 lw black 0.6 1 0 c 865 651 m 546 140 d s 1394 796 m 17 -5 d -13 -13 d s 0.413333 1 0 c 3 lw black 0.413333 1 0 c 865 651 m 546 80 d s 1394 738 m 17 -7 d -14 -11 d s 0.226667 1 0 c black 0.226667 1 0 c black 0 1 0.613333 c 9 lw black 0 1 0.613333
 c 865 651 m 546 -99 d s 1397 564 m 14 -12 d -17 -6 d s 0.0399999 1 0 c black 0.786667 1 0 c 9 lw black 0.786667 1 0 c 865 651 m 546 -219 d s 1400 447 m 11 -15 d -18 -2 d s 0.413333 1 0 c 3 lw black 0.413333 1 0 c 865 651 m 546 -279 d s 1401 388 m 10
 -16 d -18 -1 d s 0.226667 1 0 c black 0.226667 1 0 c 865 651 m 546 -338 d s 1403 329 m 8 -16 d -18 X s black 0.32 1 0 c 3 lw black 0.32 1 0 c 865 651 m 546 -458 d s 1405 210 m 6 -17 d -18 3 d s 0 1 0.24 c 6 lw black 0 1 0.24 c 865 651 m 546 -518 d s
 1406 151 m 5 -18 d -17 4 d s 0 1 0.0533333 c 3 lw black 0 1 0.0533333 c 865 570 m 546 819 d s 1395 1381 m 16 8 d -1 -18 d s 0.133333 1 0 c black 0 1 0.146667 c 3 lw black 0 1 0.146667 c 865 570 m 546 699 d s 1394 1262 m 17 7 d -2 -18 d s 0.413333 1
 0 c black 0.413333 1 0 c 865 570 m 546 640 d s 1394 1203 m 17 7 d -3 -19 d s 0.506667 1 0 c 6 lw black 0.506667 1 0 c 865 570 m 546 580 d s 1394 1144 m 17 6 d -4 -18 d s 0 1 0.146667 c 3 lw black 0 1 0.146667 c 865 570 m 546 520 d s 1394 1086 m 17 4
 d -5 -18 d s 0.32 1 0 c black 0.32 1 0 c 865 570 m 546 460 d s 1393 1027 m 18 3 d -6 -17 d s 0.133333 1 0 c black 0 1 0.146667 c 3 lw black 0 1 0.146667 c 865 570 m 546 341 d s 1393 910 m 18 1 d -8 -17 d s black 0 1 0.146667 c 865 570 m 546 281 d s
 1393 852 m 18 -1 d -10 -16 d s 0.693333 1 0 c 6 lw black 0.693333 1 0 c 865 570 m 546 221 d s 1393 793 m 18 -2 d -11 -15 d s 0.226667 1 0 c black 0.32 1 0 c 3 lw black 0.32 1 0 c 865 570 m 546 101 d s 1394 677 m 17 -6 d -14 -12 d s 0.0399999 1 0 c
 black 0.413333 1 0 c 3 lw black 0.413333 1 0 c 865 570 m 546 -18 d s 1396 561 m 15 -9 d -16 -9 d s 0.0399999 1 0 c black 0.0399999 1 0 c 865 570 m 546 -78 d s 1397 503 m 14 -11 d -17 -7 d s 0.786667 1 0 c 9 lw black 0.786667 1 0 c 865 570 m 546 -138
 d s 1398 445 m 13 -13 d -17 -5 d s 0.133333 1 0 c black 0 1 0.24 c 6 lw black 0 1 0.24 c 865 570 m 546 -257 d s 1401 328 m 10 -15 d -18 -2 d s 0 1 0.146667 c 3 lw black 0 1 0.146667 c 865 570 m 546 -317 d s 1402 269 m 9 -16 d -18 X s 0 1 0.52 c 9 lw
 black 0 1 0.52 c 865 570 m 546 -377 d s 1403 210 m 8 -17 d -18 1 d s 0.133333 1 0 c black 0 1 0.333333 c 6 lw black 0 1 0.333333 c 865 489 m 546 900 d s 1395 1380 m 16 9 d -18 Y s 0 1 0.24 c black 0 1 0.24 c 865 489 m 546 840 d s 1395 1321 m 16 8 d
 -1 -18 d s 0 1 0.613333 c 9 lw black 0 1 0.613333 c 865 489 m 546 780 d s 1395 1262 m 16 7 d -1 -18 d s 0.0399999 1 0 c black 0 1 0.0533333 c 3 lw black 0 1 0.0533333 c 865 489 m 546 661 d s 1394 1143 m 17 7 d -3 -18 d s 0 1 0.333333 c 6 lw black 0
 1 0.333333 c 865 489 m 546 601 d s 1394 1084 m 17 6 d -4 -18 d s 0.506667 1 0 c black 0.506667 1 0 c 865 489 m 546 541 d s 1394 1025 m 17 5 d -4 -18 d s 0 1 0.0533333 c 3 lw black 0 1 0.0533333 c 865 489 m 546 481 d s 1393 967 m 18 3 d -5 -17 d s
 0.0399999 1 0 c black 0 1 0.146667 c 3 lw black 0 1 0.146667 c 865 489 m 546 362 d s 1393 850 m 18 1 d -8 -17 d s 0.133333 1 0 c black 0.413333 1 0 c 3 lw black 0.413333 1 0 c 865 489 m 546 242 d s 1393 733 m 18 -2 d -10 -15 d s black 0.413333 1 0 c
 865 489 m 546 182 d s 1393 675 m 18 -4 d -12 -13 d s 0.226667 1 0 c black 0 1 0.0533333 c 3 lw black 0 1 0.0533333 c 865 489 m 546 63 d s 1395 559 m 16 -7 d -14 -11 d s 0.0399999 1 0 c black 0.0399999 1 0 c 3 lw black 0.0399999 1 0 c 865 489 m 546
 -57 d s 1397 443 m 14 -11 d -16 -7 d s 0 1 0.24 c 6 lw black 0 1 0.24 c 865 489 m 546 -117 d s 1398 385 m 13 -13 d -17 -5 d s 0.226667 1 0 c 3 lw black 0.226667 1 0 c 865 489 m 546 -176 d s 1399 326 m 12 -13 d -18 -4 d s 0.133333 1 0 c black
 0.693333 1 0 c 6 lw black 0.693333 1 0 c 865 489 m 546 -296 d s 1402 209 m 9 -16 d -18 -1 d s 0.226667 1 0 c black 0.226667 1 0 c black 0 1 0.146667 c 3 lw black 0 1 0.146667 c 865 408 m 546 921 d s 1395 1320 m 16 9 d -18 Y s 0 1 0.24 c 6 lw black 0
 1 0.24 c 865 408 m 546 861 d s 1395 1261 m 16 8 d -18 Y s 0.6 1 0 c black 0.6 1 0 c 865 408 m 546 802 d s 1395 1202 m 16 8 d -1 -19 d s 0.413333 1 0 c 3 lw black 0.413333 1 0 c 865 408 m 546 742 d s 1395 1142 m 16 8 d -2 -18 d s 0 1 0.24 c black 0 1
 0.24 c 865 408 m 546 682 d s 1394 1083 m 17 7 d -2 -18 d s 0 1 0.146667 c black 0 1 0.146667 c 865 408 m 546 622 d s 1394 1024 m 17 6 d -3 -18 d s 0.32 1 0 c black 0.32 1 0 c 865 408 m 546 562 d s 1394 965 m 17 5 d -4 -17 d s 0.506667 1 0 c 6 lw
 black 0.506667 1 0 c 865 408 m 546 503 d s 1393 907 m 18 4 d -5 -18 d s 0.133333 1 0 c black 0.0399999 1 0 c 3 lw black 0.0399999 1 0 c 865 408 m 546 383 d s 1393 789 m 18 2 d -7 -17 d s 0.133333 1 0 c black 0.413333 1 0 c 3 lw black 0.413333 1 0 c
 865 408 m 546 263 d s 1393 673 m 18 -2 d -10 -15 d s 0.506667 1 0 c 6 lw black 0.506667 1 0 c 865 408 m 546 204 d s 1393 615 m 18 -3 d -11 -15 d s 0.226667 1 0 c black 0.413333 1 0 c 3 lw black 0.413333 1 0 c 865 408 m 546 84 d s 1394 499 m 17 -7 d
 -14 -12 d s 0 1 0.0533333 c black 0 1 0.0533333 c 865 408 m 546 24 d s 1395 441 m 16 -9 d -15 -10 d s 0.0399999 1 0 c black 0 1 0.146667 c 3 lw black 0 1 0.146667 c 865 408 m 546 -95 d s 1397 324 m 14 -11 d -17 -7 d s 0 1 0.0533333 c black 0 1
 0.0533333 c 865 408 m 546 -155 d s 1399 266 m 12 -13 d -17 -5 d s 0 1 0.24 c black 0 1 0.24 c 865 408 m 546 -215 d s 1400 207 m 11 -14 d -18 -3 d s 0 1 0.333333 c 6 lw black 0 1 0.333333 c 865 408 m 546 -275 d s 1401 148 m 10 -15 d -18 -1 d s 0 1
 0.426667 c 9 lw black 0 1 0.426667 c 865 327 m 546 1062 d s 1396 1379 m 15 10 d 1 -18 d s 0.6 1 0 c 6 lw black 0.6 1 0 c 865 327 m 546 1002 d s 1396 1320 m 15 9 d 1 -18 d s 0 1 0.0533333 c 3 lw black 0 1 0.0533333 c 865 327 m 546 942 d s 1395 1260 m
 16 9 d -18 Y s 0.506667 1 0 c 6 lw black 0.506667 1 0 c 865 327 m 546 883 d s 1395 1201 m 16 9 d -19 Y s 0 1 0.24 c black 0 1 0.24 c 865 327 m 546 823 d s 1395 1142 m 16 8 d -1 -19 d s 0.32 1 0 c 3 lw black 0.32 1 0 c 865 327 m 546 763 d s 1395 1082
 m 16 8 d -1 -18 d s 0 1 0.333333 c 6 lw black 0 1 0.333333 c 865 327 m 546 703 d s 1394 1023 m 17 7 d -2 -18 d s 0.226667 1 0 c black 0.413333 1 0 c 3 lw black 0.413333 1 0 c 865 327 m 546 584 d s 1394 905 m 17 6 d -4 -18 d s 0 1 0.426667 c 9 lw
 black 0 1 0.426667 c 865 327 m 546 524 d s 1394 846 m 17 5 d -5 -18 d s 0 1 0.24 c 3 lw black 0 1 0.24 c 865 327 m 546 464 d s 1393 788 m 18 3 d -6 -17 d s 0.133333 1 0 c black 0 1 0.333333 c 6 lw black 0 1 0.333333 c 865 327 m 546 344 d s 1393 671
 m 18 X -8 -16 d s 0.506667 1 0 c black 0.506667 1 0 c 865 327 m 546 285 d s 1393 612 m 18 X -9 -16 d s 0 1 0.0533333 c 3 lw black 0 1 0.0533333 c 865 327 m 546 225 d s 1393 554 m 18 -2 d -11 -15 d s 0.0399999 1 0 c black 0.226667 1 0 c 3 lw black
 0.226667 1 0 c 865 327 m 546 105 d s 1394 438 m 17 -6 d -13 -12 d s 0.0399999 1 0 c black 0.133333 1 0 c black 0 1 0.0533333 c 3 lw black 0 1 0.0533333 c 865 327 m 546 -74 d s 1397 264 m 14 -11 d -17 -7 d s 0.32 1 0 c black 0.32 1 0 c 865 327 m 546
 -134 d s 1398 206 m 13 -13 d -17 -5 d s 0 1 0.333333 c 6 lw black 0 1 0.333333 c 865 327 m 546 -194 d s 1399 147 m 12 -14 d -18 -3 d s 0 1 0.0533333 c 3 lw black 0 1 0.0533333 c 865 246 m 546 1143 d s 1396 1379 m 15 10 d 2 -18 d s 0 1 0.333333 c 6
 lw black 0 1 0.333333 c 865 246 m 546 1083 d s 1396 1319 m 15 10 d 1 -18 d s 0.413333 1 0 c 3 lw black 0.413333 1 0 c 865 246 m 546 1023 d s 1396 1260 m 15 9 d 1 -18 d s 0 1 0.146667 c black 0 1 0.146667 c 865 246 m 546 964 d s 1396 1200 m 15 10 d
 -19 Y s black 0 1 0.146667 c 865 246 m 546 904 d s 1395 1141 m 16 9 d -19 Y s 0.88 1 0 c 9 lw black 0.88 1 0 c 865 246 m 546 844 d s 1395 1082 m 16 8 d -1 -18 d s 0.32 1 0 c 3 lw black 0.32 1 0 c 865 246 m 546 784 d s 1395 1022 m 16 8 d -1 -18 d s
 0.0399999 1 0 c black 0.0399999 1 0 c 865 246 m 546 724 d s 1394 963 m 17 7 d -2 -18 d s 0.6 1 0 c 6 lw black 0.6 1 0 c 865 246 m 546 665 d s 1394 904 m 17 7 d -3 -19 d s 0 1 0.333333 c black 0 1 0.333333 c 865 246 m 546 605 d s 1394 845 m 17 6 d -3
 -18 d s 0.133333 1 0 c black 0.226667 1 0 c black 0 1 0.146667 c 3 lw black 0 1 0.146667 c 865 246 m 546 425 d s 1393 669 m 18 2 d -7 -17 d s 0 1 0.0533333 c black 0 1 0.0533333 c 865 246 m 546 366 d s 1393 610 m 18 2 d -8 -17 d s 0.133333 1 0 c
 black 0 1 0.8 c 12 lw black 0 1 0.8 c 865 246 m 546 246 d s 1393 494 m 18 -2 d -10 -15 d s 0.133333 1 0 c black 0.6 1 0 c 6 lw black 0.6 1 0 c 865 246 m 546 126 d s 1394 378 m 17 -6 d -13 -12 d s 0.413333 1 0 c 3 lw black 0.413333 1 0 c 865 246 m
 546 67 d s 1394 320 m 17 -7 d -14 -11 d s 0.32 1 0 c black 0.32 1 0 c 865 246 m 546 7 d s 1395 262 m 16 -9 d -15 -10 d s 0 1 0.24 c 6 lw black 0 1 0.24 c 865 246 m 546 -53 d s 1396 204 m 15 -11 d -16 -8 d s 0.6 1 0 c black 0.6 1 0 c 865 246 m 546
 -113 d s 1398 145 m 13 -12 d -17 -6 d s 0 1 0.24 c black 0 1 0.24 c 865 165 m 546 1224 d s 1397 1378 m 14 11 d 2 -18 d s 0.226667 1 0 c black 0 1 0.24 c 6 lw black 0 1 0.24 c 865 165 m 546 1104 d s 1396 1259 m 15 10 d 2 -18 d s 0 1 0.333333 c black
 0 1 0.333333 c 865 165 m 546 1045 d s 1396 1200 m 15 10 d 1 -19 d s 0.133333 1 0 c black 0.506667 1 0 c 6 lw black 0.506667 1 0 c 865 165 m 546 925 d s 1395 1081 m 16 9 d -18 Y s 0.32 1 0 c 3 lw black 0.32 1 0 c 865 165 m 546 865 d s 1395 1022 m 16
 8 d -18 Y s 0.413333 1 0 c black 0.413333 1 0 c 865 165 m 546 805 d s 1395 962 m 16 8 d -1 -18 d s 0.32 1 0 c black 0.32 1 0 c 865 165 m 546 746 d s 1395 903 m 16 8 d -2 -19 d s 0.0399999 1 0 c black 0.226667 1 0 c black 0.0399999 1 0 c black
 0.506667 1 0 c 6 lw black 0.506667 1 0 c 865 165 m 546 506 d s 1393 667 m 18 4 d -5 -17 d s 0 1 0.0533333 c 3 lw black 0 1 0.0533333 c 865 165 m 546 447 d s 1393 609 m 18 3 d -6 -18 d s 0.226667 1 0 c black 0.226667 1 0 c 865 165 m 546 387 d s 1393
 550 m 18 2 d -7 -17 d s 0 1 0.893333 c 12 lw black 0 1 0.893333 c 865 165 m 546 327 d s 1393 492 m 18 X -9 -16 d s 0.413333 1 0 c 3 lw black 0.413333 1 0 c 865 165 m 546 267 d s 1393 433 m 18 -1 d -10 -15 d s 0.133333 1 0 c black 0.133333 1 0 c
 black 0 1 0.24 c 3 lw black 0 1 0.24 c 865 165 m 546 88 d s 1394 259 m 17 -6 d -14 -12 d s 0 1 0.146667 c black 0 1 0.146667 c 865 165 m 546 28 d s 1395 201 m 16 -8 d -15 -10 d s 0.506667 1 0 c 6 lw black 0.506667 1 0 c 865 165 m 546 -32 d s 1396
 143 m 15 -10 d -16 -8 d s 0.226667 1 0 c black 0.133333 1 0 c black 0 1 0.146667 c 3 lw black 0 1 0.146667 c 865 84 m 546 1185 d s 1396 1259 m 15 10 d 2 -18 d s 0 1 0.24 c 6 lw black 0 1 0.24 c 865 84 m 546 1126 d s 1396 1199 m 15 11 d 2 -19 d s
 black 0 1 0.24 c 865 84 m 546 1066 d s 1396 1140 m 15 10 d 1 -19 d s 0.226667 1 0 c black 0 1 0.0533333 c 3 lw black 0 1 0.0533333 c 865 84 m 546 946 d s 1395 1021 m 16 9 d -18 Y s 0 1 0.146667 c black 0 1 0.146667 c 865 84 m 546 886 d s 1395 962 m
 16 8 d -18 Y s 0.133333 1 0 c black 0 1 0.24 c 3 lw black 0 1 0.24 c 865 84 m 546 767 d s 1395 843 m 16 8 d -1 -19 d s 0 1 0.0533333 c black 0 1 0.0533333 c 865 84 m 546 707 d s 1394 784 m 17 7 d -2 -18 d s 0.0399999 1 0 c black 0.0399999 1 0 c 865
 84 m 546 647 d s 1394 725 m 17 6 d -3 -18 d s 0.413333 1 0 c black 0.413333 1 0 c 865 84 m 546 587 d s 1394 666 m 17 5 d -4 -18 d s 0 1 0.146667 c black 0 1 0.146667 c 865 84 m 546 528 d s 1394 607 m 17 5 d -5 -18 d s 0 1 0.0533333 c black 0 1
 0.0533333 c 865 84 m 546 468 d s 1393 548 m 18 4 d -6 -18 d s 0 1 0.426667 c 6 lw black 0 1 0.426667 c 865 84 m 546 408 d s 1393 490 m 18 2 d -7 -17 d s 0.6 1 0 c black 0.6 1 0 c 865 84 m 546 348 d s 1393 431 m 18 1 d -8 -16 d s 0 1 0.24 c black 0 1
 0.24 c 865 84 m 546 288 d s 1393 373 m 18 -1 d -9 -15 d s 0.506667 1 0 c 3 lw black 0.506667 1 0 c 865 84 m 546 229 d s 1393 315 m 18 -2 d -11 -15 d s 0 1 0.146667 c black 0 1 0.146667 c 865 84 m 546 169 d s 1393 257 m 18 -4 d -12 -14 d s 0 1 0.24 c
 6 lw black 0 1 0.24 c 865 84 m 546 109 d s 1394 199 m 17 -6 d -13 -12 d s 0.6 1 0 c black 0.6 1 0 c 865 84 m 546 49 d s 1395 141 m 16 -8 d -15 -10 d s 0.490196 0.545098 0.615686 c 3 lw 1 1 0.992157 c 2100 751 m -3 18 d -8 16 d -13 12 d -17 8 d -18 3
 d -18 -3 d -17 -8 d -13 -12 d -8 -16 d -3 -18 d 3 -17 d 8 -16 d 13 -12 d 17 -8 d 18 -3 d 18 3 d 17 8 d 13 12 d 8 16 d f 0.490196 0.545098 0.615686 c 2100 751 m -3 18 d -8 16 d -13 12 d -17 8 d -18 3 d -18 -3 d -17 -8 d -13 -12 d -8 -16 d -3 -18 d 3
 -17 d 8 -16 d 13 -12 d 17 -8 d 18 -3 d 18 3 d 17 8 d 13 12 d 8 16 d 3 17 d cl s 1 1 1 c 82 79 2000 712 bf 68 62 2010 721 bf 68 62 2010 721 bl 0 0 0.4 c
/WT 2.28374 def /HT 2.32324 def /XS 2010 def /YY 783 def /NX 30 def /NY 444 def /DrawCell {WT HT XX YY bf /NBBD NBBD 1 add def NBBD NBB eq {exit} if /XX WT XX add def IX NX eq {/YY YY HT sub def /XX XS def /IX 0 def} if /IX IX 1 add def} def /DrawCT
 {/NBB NX NY mul def /XX XS def /IX 1 def /NBBD 0 def /RC 0 def /GC 1 def /BC 2 def 1 1 NBB {/NB CT RC get def NB 301 ge {/NBL NB 300 sub def 1 1 NBL {DrawCell} for /RC RC 1 add def /GC RC 1 add def /BC RC 2 add def}{CT RC get 255 div CT GC get 255
 div CT BC get 255 div setrgbcolor DrawCell /RC RC 3 add def /GC GC 3 add def /BC BC 3 add def} ifelse NBBD NBB eq {exit} if} for /YY YY HT sub def clear} def /CT [ 255 255 255 327 191 191 191 127 127 127 255 255 255 326 191 191 191 301 255 255 255
 326 127 127 127 191 191 191 255 255 255 326 127 127 127 255 255 255 327 127 127 127 255 255 255 326 191 191 191 127 127 127 255 255 255 327 127 127 127 255 255 255 327 127 127 127 255 255 255 326 191 191 191 127 127 127 255 255 255 326 191 191 191
 301 255 255 255 326 127 127 127 191 191 191 255 255 255 326 127 127 127 255 255 255 327 127 127 127 255 255 255 327 0 0 0 255 255 255 327 127 127 127 255 255 255 327 127 127 127 255 255 255 326 191 191 191 127 127 127 255 255 255 326 191 191 191 301
 255 255 255 326 127 127 127 191 191 191 255 255 255 326 127 127 127 255 255 255 327 127 127 127 255 255 255 327 127 127 127 191 191 191 255 255 255 326 127 127 127 255 255 255 327 127 127 127 255 255 255 326 191 191 191 127 127 127 255 255 255 326
 191 191 191 301 255 255 255 327 127 127 127 255 255 255 328] def /NY 27 def DrawCT  0.6 1 0 c 6 lw black 0.6 1 0 c 1461 1389 m 521 -638 d s 1979 770 m 3 -19 d -17 7 d s 0 1 0.52 c 9 lw black 0 1 0.52 c 1461 1329 m 521 -578 d s 1978 769 m 4 -18 d -17
 6 d s 0 1 0.0533333 c 3 lw black 0 1 0.0533333 c 1461 1269 m 521 -518 d s 1977 769 m 5 -18 d -18 5 d s 1 0.84 0 c 12 lw black 1 0.84 0 c 1461 1210 m 521 -459 d s 1976 769 m 6 -18 d -18 4 d s 0.413333 1 0 c 3 lw black 0.413333 1 0 c 1461 1150 m 521
 -399 d s 1975 768 m 7 -17 d -18 3 d s 0 1 0.0533333 c black 0 1 0.0533333 c 1461 1090 m 521 -339 d s 1974 768 m 8 -17 d -18 1 d s 0 1 0.333333 c 6 lw black 0 1 0.333333 c 1461 1030 m 521 -279 d s 1972 767 m 10 -16 d -18 X s 0.0399999 1 0 c black 0 1
 0.0533333 c 3 lw black 0 1 0.0533333 c 1461 911 m 521 -160 d s 1969 765 m 13 -14 d -18 -4 d s 0.32 1 0 c black 0.32 1 0 c 1461 851 m 521 -100 d s 1968 763 m 14 -12 d -17 -6 d s 0.413333 1 0 c black 0.413333 1 0 c 1461 791 m 521 -40 d s 1967 762 m 15
 -11 d -17 -7 d s 0.506667 1 0 c 6 lw black 0.506667 1 0 c 1461 731 m 521 20 d s 1966 760 m 16 -9 d -16 -9 d s 0.32 1 0 c 3 lw black 0.32 1 0 c 1461 671 m 521 80 d s 1965 758 m 17 -7 d -14 -11 d s 0.6 1 0 c 6 lw black 0.6 1 0 c 1461 612 m 521 139 d s
 1964 756 m 18 -5 d -13 -12 d s 0.506667 1 0 c black 0.506667 1 0 c 1461 552 m 521 199 d s 1964 754 m 18 -3 d -12 -14 d s 0 1 0.613333 c 9 lw black 0 1 0.613333 c 1461 492 m 521 259 d s 1964 753 m 18 -2 d -10 -15 d s 0.693333 1 0 c black 0.693333 1 0
 c 1461 432 m 521 319 d s 1964 751 m 18 X -9 -16 d s 0.413333 1 0 c 3 lw black 0.413333 1 0 c 1461 372 m 521 379 d s 1964 750 m 18 1 d -7 -16 d s 0 1 0.333333 c 6 lw black 0 1 0.333333 c 1461 313 m 521 438 d s 1964 748 m 18 3 d -6 -17 d s 0.0399999 1
 0 c black 0 1 0.333333 c 6 lw black 0 1 0.333333 c 1461 193 m 521 558 d s 1964 746 m 18 5 d -4 -17 d s 0.786667 1 0 c 9 lw black 0.786667 1 0 c 1461 133 m 521 618 d s 1965 745 m 17 6 d -3 -18 d s 0.133333 1 0 c black 0.490196 0.545098 0.615686 c 3
 lw 0.43 0.48 0.52 c 387 36 638 9 bf 1 1 1 c black 1 1 1 c
 gsave  2268 1418 0 0 C 772.569 18.1781 t 0 r /Helvetica-Bold findfont 31.8117 sf 0 0 m (Layer 0) show NC gr  0.490196 0.545098 0.615686 c 0.43 0.48 0.52 c 387 36 1243 9 bf 1 1 1 c black 1 1 1 c
 gsave  2268 1418 0 0 C 1381.53 18.1781 t 0 r /Helvetica-Bold findfont 31.8117 sf 0 0 m (Layer 1) show NC gr  0.490196 0.545098 0.615686 c 0.43 0.48 0.52 c 387 36 1847 9 bf 1 1 1 c black 1 1 1 c
 gsave  2268 1418 0 0 C 1938.24 15.9058 t 0 r /Helvetica-Bold findfont 34.0839 sf 0 0 m (Output layer) show NC gr  0.490196 0.545098 0.615686 c 1 1 1 c 312 78 1842 1290 bf 312 78 1842 1290 bf 312 78 1842 1290 bl 0 0 0.4 c
/WT 2.27691 def /HT 2.29365 def /XS 1842 def /YY 1368 def /NX 137 def /NY 97 def /DrawCell {WT HT XX YY bf /NBBD NBBD 1 add def NBBD NBB eq {exit} if /XX WT XX add def IX NX eq {/YY YY HT sub def /XX XS def /IX 0 def} if /IX IX 1 add def} def /DrawCT
 {/NBB NX NY mul def /XX XS def /IX 1 def /NBBD 0 def /RC 0 def /GC 1 def /BC 2 def 1 1 NBB {/NB CT RC get def NB 301 ge {/NBL NB 300 sub def 1 1 NBL {DrawCell} for /RC RC 1 add def /GC RC 1 add def /BC RC 2 add def}{CT RC get 255 div CT GC get 255
 div CT BC get 255 div setrgbcolor DrawCell /RC RC 3 add def /GC GC 3 add def /BC BC 3 add def} ifelse NBBD NBB eq {exit} if} for /YY YY HT sub def clear} def /CT [ 255 255 255 323 255 243 227 255 202 125 255 180 70 255 165 33 302 255 187 88 255 210
 144 255 247 236 255 255 255 426 255 215 156 255 165 33 308 255 225 181 255 255 255 424 255 195 107 255 165 33 310 255 232 199 255 255 255 422 255 232 199 255 165 33 311 255 172 51 255 245 230 255 255 255 421 255 187 88 255 165 33 312 255 205 131 255
 255 255 420 255 245 230 255 165 33 314 255 255 255 420 255 210 144 255 165 33 314 255 225 181 255 255 255 419 255 195 107 255 165 33 314 255 195 107 255 255 255 317 255 226 226 255 170 170 314 221 199 216 187 187 221 304 255 255 255 306 238 238 246
 187 187 221 304 238 238 246 255 255 255 232 232 243 187 187 221 303 232 232 243 255 255 255 306 238 238 246 187 187 221 303 232 232 243 255 255 255 305 209 209 232 187 187 221 303 209 209 232 255 255 255 333 255 195 107 255 165 33 314 255 195 107
 255 255 255 317 255 170 170 255 0 0 314 153 131 182 51 51 153 304 221 221 238 255 255 255 305 170 170 212 51 51 153 304 204 204 229 255 255 255 301 51 51 153 303 141 141 198 255 255 255 306 170 170 212 51 51 153 303 255 255 255 306 73 73 164 51 51
 153 303 73 73 164 255 255 255 333 255 195 107 255 165 33 314 255 215 156 255 255 255 317 255 113 113 255 0 0 314 153 153 204 51 51 153 304 153 153 204 255 255 255 305 85 85 170 51 51 153 304 204 204 229 255 255 255 301 102 102 178 51 51 153 303 255
 255 255 306 119 119 187 51 51 153 302 119 119 187 255 255 255 305 209 209 232 51 51 153 305 209 209 232 255 255 255 332 255 225 181 255 165 33 314 255 225 181 255 255 255 317 255 56 56 255 0 0 313 255 85 85 153 153 204 51 51 153 304 85 85 170 255
 255 255 304 209 209 232 51 51 153 305 204 204 229 255 255 255 301 153 153 204 51 51 153 303 187 187 221 255 255 255 305 68 68 161 51 51 153 302 187 187 221 255 255 255 305 141 141 198 51 51 153 305 141 141 198 255 255 255 332 255 245 230 255 165 33
 314 255 255 255 318 255 170 170 304 255 113 113 255 0 0 303 255 106 106 255 170 170 303 255 198 198 153 153 204 51 51 153 305 209 209 232 255 255 255 303 141 141 198 51 51 153 305 204 204 229 255 255 255 301 221 221 238 51 51 153 303 119 119 187 255
 255 255 304 187 187 221 51 51 153 302 68 68 161 255 255 255 306 73 73 164 51 51 153 305 73 73 164 255 255 255 333 255 195 107 255 165 33 312 255 215 156 255 255 255 323 255 113 113 255 0 0 303 255 191 191 255 255 255 304 153 153 204 51 51 153 305 96
 96 175 255 255 255 302 232 232 243 51 51 153 306 204 204 229 255 255 255 302 73 73 164 51 51 153 303 255 255 255 304 119 119 187 51 51 153 302 119 119 187 255 255 255 305 204 204 229 51 51 153 307 204 204 229 255 255 255 332 255 238 213 255 172 51
 255 165 33 310 255 181 74 255 255 255 324 255 63 63 255 0 0 303 255 255 255 305 153 153 204 51 51 153 306 187 187 221 255 255 255 301 119 119 187 51 51 153 306 204 204 229 255 255 255 302 153 153 204 51 51 153 303 191 191 223 255 255 255 302 238 238
 246 51 51 153 303 178 178 216 255 255 255 305 140 140 197 51 51 153 302 153 153 204 85 85 170 51 51 153 302 140 140 197 255 255 255 333 255 245 230 255 165 33 310 255 247 236 255 255 255 324 255 0 0 303 255 85 85 255 255 255 305 153 153 204 51 51
 153 302 119 119 187 73 73 164 51 51 153 301 96 96 175 255 255 255 209 209 232 51 51 153 302 141 141 198 51 51 153 303 204 204 229 255 255 255 302 232 232 243 51 51 153 303 136 136 195 255 255 255 302 164 164 209 51 51 153 303 238 238 246 255 255 255
 305 68 68 161 51 51 153 302 232 232 243 164 164 209 51 51 153 302 68 68 161 255 255 255 333 255 195 107 301 255 187 88 255 165 33 306 255 205 131 255 215 156 255 210 144 255 255 255 323 255 191 191 255 0 0 303 255 141 141 255 255 255 305 153 153 204
 51 51 153 302 119 119 187 141 141 198 51 51 153 302 221 221 238 96 96 175 51 51 153 301 68 68 161 187 187 221 51 51 153 303 204 204 229 255 255 255 303 119 119 187 51 51 153 302 85 85 170 255 255 255 302 96 96 175 51 51 153 302 119 119 187 255 255
 255 305 209 209 232 51 51 153 302 85 85 170 255 255 255 232 232 243 51 51 153 303 209 209 232 255 255 255 323 255 225 181 302 255 245 230 255 255 255 303 255 210 144 255 195 107 255 255 255 301 255 225 181 255 195 107 301 255 165 33 255 195 107 255
 205 131 255 240 218 255 255 255 301 255 195 107 255 225 181 255 255 255 303 255 232 199 255 225 181 301 255 232 199 255 255 255 314 255 148 148 255 0 0 303 255 170 170 255 255 255 305 153 153 204 51 51 153 302 119 119 187 232 232 243 51 51 153 302
 119 119 187 51 51 153 302 136 136 195 187 187 221 51 51 153 303 204 204 229 255 255 255 303 187 187 221 51 51 153 303 232 232 243 255 255 255 238 238 246 51 51 153 303 187 187 221 255 255 255 305 141 141 198 51 51 153 302 136 136 195 255 255 255 301
 85 85 170 51 51 153 302 141 141 198 255 255 255 320 255 245 230 255 225 181 301 255 255 255 302 255 235 205 255 225 181 255 232 199 255 255 255 255 245 230 255 195 107 255 255 255 311 255 247 236 255 175 57 255 225 181 255 255 255 255 225 181 301
 255 247 236 255 255 255 301 255 247 236 255 225 181 301 255 255 255 312 255 106 106 255 0 0 303 255 255 255 306 153 153 204 51 51 153 302 119 119 187 255 255 255 119 119 187 51 51 153 305 221 221 238 187 187 221 51 51 153 303 204 204 229 255 255 255
 304 51 51 153 303 164 164 209 255 255 255 187 187 221 51 51 153 303 255 255 255 306 73 73 164 51 51 153 302 187 187 221 255 255 255 301 136 136 195 51 51 153 302 73 73 164 255 255 255 319 255 240 218 255 235 205 255 255 255 306 255 247 236 255 225
 181 255 185 82 255 247 236 255 255 255 312 255 245 230 255 175 57 255 217 162 255 255 255 307 255 225 181 255 255 255 311 255 63 63 255 0 0 302 255 56 56 255 255 255 306 153 153 204 51 51 153 302 119 119 187 255 255 255 170 170 212 51 51 153 304 73
 73 164 255 255 255 187 187 221 51 51 153 303 204 204 229 255 255 255 304 119 119 187 51 51 153 302 96 96 175 255 255 255 136 136 195 51 51 153 302 141 141 198 255 255 255 305 187 187 221 51 51 153 303 238 238 246 255 255 255 301 187 187 221 51 51
 153 303 187 187 221 255 255 255 317 255 245 230 255 240 218 255 255 255 309 255 215 156 255 255 255 314 255 215 156 255 255 255 309 255 215 156 255 255 255 310 255 0 0 303 255 113 113 255 255 255 306 153 153 204 51 51 153 302 119 119 187 255 255 255
 238 238 246 51 51 153 304 164 164 209 255 255 255 187 187 221 51 51 153 303 204 204 229 255 255 255 304 170 170 212 51 51 153 303 209 209 232 85 85 170 51 51 153 302 209 209 232 255 255 255 305 119 119 187 51 51 153 303 119 119 187 302 102 102 178
 51 51 153 303 119 119 187 255 255 255 316 255 247 236 255 232 199 255 255 255 311 255 232 199 255 255 255 312 255 225 181 255 255 255 311 255 225 181 255 255 255 308 255 191 191 255 0 0 303 255 191 191 255 255 255 306 153 153 204 51 51 153 302 119
 119 187 255 255 255 301 153 153 204 51 51 153 302 85 85 170 255 255 255 301 187 187 221 51 51 153 303 204 204 229 255 255 255 304 229 229 242 51 51 153 303 102 102 178 51 51 153 302 76 76 165 255 255 255 305 229 229 242 51 51 153 313 229 229 242 255
 255 255 308 255 210 144 255 195 107 305 255 205 131 255 255 255 312 255 232 199 255 195 107 312 255 255 255 313 255 195 107 308 255 93 64 255 0 0 303 255 195 107 307 153 123 130 51 51 153 302 119 99 137 255 195 107 301 232 172 95 119 89 113 302 187
 137 97 255 195 107 301 187 147 122 51 51 153 303 204 159 118 255 195 107 305 96 76 126 51 51 153 306 136 106 121 255 195 107 305 170 140 138 51 51 153 313 170 140 138 255 195 107 307 255 215 156 255 187 88 255 165 33 305 255 225 181 255 255 255 313
 255 165 33 311 255 202 125 255 255 255 313 255 202 125 255 165 33 307 255 55 11 255 0 0 302 255 41 8 255 165 33 307 153 108 93 51 51 153 302 119 89 113 255 165 33 308 187 127 73 51 51 153 303 204 136 63 255 165 33 305 187 127 73 51 51 153 306 204
 136 63 255 165 33 305 119 89 113 51 51 153 302 73 63 139 119 89 113 305 51 51 153 303 119 89 113 255 165 33 307 255 195 107 255 187 88 255 165 33 305 255 255 255 314 255 195 107 255 165 33 310 255 217 162 255 255 255 313 255 217 162 255 165 33 307
 255 0 0 303 255 68 13 255 165 33 307 153 108 93 51 51 153 302 119 89 113 255 165 33 308 187 127 73 51 51 153 303 204 136 63 255 165 33 306 51 51 153 306 255 165 33 306 68 60 143 51 51 153 302 187 127 73 255 165 33 305 119 89 113 51 51 153 302 68 60
 143 255 165 33 307 255 195 107 255 187 88 255 165 33 305 255 255 255 314 255 195 107 255 165 33 310 255 232 199 255 255 255 313 255 232 199 255 165 33 306 255 128 25 255 0 0 303 255 96 19 255 165 33 307 153 108 93 51 51 153 302 119 89 113 255 165 33
 308 187 127 73 51 51 153 303 204 136 63 255 165 33 306 119 89 113 51 51 153 304 119 89 113 255 165 33 305 187 127 73 51 51 153 302 68 60 143 255 165 33 306 187 127 73 51 51 153 303 187 127 73 255 165 33 306 255 195 107 255 187 88 255 165 33 305 255
 255 255 314 255 195 107 255 165 33 310 255 232 199 255 255 255 313 255 232 199 255 165 33 306 255 91 18 255 0 0 303 255 123 24 255 165 33 307 153 108 93 51 51 153 302 119 89 113 255 165 33 308 187 127 73 51 51 153 303 204 136 63 255 165 33 306 209
 139 59 51 51 153 304 209 139 59 255 165 33 305 119 89 113 51 51 153 302 119 89 113 255 165 33 307 51 51 153 303 119 89 113 255 165 33 306 255 195 107 255 187 88 255 165 33 305 255 255 255 314 255 195 107 255 165 33 310 255 225 181 255 255 255 313
 255 225 181 255 165 33 306 255 128 25 255 110 22 303 255 151 30 255 165 33 307 221 146 53 187 127 73 302 209 139 59 255 165 33 308 232 152 46 187 127 73 303 238 155 43 255 165 33 307 187 127 73 304 255 165 33 306 187 127 73 303 221 146 53 255 165 33
 307 204 136 63 187 127 73 303 255 165 33 306 255 195 107 255 187 88 255 165 33 305 255 240 218 255 255 255 313 255 180 70 255 165 33 310 255 204 130 255 255 255 313 255 204 130 255 165 33 385 255 195 107 255 187 88 255 165 33 305 255 205 131 255 255
 255 312 255 240 218 255 165 33 311 255 180 70 255 255 255 313 255 180 70 255 165 33 385 255 195 107 255 187 88 255 165 33 306 255 245 230 255 255 255 311 255 202 125 255 165 33 312 255 235 205 255 255 255 311 255 235 205 255 165 33 386 255 195 107
 255 187 88 255 165 33 306 255 175 57 255 255 255 310 255 235 205 255 165 33 313 255 175 57 255 245 230 255 255 255 309 255 245 230 255 175 57 255 165 33 386 255 195 107 255 187 88 255 165 33 307 255 195 107 255 255 255 308 255 225 181 255 175 57 255
 165 33 314 255 175 57 255 247 236 255 255 255 307 255 247 236 255 175 57 255 165 33 387 255 195 107 255 187 88 255 165 33 308 255 185 82 255 235 205 255 255 255 305 255 210 144 255 165 33 317 255 172 51 255 225 181 255 255 255 305 255 225 181 255
 172 51 255 165 33 388 255 195 107 233 188 122 255 195 107 310 255 210 144 255 225 181 303 255 195 107 322 255 225 181 303 255 195 107 391 255 215 156] def /NY 34 def DrawCT 
 gr  gr showpage
end
%%EOF
