%!PS-Adobe-2.0 EPSF-2.0
%%BoundingBox:  0 0 567 419
%%Title: DataSet/plots/overtrain_MLPBPCE.eps: TMVA comparison MLPBPCE
%%Creator: ROOT Version 6.08/06
%%CreationDate: Fri Jun  1 10:37:53 2018
%%DocumentNeededResources: ProcSet (FontSetInit)
%%EndComments
%%BeginProlog
80 dict begin
/s {stroke} def /l {lineto} def /m {moveto} def /t {translate} def
/r {rotate} def /rl {roll}  def /R {repeat} def
/d {rlineto} def /rm {rmoveto} def /gr {grestore} def /f {eofill} def
/c {setrgbcolor} def /black {0 setgray} def /sd {setdash} def
/cl {closepath} def /sf {scalefont setfont} def /lw {setlinewidth} def
/box {m dup 0 exch d exch 0 d 0 exch neg d cl} def
/NC{systemdict begin initclip end}def/C{NC box clip newpath}def
/bl {box s} def /bf {gsave box gsave f grestore 1 lw [] 0 sd s grestore} def /Y { 0 exch d} def /X { 0 d} def 
/K {{pop pop 0 moveto} exch kshow} bind def
/ita {/ang 15 def gsave [1 0 ang dup sin exch cos div 1 0 0] concat} def 
/mp {newpath /y exch def /x exch def} def
/side {[w .77 mul w .23 mul] .385 w mul sd w 0 l currentpoint t -144 r} def
/mr {mp x y w2 0 360 arc} def /m24 {mr s} def /m20 {mr f} def
/mb {mp x y w2 add m w2 neg 0 d 0 w neg d w 0 d 0 w d cl} def
/mt {mp x y w2 add m w2 neg w neg d w 0 d cl} def
/m21 {mb f} def /m25 {mb s} def /m22 {mt f} def /m26{mt s} def
/m23 {mp x y w2 sub m w2 w d w neg 0 d cl f} def
/m27 {mp x y w2 add m w3 neg w2 neg d w3 w2 neg d w3 w2 d cl s} def
/m28 {mp x w2 sub y w2 sub w3 add m w3 0 d  0 w3 neg d w3 0 d 0 w3 d w3 0 d  0 w3 d w3 neg 0 d 0 w3 d w3 neg 0 d 0 w3 neg d w3 neg 0 d cl s } def
/m29 {mp gsave x w2 sub y w2 add w3 sub m currentpoint t 4 {side} repeat cl fill gr} def
/m30 {mp gsave x w2 sub y w2 add w3 sub m currentpoint t 4 {side} repeat cl s gr} def
/m31 {mp x y w2 sub m 0 w d x w2 sub y m w 0 d x w2 sub y w2 add m w w neg d x w2 sub y w2 sub m w w d s} def
/m32 {mp x y w2 sub m w2 w d w neg 0 d cl s} def
/m33 {mp x y w2 add m w3 neg w2 neg d w3 w2 neg d w3 w2 d cl f} def
/m34 {mp x w2 sub y w2 sub w3 add m w3 0 d  0 w3 neg d w3 0 d 0 w3 d w3 0 d  0 w3 d w3 neg 0 d 0 w3 d w3 neg 0 d 0 w3 neg d w3 neg 0 d cl f } def
/m2 {mp x y w2 sub m 0 w d x w2 sub y m w 0 d s} def
/m5 {mp x w2 sub y w2 sub m w w d x w2 sub y w2 add m w w neg d s} def
%%IncludeResource: ProcSet (FontSetInit)
%%IncludeResource: font Times-Roman
%%IncludeResource: font Times-Italic
%%IncludeResource: font Times-Bold
%%IncludeResource: font Times-BoldItalic
%%IncludeResource: font Helvetica
%%IncludeResource: font Helvetica-Oblique
%%IncludeResource: font Helvetica-Bold
%%IncludeResource: font Helvetica-BoldOblique
%%IncludeResource: font Courier
%%IncludeResource: font Courier-Oblique
%%IncludeResource: font Courier-Bold
%%IncludeResource: font Courier-BoldOblique
%%IncludeResource: font Symbol
%%IncludeResource: font ZapfDingbats
/reEncode {exch findfont dup length dict begin {1 index /FID eq  {pop pop} {def} ifelse } forall /Encoding exch def currentdict end dup /FontName get exch definefont pop } def [/Times-Bold /Times-Italic /Times-BoldItalic /Helvetica /Helvetica-Oblique
 /Helvetica-Bold /Helvetica-BoldOblique /Courier /Courier-Oblique /Courier-Bold /Courier-BoldOblique /Times-Roman /AvantGarde-Book /AvantGarde-BookOblique /AvantGarde-Demi /AvantGarde-DemiOblique /Bookman-Demi /Bookman-DemiItalic /Bookman-Light
 /Bookman-LightItalic /Helvetica-Narrow /Helvetica-Narrow-Bold /Helvetica-Narrow-BoldOblique /Helvetica-Narrow-Oblique /NewCenturySchlbk-Roman /NewCenturySchlbk-Bold /NewCenturySchlbk-BoldItalic /NewCenturySchlbk-Italic /Palatino-Bold
 /Palatino-BoldItalic /Palatino-Italic /Palatino-Roman ] {ISOLatin1Encoding reEncode } forall
%%EndProlog
%%BeginSetup
%%EndSetup
newpath  gsave  .25 .25 scale  gsave  0 0 t 0.490196 0.545098 0.615686 c[  ] 0 sd 3 lw 1 1 1 c 2268 1676 0 0 bf black 1 1 1 c 1916 1308 238 201 bf black 1916 1308 238 201 bl 1 1 1 c 1916 1308 238 201 bf black 1916 1308 238 201 bl 238 201 m 1916 X s
 gsave  2268 1676 0 0 C 1459.98 30.3373 t 0 r /Helvetica-Bold findfont 72.0512 sf 0 0 m (MLPBPCE response) show NC gr  238 244 m -43 Y s 334 222 m -21 Y s 430 222 m -21 Y s 526 222 m -21 Y s 621 244 m -43 Y s 717 222 m -21 Y s 813 222 m -21 Y s 909
 222 m -21 Y s 1005 244 m -43 Y s 1100 222 m -21 Y s 1196 222 m -21 Y s 1292 222 m -21 Y s 1388 244 m -43 Y s 1484 222 m -21 Y s 1579 222 m -21 Y s 1675 222 m -21 Y s 1771 244 m -43 Y s 1867 222 m -21 Y s 1963 222 m -21 Y s 2059 222 m -21 Y s 2154
 244 m -43 Y s 238 244 m -43 Y s 2154 244 m -43 Y s
 gsave  2268 1676 0 0 C 216.154 128.934 t 0 r /Helvetica-Bold findfont 64.4669 sf 0 0 m (0) show NC gr 
 gsave  2268 1676 0 0 C 572.617 128.934 t 0 r /Helvetica-Bold findfont 64.4669 sf 0 0 m (0.2) show NC gr 
 gsave  2268 1676 0 0 C 955.626 128.934 t 0 r /Helvetica-Bold findfont 64.4669 sf 0 0 m (0.4) show NC gr 
 gsave  2268 1676 0 0 C 1338.64 128.934 t 0 r /Helvetica-Bold findfont 64.4669 sf 0 0 m (0.6) show NC gr 
 gsave  2268 1676 0 0 C 1725.44 128.934 t 0 r /Helvetica-Bold findfont 64.4669 sf 0 0 m (0.8) show NC gr 
 gsave  2268 1676 0 0 C 2138.78 128.934 t 0 r /Helvetica-Bold findfont 64.4669 sf 0 0 m (1) show NC gr  238 1509 m 1916 X s 238 1466 m 43 Y s 334 1487 m 22 Y s 430 1487 m 22 Y s 526 1487 m 22 Y s 621 1466 m 43 Y s 717 1487 m 22 Y s 813 1487 m 22 Y s
 909 1487 m 22 Y s 1005 1466 m 43 Y s 1100 1487 m 22 Y s 1196 1487 m 22 Y s 1292 1487 m 22 Y s 1388 1466 m 43 Y s 1484 1487 m 22 Y s 1579 1487 m 22 Y s 1675 1487 m 22 Y s 1771 1466 m 43 Y s 1867 1487 m 22 Y s 1963 1487 m 22 Y s 2059 1487 m 22 Y s
 2154 1466 m 43 Y s 238 1466 m 43 Y s 2154 1466 m 43 Y s 238 201 m 1308 Y s
 gsave  2268 1676 0 0 C 64.4669 1425.86 t 90 r /Helvetica-Bold findfont 72.0512 sf 0 0 m (dx) show NC gr 
 gsave  2268 1676 0 0 C 30.3373 1406.89 t 90 r /Helvetica-Bold findfont 45.506 sf 0 0 m ( ) show NC gr 
 gsave  2268 1676 0 0 C 64.4669 1384.14 t 90 r /Helvetica-Bold findfont 72.0512 sf 0 0 m (/) show NC gr 
 gsave  2268 1676 0 0 C 30.3373 1365.18 t 90 r /Helvetica-Bold findfont 45.506 sf 0 0 m ( ) show NC gr 
 gsave  2268 1676 0 0 C 60.6747 1092.14 t 90 r /Helvetica-Bold findfont 72.0512 sf 0 0 m (\(1/N\) dN) show NC gr  291 201 m -53 X s 265 237 m -27 X s 265 274 m -27 X s 265 310 m -27 X s 265 346 m -27 X s 291 383 m -53 X s 265 419 m -27 X s 265 455 m
 -27 X s 265 491 m -27 X s 265 528 m -27 X s 291 564 m -53 X s 265 600 m -27 X s 265 636 m -27 X s 265 673 m -27 X s 265 709 m -27 X s 291 745 m -53 X s 265 782 m -27 X s 265 818 m -27 X s 265 854 m -27 X s 265 890 m -27 X s 291 927 m -53 X s 265 963
 m -27 X s 265 999 m -27 X s 265 1035 m -27 X s 265 1072 m -27 X s 291 1108 m -53 X s 265 1144 m -27 X s 265 1181 m -27 X s 265 1217 m -27 X s 265 1253 m -27 X s 291 1289 m -53 X s 265 1326 m -27 X s 265 1362 m -27 X s 265 1398 m -27 X s 265 1434 m
 -27 X s 291 1471 m -53 X s 291 1471 m -53 X s 265 1507 m -27 X s
 gsave  2268 1676 0 0 C 174.44 178.232 t 0 r /Helvetica-Bold findfont 64.4669 sf 0 0 m (0) show NC gr 
 gsave  2268 1676 0 0 C 174.44 356.464 t 0 r /Helvetica-Bold findfont 64.4669 sf 0 0 m (5) show NC gr 
 gsave  2268 1676 0 0 C 136.518 538.488 t 0 r /Helvetica-Bold findfont 64.4669 sf 0 0 m (10) show NC gr 
 gsave  2268 1676 0 0 C 136.518 720.512 t 0 r /Helvetica-Bold findfont 64.4669 sf 0 0 m (15) show NC gr 
 gsave  2268 1676 0 0 C 136.518 902.536 t 0 r /Helvetica-Bold findfont 64.4669 sf 0 0 m (20) show NC gr 
 gsave  2268 1676 0 0 C 136.518 1084.56 t 0 r /Helvetica-Bold findfont 64.4669 sf 0 0 m (25) show NC gr 
 gsave  2268 1676 0 0 C 136.518 1266.58 t 0 r /Helvetica-Bold findfont 64.4669 sf 0 0 m (30) show NC gr 
 gsave  2268 1676 0 0 C 136.518 1444.82 t 0 r /Helvetica-Bold findfont 64.4669 sf 0 0 m (35) show NC gr  2154 201 m 1308 Y s 2101 201 m 53 X s 2128 237 m 26 X s 2128 274 m 26 X s 2128 310 m 26 X s 2128 346 m 26 X s 2101 383 m 53 X s 2128 419 m 26 X s
 2128 455 m 26 X s 2128 491 m 26 X s 2128 528 m 26 X s 2101 564 m 53 X s 2128 600 m 26 X s 2128 636 m 26 X s 2128 673 m 26 X s 2128 709 m 26 X s 2101 745 m 53 X s 2128 782 m 26 X s 2128 818 m 26 X s 2128 854 m 26 X s 2128 890 m 26 X s 2101 927 m 53 X
 s 2128 963 m 26 X s 2128 999 m 26 X s 2128 1035 m 26 X s 2128 1072 m 26 X s 2101 1108 m 53 X s 2128 1144 m 26 X s 2128 1181 m 26 X s 2128 1217 m 26 X s 2128 1253 m 26 X s 2101 1289 m 53 X s 2128 1326 m 26 X s 2128 1362 m 26 X s 2128 1398 m 26 X s
 2128 1434 m 26 X s 2101 1471 m 53 X s 2101 1471 m 53 X s 2128 1507 m 26 X s 0.490196 0.545098 0.615686 c 1 1 1 c 0.490196 0.545098 0.615686 c 907 202 238 1307 bl 238 1307 m 907 X s 1145 1307 m 202 Y s 1145 1509 m -907 X s 238 1509 m -202 Y s black
 gsave  2268 1676 0 0 C 417.138 1437.23 t 0 r /Helvetica-Bold findfont 56.8825 sf 0 0 m (Signal \(test sample\)) show NC gr  0.49 0.6 0.82 c 265 1423 m 127 X 70 Y -127 X f 0 0 0.933333 c 265 1493 m 127 X s 265 1423 m 127 X s 392 1423 m 70 Y s 265
 1423 m 70 Y s black
 gsave  2268 1676 0 0 C 417.138 1338.64 t 0 r /Helvetica-Bold findfont 56.8825 sf 0 0 m (Background \(test sample\)) show NC gr  1 0 0 c 392 1354 m -32 -32 d s 383 1393 m -71 -71 d s 335 1393 m -70 -69 d s 286 1393 m -21 -21 d s 0 0 0.933333 c 1 0 0
 c 265 1393 m 127 X s 265 1322 m 127 X s 392 1322 m 71 Y s 265 1322 m 71 Y s 0 0 0.933333 c 0.49 0.6 0.82 c black 0.49 0.6 0.82 c 238 201 m 48 X 10 Y 48 X -5 Y 48 X -2 Y 48 X 2 Y 48 X -3 Y 48 X -2 Y 47 X 6 Y 96 X -1 Y 144 X 3 Y 96 X -8 Y 48 X 2 Y 48
 X 4 Y 48 X -1 Y 47 X 6 Y 48 X -9 Y 48 X 1 Y 48 X 2 Y 48 X 6 Y 48 X -5 Y 48 X 4 Y 48 X -2 Y 96 X 2 Y 47 X -4 Y 48 X 10 Y 48 X 5 Y 48 X 7 Y 48 X -20 Y 48 X 31 Y 48 X -1 Y 48 X 12 Y 48 X 49 Y 48 X 119 Y 48 X 74 Y 47 X 194 Y 48 X -486 Y f 0 0 0.933333 c
 0.49 0.6 0.82 c 0 0 0.933333 c 238 201 m 48 X 10 Y 48 X -5 Y 48 X -2 Y 48 X 2 Y 48 X -3 Y 48 X -2 Y 47 X 6 Y 96 X -1 Y 144 X 3 Y 96 X -8 Y 48 X 2 Y 48 X 4 Y 48 X -1 Y 47 X 6 Y 48 X -9 Y 48 X 1 Y 48 X 2 Y 48 X 6 Y 48 X -5 Y 48 X 4 Y 48 X -2 Y 96 X 2
 Y 47 X -4 Y 48 X 10 Y 48 X 5 Y 48 X 7 Y 48 X -20 Y 48 X 31 Y 48 X -1 Y 48 X 12 Y 48 X 49 Y 48 X 119 Y 48 X 74 Y 47 X 194 Y 48 X -486 Y s 1 0 0 c black 1 0 0 c 2137 213 m -12 -12 d s 2092 216 m -15 -15 d s 2038 210 m -9 -9 d s 1987 207 m -6 -6 d s
 1939 207 m -6 -6 d s 1891 207 m -6 -6 d s 1840 204 m -3 -3 d s 1795 207 m -6 -6 d s 1744 204 m -3 -3 d s 1705 213 m -13 -12 d s 1659 216 m -15 -15 d s 1605 210 m -9 -9 d s 1551 204 m -3 -3 d s 1500 201 m s 1455 204 m -3 -3 d s 1410 207 m -6 -6 d s
 1359 204 m -3 -3 d s 1317 210 m -9 -9 d s 1272 213 m -13 -12 d s 1211 201 m s 1169 207 m -6 -6 d s 1118 204 m -3 -3 d s 1070 204 m -3 -3 d s 1025 207 m -6 -6 d s 977 207 m -6 -6 d s 926 204 m -3 -3 d s 887 213 m -12 -12 d s 827 201 m s 784 207 m -6
 -6 d s 745 216 m -15 -15 d s 682 201 m cl s 643 210 m -9 -9 d s 595 210 m -9 -9 d s 556 219 m -18 -18 d s 514 225 m -24 -24 d s 469 228 m -27 -27 d s 421 228 m -27 -27 d s 382 238 m -37 -37 d s 358 262 m -61 -61 d s 319 271 m -70 -70 d s 286 286 m
 -48 -48 d s 286 334 m -48 -48 d s 286 382 m -48 -48 d s 286 430 m -48 -48 d s 286 478 m -48 -47 d s 286 527 m -48 -48 d s 286 575 m -48 -48 d s 286 623 m -48 -48 d s 286 671 m -48 -48 d s 286 719 m -48 -48 d s 286 767 m -48 -48 d s 286 815 m -48 -48
 d s 286 863 m -48 -48 d s 286 911 m -48 -48 d s 286 959 m -48 -47 d s 286 1008 m -48 -48 d s 286 1056 m -48 -48 d s 286 1104 m -48 -48 d s 286 1152 m -48 -48 d s 286 1200 m -48 -48 d s 245 1207 m -7 -7 d s 238 1207 m 48 X -936 Y 48 X -9 Y 48 X -34 Y
 96 X -3 Y 48 X -6 Y 47 X -9 Y 96 X -9 Y 48 X 15 Y 48 X -9 Y 48 X -6 Y 48 X 12 Y 48 X -9 Y 48 X 3 Y 96 X -3 Y 95 X 3 Y 48 X -6 Y 48 X 12 Y 48 X -3 Y 48 X -6 Y 48 X 3 Y 48 X -3 Y 48 X -3 Y 48 X 3 Y 47 X 6 Y 48 X 6 Y 48 X -3 Y 48 X -9 Y 48 X 3 Y 48 X
 -3 Y 48 X 3 Y 144 X 3 Y 48 X 6 Y 47 X -3 Y 48 X -12 Y s 0.490196 0.545098 0.615686 c 1 1 1 c 0.490196 0.545098 0.615686 c 952 202 1202 1307 bl 1202 1307 m 952 X s 2154 1307 m 202 Y s 2154 1509 m -952 X s 1202 1509 m -202 Y s black
 gsave  2268 1676 0 0 C 1296.92 1437.23 t 0 r /Helvetica-Bold findfont 56.8825 sf 0 0 m (Signal \(training sample\)) show NC gr  0 0 0.933333 c /w 21 def /w2 {w 2 div} def /w3 {w 3 div} def 1250 1458 m20 black
 gsave  2268 1676 0 0 C 1296.92 1338.64 t 0 r /Helvetica-Bold findfont 56.8825 sf 0 0 m (Background \(training sample\)) show NC gr  1 0 0 c 1250 1358 m20 0 0 0.933333 c 1 1 1 c 0 0 0.933333 c 238 204 m 16 X s 270 204 m 16 X s 238 197 m 15 Y s 286
 197 m 15 Y s 262 204 m20 286 206 m 16 X s 318 206 m 16 X s 286 199 m 15 Y s 334 199 m 15 Y s 310 206 m20 334 206 m 16 X s 365 206 m 17 X s 334 198 m 15 Y s 382 198 m 15 Y s 358 206 m20 382 204 m 16 X s 413 204 m 17 X s 382 196 m 15 Y s 430 196 m 15
 Y s 406 204 m20 430 203 m 16 X s 461 203 m 17 X s 430 195 m 16 Y s 478 195 m 16 Y s 454 203 m20 478 207 m 16 X s 509 207 m 17 X s 478 200 m 15 Y s 526 200 m 15 Y s 502 207 m20 526 202 m 16 X s 557 202 m 16 X s 526 195 m 15 Y s 573 195 m 15 Y s 549
 202 m20 573 203 m 17 X s 605 203 m 16 X s 573 195 m 15 Y s 621 195 m 15 Y s 597 203 m20 621 203 m 17 X s 653 203 m 16 X s 621 196 m 15 Y s 669 196 m 15 Y s 645 203 m20 669 206 m 17 X s 701 206 m 16 X s 669 198 m 15 Y s 717 198 m 15 Y s 693 206 m20
 717 202 m 17 X s 749 202 m 16 X s 717 194 m 15 Y s 765 194 m 15 Y s 741 202 m20 765 209 m 16 X s 797 209 m 16 X s 765 201 m 16 Y s 813 201 m 16 Y s 789 209 m20 813 206 m 16 X s 845 206 m 16 X s 813 198 m 16 Y s 861 198 m 16 Y s 837 206 m20 861 205 m
 16 X s 892 205 m 17 X s 861 198 m 15 Y s 909 198 m 15 Y s 885 205 m20 909 205 m 16 X s 940 205 m 17 X s 909 198 m 15 Y s 957 198 m 15 Y s 933 205 m20 957 203 m 16 X s 988 203 m 17 X s 957 195 m 16 Y s 1005 195 m 16 Y s 981 203 m20 1005 204 m 16 X s
 1036 204 m 17 X s 1005 197 m 15 Y s 1053 197 m 15 Y s 1029 204 m20 1053 207 m 16 X s 1084 207 m 16 X s 1053 199 m 15 Y s 1100 199 m 15 Y s 1076 207 m20 1100 206 m 17 X s 1132 206 m 16 X s 1100 198 m 16 Y s 1148 198 m 16 Y s 1124 206 m20 1148 204 m
 17 X s 1180 204 m 16 X s 1148 197 m 15 Y s 1196 197 m 15 Y s 1172 204 m20 1196 208 m 17 X s 1228 208 m 16 X s 1196 200 m 15 Y s 1244 200 m 15 Y s 1220 208 m20 1244 205 m 16 X s 1276 205 m 16 X s 1244 197 m 15 Y s 1292 197 m 15 Y s 1268 205 m20 1292
 211 m 16 X s 1324 211 m 16 X s 1292 203 m 15 Y s 1340 203 m 15 Y s 1316 211 m20 1340 209 m 16 X s 1371 209 m 17 X s 1340 201 m 15 Y s 1388 201 m 15 Y s 1364 209 m20 1388 209 m 16 X s 1419 209 m 17 X s 1388 201 m 15 Y s 1436 201 m 15 Y s 1412 209 m20
 1436 211 m 16 X s 1467 211 m 17 X s 1436 204 m 15 Y s 1484 204 m 15 Y s 1460 211 m20 1484 209 m 16 X s 1515 209 m 17 X s 1484 201 m 15 Y s 1532 201 m 15 Y s 1508 209 m20 1532 212 m 16 X s 1563 212 m 16 X s 1532 204 m 16 Y s 1579 204 m 16 Y s 1556
 212 m20 1579 212 m 17 X s 1611 212 m 16 X s 1579 204 m 15 Y s 1627 204 m 15 Y s 1603 212 m20 1627 215 m 17 X s 1659 215 m 16 X s 1627 207 m 15 Y s 1675 207 m 15 Y s 1651 215 m20 1675 211 m 17 X s 1707 211 m 16 X s 1675 203 m 15 Y s 1723 203 m 15 Y s
 1699 211 m20 1723 221 m 17 X s 1755 221 m 16 X s 1723 213 m 15 Y s 1771 213 m 15 Y s 1747 221 m20 1771 226 m 16 X s 1803 226 m 16 X s 1771 219 m 15 Y s 1819 219 m 15 Y s 1795 226 m20 1819 231 m 16 X s 1851 231 m 16 X s 1819 223 m 15 Y s 1867 223 m
 15 Y s 1843 231 m20 1867 239 m 16 X s 1898 239 m 17 X s 1867 232 m 15 Y s 1915 232 m 15 Y s 1891 239 m20 1915 250 m 16 X s 1946 250 m 17 X s 1915 242 m 15 Y s 1963 242 m 15 Y s 1939 250 m20 1963 298 m 16 X s 1994 298 m 17 X s 1963 291 m 15 Y s 2011
 291 m 15 Y s 1987 298 m20 2035 397 m 1 Y s 2035 413 m 1 Y s 2011 405 m 16 X s 2042 405 m 17 X s 2027 397 m 15 X s 2027 414 m 15 X s 2011 398 m 15 Y s 2059 398 m 15 Y s 2035 405 m20 2082 503 m 3 Y s 2082 521 m 4 Y s 2059 514 m 16 X s 2090 514 m 16 X
 s 2075 503 m 15 X s 2075 525 m 15 X s 2059 506 m 15 Y s 2106 506 m 15 Y s 2082 514 m20 2130 692 m 7 Y s 2130 714 m 6 Y s 2106 706 m 17 X s 2138 706 m 16 X s 2123 692 m 15 X s 2123 720 m 15 X s 2106 699 m 15 Y s 2154 699 m 15 Y s 2130 706 m20 1 0 0 c
 1 1 1 c 1 0 0 c 262 1162 m 20 Y s 262 1197 m 20 Y s 238 1189 m 16 X s 270 1189 m 16 X s 254 1162 m 16 X s 254 1217 m 16 X s 238 1182 m 15 Y s 286 1182 m 15 Y s 262 1189 m20 310 289 m 1 Y s 310 305 m 1 Y s 286 297 m 16 X s 318 297 m 16 X s 302 289 m
 16 X s 302 306 m 16 X s 286 290 m 15 Y s 334 290 m 15 Y s 310 297 m20 334 250 m 16 X s 365 250 m 17 X s 334 242 m 15 Y s 382 242 m 15 Y s 358 250 m20 382 235 m 16 X s 413 235 m 17 X s 382 227 m 15 Y s 430 227 m 15 Y s 406 235 m20 430 224 m 16 X s
 461 224 m 17 X s 430 216 m 15 Y s 478 216 m 15 Y s 454 224 m20 478 217 m 16 X s 509 217 m 17 X s 478 209 m 15 Y s 526 209 m 15 Y s 502 217 m20 526 216 m 16 X s 557 216 m 16 X s 526 209 m 15 Y s 573 209 m 15 Y s 549 216 m20 573 212 m 17 X s 605 212 m
 16 X s 573 204 m 15 Y s 621 204 m 15 Y s 597 212 m20 621 218 m 17 X s 653 218 m 16 X s 621 210 m 15 Y s 669 210 m 15 Y s 645 218 m20 669 217 m 17 X s 701 217 m 16 X s 669 209 m 15 Y s 717 209 m 15 Y s 693 217 m20 717 214 m 17 X s 749 214 m 16 X s
 717 206 m 15 Y s 765 206 m 15 Y s 741 214 m20 765 209 m 16 X s 797 209 m 16 X s 765 202 m 15 Y s 813 202 m 15 Y s 789 209 m20 813 210 m 16 X s 845 210 m 16 X s 813 203 m 15 Y s 861 203 m 15 Y s 837 210 m20 861 207 m 16 X s 892 207 m 17 X s 861 200 m
 15 Y s 909 200 m 15 Y s 885 207 m20 909 209 m 16 X s 940 209 m 17 X s 909 201 m 15 Y s 957 201 m 15 Y s 933 209 m20 957 206 m 16 X s 988 206 m 17 X s 957 198 m 15 Y s 1005 198 m 15 Y s 981 206 m20 1005 205 m 16 X s 1036 205 m 17 X s 1005 197 m 15 Y
 s 1053 197 m 15 Y s 1029 205 m20 1053 209 m 16 X s 1084 209 m 16 X s 1053 201 m 15 Y s 1100 201 m 15 Y s 1076 209 m20 1100 206 m 17 X s 1132 206 m 16 X s 1100 199 m 15 Y s 1148 199 m 15 Y s 1124 206 m20 1148 206 m 17 X s 1180 206 m 16 X s 1148 199 m
 15 Y s 1196 199 m 15 Y s 1172 206 m20 1196 204 m 17 X s 1228 204 m 16 X s 1196 197 m 15 Y s 1244 197 m 15 Y s 1220 204 m20 1244 207 m 16 X s 1276 207 m 16 X s 1244 200 m 15 Y s 1292 200 m 15 Y s 1268 207 m20 1292 209 m 16 X s 1324 209 m 16 X s 1292
 201 m 15 Y s 1340 201 m 15 Y s 1316 209 m20 1340 208 m 16 X s 1371 208 m 17 X s 1340 200 m 15 Y s 1388 200 m 15 Y s 1364 208 m20 1388 205 m 16 X s 1419 205 m 17 X s 1388 197 m 15 Y s 1436 197 m 15 Y s 1412 205 m20 1436 205 m 16 X s 1467 205 m 17 X s
 1436 197 m 15 Y s 1484 197 m 15 Y s 1460 205 m20 1484 203 m 16 X s 1515 203 m 17 X s 1484 196 m 15 Y s 1532 196 m 15 Y s 1508 203 m20 1532 204 m 16 X s 1563 204 m 16 X s 1532 197 m 15 Y s 1579 197 m 15 Y s 1556 204 m20 1579 202 m 17 X s 1611 202 m
 16 X s 1579 194 m 15 Y s 1627 194 m 15 Y s 1603 202 m20 1627 205 m 17 X s 1659 205 m 16 X s 1627 197 m 15 Y s 1675 197 m 15 Y s 1651 205 m20 1675 206 m 17 X s 1707 206 m 16 X s 1675 199 m 15 Y s 1723 199 m 15 Y s 1699 206 m20 1723 204 m 17 X s 1755
 204 m 16 X s 1723 197 m 15 Y s 1771 197 m 15 Y s 1747 204 m20 1771 207 m 16 X s 1803 207 m 16 X s 1771 200 m 15 Y s 1819 200 m 15 Y s 1795 207 m20 1819 211 m 16 X s 1851 211 m 16 X s 1819 203 m 15 Y s 1867 203 m 15 Y s 1843 211 m20 1867 208 m 16 X s
 1898 208 m 17 X s 1867 200 m 15 Y s 1915 200 m 15 Y s 1891 208 m20 1915 210 m 16 X s 1946 210 m 17 X s 1915 203 m 15 Y s 1963 203 m 15 Y s 1939 210 m20 1963 209 m 16 X s 1994 209 m 17 X s 1963 201 m 15 Y s 2011 201 m 15 Y s 1987 209 m20 2011 213 m
 16 X s 2042 213 m 17 X s 2011 206 m 15 Y s 2059 206 m 15 Y s 2035 213 m20 2059 216 m 16 X s 2090 216 m 16 X s 2059 209 m 15 Y s 2106 209 m 15 Y s 2082 216 m20 2106 205 m 17 X s 2138 205 m 16 X s 2106 197 m 15 Y s 2154 197 m 15 Y s 2130 205 m20 black
 gsave  2268 1676 0 0 C 272.126 1240.34 t 0 r /Helvetica-Bold findfont 49.2982 sf 0 0 m (Kolmogorov\255Smirnov test: signal \(background\) probability = 0.002 \(0.209\)) show NC gr  238 201 m 1916 X s 238 244 m -43 Y s 334 222 m -21 Y s 430 222 m -21
 Y s 526 222 m -21 Y s 621 244 m -43 Y s 717 222 m -21 Y s 813 222 m -21 Y s 909 222 m -21 Y s 1005 244 m -43 Y s 1100 222 m -21 Y s 1196 222 m -21 Y s 1292 222 m -21 Y s 1388 244 m -43 Y s 1484 222 m -21 Y s 1579 222 m -21 Y s 1675 222 m -21 Y s
 1771 244 m -43 Y s 1867 222 m -21 Y s 1963 222 m -21 Y s 2059 222 m -21 Y s 2154 244 m -43 Y s 238 244 m -43 Y s 2154 244 m -43 Y s 238 1509 m 1916 X s 238 1466 m 43 Y s 334 1487 m 22 Y s 430 1487 m 22 Y s 526 1487 m 22 Y s 621 1466 m 43 Y s 717
 1487 m 22 Y s 813 1487 m 22 Y s 909 1487 m 22 Y s 1005 1466 m 43 Y s 1100 1487 m 22 Y s 1196 1487 m 22 Y s 1292 1487 m 22 Y s 1388 1466 m 43 Y s 1484 1487 m 22 Y s 1579 1487 m 22 Y s 1675 1487 m 22 Y s 1771 1466 m 43 Y s 1867 1487 m 22 Y s 1963 1487
 m 22 Y s 2059 1487 m 22 Y s 2154 1466 m 43 Y s 238 1466 m 43 Y s 2154 1466 m 43 Y s 238 201 m 1308 Y s 291 201 m -53 X s 265 237 m -27 X s 265 274 m -27 X s 265 310 m -27 X s 265 346 m -27 X s 291 383 m -53 X s 265 419 m -27 X s 265 455 m -27 X s
 265 491 m -27 X s 265 528 m -27 X s 291 564 m -53 X s 265 600 m -27 X s 265 636 m -27 X s 265 673 m -27 X s 265 709 m -27 X s 291 745 m -53 X s 265 782 m -27 X s 265 818 m -27 X s 265 854 m -27 X s 265 890 m -27 X s 291 927 m -53 X s 265 963 m -27 X
 s 265 999 m -27 X s 265 1035 m -27 X s 265 1072 m -27 X s 291 1108 m -53 X s 265 1144 m -27 X s 265 1181 m -27 X s 265 1217 m -27 X s 265 1253 m -27 X s 291 1289 m -53 X s 265 1326 m -27 X s 265 1362 m -27 X s 265 1398 m -27 X s 265 1434 m -27 X s
 291 1471 m -53 X s 291 1471 m -53 X s 265 1507 m -27 X s 2154 201 m 1308 Y s 2101 201 m 53 X s 2128 237 m 26 X s 2128 274 m 26 X s 2128 310 m 26 X s 2128 346 m 26 X s 2101 383 m 53 X s 2128 419 m 26 X s 2128 455 m 26 X s 2128 491 m 26 X s 2128 528 m
 26 X s 2101 564 m 53 X s 2128 600 m 26 X s 2128 636 m 26 X s 2128 673 m 26 X s 2128 709 m 26 X s 2101 745 m 53 X s 2128 782 m 26 X s 2128 818 m 26 X s 2128 854 m 26 X s 2128 890 m 26 X s 2101 927 m 53 X s 2128 963 m 26 X s 2128 999 m 26 X s 2128
 1035 m 26 X s 2128 1072 m 26 X s 2101 1108 m 53 X s 2128 1144 m 26 X s 2128 1181 m 26 X s 2128 1217 m 26 X s 2128 1253 m 26 X s 2101 1289 m 53 X s 2128 1326 m 26 X s 2128 1362 m 26 X s 2128 1398 m 26 X s 2128 1434 m 26 X s 2101 1471 m 53 X s 2101
 1471 m 53 X s 2128 1507 m 26 X s
 gsave  2268 1676 0 0 C 2211.02 192.756 t 90 r /Helvetica-Bold findfont 45.506 sf 0 0 m (U/O\255flow \(S,B\): \(0.0, 0.0\)% / \(0.0, 0.0\)%) show NC gr  0.490196 0.545098 0.615686 c 0.364706 0.419608 0.490196 c 1587 96 23 1572 bf 0.490196 0.545098
 0.615686 c 23 1572 m 1587 X s 1610 1572 m 96 Y s 1610 1668 m -1587 X s 23 1668 m -96 Y s 1 1 1 c black 1 1 1 c
 gsave  2268 1676 0 0 C 94.8042 1604.09 t 0 r /Helvetica-Bold findfont 60.6747 sf 0 0 m (TMVA overtraining check for classifier: MLPBPCE) show NC gr 
 gr  gr showpage
end
%%EOF
