%!PS-Adobe-2.0 EPSF-2.0
%%BoundingBox:  0 0 567 419
%%Title: DataSet/plots/overtrain_KNN.eps: TMVA comparison KNN
%%Creator: ROOT Version 6.08/06
%%CreationDate: Fri Jun  8 13:04:24 2018
%%DocumentNeededResources: ProcSet (FontSetInit)
%%EndComments
%%BeginProlog
80 dict begin
/s {stroke} def /l {lineto} def /m {moveto} def /t {translate} def
/r {rotate} def /rl {roll}  def /R {repeat} def
/d {rlineto} def /rm {rmoveto} def /gr {grestore} def /f {eofill} def
/c {setrgbcolor} def /black {0 setgray} def /sd {setdash} def
/cl {closepath} def /sf {scalefont setfont} def /lw {setlinewidth} def
/box {m dup 0 exch d exch 0 d 0 exch neg d cl} def
/NC{systemdict begin initclip end}def/C{NC box clip newpath}def
/bl {box s} def /bf {gsave box gsave f grestore 1 lw [] 0 sd s grestore} def /Y { 0 exch d} def /X { 0 d} def 
/K {{pop pop 0 moveto} exch kshow} bind def
/ita {/ang 15 def gsave [1 0 ang dup sin exch cos div 1 0 0] concat} def 
/mp {newpath /y exch def /x exch def} def
/side {[w .77 mul w .23 mul] .385 w mul sd w 0 l currentpoint t -144 r} def
/mr {mp x y w2 0 360 arc} def /m24 {mr s} def /m20 {mr f} def
/mb {mp x y w2 add m w2 neg 0 d 0 w neg d w 0 d 0 w d cl} def
/mt {mp x y w2 add m w2 neg w neg d w 0 d cl} def
/m21 {mb f} def /m25 {mb s} def /m22 {mt f} def /m26{mt s} def
/m23 {mp x y w2 sub m w2 w d w neg 0 d cl f} def
/m27 {mp x y w2 add m w3 neg w2 neg d w3 w2 neg d w3 w2 d cl s} def
/m28 {mp x w2 sub y w2 sub w3 add m w3 0 d  0 w3 neg d w3 0 d 0 w3 d w3 0 d  0 w3 d w3 neg 0 d 0 w3 d w3 neg 0 d 0 w3 neg d w3 neg 0 d cl s } def
/m29 {mp gsave x w2 sub y w2 add w3 sub m currentpoint t 4 {side} repeat cl fill gr} def
/m30 {mp gsave x w2 sub y w2 add w3 sub m currentpoint t 4 {side} repeat cl s gr} def
/m31 {mp x y w2 sub m 0 w d x w2 sub y m w 0 d x w2 sub y w2 add m w w neg d x w2 sub y w2 sub m w w d s} def
/m32 {mp x y w2 sub m w2 w d w neg 0 d cl s} def
/m33 {mp x y w2 add m w3 neg w2 neg d w3 w2 neg d w3 w2 d cl f} def
/m34 {mp x w2 sub y w2 sub w3 add m w3 0 d  0 w3 neg d w3 0 d 0 w3 d w3 0 d  0 w3 d w3 neg 0 d 0 w3 d w3 neg 0 d 0 w3 neg d w3 neg 0 d cl f } def
/m2 {mp x y w2 sub m 0 w d x w2 sub y m w 0 d s} def
/m5 {mp x w2 sub y w2 sub m w w d x w2 sub y w2 add m w w neg d s} def
%%IncludeResource: ProcSet (FontSetInit)
%%IncludeResource: font Times-Roman
%%IncludeResource: font Times-Italic
%%IncludeResource: font Times-Bold
%%IncludeResource: font Times-BoldItalic
%%IncludeResource: font Helvetica
%%IncludeResource: font Helvetica-Oblique
%%IncludeResource: font Helvetica-Bold
%%IncludeResource: font Helvetica-BoldOblique
%%IncludeResource: font Courier
%%IncludeResource: font Courier-Oblique
%%IncludeResource: font Courier-Bold
%%IncludeResource: font Courier-BoldOblique
%%IncludeResource: font Symbol
%%IncludeResource: font ZapfDingbats
/reEncode {exch findfont dup length dict begin {1 index /FID eq  {pop pop} {def} ifelse } forall /Encoding exch def currentdict end dup /FontName get exch definefont pop } def [/Times-Bold /Times-Italic /Times-BoldItalic /Helvetica /Helvetica-Oblique
 /Helvetica-Bold /Helvetica-BoldOblique /Courier /Courier-Oblique /Courier-Bold /Courier-BoldOblique /Times-Roman /AvantGarde-Book /AvantGarde-BookOblique /AvantGarde-Demi /AvantGarde-DemiOblique /Bookman-Demi /Bookman-DemiItalic /Bookman-Light
 /Bookman-LightItalic /Helvetica-Narrow /Helvetica-Narrow-Bold /Helvetica-Narrow-BoldOblique /Helvetica-Narrow-Oblique /NewCenturySchlbk-Roman /NewCenturySchlbk-Bold /NewCenturySchlbk-BoldItalic /NewCenturySchlbk-Italic /Palatino-Bold
 /Palatino-BoldItalic /Palatino-Italic /Palatino-Roman ] {ISOLatin1Encoding reEncode } forall
%%EndProlog
%%BeginSetup
%%EndSetup
newpath  gsave  .25 .25 scale  gsave  0 0 t 0.490196 0.545098 0.615686 c[  ] 0 sd 3 lw 1 1 1 c 2268 1676 0 0 bf black 1 1 1 c 1916 1308 238 201 bf black 1916 1308 238 201 bl 1 1 1 c 1916 1308 238 201 bf black 1916 1308 238 201 bl 238 201 m 1916 X s
 gsave  2268 1676 0 0 C 1657.18 34.1295 t 0 r /Helvetica-Bold findfont 72.0512 sf 0 0 m (KNN response) show NC gr  238 244 m -43 Y s 334 222 m -21 Y s 430 222 m -21 Y s 526 222 m -21 Y s 621 244 m -43 Y s 717 222 m -21 Y s 813 222 m -21 Y s 909 222 m
 -21 Y s 1005 244 m -43 Y s 1100 222 m -21 Y s 1196 222 m -21 Y s 1292 222 m -21 Y s 1388 244 m -43 Y s 1484 222 m -21 Y s 1579 222 m -21 Y s 1675 222 m -21 Y s 1771 244 m -43 Y s 1867 222 m -21 Y s 1963 222 m -21 Y s 2059 222 m -21 Y s 2154 244 m
 -43 Y s 2154 244 m -43 Y s
 gsave  2268 1676 0 0 C 216.154 128.934 t 0 r /Helvetica-Bold findfont 64.4669 sf 0 0 m (0) show NC gr 
 gsave  2268 1676 0 0 C 572.617 128.934 t 0 r /Helvetica-Bold findfont 64.4669 sf 0 0 m (0.2) show NC gr 
 gsave  2268 1676 0 0 C 955.626 128.934 t 0 r /Helvetica-Bold findfont 64.4669 sf 0 0 m (0.4) show NC gr 
 gsave  2268 1676 0 0 C 1338.64 128.934 t 0 r /Helvetica-Bold findfont 64.4669 sf 0 0 m (0.6) show NC gr 
 gsave  2268 1676 0 0 C 1725.44 128.934 t 0 r /Helvetica-Bold findfont 64.4669 sf 0 0 m (0.8) show NC gr 
 gsave  2268 1676 0 0 C 2138.78 128.934 t 0 r /Helvetica-Bold findfont 64.4669 sf 0 0 m (1) show NC gr  238 1509 m 1916 X s 238 1466 m 43 Y s 334 1487 m 22 Y s 430 1487 m 22 Y s 526 1487 m 22 Y s 621 1466 m 43 Y s 717 1487 m 22 Y s 813 1487 m 22 Y s
 909 1487 m 22 Y s 1005 1466 m 43 Y s 1100 1487 m 22 Y s 1196 1487 m 22 Y s 1292 1487 m 22 Y s 1388 1466 m 43 Y s 1484 1487 m 22 Y s 1579 1487 m 22 Y s 1675 1487 m 22 Y s 1771 1466 m 43 Y s 1867 1487 m 22 Y s 1963 1487 m 22 Y s 2059 1487 m 22 Y s
 2154 1466 m 43 Y s 2154 1466 m 43 Y s 238 201 m 1308 Y s
 gsave  2268 1676 0 0 C 64.4669 1425.86 t 90 r /Helvetica-Bold findfont 72.0512 sf 0 0 m (dx) show NC gr 
 gsave  2268 1676 0 0 C 30.3373 1406.89 t 90 r /Helvetica-Bold findfont 45.506 sf 0 0 m ( ) show NC gr 
 gsave  2268 1676 0 0 C 64.4669 1384.14 t 90 r /Helvetica-Bold findfont 72.0512 sf 0 0 m (/) show NC gr 
 gsave  2268 1676 0 0 C 30.3373 1365.18 t 90 r /Helvetica-Bold findfont 45.506 sf 0 0 m ( ) show NC gr 
 gsave  2268 1676 0 0 C 60.6747 1092.14 t 90 r /Helvetica-Bold findfont 72.0512 sf 0 0 m (\(1/N\) dN) show NC gr  291 201 m -53 X s 265 237 m -27 X s 265 273 m -27 X s 265 309 m -27 X s 291 345 m -53 X s 265 381 m -27 X s 265 416 m -27 X s 265 452 m
 -27 X s 291 488 m -53 X s 265 524 m -27 X s 265 560 m -27 X s 265 596 m -27 X s 291 632 m -53 X s 265 668 m -27 X s 265 703 m -27 X s 265 739 m -27 X s 291 775 m -53 X s 265 811 m -27 X s 265 847 m -27 X s 265 883 m -27 X s 291 919 m -53 X s 265 955
 m -27 X s 265 991 m -27 X s 265 1026 m -27 X s 291 1062 m -53 X s 265 1098 m -27 X s 265 1134 m -27 X s 265 1170 m -27 X s 291 1206 m -53 X s 265 1242 m -27 X s 265 1278 m -27 X s 265 1313 m -27 X s 291 1349 m -53 X s 265 1385 m -27 X s 265 1421 m
 -27 X s 265 1457 m -27 X s 291 1493 m -53 X s 291 1493 m -53 X s
 gsave  2268 1676 0 0 C 174.44 178.232 t 0 r /Helvetica-Bold findfont 64.4669 sf 0 0 m (0) show NC gr 
 gsave  2268 1676 0 0 C 174.44 318.542 t 0 r /Helvetica-Bold findfont 64.4669 sf 0 0 m (2) show NC gr 
 gsave  2268 1676 0 0 C 174.44 462.645 t 0 r /Helvetica-Bold findfont 64.4669 sf 0 0 m (4) show NC gr 
 gsave  2268 1676 0 0 C 174.44 606.747 t 0 r /Helvetica-Bold findfont 64.4669 sf 0 0 m (6) show NC gr 
 gsave  2268 1676 0 0 C 174.44 750.849 t 0 r /Helvetica-Bold findfont 64.4669 sf 0 0 m (8) show NC gr 
 gsave  2268 1676 0 0 C 136.518 894.952 t 0 r /Helvetica-Bold findfont 64.4669 sf 0 0 m (10) show NC gr 
 gsave  2268 1676 0 0 C 136.518 1039.05 t 0 r /Helvetica-Bold findfont 64.4669 sf 0 0 m (12) show NC gr 
 gsave  2268 1676 0 0 C 136.518 1179.36 t 0 r /Helvetica-Bold findfont 64.4669 sf 0 0 m (14) show NC gr 
 gsave  2268 1676 0 0 C 136.518 1323.47 t 0 r /Helvetica-Bold findfont 64.4669 sf 0 0 m (16) show NC gr 
 gsave  2268 1676 0 0 C 136.518 1467.57 t 0 r /Helvetica-Bold findfont 64.4669 sf 0 0 m (18) show NC gr  2154 201 m 1308 Y s 2101 201 m 53 X s 2128 237 m 26 X s 2128 273 m 26 X s 2128 309 m 26 X s 2101 345 m 53 X s 2128 381 m 26 X s 2128 416 m 26 X s
 2128 452 m 26 X s 2101 488 m 53 X s 2128 524 m 26 X s 2128 560 m 26 X s 2128 596 m 26 X s 2101 632 m 53 X s 2128 668 m 26 X s 2128 703 m 26 X s 2128 739 m 26 X s 2101 775 m 53 X s 2128 811 m 26 X s 2128 847 m 26 X s 2128 883 m 26 X s 2101 919 m 53 X
 s 2128 955 m 26 X s 2128 991 m 26 X s 2128 1026 m 26 X s 2101 1062 m 53 X s 2128 1098 m 26 X s 2128 1134 m 26 X s 2128 1170 m 26 X s 2101 1206 m 53 X s 2128 1242 m 26 X s 2128 1278 m 26 X s 2128 1313 m 26 X s 2101 1349 m 53 X s 2128 1385 m 26 X s
 2128 1421 m 26 X s 2128 1457 m 26 X s 2101 1493 m 53 X s 2101 1493 m 53 X s 0.490196 0.545098 0.615686 c 1 1 1 c 0.490196 0.545098 0.615686 c 907 202 238 1307 bl 238 1307 m 907 X s 1145 1307 m 202 Y s 1145 1509 m -907 X s 238 1509 m -202 Y s black
 gsave  2268 1676 0 0 C 417.138 1437.23 t 0 r /Helvetica-Bold findfont 56.8825 sf 0 0 m (Signal \(test sample\)) show NC gr  0.49 0.6 0.82 c 265 1423 m 127 X 70 Y -127 X f 0 0 0.933333 c 265 1493 m 127 X s 265 1423 m 127 X s 392 1423 m 70 Y s 265
 1423 m 70 Y s black
 gsave  2268 1676 0 0 C 417.138 1338.64 t 0 r /Helvetica-Bold findfont 56.8825 sf 0 0 m (Background \(test sample\)) show NC gr  1 0 0 c 392 1354 m -32 -32 d s 383 1393 m -71 -71 d s 335 1393 m -70 -69 d s 286 1393 m -21 -21 d s 0 0 0.933333 c 1 0 0
 c 265 1393 m 127 X s 265 1322 m 127 X s 392 1322 m 71 Y s 265 1322 m 71 Y s 0 0 0.933333 c 0.49 0.6 0.82 c black 0.49 0.6 0.82 c 238 201 m 9 Y 48 X -3 Y 48 X 3 Y 48 X -6 Y 48 X 6 Y 48 X 7 Y 48 X -16 Y 47 X 13 Y 48 X 6 Y 48 X -19 Y 48 X 13 Y 48 X 9 Y
 48 X -22 Y 48 X 16 Y 48 X -16 Y 48 X 22 Y 48 X -22 Y 48 X 40 Y 47 X -40 Y 48 X 53 Y 48 X -53 Y 48 X 56 Y 48 X -56 Y 96 X 87 Y 48 X -87 Y 48 X 165 Y 48 X -165 Y 95 X 248 Y 48 X -248 Y 96 X 428 Y 48 X -428 Y 144 X 667 Y 48 X -667 Y 95 X 971 Y 48 X
 -971 Y f 0 0 0.933333 c 0.49 0.6 0.82 c 0 0 0.933333 c 238 210 m 48 X -3 Y 48 X 3 Y 48 X -6 Y 48 X 6 Y 48 X 7 Y 48 X -16 Y 47 X 13 Y 48 X 6 Y 48 X -19 Y 48 X 13 Y 48 X 9 Y 48 X -22 Y 48 X 16 Y 48 X -16 Y 48 X 22 Y 48 X -22 Y 48 X 40 Y 47 X -40 Y 48
 X 53 Y 48 X -53 Y 48 X 56 Y 48 X -56 Y 96 X 87 Y 48 X -87 Y 48 X 165 Y 48 X -165 Y 95 X 248 Y 48 X -248 Y 96 X 428 Y 48 X -428 Y 144 X 667 Y 48 X -667 Y 95 X 971 Y 48 X -971 Y s 1 0 0 c black 1 0 0 c 2154 230 m -29 -29 d s 2119 243 m -13 -13 d s
 2077 201 m s 2029 201 m cl s 2011 231 m -30 -30 d s 1981 249 m -18 -18 d s 1933 201 m s 1885 201 m s 1837 201 m s 1819 232 m -30 -31 d s 1819 280 m -48 -48 d s 1741 201 m s 1806 315 m -35 -35 d s 1692 201 m s 1675 232 m -31 -31 d s 1650 255 m -23
 -23 d s 1596 201 m s 1548 201 m cl s 1532 233 m -32 -32 d s 1530 279 m -46 -46 d s 1452 201 m s 1434 231 m -30 -30 d s 1356 201 m s 1308 201 m s 1292 234 m -33 -33 d s 1277 267 m -33 -33 d s 1211 201 m s 1196 234 m -33 -33 d s 1151 237 m -3 -3 d s
 1115 201 m s 1100 235 m -33 -34 d s 1085 267 m -32 -32 d s 1019 201 m s 1005 235 m -34 -34 d s 1005 283 m -48 -48 d s 923 201 m s 970 297 m -13 -14 d s 909 235 m -34 -34 d s 898 273 m -37 -37 d s 827 201 m cl s 813 236 m -35 -35 d s 796 267 m -66
 -66 d s 742 261 m -25 -25 d s 682 201 m s 669 236 m -35 -35 d s 669 284 m -83 -83 d s 669 333 m -96 -96 d s 538 201 m cl s 628 339 m -7 -6 d s 616 327 m -43 -42 d s 526 237 m -36 -36 d s 526 285 m -84 -84 d s 501 309 m -107 -108 d s 478 333 m -133
 -132 d s 453 357 m -156 -156 d s 430 382 m -181 -181 d s 399 399 m -161 -161 d s 345 393 m -107 -107 d s 334 430 m -96 -96 d s 334 478 m -96 -96 d s 334 526 m -96 -95 d s 334 574 m -96 -95 d s 314 603 m -76 -76 d s 286 623 m -48 -48 d s 286 671 m
 -48 -48 d s 286 719 m -48 -48 d s 286 767 m -48 -48 d s 286 815 m -48 -48 d s 286 863 m -48 -48 d s 286 911 m -48 -48 d s 253 926 m -15 -14 d s 238 926 m 48 X -323 Y 48 X -210 Y 48 X 6 Y 48 X -42 Y 48 X -48 Y 48 X -108 Y 47 X 126 Y 48 X 12 Y 48 X
 -138 Y 48 X 60 Y 48 X 6 Y 48 X -66 Y 48 X 72 Y 48 X -72 Y 48 X 96 Y 48 X -96 Y 48 X 66 Y 47 X -66 Y 48 X 36 Y 48 X -36 Y 48 X 66 Y 48 X -66 Y 96 X 30 Y 48 X -30 Y 48 X 78 Y 48 X -78 Y 95 X 54 Y 48 X -54 Y 96 X 114 Y 48 X -114 Y 144 X 48 Y 48 X -48 Y
 95 X 42 Y 48 X -42 Y s 0.490196 0.545098 0.615686 c 1 1 1 c 0.490196 0.545098 0.615686 c 952 202 1202 1307 bl 1202 1307 m 952 X s 2154 1307 m 202 Y s 2154 1509 m -952 X s 1202 1509 m -202 Y s black
 gsave  2268 1676 0 0 C 1296.92 1437.23 t 0 r /Helvetica-Bold findfont 56.8825 sf 0 0 m (Signal \(training sample\)) show NC gr  0 0 0.933333 c /w 21 def /w2 {w 2 div} def /w3 {w 3 div} def 1250 1458 m20 black
 gsave  2268 1676 0 0 C 1296.92 1338.64 t 0 r /Helvetica-Bold findfont 56.8825 sf 0 0 m (Background \(training sample\)) show NC gr  1 0 0 c 1250 1358 m20 0 0 0.933333 c 1 1 1 c 0 0 0.933333 c 286 203 m 16 X s 318 203 m 16 X s 286 196 m 15 Y s 334
 196 m 15 Y s 310 203 m20 334 206 m 16 X s 365 206 m 17 X s 334 199 m 15 Y s 382 199 m 15 Y s 358 206 m20 382 204 m 16 X s 413 204 m 17 X s 382 196 m 16 Y s 430 196 m 16 Y s 406 204 m20 430 206 m 16 X s 461 206 m 17 X s 430 198 m 15 Y s 478 198 m 15
 Y s 454 206 m20 478 209 m 16 X s 509 209 m 17 X s 478 202 m 15 Y s 526 202 m 15 Y s 502 209 m20 573 212 m 17 X s 605 212 m 16 X s 573 205 m 15 Y s 621 205 m 15 Y s 597 212 m20 621 217 m 17 X s 653 217 m 16 X s 621 209 m 15 Y s 669 209 m 15 Y s 645
 217 m20 717 214 m 17 X s 749 214 m 16 X s 717 207 m 15 Y s 765 207 m 15 Y s 741 214 m20 765 218 m 16 X s 797 218 m 16 X s 765 210 m 16 Y s 813 210 m 16 Y s 789 218 m20 861 222 m 16 X s 892 222 m 17 X s 861 215 m 15 Y s 909 215 m 15 Y s 885 222 m20
 957 229 m 16 X s 988 229 m 17 X s 957 222 m 15 Y s 1005 222 m 15 Y s 981 229 m20 1053 236 m 16 X s 1084 236 m 16 X s 1053 229 m 15 Y s 1100 229 m 15 Y s 1076 236 m20 1148 243 m 17 X s 1180 243 m 16 X s 1148 236 m 15 Y s 1196 236 m 15 Y s 1172 243
 m20 1244 267 m 16 X s 1276 267 m 16 X s 1244 260 m 15 Y s 1292 260 m 15 Y s 1268 267 m20 1412 285 m 1 Y s 1412 301 m s 1388 293 m 16 X s 1419 293 m 17 X s 1404 285 m 15 X s 1404 301 m 15 X s 1388 286 m 15 Y s 1436 286 m 15 Y s 1412 293 m20 1508 342
 m 3 Y s 1508 360 m 3 Y s 1484 353 m 16 X s 1515 353 m 17 X s 1500 342 m 15 X s 1500 363 m 15 X s 1484 345 m 15 Y s 1532 345 m 15 Y s 1508 353 m20 1651 390 m 5 Y s 1651 410 m 4 Y s 1627 402 m 17 X s 1659 402 m 16 X s 1644 390 m 15 X s 1644 414 m 15 X
 s 1627 395 m 15 Y s 1675 395 m 15 Y s 1651 402 m20 1795 595 m 9 Y s 1795 620 m 9 Y s 1771 612 m 16 X s 1803 612 m 16 X s 1787 595 m 16 X s 1787 629 m 16 X s 1771 604 m 16 Y s 1819 604 m 16 Y s 1795 612 m20 1987 915 m 16 Y s 1987 946 m 15 Y s 1963
 938 m 16 X s 1994 938 m 17 X s 1979 915 m 15 X s 1979 961 m 15 X s 1963 931 m 15 Y s 2011 931 m 15 Y s 1987 938 m20 2130 1180 m 19 Y s 2130 1214 m 20 Y s 2106 1207 m 17 X s 2138 1207 m 16 X s 2123 1180 m 15 X s 2123 1234 m 15 X s 2106 1199 m 15 Y s
 2154 1199 m 15 Y s 2130 1207 m20 1 0 0 c 1 1 1 c 1 0 0 c 262 850 m 24 Y s 262 889 m 24 Y s 238 882 m 16 X s 270 882 m 16 X s 254 850 m 16 X s 254 913 m 16 X s 238 874 m 15 Y s 286 874 m 15 Y s 262 882 m20 310 589 m 17 Y s 310 621 m 17 Y s 286 613 m
 16 X s 318 613 m 16 X s 302 589 m 16 X s 302 638 m 16 X s 286 606 m 15 Y s 334 606 m 15 Y s 310 613 m20 358 430 m 11 Y s 358 456 m 12 Y s 334 449 m 16 X s 365 449 m 17 X s 350 430 m 15 X s 350 468 m 15 X s 334 441 m 15 Y s 382 441 m 15 Y s 358 449
 m20 406 376 m 9 Y s 406 400 m 9 Y s 382 392 m 16 X s 413 392 m 17 X s 398 376 m 15 X s 398 409 m 15 X s 382 385 m 15 Y s 430 385 m 15 Y s 406 392 m20 454 339 m 7 Y s 454 361 m 8 Y s 430 354 m 16 X s 461 354 m 17 X s 446 339 m 15 X s 446 369 m 15 X s
 430 346 m 15 Y s 478 346 m 15 Y s 454 354 m20 502 330 m 7 Y s 502 353 m 7 Y s 478 345 m 16 X s 509 345 m 17 X s 494 330 m 15 X s 494 360 m 15 X s 478 337 m 16 Y s 526 337 m 16 Y s 502 345 m20 597 274 m 4 Y s 597 293 m 4 Y s 573 286 m 17 X s 605 286
 m 16 X s 590 274 m 15 X s 590 297 m 15 X s 573 278 m 15 Y s 621 278 m 15 Y s 597 286 m20 645 284 m 4 Y s 645 304 m 4 Y s 621 296 m 17 X s 653 296 m 16 X s 638 284 m 15 X s 638 308 m 15 X s 621 288 m 16 Y s 669 288 m 16 Y s 645 296 m20 741 281 m 4 Y
 s 741 301 m 4 Y s 717 293 m 17 X s 749 293 m 16 X s 734 281 m 15 X s 734 305 m 15 X s 717 285 m 16 Y s 765 285 m 16 Y s 741 293 m20 789 261 m 2 Y s 789 278 m 3 Y s 765 271 m 16 X s 797 271 m 16 X s 781 261 m 16 X s 781 281 m 16 X s 765 263 m 15 Y s
 813 263 m 15 Y s 789 271 m20 885 276 m 4 Y s 885 295 m 3 Y s 861 287 m 16 X s 892 287 m 17 X s 877 276 m 15 X s 877 298 m 15 X s 861 280 m 15 Y s 909 280 m 15 Y s 885 287 m20 981 259 m 3 Y s 981 277 m 2 Y s 957 269 m 16 X s 988 269 m 17 X s 973 259
 m 15 X s 973 279 m 15 X s 957 262 m 15 Y s 1005 262 m 15 Y s 981 269 m20 1076 257 m 2 Y s 1076 274 m 2 Y s 1053 266 m 16 X s 1084 266 m 16 X s 1069 257 m 15 X s 1069 276 m 15 X s 1053 259 m 15 Y s 1100 259 m 15 Y s 1076 266 m20 1172 262 m 3 Y s 1172
 280 m 3 Y s 1148 272 m 17 X s 1180 272 m 16 X s 1165 262 m 15 X s 1165 283 m 15 X s 1148 265 m 15 Y s 1196 265 m 15 Y s 1172 272 m20 1268 255 m 2 Y s 1268 272 m 3 Y s 1244 265 m 16 X s 1276 265 m 16 X s 1260 255 m 16 X s 1260 275 m 16 X s 1244 257 m
 15 Y s 1292 257 m 15 Y s 1268 265 m20 1412 250 m 1 Y s 1412 267 m 1 Y s 1388 259 m 16 X s 1419 259 m 17 X s 1404 250 m 15 X s 1404 268 m 15 X s 1388 251 m 16 Y s 1436 251 m 16 Y s 1412 259 m20 1508 246 m 1 Y s 1508 262 m 1 Y s 1484 255 m 16 X s 1515
 255 m 17 X s 1500 246 m 15 X s 1500 263 m 15 X s 1484 247 m 15 Y s 1532 247 m 15 Y s 1508 255 m20 1651 266 m 3 Y s 1651 284 m 3 Y s 1627 277 m 17 X s 1659 277 m 16 X s 1644 266 m 15 X s 1644 287 m 15 X s 1627 269 m 15 Y s 1675 269 m 15 Y s 1651 277
 m20 1795 279 m 4 Y s 1795 298 m 4 Y s 1771 290 m 16 X s 1803 290 m 16 X s 1787 279 m 16 X s 1787 302 m 16 X s 1771 283 m 15 Y s 1819 283 m 15 Y s 1795 290 m20 1987 262 m 3 Y s 1987 280 m 3 Y s 1963 272 m 16 X s 1994 272 m 17 X s 1979 262 m 15 X s
 1979 283 m 15 X s 1963 265 m 15 Y s 2011 265 m 15 Y s 1987 272 m20 black
 gsave  2268 1676 0 0 C 272.126 1240.34 t 0 r /Helvetica-Bold findfont 49.2982 sf 0 0 m (Kolmogorov\255Smirnov test: signal \(background\) probability =     0 \( 0.41\)) show NC gr  238 201 m 1916 X s 238 244 m -43 Y s 334 222 m -21 Y s 430 222 m -21
 Y s 526 222 m -21 Y s 621 244 m -43 Y s 717 222 m -21 Y s 813 222 m -21 Y s 909 222 m -21 Y s 1005 244 m -43 Y s 1100 222 m -21 Y s 1196 222 m -21 Y s 1292 222 m -21 Y s 1388 244 m -43 Y s 1484 222 m -21 Y s 1579 222 m -21 Y s 1675 222 m -21 Y s
 1771 244 m -43 Y s 1867 222 m -21 Y s 1963 222 m -21 Y s 2059 222 m -21 Y s 2154 244 m -43 Y s 2154 244 m -43 Y s 238 1509 m 1916 X s 238 1466 m 43 Y s 334 1487 m 22 Y s 430 1487 m 22 Y s 526 1487 m 22 Y s 621 1466 m 43 Y s 717 1487 m 22 Y s 813
 1487 m 22 Y s 909 1487 m 22 Y s 1005 1466 m 43 Y s 1100 1487 m 22 Y s 1196 1487 m 22 Y s 1292 1487 m 22 Y s 1388 1466 m 43 Y s 1484 1487 m 22 Y s 1579 1487 m 22 Y s 1675 1487 m 22 Y s 1771 1466 m 43 Y s 1867 1487 m 22 Y s 1963 1487 m 22 Y s 2059
 1487 m 22 Y s 2154 1466 m 43 Y s 2154 1466 m 43 Y s 238 201 m 1308 Y s 291 201 m -53 X s 265 237 m -27 X s 265 273 m -27 X s 265 309 m -27 X s 291 345 m -53 X s 265 381 m -27 X s 265 416 m -27 X s 265 452 m -27 X s 291 488 m -53 X s 265 524 m -27 X
 s 265 560 m -27 X s 265 596 m -27 X s 291 632 m -53 X s 265 668 m -27 X s 265 703 m -27 X s 265 739 m -27 X s 291 775 m -53 X s 265 811 m -27 X s 265 847 m -27 X s 265 883 m -27 X s 291 919 m -53 X s 265 955 m -27 X s 265 991 m -27 X s 265 1026 m
 -27 X s 291 1062 m -53 X s 265 1098 m -27 X s 265 1134 m -27 X s 265 1170 m -27 X s 291 1206 m -53 X s 265 1242 m -27 X s 265 1278 m -27 X s 265 1313 m -27 X s 291 1349 m -53 X s 265 1385 m -27 X s 265 1421 m -27 X s 265 1457 m -27 X s 291 1493 m
 -53 X s 291 1493 m -53 X s 2154 201 m 1308 Y s 2101 201 m 53 X s 2128 237 m 26 X s 2128 273 m 26 X s 2128 309 m 26 X s 2101 345 m 53 X s 2128 381 m 26 X s 2128 416 m 26 X s 2128 452 m 26 X s 2101 488 m 53 X s 2128 524 m 26 X s 2128 560 m 26 X s 2128
 596 m 26 X s 2101 632 m 53 X s 2128 668 m 26 X s 2128 703 m 26 X s 2128 739 m 26 X s 2101 775 m 53 X s 2128 811 m 26 X s 2128 847 m 26 X s 2128 883 m 26 X s 2101 919 m 53 X s 2128 955 m 26 X s 2128 991 m 26 X s 2128 1026 m 26 X s 2101 1062 m 53 X s
 2128 1098 m 26 X s 2128 1134 m 26 X s 2128 1170 m 26 X s 2101 1206 m 53 X s 2128 1242 m 26 X s 2128 1278 m 26 X s 2128 1313 m 26 X s 2101 1349 m 53 X s 2128 1385 m 26 X s 2128 1421 m 26 X s 2128 1457 m 26 X s 2101 1493 m 53 X s 2101 1493 m 53 X s
 gsave  2268 1676 0 0 C 2211.02 192.756 t 90 r /Helvetica-Bold findfont 45.506 sf 0 0 m (U/O\255flow \(S,B\): \(0.0, 0.0\)% / \(0.0, 0.0\)%) show NC gr  0.490196 0.545098 0.615686 c 0.364706 0.419608 0.490196 c 1587 96 23 1572 bf 0.490196 0.545098
 0.615686 c 23 1572 m 1587 X s 1610 1572 m 96 Y s 1610 1668 m -1587 X s 23 1668 m -96 Y s 1 1 1 c black 1 1 1 c
 gsave  2268 1676 0 0 C 98.5964 1600.29 t 0 r /Helvetica-Bold findfont 68.259 sf 0 0 m (TMVA overtraining check for classifier: KNN) show NC gr 
 gr  gr showpage
end
%%EOF
