%!PS-Adobe-2.0 EPSF-2.0
%%BoundingBox:  0 0 567 419
%%Title: DataSet/plots/overtrain_MLP.eps: TMVA comparison MLP
%%Creator: ROOT Version 6.08/06
%%CreationDate: Fri Jun  8 13:04:24 2018
%%DocumentNeededResources: ProcSet (FontSetInit)
%%EndComments
%%BeginProlog
80 dict begin
/s {stroke} def /l {lineto} def /m {moveto} def /t {translate} def
/r {rotate} def /rl {roll}  def /R {repeat} def
/d {rlineto} def /rm {rmoveto} def /gr {grestore} def /f {eofill} def
/c {setrgbcolor} def /black {0 setgray} def /sd {setdash} def
/cl {closepath} def /sf {scalefont setfont} def /lw {setlinewidth} def
/box {m dup 0 exch d exch 0 d 0 exch neg d cl} def
/NC{systemdict begin initclip end}def/C{NC box clip newpath}def
/bl {box s} def /bf {gsave box gsave f grestore 1 lw [] 0 sd s grestore} def /Y { 0 exch d} def /X { 0 d} def 
/K {{pop pop 0 moveto} exch kshow} bind def
/ita {/ang 15 def gsave [1 0 ang dup sin exch cos div 1 0 0] concat} def 
/mp {newpath /y exch def /x exch def} def
/side {[w .77 mul w .23 mul] .385 w mul sd w 0 l currentpoint t -144 r} def
/mr {mp x y w2 0 360 arc} def /m24 {mr s} def /m20 {mr f} def
/mb {mp x y w2 add m w2 neg 0 d 0 w neg d w 0 d 0 w d cl} def
/mt {mp x y w2 add m w2 neg w neg d w 0 d cl} def
/m21 {mb f} def /m25 {mb s} def /m22 {mt f} def /m26{mt s} def
/m23 {mp x y w2 sub m w2 w d w neg 0 d cl f} def
/m27 {mp x y w2 add m w3 neg w2 neg d w3 w2 neg d w3 w2 d cl s} def
/m28 {mp x w2 sub y w2 sub w3 add m w3 0 d  0 w3 neg d w3 0 d 0 w3 d w3 0 d  0 w3 d w3 neg 0 d 0 w3 d w3 neg 0 d 0 w3 neg d w3 neg 0 d cl s } def
/m29 {mp gsave x w2 sub y w2 add w3 sub m currentpoint t 4 {side} repeat cl fill gr} def
/m30 {mp gsave x w2 sub y w2 add w3 sub m currentpoint t 4 {side} repeat cl s gr} def
/m31 {mp x y w2 sub m 0 w d x w2 sub y m w 0 d x w2 sub y w2 add m w w neg d x w2 sub y w2 sub m w w d s} def
/m32 {mp x y w2 sub m w2 w d w neg 0 d cl s} def
/m33 {mp x y w2 add m w3 neg w2 neg d w3 w2 neg d w3 w2 d cl f} def
/m34 {mp x w2 sub y w2 sub w3 add m w3 0 d  0 w3 neg d w3 0 d 0 w3 d w3 0 d  0 w3 d w3 neg 0 d 0 w3 d w3 neg 0 d 0 w3 neg d w3 neg 0 d cl f } def
/m2 {mp x y w2 sub m 0 w d x w2 sub y m w 0 d s} def
/m5 {mp x w2 sub y w2 sub m w w d x w2 sub y w2 add m w w neg d s} def
%%IncludeResource: ProcSet (FontSetInit)
%%IncludeResource: font Times-Roman
%%IncludeResource: font Times-Italic
%%IncludeResource: font Times-Bold
%%IncludeResource: font Times-BoldItalic
%%IncludeResource: font Helvetica
%%IncludeResource: font Helvetica-Oblique
%%IncludeResource: font Helvetica-Bold
%%IncludeResource: font Helvetica-BoldOblique
%%IncludeResource: font Courier
%%IncludeResource: font Courier-Oblique
%%IncludeResource: font Courier-Bold
%%IncludeResource: font Courier-BoldOblique
%%IncludeResource: font Symbol
%%IncludeResource: font ZapfDingbats
/reEncode {exch findfont dup length dict begin {1 index /FID eq  {pop pop} {def} ifelse } forall /Encoding exch def currentdict end dup /FontName get exch definefont pop } def [/Times-Bold /Times-Italic /Times-BoldItalic /Helvetica /Helvetica-Oblique
 /Helvetica-Bold /Helvetica-BoldOblique /Courier /Courier-Oblique /Courier-Bold /Courier-BoldOblique /Times-Roman /AvantGarde-Book /AvantGarde-BookOblique /AvantGarde-Demi /AvantGarde-DemiOblique /Bookman-Demi /Bookman-DemiItalic /Bookman-Light
 /Bookman-LightItalic /Helvetica-Narrow /Helvetica-Narrow-Bold /Helvetica-Narrow-BoldOblique /Helvetica-Narrow-Oblique /NewCenturySchlbk-Roman /NewCenturySchlbk-Bold /NewCenturySchlbk-BoldItalic /NewCenturySchlbk-Italic /Palatino-Bold
 /Palatino-BoldItalic /Palatino-Italic /Palatino-Roman ] {ISOLatin1Encoding reEncode } forall
%%EndProlog
%%BeginSetup
%%EndSetup
newpath  gsave  .25 .25 scale  gsave  0 0 t 0.490196 0.545098 0.615686 c[  ] 0 sd 3 lw 1 1 1 c 2268 1676 0 0 bf black 1 1 1 c 1916 1308 238 201 bf black 1916 1308 238 201 bl 1 1 1 c 1916 1308 238 201 bf black 1916 1308 238 201 bl 238 201 m 1916 X s
 gsave  2268 1676 0 0 C 1660.97 34.1295 t 0 r /Helvetica-Bold findfont 72.0512 sf 0 0 m (MLP response) show NC gr  238 244 m -43 Y s 334 222 m -21 Y s 430 222 m -21 Y s 526 222 m -21 Y s 621 244 m -43 Y s 717 222 m -21 Y s 813 222 m -21 Y s 909 222 m
 -21 Y s 1005 244 m -43 Y s 1100 222 m -21 Y s 1196 222 m -21 Y s 1292 222 m -21 Y s 1388 244 m -43 Y s 1484 222 m -21 Y s 1579 222 m -21 Y s 1675 222 m -21 Y s 1771 244 m -43 Y s 1867 222 m -21 Y s 1963 222 m -21 Y s 2059 222 m -21 Y s 2154 244 m
 -43 Y s 238 244 m -43 Y s 2154 244 m -43 Y s
 gsave  2268 1676 0 0 C 216.154 128.934 t 0 r /Helvetica-Bold findfont 64.4669 sf 0 0 m (0) show NC gr 
 gsave  2268 1676 0 0 C 572.617 128.934 t 0 r /Helvetica-Bold findfont 64.4669 sf 0 0 m (0.2) show NC gr 
 gsave  2268 1676 0 0 C 955.626 128.934 t 0 r /Helvetica-Bold findfont 64.4669 sf 0 0 m (0.4) show NC gr 
 gsave  2268 1676 0 0 C 1338.64 128.934 t 0 r /Helvetica-Bold findfont 64.4669 sf 0 0 m (0.6) show NC gr 
 gsave  2268 1676 0 0 C 1725.44 128.934 t 0 r /Helvetica-Bold findfont 64.4669 sf 0 0 m (0.8) show NC gr 
 gsave  2268 1676 0 0 C 2138.78 128.934 t 0 r /Helvetica-Bold findfont 64.4669 sf 0 0 m (1) show NC gr  238 1509 m 1916 X s 238 1466 m 43 Y s 334 1487 m 22 Y s 430 1487 m 22 Y s 526 1487 m 22 Y s 621 1466 m 43 Y s 717 1487 m 22 Y s 813 1487 m 22 Y s
 909 1487 m 22 Y s 1005 1466 m 43 Y s 1100 1487 m 22 Y s 1196 1487 m 22 Y s 1292 1487 m 22 Y s 1388 1466 m 43 Y s 1484 1487 m 22 Y s 1579 1487 m 22 Y s 1675 1487 m 22 Y s 1771 1466 m 43 Y s 1867 1487 m 22 Y s 1963 1487 m 22 Y s 2059 1487 m 22 Y s
 2154 1466 m 43 Y s 238 1466 m 43 Y s 2154 1466 m 43 Y s 238 201 m 1308 Y s
 gsave  2268 1676 0 0 C 64.4669 1425.86 t 90 r /Helvetica-Bold findfont 72.0512 sf 0 0 m (dx) show NC gr 
 gsave  2268 1676 0 0 C 30.3373 1406.89 t 90 r /Helvetica-Bold findfont 45.506 sf 0 0 m ( ) show NC gr 
 gsave  2268 1676 0 0 C 64.4669 1384.14 t 90 r /Helvetica-Bold findfont 72.0512 sf 0 0 m (/) show NC gr 
 gsave  2268 1676 0 0 C 30.3373 1365.18 t 90 r /Helvetica-Bold findfont 45.506 sf 0 0 m ( ) show NC gr 
 gsave  2268 1676 0 0 C 60.6747 1092.14 t 90 r /Helvetica-Bold findfont 72.0512 sf 0 0 m (\(1/N\) dN) show NC gr  291 201 m -53 X s 265 248 m -27 X s 265 295 m -27 X s 265 342 m -27 X s 265 389 m -27 X s 291 435 m -53 X s 265 482 m -27 X s 265 529 m
 -27 X s 265 576 m -27 X s 265 623 m -27 X s 291 670 m -53 X s 265 717 m -27 X s 265 763 m -27 X s 265 810 m -27 X s 265 857 m -27 X s 291 904 m -53 X s 265 951 m -27 X s 265 998 m -27 X s 265 1045 m -27 X s 265 1091 m -27 X s 291 1138 m -53 X s 265
 1185 m -27 X s 265 1232 m -27 X s 265 1279 m -27 X s 265 1326 m -27 X s 291 1373 m -53 X s 291 1373 m -53 X s 265 1420 m -27 X s 265 1466 m -27 X s
 gsave  2268 1676 0 0 C 174.44 178.232 t 0 r /Helvetica-Bold findfont 64.4669 sf 0 0 m (0) show NC gr 
 gsave  2268 1676 0 0 C 174.44 409.554 t 0 r /Helvetica-Bold findfont 64.4669 sf 0 0 m (5) show NC gr 
 gsave  2268 1676 0 0 C 136.518 644.669 t 0 r /Helvetica-Bold findfont 64.4669 sf 0 0 m (10) show NC gr 
 gsave  2268 1676 0 0 C 136.518 879.783 t 0 r /Helvetica-Bold findfont 64.4669 sf 0 0 m (15) show NC gr 
 gsave  2268 1676 0 0 C 136.518 1114.9 t 0 r /Helvetica-Bold findfont 64.4669 sf 0 0 m (20) show NC gr 
 gsave  2268 1676 0 0 C 136.518 1346.22 t 0 r /Helvetica-Bold findfont 64.4669 sf 0 0 m (25) show NC gr  2154 201 m 1308 Y s 2101 201 m 53 X s 2128 248 m 26 X s 2128 295 m 26 X s 2128 342 m 26 X s 2128 389 m 26 X s 2101 435 m 53 X s 2128 482 m 26 X s
 2128 529 m 26 X s 2128 576 m 26 X s 2128 623 m 26 X s 2101 670 m 53 X s 2128 717 m 26 X s 2128 763 m 26 X s 2128 810 m 26 X s 2128 857 m 26 X s 2101 904 m 53 X s 2128 951 m 26 X s 2128 998 m 26 X s 2128 1045 m 26 X s 2128 1091 m 26 X s 2101 1138 m
 53 X s 2128 1185 m 26 X s 2128 1232 m 26 X s 2128 1279 m 26 X s 2128 1326 m 26 X s 2101 1373 m 53 X s 2101 1373 m 53 X s 2128 1420 m 26 X s 2128 1466 m 26 X s 0.490196 0.545098 0.615686 c 1 1 1 c 0.490196 0.545098 0.615686 c 907 202 238 1307 bl 238
 1307 m 907 X s 1145 1307 m 202 Y s 1145 1509 m -907 X s 238 1509 m -202 Y s black
 gsave  2268 1676 0 0 C 417.138 1437.23 t 0 r /Helvetica-Bold findfont 56.8825 sf 0 0 m (Signal \(test sample\)) show NC gr  0.49 0.6 0.82 c 265 1423 m 127 X 70 Y -127 X f 0 0 0.933333 c 265 1493 m 127 X s 265 1423 m 127 X s 392 1423 m 70 Y s 265
 1423 m 70 Y s black
 gsave  2268 1676 0 0 C 417.138 1338.64 t 0 r /Helvetica-Bold findfont 56.8825 sf 0 0 m (Background \(test sample\)) show NC gr  1 0 0 c 392 1354 m -32 -32 d s 383 1393 m -71 -71 d s 335 1393 m -70 -69 d s 286 1393 m -21 -21 d s 0 0 0.933333 c 1 0 0
 c 265 1393 m 127 X s 265 1322 m 127 X s 392 1322 m 71 Y s 265 1322 m 71 Y s 0 0 0.933333 c 0.49 0.6 0.82 c black 0.49 0.6 0.82 c 238 201 m 12 Y 48 X 6 Y 48 X -8 Y 48 X -8 Y 48 X 4 Y 48 X 4 Y 48 X -2 Y 47 X -4 Y 48 X 2 Y 96 X 2 Y 144 X 2 Y 48 X -4 Y
 96 X -6 Y 48 X 8 Y 47 X -2 Y 48 X 2 Y 48 X 6 Y 48 X -10 Y 48 X 22 Y 48 X -6 Y 48 X -4 Y 48 X -4 Y 48 X 12 Y 95 X 5 Y 96 X 6 Y 48 X 16 Y 48 X -16 Y 48 X 16 Y 48 X 26 Y 48 X 14 Y 48 X 43 Y 48 X 63 Y 48 X 137 Y 47 X 187 Y 48 X -521 Y f 0 0 0.933333 c
 0.49 0.6 0.82 c 0 0 0.933333 c 238 213 m 48 X 6 Y 48 X -8 Y 48 X -8 Y 48 X 4 Y 48 X 4 Y 48 X -2 Y 47 X -4 Y 48 X 2 Y 96 X 2 Y 144 X 2 Y 48 X -4 Y 96 X -6 Y 48 X 8 Y 47 X -2 Y 48 X 2 Y 48 X 6 Y 48 X -10 Y 48 X 22 Y 48 X -6 Y 48 X -4 Y 48 X -4 Y 48 X
 12 Y 95 X 5 Y 96 X 6 Y 48 X 16 Y 48 X -16 Y 48 X 16 Y 48 X 26 Y 48 X 14 Y 48 X 43 Y 48 X 63 Y 48 X 137 Y 47 X 187 Y 48 X -521 Y s 1 0 0 c black 1 0 0 c 2137 213 m -12 -12 d s 2089 213 m -12 -12 d s 2037 209 m -8 -8 d s 1981 201 m s 1945 213 m -12
 -12 d s 1889 205 m -4 -4 d s 1848 213 m -11 -12 d s 1816 229 m -27 -28 d s 1771 232 m -30 -31 d s 1724 232 m -1 X s 1708 217 m -16 -16 d s 1660 217 m -16 -16 d s 1612 217 m -16 -16 d s 1548 201 m s 1512 213 m -12 -12 d s 1460 209 m -8 -8 d s 1412
 209 m -8 -8 d s 1367 213 m -11 -12 d s 1315 209 m -7 -8 d s 1259 201 m s 1215 205 m -4 -4 d s 1175 213 m -12 -12 d s 1123 209 m -8 -8 d s 1087 221 m -20 -20 d s 1031 213 m -12 -12 d s 986 217 m -15 -16 d s 942 221 m -19 -20 d s 909 235 m -34 -34 d s
 866 240 m -5 -4 d s 834 209 m -7 -8 d s 790 213 m -12 -12 d s 750 221 m -20 -20 d s 713 232 m -31 -31 d s 650 217 m -16 -16 d s 613 229 m -27 -28 d s 561 225 m -23 -24 d s 526 237 m -36 -36 d s 493 252 m -51 -51 d s 441 248 m -47 -47 d s 400 256 m
 -55 -55 d s 376 279 m -79 -78 d s 334 286 m -85 -85 d s 334 334 m -96 -96 d s 313 362 m -75 -76 d s 286 382 m -48 -48 d s 286 430 m -48 -48 d s 286 478 m -48 -47 d s 286 527 m -48 -48 d s 286 575 m -48 -48 d s 286 623 m -48 -48 d s 286 671 m -48 -48
 d s 286 719 m -48 -48 d s 286 767 m -48 -48 d s 286 815 m -48 -48 d s 286 863 m -48 -48 d s 286 911 m -48 -48 d s 286 959 m -48 -47 d s 286 1008 m -48 -48 d s 286 1056 m -48 -48 d s 286 1104 m -48 -48 d s 286 1152 m -48 -48 d s 286 1200 m -48 -48 d
 s 245 1207 m -7 -7 d s 238 1207 m 48 X -845 Y 48 X -83 Y 48 X -23 Y 48 X -8 Y 48 X 4 Y 48 X -27 Y 47 X 4 Y 48 X -12 Y 48 X 15 Y 48 X -11 Y 48 X -8 Y 48 X -4 Y 48 X 31 Y 48 X -19 Y 48 X -4 Y 48 X -4 Y 48 X 8 Y 47 X -12 Y 48 X 4 Y 48 X -8 Y 48 X -4 Y
 48 X 8 Y 48 X 4 Y 48 X -4 Y 96 X 4 Y 48 X -12 Y 47 X 16 Y 144 X 15 Y 48 X -3 Y 48 X -16 Y 48 X -8 Y 48 X 8 Y 48 X -12 Y 48 X 8 Y 48 X 4 Y 95 X -12 Y s 0.490196 0.545098 0.615686 c 1 1 1 c 0.490196 0.545098 0.615686 c 952 202 1202 1307 bl 1202 1307 m
 952 X s 2154 1307 m 202 Y s 2154 1509 m -952 X s 1202 1509 m -202 Y s black
 gsave  2268 1676 0 0 C 1296.92 1437.23 t 0 r /Helvetica-Bold findfont 56.8825 sf 0 0 m (Signal \(training sample\)) show NC gr  0 0 0.933333 c /w 21 def /w2 {w 2 div} def /w3 {w 3 div} def 1250 1458 m20 black
 gsave  2268 1676 0 0 C 1296.92 1338.64 t 0 r /Helvetica-Bold findfont 56.8825 sf 0 0 m (Background \(training sample\)) show NC gr  1 0 0 c 1250 1358 m20 0 0 0.933333 c 1 1 1 c 0 0 0.933333 c 238 207 m 16 X s 270 207 m 16 X s 238 199 m 15 Y s 286
 199 m 15 Y s 262 207 m20 286 205 m 16 X s 318 205 m 16 X s 286 197 m 16 Y s 334 197 m 16 Y s 310 205 m20 334 210 m 16 X s 365 210 m 17 X s 334 202 m 15 Y s 382 202 m 15 Y s 358 210 m20 382 209 m 16 X s 413 209 m 17 X s 382 201 m 15 Y s 430 201 m 15
 Y s 406 209 m20 430 208 m 16 X s 461 208 m 17 X s 430 200 m 15 Y s 478 200 m 15 Y s 454 208 m20 478 206 m 16 X s 509 206 m 17 X s 478 199 m 15 Y s 526 199 m 15 Y s 502 206 m20 526 207 m 16 X s 557 207 m 16 X s 526 200 m 15 Y s 573 200 m 15 Y s 549
 207 m20 573 206 m 17 X s 605 206 m 16 X s 573 198 m 16 Y s 621 198 m 16 Y s 597 206 m20 621 205 m 17 X s 653 205 m 16 X s 621 198 m 15 Y s 669 198 m 15 Y s 645 205 m20 669 206 m 17 X s 701 206 m 16 X s 669 198 m 16 Y s 717 198 m 16 Y s 693 206 m20
 717 210 m 17 X s 749 210 m 16 X s 717 203 m 15 Y s 765 203 m 15 Y s 741 210 m20 765 207 m 16 X s 797 207 m 16 X s 765 200 m 15 Y s 813 200 m 15 Y s 789 207 m20 813 207 m 16 X s 845 207 m 16 X s 813 199 m 15 Y s 861 199 m 15 Y s 837 207 m20 861 208 m
 16 X s 892 208 m 17 X s 861 200 m 15 Y s 909 200 m 15 Y s 885 208 m20 909 208 m 16 X s 940 208 m 17 X s 909 200 m 15 Y s 957 200 m 15 Y s 933 208 m20 957 210 m 16 X s 988 210 m 17 X s 957 202 m 15 Y s 1005 202 m 15 Y s 981 210 m20 1005 213 m 16 X s
 1036 213 m 17 X s 1005 206 m 15 Y s 1053 206 m 15 Y s 1029 213 m20 1053 210 m 16 X s 1084 210 m 16 X s 1053 203 m 15 Y s 1100 203 m 15 Y s 1076 210 m20 1100 214 m 17 X s 1132 214 m 16 X s 1100 206 m 15 Y s 1148 206 m 15 Y s 1124 214 m20 1148 211 m
 17 X s 1180 211 m 16 X s 1148 203 m 15 Y s 1196 203 m 15 Y s 1172 211 m20 1196 212 m 17 X s 1228 212 m 16 X s 1196 205 m 15 Y s 1244 205 m 15 Y s 1220 212 m20 1244 210 m 16 X s 1276 210 m 16 X s 1244 203 m 15 Y s 1292 203 m 15 Y s 1268 210 m20 1292
 215 m 16 X s 1324 215 m 16 X s 1292 207 m 16 Y s 1340 207 m 16 Y s 1316 215 m20 1340 219 m 16 X s 1371 219 m 17 X s 1340 212 m 15 Y s 1388 212 m 15 Y s 1364 219 m20 1388 214 m 16 X s 1419 214 m 17 X s 1388 207 m 15 Y s 1436 207 m 15 Y s 1412 214 m20
 1436 220 m 16 X s 1467 220 m 17 X s 1436 213 m 15 Y s 1484 213 m 15 Y s 1460 220 m20 1484 223 m 16 X s 1515 223 m 17 X s 1484 215 m 15 Y s 1532 215 m 15 Y s 1508 223 m20 1532 221 m 16 X s 1563 221 m 16 X s 1532 214 m 15 Y s 1579 214 m 15 Y s 1556
 221 m20 1579 231 m 17 X s 1611 231 m 16 X s 1579 224 m 15 Y s 1627 224 m 15 Y s 1603 231 m20 1627 232 m 17 X s 1659 232 m 16 X s 1627 224 m 15 Y s 1675 224 m 15 Y s 1651 232 m20 1675 239 m 17 X s 1707 239 m 16 X s 1675 231 m 15 Y s 1723 231 m 15 Y s
 1699 239 m20 1723 247 m 17 X s 1755 247 m 16 X s 1723 240 m 15 Y s 1771 240 m 15 Y s 1747 247 m20 1771 257 m 16 X s 1803 257 m 16 X s 1771 250 m 15 Y s 1819 250 m 15 Y s 1795 257 m20 1819 263 m 16 X s 1851 263 m 16 X s 1819 256 m 15 Y s 1867 256 m
 15 Y s 1843 263 m20 1867 281 m 16 X s 1898 281 m 17 X s 1867 273 m 16 Y s 1915 273 m 16 Y s 1891 281 m20 1915 283 m 16 X s 1946 283 m 17 X s 1915 276 m 15 Y s 1963 276 m 15 Y s 1939 283 m20 1987 320 m s 1987 336 m s 1963 328 m 16 X s 1994 328 m 17 X
 s 1979 320 m 15 X s 1979 336 m 15 X s 1963 320 m 16 Y s 2011 320 m 16 Y s 1987 328 m20 2035 388 m 2 Y s 2035 405 m 2 Y s 2011 397 m 16 X s 2042 397 m 17 X s 2027 388 m 15 X s 2027 407 m 15 X s 2011 390 m 15 Y s 2059 390 m 15 Y s 2035 397 m20 2082
 496 m 5 Y s 2082 516 m 4 Y s 2059 508 m 16 X s 2090 508 m 16 X s 2075 496 m 15 X s 2075 520 m 15 X s 2059 501 m 15 Y s 2106 501 m 15 Y s 2082 508 m20 2130 733 m 9 Y s 2130 757 m 8 Y s 2106 749 m 17 X s 2138 749 m 16 X s 2123 733 m 15 X s 2123 765 m
 15 X s 2106 742 m 15 Y s 2154 742 m 15 Y s 2130 749 m20 1 0 0 c 1 1 1 c 1 0 0 c 262 1150 m 23 Y s 262 1189 m 23 Y s 238 1181 m 16 X s 270 1181 m 16 X s 254 1150 m 16 X s 254 1212 m 16 X s 238 1173 m 16 Y s 286 1173 m 16 Y s 262 1181 m20 310 368 m 6
 Y s 310 389 m 6 Y s 286 381 m 16 X s 318 381 m 16 X s 302 368 m 16 X s 302 395 m 16 X s 286 374 m 15 Y s 334 374 m 15 Y s 310 381 m20 358 287 m 3 Y s 358 305 m 2 Y s 334 297 m 16 X s 365 297 m 17 X s 350 287 m 15 X s 350 307 m 15 X s 334 290 m 15 Y
 s 382 290 m 15 Y s 358 297 m20 406 264 m s 406 279 m 1 Y s 382 272 m 16 X s 413 272 m 17 X s 398 264 m 15 X s 398 280 m 15 X s 382 264 m 15 Y s 430 264 m 15 Y s 406 272 m20 430 244 m 16 X s 461 244 m 17 X s 430 236 m 15 Y s 478 236 m 15 Y s 454 244
 m20 478 240 m 16 X s 509 240 m 17 X s 478 232 m 15 Y s 526 232 m 15 Y s 502 240 m20 526 234 m 16 X s 557 234 m 16 X s 526 227 m 15 Y s 573 227 m 15 Y s 549 234 m20 573 228 m 17 X s 605 228 m 16 X s 573 221 m 15 Y s 621 221 m 15 Y s 597 228 m20 621
 220 m 17 X s 653 220 m 16 X s 621 212 m 15 Y s 669 212 m 15 Y s 645 220 m20 669 221 m 17 X s 701 221 m 16 X s 669 214 m 15 Y s 717 214 m 15 Y s 693 221 m20 717 212 m 17 X s 749 212 m 16 X s 717 204 m 15 Y s 765 204 m 15 Y s 741 212 m20 765 221 m 16
 X s 797 221 m 16 X s 765 214 m 15 Y s 813 214 m 15 Y s 789 221 m20 813 214 m 16 X s 845 214 m 16 X s 813 206 m 15 Y s 861 206 m 15 Y s 837 214 m20 861 220 m 16 X s 892 220 m 17 X s 861 212 m 15 Y s 909 212 m 15 Y s 885 220 m20 909 216 m 16 X s 940
 216 m 17 X s 909 208 m 15 Y s 957 208 m 15 Y s 933 216 m20 957 212 m 16 X s 988 212 m 17 X s 957 204 m 15 Y s 1005 204 m 15 Y s 981 212 m20 1005 217 m 16 X s 1036 217 m 17 X s 1005 209 m 15 Y s 1053 209 m 15 Y s 1029 217 m20 1053 212 m 16 X s 1084
 212 m 16 X s 1053 204 m 15 Y s 1100 204 m 15 Y s 1076 212 m20 1100 218 m 17 X s 1132 218 m 16 X s 1100 210 m 15 Y s 1148 210 m 15 Y s 1124 218 m20 1148 214 m 17 X s 1180 214 m 16 X s 1148 206 m 15 Y s 1196 206 m 15 Y s 1172 214 m20 1196 216 m 17 X s
 1228 216 m 16 X s 1196 208 m 15 Y s 1244 208 m 15 Y s 1220 216 m20 1244 217 m 16 X s 1276 217 m 16 X s 1244 209 m 15 Y s 1292 209 m 15 Y s 1268 217 m20 1292 213 m 16 X s 1324 213 m 16 X s 1292 205 m 15 Y s 1340 205 m 15 Y s 1316 213 m20 1340 210 m
 16 X s 1371 210 m 17 X s 1340 202 m 15 Y s 1388 202 m 15 Y s 1364 210 m20 1388 218 m 16 X s 1419 218 m 17 X s 1388 210 m 15 Y s 1436 210 m 15 Y s 1412 218 m20 1436 212 m 16 X s 1467 212 m 17 X s 1436 204 m 15 Y s 1484 204 m 15 Y s 1460 212 m20 1484
 213 m 16 X s 1515 213 m 17 X s 1484 205 m 15 Y s 1532 205 m 15 Y s 1508 213 m20 1532 214 m 16 X s 1563 214 m 16 X s 1532 206 m 15 Y s 1579 206 m 15 Y s 1556 214 m20 1579 210 m 17 X s 1611 210 m 16 X s 1579 202 m 15 Y s 1627 202 m 15 Y s 1603 210 m20
 1627 211 m 17 X s 1659 211 m 16 X s 1627 203 m 15 Y s 1675 203 m 15 Y s 1651 211 m20 1675 215 m 17 X s 1707 215 m 16 X s 1675 207 m 15 Y s 1723 207 m 15 Y s 1699 215 m20 1723 208 m 17 X s 1755 208 m 16 X s 1723 200 m 16 Y s 1771 200 m 16 Y s 1747
 208 m20 1771 211 m 16 X s 1803 211 m 16 X s 1771 203 m 15 Y s 1819 203 m 15 Y s 1795 211 m20 1819 212 m 16 X s 1851 212 m 16 X s 1819 204 m 15 Y s 1867 204 m 15 Y s 1843 212 m20 1867 209 m 16 X s 1898 209 m 17 X s 1867 201 m 15 Y s 1915 201 m 15 Y s
 1891 209 m20 1915 213 m 16 X s 1946 213 m 17 X s 1915 205 m 15 Y s 1963 205 m 15 Y s 1939 213 m20 1963 211 m 16 X s 1994 211 m 17 X s 1963 203 m 15 Y s 2011 203 m 15 Y s 1987 211 m20 2011 214 m 16 X s 2042 214 m 17 X s 2011 206 m 15 Y s 2059 206 m
 15 Y s 2035 214 m20 2059 217 m 16 X s 2090 217 m 16 X s 2059 209 m 15 Y s 2106 209 m 15 Y s 2082 217 m20 2106 208 m 17 X s 2138 208 m 16 X s 2106 200 m 16 Y s 2154 200 m 16 Y s 2130 208 m20 black
 gsave  2268 1676 0 0 C 272.126 1240.34 t 0 r /Helvetica-Bold findfont 49.2982 sf 0 0 m (Kolmogorov\255Smirnov test: signal \(background\) probability = 0.103 \(0.123\)) show NC gr  238 201 m 1916 X s 238 244 m -43 Y s 334 222 m -21 Y s 430 222 m -21
 Y s 526 222 m -21 Y s 621 244 m -43 Y s 717 222 m -21 Y s 813 222 m -21 Y s 909 222 m -21 Y s 1005 244 m -43 Y s 1100 222 m -21 Y s 1196 222 m -21 Y s 1292 222 m -21 Y s 1388 244 m -43 Y s 1484 222 m -21 Y s 1579 222 m -21 Y s 1675 222 m -21 Y s
 1771 244 m -43 Y s 1867 222 m -21 Y s 1963 222 m -21 Y s 2059 222 m -21 Y s 2154 244 m -43 Y s 238 244 m -43 Y s 2154 244 m -43 Y s 238 1509 m 1916 X s 238 1466 m 43 Y s 334 1487 m 22 Y s 430 1487 m 22 Y s 526 1487 m 22 Y s 621 1466 m 43 Y s 717
 1487 m 22 Y s 813 1487 m 22 Y s 909 1487 m 22 Y s 1005 1466 m 43 Y s 1100 1487 m 22 Y s 1196 1487 m 22 Y s 1292 1487 m 22 Y s 1388 1466 m 43 Y s 1484 1487 m 22 Y s 1579 1487 m 22 Y s 1675 1487 m 22 Y s 1771 1466 m 43 Y s 1867 1487 m 22 Y s 1963 1487
 m 22 Y s 2059 1487 m 22 Y s 2154 1466 m 43 Y s 238 1466 m 43 Y s 2154 1466 m 43 Y s 238 201 m 1308 Y s 291 201 m -53 X s 265 248 m -27 X s 265 295 m -27 X s 265 342 m -27 X s 265 389 m -27 X s 291 435 m -53 X s 265 482 m -27 X s 265 529 m -27 X s
 265 576 m -27 X s 265 623 m -27 X s 291 670 m -53 X s 265 717 m -27 X s 265 763 m -27 X s 265 810 m -27 X s 265 857 m -27 X s 291 904 m -53 X s 265 951 m -27 X s 265 998 m -27 X s 265 1045 m -27 X s 265 1091 m -27 X s 291 1138 m -53 X s 265 1185 m
 -27 X s 265 1232 m -27 X s 265 1279 m -27 X s 265 1326 m -27 X s 291 1373 m -53 X s 291 1373 m -53 X s 265 1420 m -27 X s 265 1466 m -27 X s 2154 201 m 1308 Y s 2101 201 m 53 X s 2128 248 m 26 X s 2128 295 m 26 X s 2128 342 m 26 X s 2128 389 m 26 X
 s 2101 435 m 53 X s 2128 482 m 26 X s 2128 529 m 26 X s 2128 576 m 26 X s 2128 623 m 26 X s 2101 670 m 53 X s 2128 717 m 26 X s 2128 763 m 26 X s 2128 810 m 26 X s 2128 857 m 26 X s 2101 904 m 53 X s 2128 951 m 26 X s 2128 998 m 26 X s 2128 1045 m
 26 X s 2128 1091 m 26 X s 2101 1138 m 53 X s 2128 1185 m 26 X s 2128 1232 m 26 X s 2128 1279 m 26 X s 2128 1326 m 26 X s 2101 1373 m 53 X s 2101 1373 m 53 X s 2128 1420 m 26 X s 2128 1466 m 26 X s
 gsave  2268 1676 0 0 C 2211.02 192.756 t 90 r /Helvetica-Bold findfont 45.506 sf 0 0 m (U/O\255flow \(S,B\): \(0.0, 0.0\)% / \(0.0, 0.0\)%) show NC gr  0.490196 0.545098 0.615686 c 0.364706 0.419608 0.490196 c 1587 96 23 1572 bf 0.490196 0.545098
 0.615686 c 23 1572 m 1587 X s 1610 1572 m 96 Y s 1610 1668 m -1587 X s 23 1668 m -96 Y s 1 1 1 c black 1 1 1 c
 gsave  2268 1676 0 0 C 98.5964 1600.29 t 0 r /Helvetica-Bold findfont 68.259 sf 0 0 m (TMVA overtraining check for classifier: MLP) show NC gr 
 gr  gr showpage
end
%%EOF
