%!PS-Adobe-2.0 EPSF-2.0
%%BoundingBox:  0 0 567 419
%%Title: DataSet/plots/overtrain_SVM.eps: TMVA comparison SVM
%%Creator: ROOT Version 6.08/06
%%CreationDate: Fri Jun  8 13:04:24 2018
%%DocumentNeededResources: ProcSet (FontSetInit)
%%EndComments
%%BeginProlog
80 dict begin
/s {stroke} def /l {lineto} def /m {moveto} def /t {translate} def
/r {rotate} def /rl {roll}  def /R {repeat} def
/d {rlineto} def /rm {rmoveto} def /gr {grestore} def /f {eofill} def
/c {setrgbcolor} def /black {0 setgray} def /sd {setdash} def
/cl {closepath} def /sf {scalefont setfont} def /lw {setlinewidth} def
/box {m dup 0 exch d exch 0 d 0 exch neg d cl} def
/NC{systemdict begin initclip end}def/C{NC box clip newpath}def
/bl {box s} def /bf {gsave box gsave f grestore 1 lw [] 0 sd s grestore} def /Y { 0 exch d} def /X { 0 d} def 
/K {{pop pop 0 moveto} exch kshow} bind def
/ita {/ang 15 def gsave [1 0 ang dup sin exch cos div 1 0 0] concat} def 
/mp {newpath /y exch def /x exch def} def
/side {[w .77 mul w .23 mul] .385 w mul sd w 0 l currentpoint t -144 r} def
/mr {mp x y w2 0 360 arc} def /m24 {mr s} def /m20 {mr f} def
/mb {mp x y w2 add m w2 neg 0 d 0 w neg d w 0 d 0 w d cl} def
/mt {mp x y w2 add m w2 neg w neg d w 0 d cl} def
/m21 {mb f} def /m25 {mb s} def /m22 {mt f} def /m26{mt s} def
/m23 {mp x y w2 sub m w2 w d w neg 0 d cl f} def
/m27 {mp x y w2 add m w3 neg w2 neg d w3 w2 neg d w3 w2 d cl s} def
/m28 {mp x w2 sub y w2 sub w3 add m w3 0 d  0 w3 neg d w3 0 d 0 w3 d w3 0 d  0 w3 d w3 neg 0 d 0 w3 d w3 neg 0 d 0 w3 neg d w3 neg 0 d cl s } def
/m29 {mp gsave x w2 sub y w2 add w3 sub m currentpoint t 4 {side} repeat cl fill gr} def
/m30 {mp gsave x w2 sub y w2 add w3 sub m currentpoint t 4 {side} repeat cl s gr} def
/m31 {mp x y w2 sub m 0 w d x w2 sub y m w 0 d x w2 sub y w2 add m w w neg d x w2 sub y w2 sub m w w d s} def
/m32 {mp x y w2 sub m w2 w d w neg 0 d cl s} def
/m33 {mp x y w2 add m w3 neg w2 neg d w3 w2 neg d w3 w2 d cl f} def
/m34 {mp x w2 sub y w2 sub w3 add m w3 0 d  0 w3 neg d w3 0 d 0 w3 d w3 0 d  0 w3 d w3 neg 0 d 0 w3 d w3 neg 0 d 0 w3 neg d w3 neg 0 d cl f } def
/m2 {mp x y w2 sub m 0 w d x w2 sub y m w 0 d s} def
/m5 {mp x w2 sub y w2 sub m w w d x w2 sub y w2 add m w w neg d s} def
%%IncludeResource: ProcSet (FontSetInit)
%%IncludeResource: font Times-Roman
%%IncludeResource: font Times-Italic
%%IncludeResource: font Times-Bold
%%IncludeResource: font Times-BoldItalic
%%IncludeResource: font Helvetica
%%IncludeResource: font Helvetica-Oblique
%%IncludeResource: font Helvetica-Bold
%%IncludeResource: font Helvetica-BoldOblique
%%IncludeResource: font Courier
%%IncludeResource: font Courier-Oblique
%%IncludeResource: font Courier-Bold
%%IncludeResource: font Courier-BoldOblique
%%IncludeResource: font Symbol
%%IncludeResource: font ZapfDingbats
/reEncode {exch findfont dup length dict begin {1 index /FID eq  {pop pop} {def} ifelse } forall /Encoding exch def currentdict end dup /FontName get exch definefont pop } def [/Times-Bold /Times-Italic /Times-BoldItalic /Helvetica /Helvetica-Oblique
 /Helvetica-Bold /Helvetica-BoldOblique /Courier /Courier-Oblique /Courier-Bold /Courier-BoldOblique /Times-Roman /AvantGarde-Book /AvantGarde-BookOblique /AvantGarde-Demi /AvantGarde-DemiOblique /Bookman-Demi /Bookman-DemiItalic /Bookman-Light
 /Bookman-LightItalic /Helvetica-Narrow /Helvetica-Narrow-Bold /Helvetica-Narrow-BoldOblique /Helvetica-Narrow-Oblique /NewCenturySchlbk-Roman /NewCenturySchlbk-Bold /NewCenturySchlbk-BoldItalic /NewCenturySchlbk-Italic /Palatino-Bold
 /Palatino-BoldItalic /Palatino-Italic /Palatino-Roman ] {ISOLatin1Encoding reEncode } forall
%%EndProlog
%%BeginSetup
%%EndSetup
newpath  gsave  .25 .25 scale  gsave  0 0 t 0.490196 0.545098 0.615686 c[  ] 0 sd 3 lw 1 1 1 c 2268 1676 0 0 bf black 1 1 1 c 1916 1308 238 201 bf black 1916 1308 238 201 bl 1 1 1 c 1916 1308 238 201 bf black 1916 1308 238 201 bl 238 201 m 1916 X s
 gsave  2268 1676 0 0 C 1657.18 30.3373 t 0 r /Helvetica-Bold findfont 72.0512 sf 0 0 m (SVM response) show NC gr  429 244 m -43 Y s 467 222 m -21 Y s 506 222 m -21 Y s 545 222 m -21 Y s 583 222 m -21 Y s 622 244 m -43 Y s 661 222 m -21 Y s 699 222 m
 -21 Y s 738 222 m -21 Y s 777 222 m -21 Y s 815 244 m -43 Y s 854 222 m -21 Y s 892 222 m -21 Y s 931 222 m -21 Y s 970 222 m -21 Y s 1008 244 m -43 Y s 1047 222 m -21 Y s 1086 222 m -21 Y s 1124 222 m -21 Y s 1163 222 m -21 Y s 1202 244 m -43 Y s
 1240 222 m -21 Y s 1279 222 m -21 Y s 1318 222 m -21 Y s 1356 222 m -21 Y s 1395 244 m -43 Y s 1434 222 m -21 Y s 1472 222 m -21 Y s 1511 222 m -21 Y s 1550 222 m -21 Y s 1588 244 m -43 Y s 1627 222 m -21 Y s 1666 222 m -21 Y s 1704 222 m -21 Y s
 1743 222 m -21 Y s 1782 244 m -43 Y s 1820 222 m -21 Y s 1859 222 m -21 Y s 1898 222 m -21 Y s 1936 222 m -21 Y s 1975 244 m -43 Y s 429 244 m -43 Y s 390 222 m -21 Y s 351 222 m -21 Y s 313 222 m -21 Y s 274 222 m -21 Y s 1975 244 m -43 Y s 2014
 222 m -21 Y s 2052 222 m -21 Y s 2091 222 m -21 Y s 2130 222 m -21 Y s
 gsave  2268 1676 0 0 C 386.801 128.934 t 0 r /Helvetica-Bold findfont 64.4669 sf 0 0 m (0.1) show NC gr 
 gsave  2268 1676 0 0 C 572.617 128.934 t 0 r /Helvetica-Bold findfont 64.4669 sf 0 0 m (0.2) show NC gr 
 gsave  2268 1676 0 0 C 766.018 128.934 t 0 r /Helvetica-Bold findfont 64.4669 sf 0 0 m (0.3) show NC gr 
 gsave  2268 1676 0 0 C 959.419 128.934 t 0 r /Helvetica-Bold findfont 64.4669 sf 0 0 m (0.4) show NC gr 
 gsave  2268 1676 0 0 C 1152.82 128.934 t 0 r /Helvetica-Bold findfont 64.4669 sf 0 0 m (0.5) show NC gr 
 gsave  2268 1676 0 0 C 1346.22 128.934 t 0 r /Helvetica-Bold findfont 64.4669 sf 0 0 m (0.6) show NC gr 
 gsave  2268 1676 0 0 C 1539.62 128.934 t 0 r /Helvetica-Bold findfont 64.4669 sf 0 0 m (0.7) show NC gr 
 gsave  2268 1676 0 0 C 1733.02 128.934 t 0 r /Helvetica-Bold findfont 64.4669 sf 0 0 m (0.8) show NC gr 
 gsave  2268 1676 0 0 C 1926.42 128.934 t 0 r /Helvetica-Bold findfont 64.4669 sf 0 0 m (0.9) show NC gr  238 1509 m 1916 X s 429 1466 m 43 Y s 467 1487 m 22 Y s 506 1487 m 22 Y s 545 1487 m 22 Y s 583 1487 m 22 Y s 622 1466 m 43 Y s 661 1487 m 22 Y
 s 699 1487 m 22 Y s 738 1487 m 22 Y s 777 1487 m 22 Y s 815 1466 m 43 Y s 854 1487 m 22 Y s 892 1487 m 22 Y s 931 1487 m 22 Y s 970 1487 m 22 Y s 1008 1466 m 43 Y s 1047 1487 m 22 Y s 1086 1487 m 22 Y s 1124 1487 m 22 Y s 1163 1487 m 22 Y s 1202
 1466 m 43 Y s 1240 1487 m 22 Y s 1279 1487 m 22 Y s 1318 1487 m 22 Y s 1356 1487 m 22 Y s 1395 1466 m 43 Y s 1434 1487 m 22 Y s 1472 1487 m 22 Y s 1511 1487 m 22 Y s 1550 1487 m 22 Y s 1588 1466 m 43 Y s 1627 1487 m 22 Y s 1666 1487 m 22 Y s 1704
 1487 m 22 Y s 1743 1487 m 22 Y s 1782 1466 m 43 Y s 1820 1487 m 22 Y s 1859 1487 m 22 Y s 1898 1487 m 22 Y s 1936 1487 m 22 Y s 1975 1466 m 43 Y s 429 1466 m 43 Y s 390 1487 m 22 Y s 351 1487 m 22 Y s 313 1487 m 22 Y s 274 1487 m 22 Y s 1975 1466 m
 43 Y s 2014 1487 m 22 Y s 2052 1487 m 22 Y s 2091 1487 m 22 Y s 2130 1487 m 22 Y s 238 201 m 1308 Y s
 gsave  2268 1676 0 0 C 64.4669 1425.86 t 90 r /Helvetica-Bold findfont 72.0512 sf 0 0 m (dx) show NC gr 
 gsave  2268 1676 0 0 C 30.3373 1406.89 t 90 r /Helvetica-Bold findfont 45.506 sf 0 0 m ( ) show NC gr 
 gsave  2268 1676 0 0 C 64.4669 1384.14 t 90 r /Helvetica-Bold findfont 72.0512 sf 0 0 m (/) show NC gr 
 gsave  2268 1676 0 0 C 30.3373 1365.18 t 90 r /Helvetica-Bold findfont 45.506 sf 0 0 m ( ) show NC gr 
 gsave  2268 1676 0 0 C 60.6747 1092.14 t 90 r /Helvetica-Bold findfont 72.0512 sf 0 0 m (\(1/N\) dN) show NC gr  291 201 m -53 X s 265 242 m -27 X s 265 283 m -27 X s 265 324 m -27 X s 265 364 m -27 X s 291 405 m -53 X s 265 446 m -27 X s 265 487 m
 -27 X s 265 528 m -27 X s 265 568 m -27 X s 291 609 m -53 X s 265 650 m -27 X s 265 691 m -27 X s 265 732 m -27 X s 265 772 m -27 X s 291 813 m -53 X s 265 854 m -27 X s 265 895 m -27 X s 265 936 m -27 X s 265 976 m -27 X s 291 1017 m -53 X s 265
 1058 m -27 X s 265 1099 m -27 X s 265 1140 m -27 X s 265 1180 m -27 X s 291 1221 m -53 X s 265 1262 m -27 X s 265 1303 m -27 X s 265 1344 m -27 X s 265 1385 m -27 X s 291 1425 m -53 X s 291 1425 m -53 X s 265 1466 m -27 X s 265 1507 m -27 X s
 gsave  2268 1676 0 0 C 174.44 178.232 t 0 r /Helvetica-Bold findfont 64.4669 sf 0 0 m (0) show NC gr 
 gsave  2268 1676 0 0 C 182.024 379.217 t 0 r /Helvetica-Bold findfont 64.4669 sf 0 0 m (1) show NC gr 
 gsave  2268 1676 0 0 C 174.44 583.994 t 0 r /Helvetica-Bold findfont 64.4669 sf 0 0 m (2) show NC gr 
 gsave  2268 1676 0 0 C 174.44 788.771 t 0 r /Helvetica-Bold findfont 64.4669 sf 0 0 m (3) show NC gr 
 gsave  2268 1676 0 0 C 174.44 993.548 t 0 r /Helvetica-Bold findfont 64.4669 sf 0 0 m (4) show NC gr 
 gsave  2268 1676 0 0 C 174.44 1198.33 t 0 r /Helvetica-Bold findfont 64.4669 sf 0 0 m (5) show NC gr 
 gsave  2268 1676 0 0 C 174.44 1399.31 t 0 r /Helvetica-Bold findfont 64.4669 sf 0 0 m (6) show NC gr  2154 201 m 1308 Y s 2101 201 m 53 X s 2128 242 m 26 X s 2128 283 m 26 X s 2128 324 m 26 X s 2128 364 m 26 X s 2101 405 m 53 X s 2128 446 m 26 X s
 2128 487 m 26 X s 2128 528 m 26 X s 2128 568 m 26 X s 2101 609 m 53 X s 2128 650 m 26 X s 2128 691 m 26 X s 2128 732 m 26 X s 2128 772 m 26 X s 2101 813 m 53 X s 2128 854 m 26 X s 2128 895 m 26 X s 2128 936 m 26 X s 2128 976 m 26 X s 2101 1017 m 53
 X s 2128 1058 m 26 X s 2128 1099 m 26 X s 2128 1140 m 26 X s 2128 1180 m 26 X s 2101 1221 m 53 X s 2128 1262 m 26 X s 2128 1303 m 26 X s 2128 1344 m 26 X s 2128 1385 m 26 X s 2101 1425 m 53 X s 2101 1425 m 53 X s 2128 1466 m 26 X s 2128 1507 m 26 X
 s 0.490196 0.545098 0.615686 c 1 1 1 c 0.490196 0.545098 0.615686 c 907 202 238 1307 bl 238 1307 m 907 X s 1145 1307 m 202 Y s 1145 1509 m -907 X s 238 1509 m -202 Y s black
 gsave  2268 1676 0 0 C 417.138 1437.23 t 0 r /Helvetica-Bold findfont 56.8825 sf 0 0 m (Signal \(test sample\)) show NC gr  0.49 0.6 0.82 c 265 1423 m 127 X 70 Y -127 X f 0 0 0.933333 c 265 1493 m 127 X s 265 1423 m 127 X s 392 1423 m 70 Y s 265
 1423 m 70 Y s black
 gsave  2268 1676 0 0 C 417.138 1338.64 t 0 r /Helvetica-Bold findfont 56.8825 sf 0 0 m (Background \(test sample\)) show NC gr  1 0 0 c 392 1354 m -32 -32 d s 383 1393 m -71 -71 d s 335 1393 m -70 -69 d s 286 1393 m -21 -21 d s 0 0 0.933333 c 1 0 0
 c 265 1393 m 127 X s 265 1322 m 127 X s 392 1322 m 71 Y s 265 1322 m 71 Y s 0 0 0.933333 c 0.49 0.6 0.82 c black 0.49 0.6 0.82 c 238 201 m 144 X 18 Y 48 X -9 Y 48 X -9 Y 191 X 18 Y 144 X 62 Y 48 X -26 Y 48 X -36 Y 96 X -18 Y 48 X 54 Y 95 X -18 Y 48
 X 35 Y 48 X -17 Y 48 X 62 Y 48 X -27 Y 48 X 62 Y 48 X 9 Y 48 X 9 Y 48 X 71 Y 47 X 63 Y 48 X 53 Y 48 X 160 Y 48 X 63 Y 48 X 427 Y 48 X -54 Y 48 X -17 Y 48 X -312 Y 48 X -62 Y 48 X -160 Y 48 X -45 Y 47 X -151 Y 48 X -205 Y f 0 0 0.933333 c 0.49 0.6
 0.82 c 0 0 0.933333 c 238 201 m 144 X 18 Y 48 X -9 Y 48 X -9 Y 191 X 18 Y 144 X 62 Y 48 X -26 Y 48 X -36 Y 96 X -18 Y 48 X 54 Y 95 X -18 Y 48 X 35 Y 48 X -17 Y 48 X 62 Y 48 X -27 Y 48 X 62 Y 48 X 9 Y 48 X 9 Y 48 X 71 Y 47 X 63 Y 48 X 53 Y 48 X 160 Y
 48 X 63 Y 48 X 427 Y 48 X -54 Y 48 X -17 Y 48 X -312 Y 48 X -62 Y 48 X -160 Y 48 X -45 Y 47 X -151 Y 48 X -205 Y s 1 0 0 c black 1 0 0 c 2125 201 m s 2106 230 m -29 -29 d s 2064 236 m -5 -5 d s 2046 218 m -17 -17 d s 1998 218 m -17 -17 d s 1933 201
 m s 1885 201 m s 1867 231 m -30 -30 d s 1840 253 m -51 -52 d s 1819 280 m -78 -79 d s 1778 287 m -7 -7 d s 1761 270 m -69 -69 d s 1713 270 m -69 -69 d s 1675 280 m -79 -79 d s 1675 328 m -127 -127 d s 1675 376 m -175 -175 d s 1641 390 m -14 -13 d s
 1589 339 m -137 -138 d s 1576 373 m -44 -44 d s 1507 304 m -103 -103 d s 1476 321 m -40 -40 d s 1424 270 m -68 -69 d s 1388 281 m -80 -80 d s 1388 330 m -129 -129 d s 1383 373 m -43 -43 d s 1332 321 m -121 -120 d s 1292 330 m -129 -129 d s 1270 356
 m -155 -155 d s 1244 378 m -177 -177 d s 1208 390 m -189 -189 d s 1194 425 m -223 -224 d s 1148 427 m -48 -48 d s 1095 373 m -172 -172 d s 1148 475 m -48 -48 d s 1053 379 m -178 -178 d s 1136 510 m -36 -35 d s 1053 427 m -226 -226 d s 1053 475 m -96
 -96 d s 916 339 m -138 -138 d s 1022 493 m -65 -65 d s 909 380 m -179 -179 d s 957 476 m s 909 428 m -227 -227 d s 892 459 m -31 -31 d s 858 425 m -224 -224 d s 813 428 m -227 -227 d s 813 476 m -275 -275 d s 765 476 m -275 -275 d s 765 525 m -48
 -48 d s 717 476 m -275 -275 d s 720 528 m -3 -3 d s 669 476 m -275 -275 d s 621 477 m -276 -276 d s 621 525 m -324 -324 d s 621 573 m -372 -372 d s 621 621 m -48 -48 d s 562 562 m -276 -276 d s 270 270 m -32 -32 d s 617 665 m -44 -43 d s 526 574 m
 -240 -240 d s 517 614 m -231 -232 d s 478 622 m -192 -192 d s 478 670 m -192 -192 d s 478 718 m -144 -144 d s 287 528 m -1 -1 d s 478 766 m -96 -96 d s 359 648 m -25 -25 d s 478 814 m -96 -95 d s 478 862 m -48 -47 d s 383 768 m -1 -1 d s 478 911 m
 -48 -48 d s 478 959 m -48 -48 d s 445 975 m -15 -16 d s 238 270 m 48 X 258 Y 48 X 120 Y 48 X 120 Y 48 X 207 Y 48 X -361 Y 48 X -52 Y 47 X 103 Y 48 X -189 Y 96 X 52 Y 48 X -52 Y 48 X -51 Y 48 X 34 Y 48 X -120 Y 48 X 137 Y 48 X 17 Y 48 X -120 Y 47 X
 137 Y 48 X -85 Y 48 X -35 Y 48 X -34 Y 48 X -35 Y 48 X 52 Y 48 X -103 Y 48 X 51 Y 48 X -17 Y 48 X 69 Y 47 X -34 Y 48 X 51 Y 48 X -120 Y 96 X 17 Y 48 X -34 Y 48 X -52 Y 96 X 17 Y 96 X 18 Y 47 X -35 Y 48 X s 0.490196 0.545098 0.615686 c 1 1 1 c
 0.490196 0.545098 0.615686 c 952 202 1202 1307 bl 1202 1307 m 952 X s 2154 1307 m 202 Y s 2154 1509 m -952 X s 1202 1509 m -202 Y s black
 gsave  2268 1676 0 0 C 1296.92 1437.23 t 0 r /Helvetica-Bold findfont 56.8825 sf 0 0 m (Signal \(training sample\)) show NC gr  0 0 0.933333 c /w 21 def /w2 {w 2 div} def /w3 {w 3 div} def 1250 1458 m20 black
 gsave  2268 1676 0 0 C 1296.92 1338.64 t 0 r /Helvetica-Bold findfont 56.8825 sf 0 0 m (Background \(training sample\)) show NC gr  1 0 0 c 1250 1358 m20 0 0 0.933333 c 1 1 1 c 0 0 0.933333 c 382 203 m 16 X s 413 203 m 17 X s 382 196 m 15 Y s 430
 196 m 15 Y s 406 203 m20 430 205 m 16 X s 461 205 m 17 X s 430 198 m 15 Y s 478 198 m 15 Y s 454 205 m20 478 203 m 16 X s 509 203 m 17 X s 478 196 m 15 Y s 526 196 m 15 Y s 502 203 m20 526 207 m 16 X s 557 207 m 16 X s 526 200 m 15 Y s 573 200 m 15
 Y s 549 207 m20 573 207 m 17 X s 605 207 m 16 X s 573 200 m 15 Y s 621 200 m 15 Y s 597 207 m20 621 214 m 17 X s 653 214 m 16 X s 621 206 m 15 Y s 669 206 m 15 Y s 645 214 m20 669 212 m 17 X s 701 212 m 16 X s 669 204 m 15 Y s 717 204 m 15 Y s 693
 212 m20 717 210 m 17 X s 749 210 m 16 X s 717 202 m 15 Y s 765 202 m 15 Y s 741 210 m20 765 210 m 16 X s 797 210 m 16 X s 765 202 m 15 Y s 813 202 m 15 Y s 789 210 m20 837 226 m 1 Y s 837 243 m s 813 235 m 16 X s 845 235 m 16 X s 829 226 m 16 X s
 829 243 m 16 X s 813 227 m 16 Y s 861 227 m 16 Y s 837 235 m20 861 216 m 16 X s 892 216 m 17 X s 861 208 m 16 Y s 909 208 m 16 Y s 885 216 m20 909 226 m 16 X s 940 226 m 17 X s 909 219 m 15 Y s 957 219 m 15 Y s 933 226 m20 981 228 m 1 Y s 981 245 m
 1 Y s 957 237 m 16 X s 988 237 m 17 X s 973 228 m 15 X s 973 246 m 15 X s 957 229 m 16 Y s 1005 229 m 16 Y s 981 237 m20 1029 230 m 2 Y s 1029 247 m 1 Y s 1005 239 m 16 X s 1036 239 m 17 X s 1021 230 m 15 X s 1021 248 m 15 X s 1005 232 m 15 Y s 1053
 232 m 15 Y s 1029 239 m20 1076 245 m 3 Y s 1076 264 m 3 Y s 1053 256 m 16 X s 1084 256 m 16 X s 1069 245 m 15 X s 1069 267 m 15 X s 1053 248 m 16 Y s 1100 248 m 16 Y s 1076 256 m20 1124 255 m 4 Y s 1124 274 m 4 Y s 1100 267 m 17 X s 1132 267 m 16 X
 s 1117 255 m 15 X s 1117 278 m 15 X s 1100 259 m 15 Y s 1148 259 m 15 Y s 1124 267 m20 1172 253 m 4 Y s 1172 272 m 4 Y s 1148 265 m 17 X s 1180 265 m 16 X s 1165 253 m 15 X s 1165 276 m 15 X s 1148 257 m 15 Y s 1196 257 m 15 Y s 1172 265 m20 1220
 251 m 4 Y s 1220 270 m 4 Y s 1196 262 m 17 X s 1228 262 m 16 X s 1213 251 m 15 X s 1213 274 m 15 X s 1196 255 m 15 Y s 1244 255 m 15 Y s 1220 262 m20 1268 263 m 4 Y s 1268 283 m 5 Y s 1244 275 m 16 X s 1276 275 m 16 X s 1260 263 m 16 X s 1260 288 m
 16 X s 1244 267 m 16 Y s 1292 267 m 16 Y s 1268 275 m20 1316 306 m 8 Y s 1316 329 m 8 Y s 1292 322 m 16 X s 1324 322 m 16 X s 1308 306 m 16 X s 1308 337 m 16 X s 1292 314 m 15 Y s 1340 314 m 15 Y s 1316 322 m20 1364 282 m 7 Y s 1364 304 m 6 Y s 1340
 296 m 16 X s 1371 296 m 17 X s 1356 282 m 15 X s 1356 310 m 15 X s 1340 289 m 15 Y s 1388 289 m 15 Y s 1364 296 m20 1412 280 m 7 Y s 1412 302 m 6 Y s 1388 294 m 16 X s 1419 294 m 17 X s 1404 280 m 15 X s 1404 308 m 15 X s 1388 287 m 15 Y s 1436 287
 m 15 Y s 1412 294 m20 1460 315 m 10 Y s 1460 340 m 9 Y s 1436 332 m 16 X s 1467 332 m 17 X s 1452 315 m 15 X s 1452 349 m 15 X s 1436 325 m 15 Y s 1484 325 m 15 Y s 1460 332 m20 1508 373 m 13 Y s 1508 401 m 13 Y s 1484 393 m 16 X s 1515 393 m 17 X s
 1500 373 m 15 X s 1500 414 m 15 X s 1484 386 m 15 Y s 1532 386 m 15 Y s 1508 393 m20 1556 450 m 16 Y s 1556 481 m 17 Y s 1532 474 m 16 X s 1563 474 m 16 X s 1548 450 m 15 X s 1548 498 m 15 X s 1532 466 m 15 Y s 1579 466 m 15 Y s 1556 474 m20 1603
 492 m 18 Y s 1603 526 m 18 Y s 1579 518 m 17 X s 1611 518 m 16 X s 1596 492 m 15 X s 1596 544 m 15 X s 1579 510 m 16 Y s 1627 510 m 16 Y s 1603 518 m20 1651 604 m 23 Y s 1651 642 m 22 Y s 1627 634 m 17 X s 1659 634 m 16 X s 1644 604 m 15 X s 1644
 664 m 15 X s 1627 627 m 15 Y s 1675 627 m 15 Y s 1651 634 m20 1699 694 m 26 Y s 1699 735 m 25 Y s 1675 727 m 17 X s 1707 727 m 16 X s 1692 694 m 15 X s 1692 760 m 15 X s 1675 720 m 15 Y s 1723 720 m 15 Y s 1699 727 m20 1747 850 m 30 Y s 1747 895 m
 31 Y s 1723 888 m 17 X s 1755 888 m 16 X s 1740 850 m 15 X s 1740 926 m 15 X s 1723 880 m 15 Y s 1771 880 m 15 Y s 1747 888 m20 1795 989 m 35 Y s 1795 1039 m 34 Y s 1771 1031 m 16 X s 1803 1031 m 16 X s 1787 989 m 16 X s 1787 1073 m 16 X s 1771 1024
 m 15 Y s 1819 1024 m 15 Y s 1795 1031 m20 1843 1093 m 36 Y s 1843 1145 m 36 Y s 1819 1137 m 16 X s 1851 1137 m 16 X s 1835 1093 m 16 X s 1835 1181 m 16 X s 1819 1129 m 16 Y s 1867 1129 m 16 Y s 1843 1137 m20 1891 1027 m 35 Y s 1891 1077 m 35 Y s
 1867 1069 m 16 X s 1898 1069 m 17 X s 1883 1027 m 15 X s 1883 1112 m 15 X s 1867 1062 m 15 Y s 1915 1062 m 15 Y s 1891 1069 m20 1939 823 m 30 Y s 1939 868 m 30 Y s 1915 860 m 16 X s 1946 860 m 17 X s 1931 823 m 15 X s 1931 898 m 15 X s 1915 853 m 15
 Y s 1963 853 m 15 Y s 1939 860 m20 1987 712 m 27 Y s 1987 754 m 26 Y s 1963 746 m 16 X s 1994 746 m 17 X s 1979 712 m 15 X s 1979 780 m 15 X s 1963 739 m 15 Y s 2011 739 m 15 Y s 1987 746 m20 2035 569 m 22 Y s 2035 606 m 21 Y s 2011 598 m 16 X s
 2042 598 m 17 X s 2027 569 m 15 X s 2027 627 m 15 X s 2011 591 m 15 Y s 2059 591 m 15 Y s 2035 598 m20 2082 516 m 20 Y s 2082 551 m 19 Y s 2059 543 m 16 X s 2090 543 m 16 X s 2075 516 m 15 X s 2075 570 m 15 X s 2059 536 m 15 Y s 2106 536 m 15 Y s
 2082 543 m20 2130 438 m 15 Y s 2130 469 m 15 Y s 2106 461 m 17 X s 2138 461 m 16 X s 2123 438 m 15 X s 2123 484 m 15 X s 2106 453 m 16 Y s 2154 453 m 16 Y s 2130 461 m20 1 0 0 c 1 1 1 c 1 0 0 c 262 286 m 14 Y s 262 315 m 14 Y s 238 307 m 16 X s 270
 307 m 16 X s 254 286 m 16 X s 254 329 m 16 X s 238 300 m 15 Y s 286 300 m 15 Y s 262 307 m20 310 483 m 29 Y s 310 528 m 29 Y s 286 520 m 16 X s 318 520 m 16 X s 302 483 m 16 X s 302 557 m 16 X s 286 512 m 16 Y s 334 512 m 16 Y s 310 520 m20 358 600
 m 36 Y s 358 651 m 36 Y s 334 643 m 16 X s 365 643 m 17 X s 350 600 m 15 X s 350 687 m 15 X s 334 636 m 15 Y s 382 636 m 15 Y s 358 643 m20 406 746 m 43 Y s 406 804 m 43 Y s 382 796 m 16 X s 413 796 m 17 X s 398 746 m 15 X s 398 847 m 15 X s 382 789
 m 15 Y s 430 789 m 15 Y s 406 796 m20 454 771 m 43 Y s 454 830 m 43 Y s 430 822 m 16 X s 461 822 m 17 X s 446 771 m 15 X s 446 873 m 15 X s 430 814 m 16 Y s 478 814 m 16 Y s 454 822 m20 502 714 m 41 Y s 502 770 m 41 Y s 478 762 m 16 X s 509 762 m 17
 X s 494 714 m 15 X s 494 811 m 15 X s 478 755 m 15 Y s 526 755 m 15 Y s 502 762 m20 549 539 m 33 Y s 549 587 m 33 Y s 526 580 m 16 X s 557 580 m 16 X s 542 539 m 15 X s 542 620 m 15 X s 526 572 m 15 Y s 573 572 m 15 Y s 549 580 m20 597 568 m 34 Y s
 597 617 m 34 Y s 573 609 m 17 X s 605 609 m 16 X s 590 568 m 15 X s 590 651 m 15 X s 573 602 m 15 Y s 621 602 m 15 Y s 597 609 m20 645 459 m 28 Y s 645 502 m 28 Y s 621 495 m 17 X s 653 495 m 16 X s 638 459 m 15 X s 638 530 m 15 X s 621 487 m 15 Y s
 669 487 m 15 Y s 645 495 m20 693 543 m 33 Y s 693 591 m 33 Y s 669 584 m 17 X s 701 584 m 16 X s 686 543 m 15 X s 686 624 m 15 X s 669 576 m 15 Y s 717 576 m 15 Y s 693 584 m20 741 495 m 30 Y s 741 540 m 30 Y s 717 533 m 17 X s 749 533 m 16 X s 734
 495 m 15 X s 734 570 m 15 X s 717 525 m 15 Y s 765 525 m 15 Y s 741 533 m20 789 443 m 27 Y s 789 485 m 27 Y s 765 478 m 16 X s 797 478 m 16 X s 781 443 m 16 X s 781 512 m 16 X s 765 470 m 15 Y s 813 470 m 15 Y s 789 478 m20 837 427 m 26 Y s 837 468
 m 26 Y s 813 461 m 16 X s 845 461 m 16 X s 829 427 m 16 X s 829 494 m 16 X s 813 453 m 15 Y s 861 453 m 15 Y s 837 461 m20 885 368 m 21 Y s 885 404 m 22 Y s 861 397 m 16 X s 892 397 m 17 X s 877 368 m 15 X s 877 426 m 15 X s 861 389 m 15 Y s 909 389
 m 15 Y s 885 397 m20 933 364 m 21 Y s 933 400 m 21 Y s 909 392 m 16 X s 940 392 m 17 X s 925 364 m 15 X s 925 421 m 15 X s 909 385 m 15 Y s 957 385 m 15 Y s 933 392 m20 981 400 m 23 Y s 981 438 m 24 Y s 957 431 m 16 X s 988 431 m 17 X s 973 400 m 15
 X s 973 462 m 15 X s 957 423 m 15 Y s 1005 423 m 15 Y s 981 431 m20 1029 372 m 21 Y s 1029 409 m 21 Y s 1005 401 m 16 X s 1036 401 m 17 X s 1021 372 m 15 X s 1021 430 m 15 X s 1005 393 m 16 Y s 1053 393 m 16 Y s 1029 401 m20 1076 427 m 26 Y s 1076
 468 m 26 Y s 1053 461 m 16 X s 1084 461 m 16 X s 1069 427 m 15 X s 1069 494 m 15 X s 1053 453 m 15 Y s 1100 453 m 15 Y s 1076 461 m20 1124 340 m 19 Y s 1124 375 m 19 Y s 1100 367 m 17 X s 1132 367 m 16 X s 1117 340 m 15 X s 1117 394 m 15 X s 1100
 359 m 16 Y s 1148 359 m 16 Y s 1124 367 m20 1172 329 m 18 Y s 1172 362 m 18 Y s 1148 354 m 17 X s 1180 354 m 16 X s 1165 329 m 15 X s 1165 380 m 15 X s 1148 347 m 15 Y s 1196 347 m 15 Y s 1172 354 m20 1220 317 m 17 Y s 1220 349 m 17 Y s 1196 341 m
 17 X s 1228 341 m 16 X s 1213 317 m 15 X s 1213 366 m 15 X s 1196 334 m 15 Y s 1244 334 m 15 Y s 1220 341 m20 1268 298 m 15 Y s 1268 328 m 15 Y s 1244 320 m 16 X s 1276 320 m 16 X s 1260 298 m 16 X s 1260 343 m 16 X s 1244 313 m 15 Y s 1292 313 m 15
 Y s 1268 320 m20 1316 356 m 20 Y s 1316 392 m 20 Y s 1292 384 m 16 X s 1324 384 m 16 X s 1308 356 m 16 X s 1308 412 m 16 X s 1292 376 m 16 Y s 1340 376 m 16 Y s 1316 384 m20 1364 344 m 20 Y s 1364 379 m 19 Y s 1340 371 m 16 X s 1371 371 m 17 X s
 1356 344 m 15 X s 1356 398 m 15 X s 1340 364 m 15 Y s 1388 364 m 15 Y s 1364 371 m20 1412 282 m 14 Y s 1412 311 m 13 Y s 1388 303 m 16 X s 1419 303 m 17 X s 1404 282 m 15 X s 1404 324 m 15 X s 1388 296 m 15 Y s 1436 296 m 15 Y s 1412 303 m20 1460
 337 m 18 Y s 1460 370 m 19 Y s 1436 363 m 16 X s 1467 363 m 17 X s 1452 337 m 15 X s 1452 389 m 15 X s 1436 355 m 15 Y s 1484 355 m 15 Y s 1460 363 m20 1508 317 m 17 Y s 1508 349 m 17 Y s 1484 341 m 16 X s 1515 341 m 17 X s 1500 317 m 15 X s 1500
 366 m 15 X s 1484 334 m 15 Y s 1532 334 m 15 Y s 1508 341 m20 1556 321 m 17 Y s 1556 353 m 18 Y s 1532 346 m 16 X s 1563 346 m 16 X s 1548 321 m 15 X s 1548 371 m 15 X s 1532 338 m 15 Y s 1579 338 m 15 Y s 1556 346 m20 1603 294 m 14 Y s 1603 324 m
 14 Y s 1579 316 m 17 X s 1611 316 m 16 X s 1596 294 m 15 X s 1596 338 m 15 X s 1579 308 m 16 Y s 1627 308 m 16 Y s 1603 316 m20 1651 313 m 17 Y s 1651 345 m 16 Y s 1627 337 m 17 X s 1659 337 m 16 X s 1644 313 m 15 X s 1644 361 m 15 X s 1627 330 m 15
 Y s 1675 330 m 15 Y s 1651 337 m20 1699 267 m 12 Y s 1699 294 m 11 Y s 1675 286 m 17 X s 1707 286 m 16 X s 1692 267 m 15 X s 1692 305 m 15 X s 1675 279 m 15 Y s 1723 279 m 15 Y s 1699 286 m20 1747 279 m 12 Y s 1747 307 m 12 Y s 1723 299 m 17 X s
 1755 299 m 16 X s 1740 279 m 15 X s 1740 319 m 15 X s 1723 291 m 16 Y s 1771 291 m 16 Y s 1747 299 m20 1795 252 m 10 Y s 1795 277 m 9 Y s 1771 269 m 16 X s 1803 269 m 16 X s 1787 252 m 16 X s 1787 286 m 16 X s 1771 262 m 15 Y s 1819 262 m 15 Y s
 1795 269 m20 1843 256 m 10 Y s 1843 281 m 10 Y s 1819 273 m 16 X s 1851 273 m 16 X s 1835 256 m 16 X s 1835 291 m 16 X s 1819 266 m 15 Y s 1867 266 m 15 Y s 1843 273 m20 1891 234 m 6 Y s 1891 255 m 7 Y s 1867 248 m 16 X s 1898 248 m 17 X s 1883 234
 m 15 X s 1883 262 m 15 X s 1867 240 m 15 Y s 1915 240 m 15 Y s 1891 248 m20 1939 227 m 5 Y s 1939 247 m 5 Y s 1915 239 m 16 X s 1946 239 m 17 X s 1931 227 m 15 X s 1931 252 m 15 X s 1915 232 m 15 Y s 1963 232 m 15 Y s 1939 239 m20 1987 213 m 2 Y s
 1987 230 m 2 Y s 1963 222 m 16 X s 1994 222 m 17 X s 1979 213 m 15 X s 1979 232 m 15 X s 1963 215 m 15 Y s 2011 215 m 15 Y s 1987 222 m20 2011 210 m 16 X s 2042 210 m 17 X s 2011 202 m 15 Y s 2059 202 m 15 Y s 2035 210 m20 2059 214 m 16 X s 2090 214
 m 16 X s 2059 206 m 15 Y s 2106 206 m 15 Y s 2082 214 m20 black
 gsave  2268 1676 0 0 C 272.126 1240.34 t 0 r /Helvetica-Bold findfont 49.2982 sf 0 0 m (Kolmogorov\255Smirnov test: signal \(background\) probability = 0.012 \(0.246\)) show NC gr  238 201 m 1916 X s 429 244 m -43 Y s 467 222 m -21 Y s 506 222 m -21
 Y s 545 222 m -21 Y s 583 222 m -21 Y s 622 244 m -43 Y s 661 222 m -21 Y s 699 222 m -21 Y s 738 222 m -21 Y s 777 222 m -21 Y s 815 244 m -43 Y s 854 222 m -21 Y s 892 222 m -21 Y s 931 222 m -21 Y s 970 222 m -21 Y s 1008 244 m -43 Y s 1047 222 m
 -21 Y s 1086 222 m -21 Y s 1124 222 m -21 Y s 1163 222 m -21 Y s 1202 244 m -43 Y s 1240 222 m -21 Y s 1279 222 m -21 Y s 1318 222 m -21 Y s 1356 222 m -21 Y s 1395 244 m -43 Y s 1434 222 m -21 Y s 1472 222 m -21 Y s 1511 222 m -21 Y s 1550 222 m
 -21 Y s 1588 244 m -43 Y s 1627 222 m -21 Y s 1666 222 m -21 Y s 1704 222 m -21 Y s 1743 222 m -21 Y s 1782 244 m -43 Y s 1820 222 m -21 Y s 1859 222 m -21 Y s 1898 222 m -21 Y s 1936 222 m -21 Y s 1975 244 m -43 Y s 429 244 m -43 Y s 390 222 m -21
 Y s 351 222 m -21 Y s 313 222 m -21 Y s 274 222 m -21 Y s 1975 244 m -43 Y s 2014 222 m -21 Y s 2052 222 m -21 Y s 2091 222 m -21 Y s 2130 222 m -21 Y s 238 1509 m 1916 X s 429 1466 m 43 Y s 467 1487 m 22 Y s 506 1487 m 22 Y s 545 1487 m 22 Y s 583
 1487 m 22 Y s 622 1466 m 43 Y s 661 1487 m 22 Y s 699 1487 m 22 Y s 738 1487 m 22 Y s 777 1487 m 22 Y s 815 1466 m 43 Y s 854 1487 m 22 Y s 892 1487 m 22 Y s 931 1487 m 22 Y s 970 1487 m 22 Y s 1008 1466 m 43 Y s 1047 1487 m 22 Y s 1086 1487 m 22 Y
 s 1124 1487 m 22 Y s 1163 1487 m 22 Y s 1202 1466 m 43 Y s 1240 1487 m 22 Y s 1279 1487 m 22 Y s 1318 1487 m 22 Y s 1356 1487 m 22 Y s 1395 1466 m 43 Y s 1434 1487 m 22 Y s 1472 1487 m 22 Y s 1511 1487 m 22 Y s 1550 1487 m 22 Y s 1588 1466 m 43 Y s
 1627 1487 m 22 Y s 1666 1487 m 22 Y s 1704 1487 m 22 Y s 1743 1487 m 22 Y s 1782 1466 m 43 Y s 1820 1487 m 22 Y s 1859 1487 m 22 Y s 1898 1487 m 22 Y s 1936 1487 m 22 Y s 1975 1466 m 43 Y s 429 1466 m 43 Y s 390 1487 m 22 Y s 351 1487 m 22 Y s 313
 1487 m 22 Y s 274 1487 m 22 Y s 1975 1466 m 43 Y s 2014 1487 m 22 Y s 2052 1487 m 22 Y s 2091 1487 m 22 Y s 2130 1487 m 22 Y s 238 201 m 1308 Y s 291 201 m -53 X s 265 242 m -27 X s 265 283 m -27 X s 265 324 m -27 X s 265 364 m -27 X s 291 405 m -53
 X s 265 446 m -27 X s 265 487 m -27 X s 265 528 m -27 X s 265 568 m -27 X s 291 609 m -53 X s 265 650 m -27 X s 265 691 m -27 X s 265 732 m -27 X s 265 772 m -27 X s 291 813 m -53 X s 265 854 m -27 X s 265 895 m -27 X s 265 936 m -27 X s 265 976 m
 -27 X s 291 1017 m -53 X s 265 1058 m -27 X s 265 1099 m -27 X s 265 1140 m -27 X s 265 1180 m -27 X s 291 1221 m -53 X s 265 1262 m -27 X s 265 1303 m -27 X s 265 1344 m -27 X s 265 1385 m -27 X s 291 1425 m -53 X s 291 1425 m -53 X s 265 1466 m
 -27 X s 265 1507 m -27 X s 2154 201 m 1308 Y s 2101 201 m 53 X s 2128 242 m 26 X s 2128 283 m 26 X s 2128 324 m 26 X s 2128 364 m 26 X s 2101 405 m 53 X s 2128 446 m 26 X s 2128 487 m 26 X s 2128 528 m 26 X s 2128 568 m 26 X s 2101 609 m 53 X s 2128
 650 m 26 X s 2128 691 m 26 X s 2128 732 m 26 X s 2128 772 m 26 X s 2101 813 m 53 X s 2128 854 m 26 X s 2128 895 m 26 X s 2128 936 m 26 X s 2128 976 m 26 X s 2101 1017 m 53 X s 2128 1058 m 26 X s 2128 1099 m 26 X s 2128 1140 m 26 X s 2128 1180 m 26 X
 s 2101 1221 m 53 X s 2128 1262 m 26 X s 2128 1303 m 26 X s 2128 1344 m 26 X s 2128 1385 m 26 X s 2101 1425 m 53 X s 2101 1425 m 53 X s 2128 1466 m 26 X s 2128 1507 m 26 X s
 gsave  2268 1676 0 0 C 2211.02 192.756 t 90 r /Helvetica-Bold findfont 45.506 sf 0 0 m (U/O\255flow \(S,B\): \(0.0, 0.0\)% / \(0.0, 0.0\)%) show NC gr  0.490196 0.545098 0.615686 c 0.364706 0.419608 0.490196 c 1587 96 23 1572 bf 0.490196 0.545098
 0.615686 c 23 1572 m 1587 X s 1610 1572 m 96 Y s 1610 1668 m -1587 X s 23 1668 m -96 Y s 1 1 1 c black 1 1 1 c
 gsave  2268 1676 0 0 C 98.5964 1600.29 t 0 r /Helvetica-Bold findfont 68.259 sf 0 0 m (TMVA overtraining check for classifier: SVM) show NC gr 
 gr  gr showpage
end
%%EOF
