%!PS-Adobe-2.0 EPSF-2.0
%%BoundingBox:  0 0 567 419
%%Title: DataSet/plots/overtrain_BDT.eps: TMVA comparison BDT
%%Creator: ROOT Version 6.08/06
%%CreationDate: Fri Jun  8 13:04:24 2018
%%DocumentNeededResources: ProcSet (FontSetInit)
%%EndComments
%%BeginProlog
80 dict begin
/s {stroke} def /l {lineto} def /m {moveto} def /t {translate} def
/r {rotate} def /rl {roll}  def /R {repeat} def
/d {rlineto} def /rm {rmoveto} def /gr {grestore} def /f {eofill} def
/c {setrgbcolor} def /black {0 setgray} def /sd {setdash} def
/cl {closepath} def /sf {scalefont setfont} def /lw {setlinewidth} def
/box {m dup 0 exch d exch 0 d 0 exch neg d cl} def
/NC{systemdict begin initclip end}def/C{NC box clip newpath}def
/bl {box s} def /bf {gsave box gsave f grestore 1 lw [] 0 sd s grestore} def /Y { 0 exch d} def /X { 0 d} def 
/K {{pop pop 0 moveto} exch kshow} bind def
/ita {/ang 15 def gsave [1 0 ang dup sin exch cos div 1 0 0] concat} def 
/mp {newpath /y exch def /x exch def} def
/side {[w .77 mul w .23 mul] .385 w mul sd w 0 l currentpoint t -144 r} def
/mr {mp x y w2 0 360 arc} def /m24 {mr s} def /m20 {mr f} def
/mb {mp x y w2 add m w2 neg 0 d 0 w neg d w 0 d 0 w d cl} def
/mt {mp x y w2 add m w2 neg w neg d w 0 d cl} def
/m21 {mb f} def /m25 {mb s} def /m22 {mt f} def /m26{mt s} def
/m23 {mp x y w2 sub m w2 w d w neg 0 d cl f} def
/m27 {mp x y w2 add m w3 neg w2 neg d w3 w2 neg d w3 w2 d cl s} def
/m28 {mp x w2 sub y w2 sub w3 add m w3 0 d  0 w3 neg d w3 0 d 0 w3 d w3 0 d  0 w3 d w3 neg 0 d 0 w3 d w3 neg 0 d 0 w3 neg d w3 neg 0 d cl s } def
/m29 {mp gsave x w2 sub y w2 add w3 sub m currentpoint t 4 {side} repeat cl fill gr} def
/m30 {mp gsave x w2 sub y w2 add w3 sub m currentpoint t 4 {side} repeat cl s gr} def
/m31 {mp x y w2 sub m 0 w d x w2 sub y m w 0 d x w2 sub y w2 add m w w neg d x w2 sub y w2 sub m w w d s} def
/m32 {mp x y w2 sub m w2 w d w neg 0 d cl s} def
/m33 {mp x y w2 add m w3 neg w2 neg d w3 w2 neg d w3 w2 d cl f} def
/m34 {mp x w2 sub y w2 sub w3 add m w3 0 d  0 w3 neg d w3 0 d 0 w3 d w3 0 d  0 w3 d w3 neg 0 d 0 w3 d w3 neg 0 d 0 w3 neg d w3 neg 0 d cl f } def
/m2 {mp x y w2 sub m 0 w d x w2 sub y m w 0 d s} def
/m5 {mp x w2 sub y w2 sub m w w d x w2 sub y w2 add m w w neg d s} def
%%IncludeResource: ProcSet (FontSetInit)
%%IncludeResource: font Times-Roman
%%IncludeResource: font Times-Italic
%%IncludeResource: font Times-Bold
%%IncludeResource: font Times-BoldItalic
%%IncludeResource: font Helvetica
%%IncludeResource: font Helvetica-Oblique
%%IncludeResource: font Helvetica-Bold
%%IncludeResource: font Helvetica-BoldOblique
%%IncludeResource: font Courier
%%IncludeResource: font Courier-Oblique
%%IncludeResource: font Courier-Bold
%%IncludeResource: font Courier-BoldOblique
%%IncludeResource: font Symbol
%%IncludeResource: font ZapfDingbats
/reEncode {exch findfont dup length dict begin {1 index /FID eq  {pop pop} {def} ifelse } forall /Encoding exch def currentdict end dup /FontName get exch definefont pop } def [/Times-Bold /Times-Italic /Times-BoldItalic /Helvetica /Helvetica-Oblique
 /Helvetica-Bold /Helvetica-BoldOblique /Courier /Courier-Oblique /Courier-Bold /Courier-BoldOblique /Times-Roman /AvantGarde-Book /AvantGarde-BookOblique /AvantGarde-Demi /AvantGarde-DemiOblique /Bookman-Demi /Bookman-DemiItalic /Bookman-Light
 /Bookman-LightItalic /Helvetica-Narrow /Helvetica-Narrow-Bold /Helvetica-Narrow-BoldOblique /Helvetica-Narrow-Oblique /NewCenturySchlbk-Roman /NewCenturySchlbk-Bold /NewCenturySchlbk-BoldItalic /NewCenturySchlbk-Italic /Palatino-Bold
 /Palatino-BoldItalic /Palatino-Italic /Palatino-Roman ] {ISOLatin1Encoding reEncode } forall
%%EndProlog
%%BeginSetup
%%EndSetup
newpath  gsave  .25 .25 scale  gsave  0 0 t 0.490196 0.545098 0.615686 c[  ] 0 sd 3 lw 1 1 1 c 2268 1676 0 0 bf black 1 1 1 c 1916 1308 238 201 bf black 1916 1308 238 201 bl 1 1 1 c 1916 1308 238 201 bf black 1916 1308 238 201 bl 238 201 m 1916 X s
 gsave  2268 1676 0 0 C 1664.76 34.1295 t 0 r /Helvetica-Bold findfont 72.0512 sf 0 0 m (BDT response) show NC gr  254 244 m -43 Y s 303 222 m -21 Y s 352 222 m -21 Y s 401 222 m -21 Y s 450 222 m -21 Y s 499 244 m -43 Y s 548 222 m -21 Y s 597 222 m
 -21 Y s 646 222 m -21 Y s 695 222 m -21 Y s 744 244 m -43 Y s 793 222 m -21 Y s 842 222 m -21 Y s 891 222 m -21 Y s 940 222 m -21 Y s 989 244 m -43 Y s 1038 222 m -21 Y s 1087 222 m -21 Y s 1137 222 m -21 Y s 1186 222 m -21 Y s 1235 244 m -43 Y s
 1284 222 m -21 Y s 1333 222 m -21 Y s 1382 222 m -21 Y s 1431 222 m -21 Y s 1480 244 m -43 Y s 1529 222 m -21 Y s 1578 222 m -21 Y s 1627 222 m -21 Y s 1676 222 m -21 Y s 1725 244 m -43 Y s 1774 222 m -21 Y s 1823 222 m -21 Y s 1872 222 m -21 Y s
 1921 222 m -21 Y s 1970 244 m -43 Y s 254 244 m -43 Y s 1970 244 m -43 Y s 2019 222 m -21 Y s 2068 222 m -21 Y s 2117 222 m -21 Y s
 gsave  2268 1676 0 0 C 219.946 128.934 t 0 r /Helvetica-Bold findfont 64.4669 sf 0 0 m (0.4) show NC gr 
 gsave  2268 1676 0 0 C 185.816 128.934 t 0 r /Symbol findfont 64.4669 sf 0 0 m (-) show NC gr 
 gsave  2268 1676 0 0 C 466.437 128.934 t 0 r /Helvetica-Bold findfont 64.4669 sf 0 0 m (0.3) show NC gr 
 gsave  2268 1676 0 0 C 436.099 128.934 t 0 r /Symbol findfont 64.4669 sf 0 0 m (-) show NC gr 
 gsave  2268 1676 0 0 C 712.928 128.934 t 0 r /Helvetica-Bold findfont 64.4669 sf 0 0 m (0.2) show NC gr 
 gsave  2268 1676 0 0 C 682.59 128.934 t 0 r /Symbol findfont 64.4669 sf 0 0 m (-) show NC gr 
 gsave  2268 1676 0 0 C 959.419 128.934 t 0 r /Helvetica-Bold findfont 64.4669 sf 0 0 m (0.1) show NC gr 
 gsave  2268 1676 0 0 C 929.081 128.934 t 0 r /Symbol findfont 64.4669 sf 0 0 m (-) show NC gr 
 gsave  2268 1676 0 0 C 1213.49 128.934 t 0 r /Helvetica-Bold findfont 64.4669 sf 0 0 m (0) show NC gr 
 gsave  2268 1676 0 0 C 1437.23 128.934 t 0 r /Helvetica-Bold findfont 64.4669 sf 0 0 m (0.1) show NC gr 
 gsave  2268 1676 0 0 C 1676.14 128.934 t 0 r /Helvetica-Bold findfont 64.4669 sf 0 0 m (0.2) show NC gr 
 gsave  2268 1676 0 0 C 1922.63 128.934 t 0 r /Helvetica-Bold findfont 64.4669 sf 0 0 m (0.3) show NC gr  238 1509 m 1916 X s 254 1466 m 43 Y s 303 1487 m 22 Y s 352 1487 m 22 Y s 401 1487 m 22 Y s 450 1487 m 22 Y s 499 1466 m 43 Y s 548 1487 m 22 Y
 s 597 1487 m 22 Y s 646 1487 m 22 Y s 695 1487 m 22 Y s 744 1466 m 43 Y s 793 1487 m 22 Y s 842 1487 m 22 Y s 891 1487 m 22 Y s 940 1487 m 22 Y s 989 1466 m 43 Y s 1038 1487 m 22 Y s 1087 1487 m 22 Y s 1137 1487 m 22 Y s 1186 1487 m 22 Y s 1235 1466
 m 43 Y s 1284 1487 m 22 Y s 1333 1487 m 22 Y s 1382 1487 m 22 Y s 1431 1487 m 22 Y s 1480 1466 m 43 Y s 1529 1487 m 22 Y s 1578 1487 m 22 Y s 1627 1487 m 22 Y s 1676 1487 m 22 Y s 1725 1466 m 43 Y s 1774 1487 m 22 Y s 1823 1487 m 22 Y s 1872 1487 m
 22 Y s 1921 1487 m 22 Y s 1970 1466 m 43 Y s 254 1466 m 43 Y s 1970 1466 m 43 Y s 2019 1487 m 22 Y s 2068 1487 m 22 Y s 2117 1487 m 22 Y s 238 201 m 1308 Y s
 gsave  2268 1676 0 0 C 64.4669 1425.86 t 90 r /Helvetica-Bold findfont 72.0512 sf 0 0 m (dx) show NC gr 
 gsave  2268 1676 0 0 C 30.3373 1406.89 t 90 r /Helvetica-Bold findfont 45.506 sf 0 0 m ( ) show NC gr 
 gsave  2268 1676 0 0 C 64.4669 1384.14 t 90 r /Helvetica-Bold findfont 72.0512 sf 0 0 m (/) show NC gr 
 gsave  2268 1676 0 0 C 30.3373 1365.18 t 90 r /Helvetica-Bold findfont 45.506 sf 0 0 m ( ) show NC gr 
 gsave  2268 1676 0 0 C 60.6747 1092.14 t 90 r /Helvetica-Bold findfont 72.0512 sf 0 0 m (\(1/N\) dN) show NC gr  291 201 m -53 X s 265 237 m -27 X s 265 273 m -27 X s 265 309 m -27 X s 265 345 m -27 X s 291 381 m -53 X s 265 417 m -27 X s 265 453 m
 -27 X s 265 489 m -27 X s 265 525 m -27 X s 291 561 m -53 X s 265 597 m -27 X s 265 633 m -27 X s 265 669 m -27 X s 265 705 m -27 X s 291 741 m -53 X s 265 777 m -27 X s 265 813 m -27 X s 265 849 m -27 X s 265 885 m -27 X s 291 921 m -53 X s 265 956
 m -27 X s 265 992 m -27 X s 265 1028 m -27 X s 265 1064 m -27 X s 291 1100 m -53 X s 265 1136 m -27 X s 265 1172 m -27 X s 265 1208 m -27 X s 265 1244 m -27 X s 291 1280 m -53 X s 265 1316 m -27 X s 265 1352 m -27 X s 265 1388 m -27 X s 265 1424 m
 -27 X s 291 1460 m -53 X s 291 1460 m -53 X s 265 1496 m -27 X s
 gsave  2268 1676 0 0 C 174.44 178.232 t 0 r /Helvetica-Bold findfont 64.4669 sf 0 0 m (0) show NC gr 
 gsave  2268 1676 0 0 C 182.024 356.464 t 0 r /Helvetica-Bold findfont 64.4669 sf 0 0 m (1) show NC gr 
 gsave  2268 1676 0 0 C 174.44 534.696 t 0 r /Helvetica-Bold findfont 64.4669 sf 0 0 m (2) show NC gr 
 gsave  2268 1676 0 0 C 174.44 716.72 t 0 r /Helvetica-Bold findfont 64.4669 sf 0 0 m (3) show NC gr 
 gsave  2268 1676 0 0 C 174.44 894.952 t 0 r /Helvetica-Bold findfont 64.4669 sf 0 0 m (4) show NC gr 
 gsave  2268 1676 0 0 C 174.44 1076.98 t 0 r /Helvetica-Bold findfont 64.4669 sf 0 0 m (5) show NC gr 
 gsave  2268 1676 0 0 C 174.44 1255.21 t 0 r /Helvetica-Bold findfont 64.4669 sf 0 0 m (6) show NC gr 
 gsave  2268 1676 0 0 C 174.44 1437.23 t 0 r /Helvetica-Bold findfont 64.4669 sf 0 0 m (7) show NC gr  2154 201 m 1308 Y s 2101 201 m 53 X s 2128 237 m 26 X s 2128 273 m 26 X s 2128 309 m 26 X s 2128 345 m 26 X s 2101 381 m 53 X s 2128 417 m 26 X s
 2128 453 m 26 X s 2128 489 m 26 X s 2128 525 m 26 X s 2101 561 m 53 X s 2128 597 m 26 X s 2128 633 m 26 X s 2128 669 m 26 X s 2128 705 m 26 X s 2101 741 m 53 X s 2128 777 m 26 X s 2128 813 m 26 X s 2128 849 m 26 X s 2128 885 m 26 X s 2101 921 m 53 X
 s 2128 956 m 26 X s 2128 992 m 26 X s 2128 1028 m 26 X s 2128 1064 m 26 X s 2101 1100 m 53 X s 2128 1136 m 26 X s 2128 1172 m 26 X s 2128 1208 m 26 X s 2128 1244 m 26 X s 2101 1280 m 53 X s 2128 1316 m 26 X s 2128 1352 m 26 X s 2128 1388 m 26 X s
 2128 1424 m 26 X s 2101 1460 m 53 X s 2101 1460 m 53 X s 2128 1496 m 26 X s 0.490196 0.545098 0.615686 c 1 1 1 c 0.490196 0.545098 0.615686 c 907 202 238 1307 bl 238 1307 m 907 X s 1145 1307 m 202 Y s 1145 1509 m -907 X s 238 1509 m -202 Y s black
 gsave  2268 1676 0 0 C 417.138 1437.23 t 0 r /Helvetica-Bold findfont 56.8825 sf 0 0 m (Signal \(test sample\)) show NC gr  0.49 0.6 0.82 c 265 1423 m 127 X 70 Y -127 X f 0 0 0.933333 c 265 1493 m 127 X s 265 1423 m 127 X s 392 1423 m 70 Y s 265
 1423 m 70 Y s black
 gsave  2268 1676 0 0 C 417.138 1338.64 t 0 r /Helvetica-Bold findfont 56.8825 sf 0 0 m (Background \(test sample\)) show NC gr  1 0 0 c 392 1354 m -32 -32 d s 383 1393 m -71 -71 d s 335 1393 m -70 -69 d s 286 1393 m -21 -21 d s 0 0 0.933333 c 1 0 0
 c 265 1393 m 127 X s 265 1322 m 127 X s 392 1322 m 71 Y s 265 1322 m 71 Y s 0 0 0.933333 c 0.49 0.6 0.82 c black 0.49 0.6 0.82 c 238 201 m 527 X 10 Y 48 X -10 Y 48 X 20 Y 48 X -20 Y 48 X 40 Y 48 X 20 Y 48 X 79 Y 47 X 10 Y 48 X 60 Y 48 X 50 Y 48 X
 219 Y 48 X -110 Y 48 X 269 Y 48 X 100 Y 48 X 189 Y 48 X 39 Y 48 X -39 Y 47 X -130 Y 48 X -89 Y 48 X -20 Y 48 X -199 Y 48 X -269 Y 48 X -70 Y 48 X -69 Y 48 X -10 Y 48 X -20 Y 48 X -30 Y 48 X -10 Y 95 X -10 Y f 0 0 0.933333 c 0.49 0.6 0.82 c 0 0
 0.933333 c 238 201 m 527 X 10 Y 48 X -10 Y 48 X 20 Y 48 X -20 Y 48 X 40 Y 48 X 20 Y 48 X 79 Y 47 X 10 Y 48 X 60 Y 48 X 50 Y 48 X 219 Y 48 X -110 Y 48 X 269 Y 48 X 100 Y 48 X 189 Y 48 X 39 Y 48 X -39 Y 47 X -130 Y 48 X -89 Y 48 X -20 Y 48 X -199 Y 48
 X -269 Y 48 X -70 Y 48 X -69 Y 48 X -10 Y 48 X -20 Y 48 X -30 Y 48 X -10 Y 95 X -10 Y s 1 0 0 c black 1 0 0 c 2125 201 m s 2077 201 m s 2029 201 m s 1981 201 m s 1933 201 m s 1885 201 m s 1837 201 m s 1789 201 m s 1741 201 m s 1692 201 m s 1644 201
 m s 1596 201 m s 1579 233 m -31 -32 d s 1538 240 m -38 -39 d s 1532 281 m -80 -80 d s 1500 297 m -96 -96 d s 1484 329 m -128 -128 d s 1461 355 m -153 -154 d s 1394 336 m -135 -135 d s 1388 378 m -177 -177 d s 1388 426 m -225 -225 d s 1346 432 m -231
 -231 d s 1336 470 m -44 -44 d s 1278 413 m -211 -212 d s 1244 426 m -225 -225 d s 1221 451 m -250 -250 d s 1192 470 m -269 -269 d s 1148 475 m -273 -274 d s 1148 523 m -321 -322 d s 1148 571 m -370 -370 d s 1148 619 m -418 -418 d s 1105 624 m -423
 -423 d s 1100 667 m -466 -466 d s 1086 701 m -81 -81 d s 970 585 m -384 -384 d s 1053 716 m -48 -48 d s 957 620 m -419 -419 d s 1053 764 m -48 -48 d s 957 668 m -96 -96 d s 855 566 m -365 -365 d s 1018 778 m -13 -14 d s 957 716 m -96 -96 d s 813 572
 m -371 -371 d s 957 764 m -96 -96 d s 813 621 m -419 -420 d s 957 812 m -96 -95 d s 813 669 m -468 -468 d s 912 816 m -51 -51 d s 797 701 m -319 -320 d s 470 374 m -173 -173 d s 909 861 m -48 -48 d s 765 717 m -96 -96 d s 634 585 m -156 -155 d s 403
 355 m -21 -21 d s 345 297 m -11 -11 d s 288 240 m -39 -39 d s 909 909 m -48 -48 d s 765 765 m -96 -96 d s 621 621 m -143 -143 d s 259 259 m -21 -21 d s 909 957 m -48 -48 d s 765 813 m -96 -96 d s 621 669 m -48 -47 d s 537 585 m -11 -11 d s 499 547 m
 -21 -21 d s 874 970 m -13 -13 d s 758 854 m -89 -89 d s 605 701 m -32 -31 d s 691 835 m -22 -21 d s 238 259 m 48 X -19 Y 48 X 57 Y 48 X 58 Y 48 X 19 Y 48 X 173 Y 48 X 38 Y 47 X 116 Y 48 X -116 Y 48 X 250 Y 48 X 19 Y 48 X -153 Y 48 X -135 Y 48 X 404
 Y 48 X -154 Y 48 X -231 Y 48 X 193 Y 48 X -77 Y 47 X -77 Y 48 X -154 Y 48 X -19 Y 48 X -38 Y 48 X 57 Y 48 X -38 Y 48 X -96 Y 48 X 19 Y 48 X -58 Y 48 X -57 Y 47 X -39 Y 575 X s 0.490196 0.545098 0.615686 c 1 1 1 c 0.490196 0.545098 0.615686 c 952 202
 1202 1307 bl 1202 1307 m 952 X s 2154 1307 m 202 Y s 2154 1509 m -952 X s 1202 1509 m -202 Y s black
 gsave  2268 1676 0 0 C 1296.92 1437.23 t 0 r /Helvetica-Bold findfont 56.8825 sf 0 0 m (Signal \(training sample\)) show NC gr  0 0 0.933333 c /w 21 def /w2 {w 2 div} def /w3 {w 3 div} def 1250 1458 m20 black
 gsave  2268 1676 0 0 C 1296.92 1338.64 t 0 r /Helvetica-Bold findfont 56.8825 sf 0 0 m (Background \(training sample\)) show NC gr  1 0 0 c 1250 1358 m20 0 0 0.933333 c 1 1 1 c 0 0 0.933333 c 1053 206 m 16 X s 1084 206 m 16 X s 1053 198 m 15 Y s
 1100 198 m 15 Y s 1076 206 m20 1124 229 m 2 Y s 1124 246 m 2 Y s 1100 239 m 17 X s 1132 239 m 16 X s 1117 229 m 15 X s 1117 248 m 15 X s 1100 231 m 15 Y s 1148 231 m 15 Y s 1124 239 m20 1172 313 m 10 Y s 1172 339 m 9 Y s 1148 331 m 17 X s 1180 331 m
 16 X s 1165 313 m 15 X s 1165 348 m 15 X s 1148 323 m 16 Y s 1196 323 m 16 Y s 1172 331 m20 1220 405 m 15 Y s 1220 435 m 16 Y s 1196 428 m 17 X s 1228 428 m 16 X s 1213 405 m 15 X s 1213 451 m 15 X s 1196 420 m 15 Y s 1244 420 m 15 Y s 1220 428 m20
 1268 590 m 24 Y s 1268 629 m 24 Y s 1244 621 m 16 X s 1276 621 m 16 X s 1260 590 m 16 X s 1260 653 m 16 X s 1244 614 m 15 Y s 1292 614 m 15 Y s 1268 621 m20 1316 681 m 27 Y s 1316 723 m 28 Y s 1292 716 m 16 X s 1324 716 m 16 X s 1308 681 m 16 X s
 1308 751 m 16 X s 1292 708 m 15 Y s 1340 708 m 15 Y s 1316 716 m20 1364 818 m 32 Y s 1364 865 m 32 Y s 1340 857 m 16 X s 1371 857 m 17 X s 1356 818 m 15 X s 1356 897 m 15 X s 1340 850 m 15 Y s 1388 850 m 15 Y s 1364 857 m20 1412 958 m 36 Y s 1412
 1009 m 36 Y s 1388 1001 m 16 X s 1419 1001 m 17 X s 1404 958 m 15 X s 1404 1045 m 15 X s 1388 994 m 15 Y s 1436 994 m 15 Y s 1412 1001 m20 1460 1119 m 40 Y s 1460 1174 m 40 Y s 1436 1167 m 16 X s 1467 1167 m 17 X s 1452 1119 m 15 X s 1452 1214 m 15
 X s 1436 1159 m 15 Y s 1484 1159 m 15 Y s 1460 1167 m20 1508 1158 m 41 Y s 1508 1214 m 42 Y s 1484 1207 m 16 X s 1515 1207 m 17 X s 1500 1158 m 15 X s 1500 1256 m 15 X s 1484 1199 m 15 Y s 1532 1199 m 15 Y s 1508 1207 m20 1556 1055 m 38 Y s 1556
 1108 m 39 Y s 1532 1101 m 16 X s 1563 1101 m 16 X s 1548 1055 m 15 X s 1548 1147 m 15 X s 1532 1093 m 15 Y s 1579 1093 m 15 Y s 1556 1101 m20 1603 1075 m 39 Y s 1603 1129 m 39 Y s 1579 1122 m 17 X s 1611 1122 m 16 X s 1596 1075 m 15 X s 1596 1168 m
 15 X s 1579 1114 m 15 Y s 1627 1114 m 15 Y s 1603 1122 m20 1651 940 m 35 Y s 1651 990 m 35 Y s 1627 983 m 17 X s 1659 983 m 16 X s 1644 940 m 15 X s 1644 1025 m 15 X s 1627 975 m 15 Y s 1675 975 m 15 Y s 1651 983 m20 1699 756 m 30 Y s 1699 801 m 30
 Y s 1675 794 m 17 X s 1707 794 m 16 X s 1692 756 m 15 X s 1692 831 m 15 X s 1675 786 m 15 Y s 1723 786 m 15 Y s 1699 794 m20 1747 629 m 25 Y s 1747 669 m 25 Y s 1723 661 m 17 X s 1755 661 m 16 X s 1740 629 m 15 X s 1740 694 m 15 X s 1723 654 m 15 Y
 s 1771 654 m 15 Y s 1747 661 m20 1795 501 m 21 Y s 1795 537 m 20 Y s 1771 529 m 16 X s 1803 529 m 16 X s 1787 501 m 16 X s 1787 557 m 16 X s 1771 522 m 15 Y s 1819 522 m 15 Y s 1795 529 m20 1843 402 m 16 Y s 1843 433 m 15 Y s 1819 425 m 16 X s 1851
 425 m 16 X s 1835 402 m 16 X s 1835 448 m 16 X s 1819 418 m 15 Y s 1867 418 m 15 Y s 1843 425 m20 1891 292 m 8 Y s 1891 315 m 8 Y s 1867 307 m 16 X s 1898 307 m 17 X s 1883 292 m 15 X s 1883 323 m 15 X s 1867 300 m 15 Y s 1915 300 m 15 Y s 1891 307
 m20 1939 263 m 6 Y s 1939 284 m 6 Y s 1915 277 m 16 X s 1946 277 m 17 X s 1931 263 m 15 X s 1931 290 m 15 X s 1915 269 m 15 Y s 1963 269 m 15 Y s 1939 277 m20 1987 221 m 1 Y s 1987 237 m 1 Y s 1963 229 m 16 X s 1994 229 m 17 X s 1979 221 m 15 X s
 1979 238 m 15 X s 1963 222 m 15 Y s 2011 222 m 15 Y s 1987 229 m20 2011 208 m 16 X s 2042 208 m 17 X s 2011 201 m 15 Y s 2059 201 m 15 Y s 2035 208 m20 2059 208 m 16 X s 2090 208 m 16 X s 2059 201 m 15 Y s 2106 201 m 15 Y s 2082 208 m20 2106 213 m
 17 X s 2138 213 m 16 X s 2106 205 m 16 Y s 2154 205 m 16 Y s 2130 213 m20 1 0 0 c 1 1 1 c 1 0 0 c 262 207 m 1 Y s 262 223 m 1 Y s 238 215 m 16 X s 270 215 m 16 X s 254 207 m 16 X s 254 224 m 16 X s 238 208 m 15 Y s 286 208 m 15 Y s 262 215 m20 310
 254 m 11 Y s 310 280 m 11 Y s 286 273 m 16 X s 318 273 m 16 X s 302 254 m 16 X s 302 291 m 16 X s 286 265 m 15 Y s 334 265 m 15 Y s 310 273 m20 358 288 m 15 Y s 358 318 m 16 Y s 334 311 m 16 X s 365 311 m 17 X s 350 288 m 15 X s 350 334 m 15 X s 334
 303 m 15 Y s 382 303 m 15 Y s 358 311 m20 406 322 m 19 Y s 406 356 m 19 Y s 382 349 m 16 X s 413 349 m 17 X s 398 322 m 15 X s 398 375 m 15 X s 382 341 m 15 Y s 430 341 m 15 Y s 406 349 m20 454 392 m 25 Y s 454 433 m 25 Y s 430 425 m 16 X s 461 425
 m 17 X s 446 392 m 15 X s 446 458 m 15 X s 430 417 m 16 Y s 478 417 m 16 Y s 454 425 m20 502 477 m 31 Y s 502 523 m 31 Y s 478 516 m 16 X s 509 516 m 17 X s 494 477 m 15 X s 494 554 m 15 X s 478 508 m 15 Y s 526 508 m 15 Y s 502 516 m20 549 517 m 34
 Y s 549 566 m 34 Y s 526 558 m 16 X s 557 558 m 16 X s 542 517 m 15 X s 542 600 m 15 X s 526 551 m 15 Y s 573 551 m 15 Y s 549 558 m20 597 598 m 39 Y s 597 652 m 38 Y s 573 644 m 17 X s 605 644 m 16 X s 590 598 m 15 X s 590 690 m 15 X s 573 637 m 15
 Y s 621 637 m 15 Y s 597 644 m20 645 580 m 38 Y s 645 633 m 37 Y s 621 625 m 17 X s 653 625 m 16 X s 638 580 m 15 X s 638 670 m 15 X s 621 618 m 15 Y s 669 618 m 15 Y s 645 625 m20 693 698 m 43 Y s 693 757 m 43 Y s 669 749 m 17 X s 701 749 m 16 X s
 686 698 m 15 X s 686 800 m 15 X s 669 741 m 16 Y s 717 741 m 16 Y s 693 749 m20 741 816 m 49 Y s 741 880 m 49 Y s 717 873 m 17 X s 749 873 m 16 X s 734 816 m 15 X s 734 929 m 15 X s 717 865 m 15 Y s 765 865 m 15 Y s 741 873 m20 789 730 m 45 Y s 789
 790 m 45 Y s 765 782 m 16 X s 797 782 m 16 X s 781 730 m 16 X s 781 835 m 16 X s 765 775 m 15 Y s 813 775 m 15 Y s 789 782 m20 837 775 m 47 Y s 837 838 m 47 Y s 813 830 m 16 X s 845 830 m 16 X s 829 775 m 16 X s 829 885 m 16 X s 813 822 m 16 Y s 861
 822 m 16 Y s 837 830 m20 885 743 m 46 Y s 885 804 m 46 Y s 861 797 m 16 X s 892 797 m 17 X s 877 743 m 15 X s 877 850 m 15 X s 861 789 m 15 Y s 909 789 m 15 Y s 885 797 m20 933 807 m 49 Y s 933 871 m 49 Y s 909 863 m 16 X s 940 863 m 17 X s 925 807
 m 15 X s 925 920 m 15 X s 909 856 m 15 Y s 957 856 m 15 Y s 933 863 m20 981 762 m 46 Y s 981 823 m 47 Y s 957 816 m 16 X s 988 816 m 17 X s 973 762 m 15 X s 973 870 m 15 X s 957 808 m 15 Y s 1005 808 m 15 Y s 981 816 m20 1029 707 m 44 Y s 1029 766 m
 44 Y s 1005 759 m 16 X s 1036 759 m 17 X s 1021 707 m 15 X s 1021 810 m 15 X s 1005 751 m 15 Y s 1053 751 m 15 Y s 1029 759 m20 1076 616 m 40 Y s 1076 671 m 39 Y s 1053 663 m 16 X s 1084 663 m 16 X s 1069 616 m 15 X s 1069 710 m 15 X s 1053 656 m 15
 Y s 1100 656 m 15 Y s 1076 663 m20 1124 657 m 42 Y s 1124 714 m 41 Y s 1100 706 m 17 X s 1132 706 m 16 X s 1117 657 m 15 X s 1117 755 m 15 X s 1100 699 m 15 Y s 1148 699 m 15 Y s 1124 706 m20 1172 553 m 36 Y s 1172 604 m 36 Y s 1148 597 m 17 X s
 1180 597 m 16 X s 1165 553 m 15 X s 1165 640 m 15 X s 1148 589 m 15 Y s 1196 589 m 15 Y s 1172 597 m20 1220 558 m 36 Y s 1220 609 m 36 Y s 1196 601 m 17 X s 1228 601 m 16 X s 1213 558 m 15 X s 1213 645 m 15 X s 1196 594 m 15 Y s 1244 594 m 15 Y s
 1220 601 m20 1268 495 m 32 Y s 1268 542 m 32 Y s 1244 535 m 16 X s 1276 535 m 16 X s 1260 495 m 16 X s 1260 574 m 16 X s 1244 527 m 15 Y s 1292 527 m 15 Y s 1268 535 m20 1316 309 m 18 Y s 1316 342 m 18 Y s 1292 335 m 16 X s 1324 335 m 16 X s 1308
 309 m 16 X s 1308 360 m 16 X s 1292 327 m 15 Y s 1340 327 m 15 Y s 1316 335 m20 1340 211 m 16 X s 1371 211 m 17 X s 1340 203 m 15 Y s 1388 203 m 15 Y s 1364 211 m20 black
 gsave  2268 1676 0 0 C 272.126 1240.34 t 0 r /Helvetica-Bold findfont 49.2982 sf 0 0 m (Kolmogorov\255Smirnov test: signal \(background\) probability =     0 \(    0\)) show NC gr  238 201 m 1916 X s 254 244 m -43 Y s 303 222 m -21 Y s 352 222 m -21
 Y s 401 222 m -21 Y s 450 222 m -21 Y s 499 244 m -43 Y s 548 222 m -21 Y s 597 222 m -21 Y s 646 222 m -21 Y s 695 222 m -21 Y s 744 244 m -43 Y s 793 222 m -21 Y s 842 222 m -21 Y s 891 222 m -21 Y s 940 222 m -21 Y s 989 244 m -43 Y s 1038 222 m
 -21 Y s 1087 222 m -21 Y s 1137 222 m -21 Y s 1186 222 m -21 Y s 1235 244 m -43 Y s 1284 222 m -21 Y s 1333 222 m -21 Y s 1382 222 m -21 Y s 1431 222 m -21 Y s 1480 244 m -43 Y s 1529 222 m -21 Y s 1578 222 m -21 Y s 1627 222 m -21 Y s 1676 222 m
 -21 Y s 1725 244 m -43 Y s 1774 222 m -21 Y s 1823 222 m -21 Y s 1872 222 m -21 Y s 1921 222 m -21 Y s 1970 244 m -43 Y s 254 244 m -43 Y s 1970 244 m -43 Y s 2019 222 m -21 Y s 2068 222 m -21 Y s 2117 222 m -21 Y s 238 1509 m 1916 X s 254 1466 m 43
 Y s 303 1487 m 22 Y s 352 1487 m 22 Y s 401 1487 m 22 Y s 450 1487 m 22 Y s 499 1466 m 43 Y s 548 1487 m 22 Y s 597 1487 m 22 Y s 646 1487 m 22 Y s 695 1487 m 22 Y s 744 1466 m 43 Y s 793 1487 m 22 Y s 842 1487 m 22 Y s 891 1487 m 22 Y s 940 1487 m
 22 Y s 989 1466 m 43 Y s 1038 1487 m 22 Y s 1087 1487 m 22 Y s 1137 1487 m 22 Y s 1186 1487 m 22 Y s 1235 1466 m 43 Y s 1284 1487 m 22 Y s 1333 1487 m 22 Y s 1382 1487 m 22 Y s 1431 1487 m 22 Y s 1480 1466 m 43 Y s 1529 1487 m 22 Y s 1578 1487 m 22
 Y s 1627 1487 m 22 Y s 1676 1487 m 22 Y s 1725 1466 m 43 Y s 1774 1487 m 22 Y s 1823 1487 m 22 Y s 1872 1487 m 22 Y s 1921 1487 m 22 Y s 1970 1466 m 43 Y s 254 1466 m 43 Y s 1970 1466 m 43 Y s 2019 1487 m 22 Y s 2068 1487 m 22 Y s 2117 1487 m 22 Y s
 238 201 m 1308 Y s 291 201 m -53 X s 265 237 m -27 X s 265 273 m -27 X s 265 309 m -27 X s 265 345 m -27 X s 291 381 m -53 X s 265 417 m -27 X s 265 453 m -27 X s 265 489 m -27 X s 265 525 m -27 X s 291 561 m -53 X s 265 597 m -27 X s 265 633 m -27
 X s 265 669 m -27 X s 265 705 m -27 X s 291 741 m -53 X s 265 777 m -27 X s 265 813 m -27 X s 265 849 m -27 X s 265 885 m -27 X s 291 921 m -53 X s 265 956 m -27 X s 265 992 m -27 X s 265 1028 m -27 X s 265 1064 m -27 X s 291 1100 m -53 X s 265 1136
 m -27 X s 265 1172 m -27 X s 265 1208 m -27 X s 265 1244 m -27 X s 291 1280 m -53 X s 265 1316 m -27 X s 265 1352 m -27 X s 265 1388 m -27 X s 265 1424 m -27 X s 291 1460 m -53 X s 291 1460 m -53 X s 265 1496 m -27 X s 2154 201 m 1308 Y s 2101 201 m
 53 X s 2128 237 m 26 X s 2128 273 m 26 X s 2128 309 m 26 X s 2128 345 m 26 X s 2101 381 m 53 X s 2128 417 m 26 X s 2128 453 m 26 X s 2128 489 m 26 X s 2128 525 m 26 X s 2101 561 m 53 X s 2128 597 m 26 X s 2128 633 m 26 X s 2128 669 m 26 X s 2128 705
 m 26 X s 2101 741 m 53 X s 2128 777 m 26 X s 2128 813 m 26 X s 2128 849 m 26 X s 2128 885 m 26 X s 2101 921 m 53 X s 2128 956 m 26 X s 2128 992 m 26 X s 2128 1028 m 26 X s 2128 1064 m 26 X s 2101 1100 m 53 X s 2128 1136 m 26 X s 2128 1172 m 26 X s
 2128 1208 m 26 X s 2128 1244 m 26 X s 2101 1280 m 53 X s 2128 1316 m 26 X s 2128 1352 m 26 X s 2128 1388 m 26 X s 2128 1424 m 26 X s 2101 1460 m 53 X s 2101 1460 m 53 X s 2128 1496 m 26 X s
 gsave  2268 1676 0 0 C 2211.02 192.756 t 90 r /Helvetica-Bold findfont 45.506 sf 0 0 m (U/O\255flow \(S,B\): \(0.0, 0.0\)% / \(0.0, 0.0\)%) show NC gr  0.490196 0.545098 0.615686 c 0.364706 0.419608 0.490196 c 1587 96 23 1572 bf 0.490196 0.545098
 0.615686 c 23 1572 m 1587 X s 1610 1572 m 96 Y s 1610 1668 m -1587 X s 23 1668 m -96 Y s 1 1 1 c black 1 1 1 c
 gsave  2268 1676 0 0 C 102.389 1600.29 t 0 r /Helvetica-Bold findfont 68.259 sf 0 0 m (TMVA overtraining check for classifier: BDT) show NC gr 
 gr  gr showpage
end
%%EOF
