%!PS-Adobe-2.0 EPSF-2.0
%%BoundingBox:  0 0 567 419
%%Title: DataSet/plots/overtrain_PDERS.eps: TMVA comparison PDERS
%%Creator: ROOT Version 6.08/06
%%CreationDate: Fri Jun  8 13:04:23 2018
%%DocumentNeededResources: ProcSet (FontSetInit)
%%EndComments
%%BeginProlog
80 dict begin
/s {stroke} def /l {lineto} def /m {moveto} def /t {translate} def
/r {rotate} def /rl {roll}  def /R {repeat} def
/d {rlineto} def /rm {rmoveto} def /gr {grestore} def /f {eofill} def
/c {setrgbcolor} def /black {0 setgray} def /sd {setdash} def
/cl {closepath} def /sf {scalefont setfont} def /lw {setlinewidth} def
/box {m dup 0 exch d exch 0 d 0 exch neg d cl} def
/NC{systemdict begin initclip end}def/C{NC box clip newpath}def
/bl {box s} def /bf {gsave box gsave f grestore 1 lw [] 0 sd s grestore} def /Y { 0 exch d} def /X { 0 d} def 
/K {{pop pop 0 moveto} exch kshow} bind def
/ita {/ang 15 def gsave [1 0 ang dup sin exch cos div 1 0 0] concat} def 
/mp {newpath /y exch def /x exch def} def
/side {[w .77 mul w .23 mul] .385 w mul sd w 0 l currentpoint t -144 r} def
/mr {mp x y w2 0 360 arc} def /m24 {mr s} def /m20 {mr f} def
/mb {mp x y w2 add m w2 neg 0 d 0 w neg d w 0 d 0 w d cl} def
/mt {mp x y w2 add m w2 neg w neg d w 0 d cl} def
/m21 {mb f} def /m25 {mb s} def /m22 {mt f} def /m26{mt s} def
/m23 {mp x y w2 sub m w2 w d w neg 0 d cl f} def
/m27 {mp x y w2 add m w3 neg w2 neg d w3 w2 neg d w3 w2 d cl s} def
/m28 {mp x w2 sub y w2 sub w3 add m w3 0 d  0 w3 neg d w3 0 d 0 w3 d w3 0 d  0 w3 d w3 neg 0 d 0 w3 d w3 neg 0 d 0 w3 neg d w3 neg 0 d cl s } def
/m29 {mp gsave x w2 sub y w2 add w3 sub m currentpoint t 4 {side} repeat cl fill gr} def
/m30 {mp gsave x w2 sub y w2 add w3 sub m currentpoint t 4 {side} repeat cl s gr} def
/m31 {mp x y w2 sub m 0 w d x w2 sub y m w 0 d x w2 sub y w2 add m w w neg d x w2 sub y w2 sub m w w d s} def
/m32 {mp x y w2 sub m w2 w d w neg 0 d cl s} def
/m33 {mp x y w2 add m w3 neg w2 neg d w3 w2 neg d w3 w2 d cl f} def
/m34 {mp x w2 sub y w2 sub w3 add m w3 0 d  0 w3 neg d w3 0 d 0 w3 d w3 0 d  0 w3 d w3 neg 0 d 0 w3 d w3 neg 0 d 0 w3 neg d w3 neg 0 d cl f } def
/m2 {mp x y w2 sub m 0 w d x w2 sub y m w 0 d s} def
/m5 {mp x w2 sub y w2 sub m w w d x w2 sub y w2 add m w w neg d s} def
%%IncludeResource: ProcSet (FontSetInit)
%%IncludeResource: font Times-Roman
%%IncludeResource: font Times-Italic
%%IncludeResource: font Times-Bold
%%IncludeResource: font Times-BoldItalic
%%IncludeResource: font Helvetica
%%IncludeResource: font Helvetica-Oblique
%%IncludeResource: font Helvetica-Bold
%%IncludeResource: font Helvetica-BoldOblique
%%IncludeResource: font Courier
%%IncludeResource: font Courier-Oblique
%%IncludeResource: font Courier-Bold
%%IncludeResource: font Courier-BoldOblique
%%IncludeResource: font Symbol
%%IncludeResource: font ZapfDingbats
/reEncode {exch findfont dup length dict begin {1 index /FID eq  {pop pop} {def} ifelse } forall /Encoding exch def currentdict end dup /FontName get exch definefont pop } def [/Times-Bold /Times-Italic /Times-BoldItalic /Helvetica /Helvetica-Oblique
 /Helvetica-Bold /Helvetica-BoldOblique /Courier /Courier-Oblique /Courier-Bold /Courier-BoldOblique /Times-Roman /AvantGarde-Book /AvantGarde-BookOblique /AvantGarde-Demi /AvantGarde-DemiOblique /Bookman-Demi /Bookman-DemiItalic /Bookman-Light
 /Bookman-LightItalic /Helvetica-Narrow /Helvetica-Narrow-Bold /Helvetica-Narrow-BoldOblique /Helvetica-Narrow-Oblique /NewCenturySchlbk-Roman /NewCenturySchlbk-Bold /NewCenturySchlbk-BoldItalic /NewCenturySchlbk-Italic /Palatino-Bold
 /Palatino-BoldItalic /Palatino-Italic /Palatino-Roman ] {ISOLatin1Encoding reEncode } forall
%%EndProlog
%%BeginSetup
%%EndSetup
newpath  gsave  .25 .25 scale  gsave  0 0 t 0.490196 0.545098 0.615686 c[  ] 0 sd 3 lw 1 1 1 c 2268 1676 0 0 bf black 1 1 1 c 1916 1308 238 201 bf black 1916 1308 238 201 bl 1 1 1 c 1916 1308 238 201 bf black 1916 1308 238 201 bl 238 201 m 1916 X s
 gsave  2268 1676 0 0 C 1566.17 30.3373 t 0 r /Helvetica-Bold findfont 72.0512 sf 0 0 m (PDERS response) show NC gr  406 244 m -43 Y s 447 222 m -21 Y s 489 222 m -21 Y s 530 222 m -21 Y s 572 222 m -21 Y s 613 244 m -43 Y s 655 222 m -21 Y s 697 222
 m -21 Y s 738 222 m -21 Y s 780 222 m -21 Y s 821 244 m -43 Y s 863 222 m -21 Y s 904 222 m -21 Y s 946 222 m -21 Y s 987 222 m -21 Y s 1029 244 m -43 Y s 1071 222 m -21 Y s 1112 222 m -21 Y s 1154 222 m -21 Y s 1195 222 m -21 Y s 1237 244 m -43 Y s
 1278 222 m -21 Y s 1320 222 m -21 Y s 1362 222 m -21 Y s 1403 222 m -21 Y s 1445 244 m -43 Y s 1486 222 m -21 Y s 1528 222 m -21 Y s 1569 222 m -21 Y s 1611 222 m -21 Y s 1652 244 m -43 Y s 1694 222 m -21 Y s 1736 222 m -21 Y s 1777 222 m -21 Y s
 1819 222 m -21 Y s 1860 244 m -43 Y s 1902 222 m -21 Y s 1943 222 m -21 Y s 1985 222 m -21 Y s 2027 222 m -21 Y s 2068 244 m -43 Y s 406 244 m -43 Y s 364 222 m -21 Y s 322 222 m -21 Y s 281 222 m -21 Y s 239 222 m -21 Y s 2068 244 m -43 Y s 2110
 222 m -21 Y s 2151 222 m -21 Y s
 gsave  2268 1676 0 0 C 360.256 128.934 t 0 r /Helvetica-Bold findfont 64.4669 sf 0 0 m (0.1) show NC gr 
 gsave  2268 1676 0 0 C 565.033 128.934 t 0 r /Helvetica-Bold findfont 64.4669 sf 0 0 m (0.2) show NC gr 
 gsave  2268 1676 0 0 C 773.602 128.934 t 0 r /Helvetica-Bold findfont 64.4669 sf 0 0 m (0.3) show NC gr 
 gsave  2268 1676 0 0 C 982.172 128.934 t 0 r /Helvetica-Bold findfont 64.4669 sf 0 0 m (0.4) show NC gr 
 gsave  2268 1676 0 0 C 1190.74 128.934 t 0 r /Helvetica-Bold findfont 64.4669 sf 0 0 m (0.5) show NC gr 
 gsave  2268 1676 0 0 C 1395.52 128.934 t 0 r /Helvetica-Bold findfont 64.4669 sf 0 0 m (0.6) show NC gr 
 gsave  2268 1676 0 0 C 1604.09 128.934 t 0 r /Helvetica-Bold findfont 64.4669 sf 0 0 m (0.7) show NC gr 
 gsave  2268 1676 0 0 C 1812.66 128.934 t 0 r /Helvetica-Bold findfont 64.4669 sf 0 0 m (0.8) show NC gr 
 gsave  2268 1676 0 0 C 2021.23 128.934 t 0 r /Helvetica-Bold findfont 64.4669 sf 0 0 m (0.9) show NC gr  238 1509 m 1916 X s 406 1466 m 43 Y s 447 1487 m 22 Y s 489 1487 m 22 Y s 530 1487 m 22 Y s 572 1487 m 22 Y s 613 1466 m 43 Y s 655 1487 m 22 Y
 s 697 1487 m 22 Y s 738 1487 m 22 Y s 780 1487 m 22 Y s 821 1466 m 43 Y s 863 1487 m 22 Y s 904 1487 m 22 Y s 946 1487 m 22 Y s 987 1487 m 22 Y s 1029 1466 m 43 Y s 1071 1487 m 22 Y s 1112 1487 m 22 Y s 1154 1487 m 22 Y s 1195 1487 m 22 Y s 1237
 1466 m 43 Y s 1278 1487 m 22 Y s 1320 1487 m 22 Y s 1362 1487 m 22 Y s 1403 1487 m 22 Y s 1445 1466 m 43 Y s 1486 1487 m 22 Y s 1528 1487 m 22 Y s 1569 1487 m 22 Y s 1611 1487 m 22 Y s 1652 1466 m 43 Y s 1694 1487 m 22 Y s 1736 1487 m 22 Y s 1777
 1487 m 22 Y s 1819 1487 m 22 Y s 1860 1466 m 43 Y s 1902 1487 m 22 Y s 1943 1487 m 22 Y s 1985 1487 m 22 Y s 2027 1487 m 22 Y s 2068 1466 m 43 Y s 406 1466 m 43 Y s 364 1487 m 22 Y s 322 1487 m 22 Y s 281 1487 m 22 Y s 239 1487 m 22 Y s 2068 1466 m
 43 Y s 2110 1487 m 22 Y s 2151 1487 m 22 Y s 238 201 m 1308 Y s
 gsave  2268 1676 0 0 C 64.4669 1425.86 t 90 r /Helvetica-Bold findfont 72.0512 sf 0 0 m (dx) show NC gr 
 gsave  2268 1676 0 0 C 30.3373 1406.89 t 90 r /Helvetica-Bold findfont 45.506 sf 0 0 m ( ) show NC gr 
 gsave  2268 1676 0 0 C 64.4669 1384.14 t 90 r /Helvetica-Bold findfont 72.0512 sf 0 0 m (/) show NC gr 
 gsave  2268 1676 0 0 C 30.3373 1365.18 t 90 r /Helvetica-Bold findfont 45.506 sf 0 0 m ( ) show NC gr 
 gsave  2268 1676 0 0 C 60.6747 1092.14 t 90 r /Helvetica-Bold findfont 72.0512 sf 0 0 m (\(1/N\) dN) show NC gr  291 201 m -53 X s 265 239 m -27 X s 265 278 m -27 X s 265 316 m -27 X s 265 354 m -27 X s 291 393 m -53 X s 265 431 m -27 X s 265 469 m
 -27 X s 265 507 m -27 X s 265 546 m -27 X s 291 584 m -53 X s 265 622 m -27 X s 265 661 m -27 X s 265 699 m -27 X s 265 737 m -27 X s 291 776 m -53 X s 265 814 m -27 X s 265 852 m -27 X s 265 890 m -27 X s 265 929 m -27 X s 291 967 m -53 X s 265
 1005 m -27 X s 265 1044 m -27 X s 265 1082 m -27 X s 265 1120 m -27 X s 291 1158 m -53 X s 265 1197 m -27 X s 265 1235 m -27 X s 265 1273 m -27 X s 265 1312 m -27 X s 291 1350 m -53 X s 291 1350 m -53 X s 265 1388 m -27 X s 265 1427 m -27 X s 265
 1465 m -27 X s 265 1503 m -27 X s
 gsave  2268 1676 0 0 C 174.44 178.232 t 0 r /Helvetica-Bold findfont 64.4669 sf 0 0 m (0) show NC gr 
 gsave  2268 1676 0 0 C 182.024 367.84 t 0 r /Helvetica-Bold findfont 64.4669 sf 0 0 m (1) show NC gr 
 gsave  2268 1676 0 0 C 174.44 561.241 t 0 r /Helvetica-Bold findfont 64.4669 sf 0 0 m (2) show NC gr 
 gsave  2268 1676 0 0 C 174.44 750.849 t 0 r /Helvetica-Bold findfont 64.4669 sf 0 0 m (3) show NC gr 
 gsave  2268 1676 0 0 C 174.44 944.25 t 0 r /Helvetica-Bold findfont 64.4669 sf 0 0 m (4) show NC gr 
 gsave  2268 1676 0 0 C 174.44 1133.86 t 0 r /Helvetica-Bold findfont 64.4669 sf 0 0 m (5) show NC gr 
 gsave  2268 1676 0 0 C 174.44 1323.47 t 0 r /Helvetica-Bold findfont 64.4669 sf 0 0 m (6) show NC gr  2154 201 m 1308 Y s 2101 201 m 53 X s 2128 239 m 26 X s 2128 278 m 26 X s 2128 316 m 26 X s 2128 354 m 26 X s 2101 393 m 53 X s 2128 431 m 26 X s
 2128 469 m 26 X s 2128 507 m 26 X s 2128 546 m 26 X s 2101 584 m 53 X s 2128 622 m 26 X s 2128 661 m 26 X s 2128 699 m 26 X s 2128 737 m 26 X s 2101 776 m 53 X s 2128 814 m 26 X s 2128 852 m 26 X s 2128 890 m 26 X s 2128 929 m 26 X s 2101 967 m 53 X
 s 2128 1005 m 26 X s 2128 1044 m 26 X s 2128 1082 m 26 X s 2128 1120 m 26 X s 2101 1158 m 53 X s 2128 1197 m 26 X s 2128 1235 m 26 X s 2128 1273 m 26 X s 2128 1312 m 26 X s 2101 1350 m 53 X s 2101 1350 m 53 X s 2128 1388 m 26 X s 2128 1427 m 26 X s
 2128 1465 m 26 X s 2128 1503 m 26 X s 0.490196 0.545098 0.615686 c 1 1 1 c 0.490196 0.545098 0.615686 c 907 202 238 1307 bl 238 1307 m 907 X s 1145 1307 m 202 Y s 1145 1509 m -907 X s 238 1509 m -202 Y s black
 gsave  2268 1676 0 0 C 417.138 1437.23 t 0 r /Helvetica-Bold findfont 56.8825 sf 0 0 m (Signal \(test sample\)) show NC gr  0.49 0.6 0.82 c 265 1423 m 127 X 70 Y -127 X f 0 0 0.933333 c 265 1493 m 127 X s 265 1423 m 127 X s 392 1423 m 70 Y s 265
 1423 m 70 Y s black
 gsave  2268 1676 0 0 C 417.138 1338.64 t 0 r /Helvetica-Bold findfont 56.8825 sf 0 0 m (Background \(test sample\)) show NC gr  1 0 0 c 392 1354 m -32 -32 d s 383 1393 m -71 -71 d s 335 1393 m -70 -69 d s 286 1393 m -21 -21 d s 0 0 0.933333 c 1 0 0
 c 265 1393 m 127 X s 265 1322 m 127 X s 392 1322 m 71 Y s 265 1322 m 71 Y s 0 0 0.933333 c 0.49 0.6 0.82 c black 0.49 0.6 0.82 c 238 201 m 48 X 9 Y 48 X -9 Y 48 X 9 Y 191 X -9 Y 48 X 18 Y 96 X -9 Y 48 X 27 Y 48 X -9 Y 48 X 9 Y 48 X 9 Y 48 X -9 Y 96
 X 36 Y 47 X -9 Y 48 X 54 Y 48 X -9 Y 48 X -36 Y 96 X 27 Y 48 X 126 Y 48 X -81 Y 48 X 18 Y 48 X 36 Y 47 X 45 Y 48 X 80 Y 48 X -53 Y 48 X 116 Y 48 X 63 Y 48 X -81 Y 48 X 243 Y 48 X 206 Y 48 X 189 Y 48 X -54 Y 48 X 54 Y 47 X -763 Y 48 X -243 Y f 0 0
 0.933333 c 0.49 0.6 0.82 c 0 0 0.933333 c 238 201 m 48 X 9 Y 48 X -9 Y 48 X 9 Y 191 X -9 Y 48 X 18 Y 96 X -9 Y 48 X 27 Y 48 X -9 Y 48 X 9 Y 48 X 9 Y 48 X -9 Y 96 X 36 Y 47 X -9 Y 48 X 54 Y 48 X -9 Y 48 X -36 Y 96 X 27 Y 48 X 126 Y 48 X -81 Y 48 X 18
 Y 48 X 36 Y 47 X 45 Y 48 X 80 Y 48 X -53 Y 48 X 116 Y 48 X 63 Y 48 X -81 Y 48 X 243 Y 48 X 206 Y 48 X 189 Y 48 X -54 Y 48 X 54 Y 47 X -763 Y 48 X -243 Y s 1 0 0 c black 1 0 0 c 2154 230 m -29 -29 d s 2112 236 m -6 -6 d s 2095 218 m -18 -17 d s 2029
 201 m s 2011 231 m -30 -30 d s 2011 279 m -78 -78 d s 1989 305 m -104 -104 d s 1923 288 m -86 -87 d s 1893 305 m -104 -104 d s 1862 323 m -43 -43 d s 1793 253 m -52 -52 d s 1771 280 m -79 -79 d s 1771 328 m -127 -127 d s 1735 340 m -139 -139 d s
 1723 376 m -48 -48 d s 1652 305 m -104 -104 d s 1691 392 m -16 -16 d s 1627 329 m -127 -128 d s 1608 357 m -29 -28 d s 1573 323 m -121 -122 d s 1532 329 m -128 -128 d s 1532 377 m -176 -176 d s 1532 425 m -48 -48 d s 1481 375 m -173 -174 d s 1485
 427 m -1 -2 d s 1436 377 m -48 -47 d s 1381 323 m -122 -122 d s 1419 409 m -31 -31 d s 1340 330 m -129 -129 d s 1340 378 m -177 -177 d s 1340 426 m -96 -96 d s 1237 323 m -122 -122 d s 1327 461 m -35 -35 d s 1258 392 m -14 -14 d s 1196 330 m -129
 -129 d s 1196 378 m -177 -177 d s 1196 427 m -225 -226 d s 1165 444 m -242 -243 d s 1148 475 m -48 -48 d s 1065 392 m -12 -13 d s 1031 357 m -156 -156 d s 1148 523 m -48 -48 d s 1005 379 m -178 -178 d s 1108 531 m -8 -8 d s 1005 427 m -227 -226 d s
 990 461 m -260 -260 d s 957 476 m -275 -275 d s 929 496 m -295 -295 d s 909 524 m -96 -96 d s 811 427 m -225 -226 d s 902 565 m -89 -89 d s 765 428 m -227 -227 d s 837 548 m -24 -24 d s 765 476 m -275 -275 d s 754 513 m -312 -312 d s 706 513 m -133
 -132 d s 550 357 m -156 -156 d s 669 525 m -96 -96 d s 526 381 m -181 -180 d s 669 573 m -96 -96 d s 526 429 m -229 -228 d s 665 617 m -44 -44 d s 596 548 m -23 -23 d s 526 477 m -277 -276 d s 526 526 m -288 -288 d s 482 531 m -4 -5 d s 448 496 m
 -66 -66 d s 344 392 m -106 -106 d s 430 526 m -48 -48 d s 334 430 m -96 -96 d s 404 548 m -22 -22 d s 334 478 m -96 -96 d s 286 479 m -48 -48 d s 286 527 m -48 -48 d s 286 575 m -48 -48 d s 246 583 m -8 -8 d s 238 583 m 48 X -104 Y 48 X -87 Y 48 X
 156 Y 48 X -52 Y 48 X 35 Y 48 X -174 Y 47 X 191 Y 48 X 69 Y 48 X -104 Y 96 X -86 Y 48 X 121 Y 48 X 17 Y 48 X -69 Y 48 X -35 Y 48 X -104 Y 48 X 35 Y 47 X 139 Y 48 X -87 Y 48 X -121 Y 48 X 69 Y 48 X 69 Y 48 X -138 Y 48 X 86 Y 48 X -34 Y 48 X 52 Y 48 X
 -104 Y 47 X 34 Y 48 X -52 Y 48 X 87 Y 48 X -52 Y 48 X -87 Y 48 X 70 Y 48 X -18 Y 48 X -17 Y 48 X 17 Y 48 X -104 Y 48 X 17 Y 47 X 18 Y 48 X -35 Y s 0.490196 0.545098 0.615686 c 1 1 1 c 0.490196 0.545098 0.615686 c 952 202 1202 1307 bl 1202 1307 m 952
 X s 2154 1307 m 202 Y s 2154 1509 m -952 X s 1202 1509 m -202 Y s black
 gsave  2268 1676 0 0 C 1296.92 1437.23 t 0 r /Helvetica-Bold findfont 56.8825 sf 0 0 m (Signal \(training sample\)) show NC gr  0 0 0.933333 c /w 21 def /w2 {w 2 div} def /w3 {w 3 div} def 1250 1458 m20 black
 gsave  2268 1676 0 0 C 1296.92 1338.64 t 0 r /Helvetica-Bold findfont 56.8825 sf 0 0 m (Background \(training sample\)) show NC gr  1 0 0 c 1250 1358 m20 0 0 0.933333 c 1 1 1 c 0 0 0.933333 c 238 205 m 16 X s 270 205 m 16 X s 238 198 m 15 Y s 286
 198 m 15 Y s 262 205 m20 286 205 m 16 X s 318 205 m 16 X s 286 198 m 15 Y s 334 198 m 15 Y s 310 205 m20 382 208 m 16 X s 413 208 m 17 X s 382 200 m 15 Y s 430 200 m 15 Y s 406 208 m20 430 208 m 16 X s 461 208 m 17 X s 430 200 m 15 Y s 478 200 m 15
 Y s 454 208 m20 478 216 m 16 X s 509 216 m 17 X s 478 209 m 15 Y s 526 209 m 15 Y s 502 216 m20 526 214 m 16 X s 557 214 m 16 X s 526 206 m 16 Y s 573 206 m 16 Y s 549 214 m20 573 212 m 17 X s 605 212 m 16 X s 573 204 m 15 Y s 621 204 m 15 Y s 597
 212 m20 621 218 m 17 X s 653 218 m 16 X s 621 211 m 15 Y s 669 211 m 15 Y s 645 218 m20 693 221 m s 693 236 m 1 Y s 669 229 m 17 X s 701 229 m 16 X s 686 221 m 15 X s 686 237 m 15 X s 669 221 m 15 Y s 717 221 m 15 Y s 693 229 m20 717 212 m 17 X s
 749 212 m 16 X s 717 204 m 15 Y s 765 204 m 15 Y s 741 212 m20 765 220 m 16 X s 797 220 m 16 X s 765 213 m 15 Y s 813 213 m 15 Y s 789 220 m20 813 222 m 16 X s 845 222 m 16 X s 813 215 m 15 Y s 861 215 m 15 Y s 837 222 m20 885 221 m s 885 236 m 1 Y
 s 861 229 m 16 X s 892 229 m 17 X s 877 221 m 15 X s 877 237 m 15 X s 861 221 m 15 Y s 909 221 m 15 Y s 885 229 m20 933 234 m 2 Y s 933 251 m 2 Y s 909 244 m 16 X s 940 244 m 17 X s 925 234 m 15 X s 925 253 m 15 X s 909 236 m 15 Y s 957 236 m 15 Y s
 933 244 m20 981 246 m 3 Y s 981 264 m 4 Y s 957 257 m 16 X s 988 257 m 17 X s 973 246 m 15 X s 973 268 m 15 X s 957 249 m 15 Y s 1005 249 m 15 Y s 981 257 m20 1029 246 m 3 Y s 1029 264 m 4 Y s 1005 257 m 16 X s 1036 257 m 17 X s 1021 246 m 15 X s
 1021 268 m 15 X s 1005 249 m 15 Y s 1053 249 m 15 Y s 1029 257 m20 1076 265 m 5 Y s 1076 286 m 5 Y s 1053 278 m 16 X s 1084 278 m 16 X s 1069 265 m 15 X s 1069 291 m 15 X s 1053 270 m 16 Y s 1100 270 m 16 Y s 1076 278 m20 1124 257 m 5 Y s 1124 277 m
 5 Y s 1100 269 m 17 X s 1132 269 m 16 X s 1117 257 m 15 X s 1117 282 m 15 X s 1100 262 m 15 Y s 1148 262 m 15 Y s 1124 269 m20 1172 277 m 6 Y s 1172 298 m 7 Y s 1148 291 m 17 X s 1180 291 m 16 X s 1165 277 m 15 X s 1165 305 m 15 X s 1148 283 m 15 Y
 s 1196 283 m 15 Y s 1172 291 m20 1220 289 m 7 Y s 1220 311 m 7 Y s 1196 304 m 17 X s 1228 304 m 16 X s 1213 289 m 15 X s 1213 318 m 15 X s 1196 296 m 15 Y s 1244 296 m 15 Y s 1220 304 m20 1268 265 m 5 Y s 1268 286 m 5 Y s 1244 278 m 16 X s 1276 278
 m 16 X s 1260 265 m 16 X s 1260 291 m 16 X s 1244 270 m 16 Y s 1292 270 m 16 Y s 1268 278 m20 1316 311 m 9 Y s 1316 335 m 9 Y s 1292 327 m 16 X s 1324 327 m 16 X s 1308 311 m 16 X s 1308 344 m 16 X s 1292 320 m 15 Y s 1340 320 m 15 Y s 1316 327 m20
 1364 325 m 10 Y s 1364 350 m 9 Y s 1340 342 m 16 X s 1371 342 m 17 X s 1356 325 m 15 X s 1356 359 m 15 X s 1340 335 m 15 Y s 1388 335 m 15 Y s 1364 342 m20 1412 377 m 13 Y s 1412 405 m 13 Y s 1388 398 m 16 X s 1419 398 m 17 X s 1404 377 m 15 X s
 1404 418 m 15 X s 1388 390 m 15 Y s 1436 390 m 15 Y s 1412 398 m20 1460 385 m 14 Y s 1460 414 m 13 Y s 1436 406 m 16 X s 1467 406 m 17 X s 1452 385 m 15 X s 1452 427 m 15 X s 1436 399 m 15 Y s 1484 399 m 15 Y s 1460 406 m20 1508 379 m 13 Y s 1508
 407 m 13 Y s 1484 400 m 16 X s 1515 400 m 17 X s 1500 379 m 15 X s 1500 420 m 15 X s 1484 392 m 15 Y s 1532 392 m 15 Y s 1508 400 m20 1556 416 m 15 Y s 1556 446 m 15 Y s 1532 438 m 16 X s 1563 438 m 16 X s 1548 416 m 15 X s 1548 461 m 15 X s 1532
 431 m 15 Y s 1579 431 m 15 Y s 1556 438 m20 1603 428 m 15 Y s 1603 459 m 15 Y s 1579 451 m 17 X s 1611 451 m 16 X s 1596 428 m 15 X s 1596 474 m 15 X s 1579 443 m 16 Y s 1627 443 m 16 Y s 1603 451 m20 1651 487 m 18 Y s 1651 521 m 18 Y s 1627 513 m
 17 X s 1659 513 m 16 X s 1644 487 m 15 X s 1644 539 m 15 X s 1627 505 m 16 Y s 1675 505 m 16 Y s 1651 513 m20 1699 448 m 17 Y s 1699 480 m 17 Y s 1675 472 m 17 X s 1707 472 m 16 X s 1692 448 m 15 X s 1692 497 m 15 X s 1675 465 m 15 Y s 1723 465 m 15
 Y s 1699 472 m20 1747 557 m 21 Y s 1747 593 m 21 Y s 1723 586 m 17 X s 1755 586 m 16 X s 1740 557 m 15 X s 1740 614 m 15 X s 1723 578 m 15 Y s 1771 578 m 15 Y s 1747 586 m20 1795 592 m 22 Y s 1795 630 m 22 Y s 1771 622 m 16 X s 1803 622 m 16 X s
 1787 592 m 16 X s 1787 652 m 16 X s 1771 614 m 16 Y s 1819 614 m 16 Y s 1795 622 m20 1843 600 m 23 Y s 1843 638 m 23 Y s 1819 631 m 16 X s 1851 631 m 16 X s 1835 600 m 16 X s 1835 661 m 16 X s 1819 623 m 15 Y s 1867 623 m 15 Y s 1843 631 m20 1891
 741 m 27 Y s 1891 783 m 28 Y s 1867 776 m 16 X s 1898 776 m 17 X s 1883 741 m 15 X s 1883 811 m 15 X s 1867 768 m 15 Y s 1915 768 m 15 Y s 1891 776 m20 1939 805 m 29 Y s 1939 850 m 29 Y s 1915 842 m 16 X s 1946 842 m 17 X s 1931 805 m 15 X s 1931
 879 m 15 X s 1915 834 m 16 Y s 1963 834 m 16 Y s 1939 842 m20 1987 1105 m 37 Y s 1987 1157 m 38 Y s 1963 1150 m 16 X s 1994 1150 m 17 X s 1979 1105 m 15 X s 1979 1195 m 15 X s 1963 1142 m 15 Y s 2011 1142 m 15 Y s 1987 1150 m20 2035 1142 m 39 Y s
 2035 1196 m 38 Y s 2011 1188 m 16 X s 2042 1188 m 17 X s 2027 1142 m 15 X s 2027 1234 m 15 X s 2011 1181 m 15 Y s 2059 1181 m 15 Y s 2035 1188 m20 2082 1063 m 36 Y s 2082 1115 m 36 Y s 2059 1107 m 16 X s 2090 1107 m 16 X s 2075 1063 m 15 X s 2075
 1151 m 15 X s 2059 1099 m 16 Y s 2106 1099 m 16 Y s 2082 1107 m20 2130 500 m 18 Y s 2130 533 m 19 Y s 2106 526 m 17 X s 2138 526 m 16 X s 2123 500 m 15 X s 2123 552 m 15 X s 2106 518 m 15 Y s 2154 518 m 15 Y s 2130 526 m20 1 0 0 c 1 1 1 c 1 0 0 c
 262 438 m 27 Y s 262 480 m 27 Y s 238 473 m 16 X s 270 473 m 16 X s 254 438 m 16 X s 254 507 m 16 X s 238 465 m 15 Y s 286 465 m 15 Y s 262 473 m20 310 358 m 21 Y s 310 394 m 21 Y s 286 386 m 16 X s 318 386 m 16 X s 302 358 m 16 X s 302 415 m 16 X s
 286 379 m 15 Y s 334 379 m 15 Y s 310 386 m20 358 434 m 27 Y s 358 476 m 26 Y s 334 468 m 16 X s 365 468 m 17 X s 350 434 m 15 X s 350 502 m 15 X s 334 461 m 15 Y s 382 461 m 15 Y s 358 468 m20 406 573 m 34 Y s 406 623 m 34 Y s 382 615 m 16 X s 413
 615 m 17 X s 398 573 m 15 X s 398 657 m 15 X s 382 607 m 16 Y s 430 607 m 16 Y s 406 615 m20 454 536 m 33 Y s 454 584 m 32 Y s 430 576 m 16 X s 461 576 m 17 X s 446 536 m 15 X s 446 616 m 15 X s 430 569 m 15 Y s 478 569 m 15 Y s 454 576 m20 502 520
 m 31 Y s 502 566 m 32 Y s 478 559 m 16 X s 509 559 m 17 X s 494 520 m 15 X s 494 598 m 15 X s 478 551 m 15 Y s 526 551 m 15 Y s 502 559 m20 549 467 m 28 Y s 549 510 m 29 Y s 526 503 m 16 X s 557 503 m 16 X s 542 467 m 15 X s 542 539 m 15 X s 526 495
 m 15 Y s 573 495 m 15 Y s 549 503 m20 597 430 m 26 Y s 597 472 m 26 Y s 573 464 m 17 X s 605 464 m 16 X s 590 430 m 15 X s 590 498 m 15 X s 573 456 m 16 Y s 621 456 m 16 Y s 597 464 m20 645 386 m 23 Y s 645 424 m 23 Y s 621 417 m 17 X s 653 417 m 16
 X s 638 386 m 15 X s 638 447 m 15 X s 621 409 m 15 Y s 669 409 m 15 Y s 645 417 m20 693 467 m 28 Y s 693 510 m 29 Y s 669 503 m 17 X s 701 503 m 16 X s 686 467 m 15 X s 686 539 m 15 X s 669 495 m 15 Y s 717 495 m 15 Y s 693 503 m20 741 524 m 32 Y s
 741 571 m 32 Y s 717 563 m 17 X s 749 563 m 16 X s 734 524 m 15 X s 734 603 m 15 X s 717 556 m 15 Y s 765 556 m 15 Y s 741 563 m20 789 467 m 28 Y s 789 510 m 29 Y s 765 503 m 16 X s 797 503 m 16 X s 781 467 m 16 X s 781 539 m 16 X s 765 495 m 15 Y s
 813 495 m 15 Y s 789 503 m20 837 467 m 28 Y s 837 510 m 29 Y s 813 503 m 16 X s 845 503 m 16 X s 829 467 m 16 X s 829 539 m 16 X s 813 495 m 15 Y s 861 495 m 15 Y s 837 503 m20 885 487 m 30 Y s 885 532 m 30 Y s 861 524 m 16 X s 892 524 m 17 X s 877
 487 m 15 X s 877 562 m 15 X s 861 517 m 15 Y s 909 517 m 15 Y s 885 524 m20 933 455 m 27 Y s 933 498 m 27 Y s 909 490 m 16 X s 940 490 m 17 X s 925 455 m 15 X s 925 525 m 15 X s 909 482 m 16 Y s 957 482 m 16 Y s 933 490 m20 981 434 m 27 Y s 981 476
 m 26 Y s 957 468 m 16 X s 988 468 m 17 X s 973 434 m 15 X s 973 502 m 15 X s 957 461 m 15 Y s 1005 461 m 15 Y s 981 468 m20 1029 394 m 24 Y s 1029 433 m 23 Y s 1005 425 m 16 X s 1036 425 m 17 X s 1021 394 m 15 X s 1021 456 m 15 X s 1005 418 m 15 Y s
 1053 418 m 15 Y s 1029 425 m20 1076 430 m 26 Y s 1076 472 m 26 Y s 1053 464 m 16 X s 1084 464 m 16 X s 1069 430 m 15 X s 1069 498 m 15 X s 1053 456 m 16 Y s 1100 456 m 16 Y s 1076 464 m20 1124 414 m 25 Y s 1124 454 m 25 Y s 1100 447 m 17 X s 1132
 447 m 16 X s 1117 414 m 15 X s 1117 479 m 15 X s 1100 439 m 15 Y s 1148 439 m 15 Y s 1124 447 m20 1172 362 m 21 Y s 1172 398 m 21 Y s 1148 391 m 17 X s 1180 391 m 16 X s 1165 362 m 15 X s 1165 419 m 15 X s 1148 383 m 15 Y s 1196 383 m 15 Y s 1172
 391 m20 1220 386 m 23 Y s 1220 424 m 23 Y s 1196 417 m 17 X s 1228 417 m 16 X s 1213 386 m 15 X s 1213 447 m 15 X s 1196 409 m 15 Y s 1244 409 m 15 Y s 1220 417 m20 1268 370 m 22 Y s 1268 407 m 22 Y s 1244 399 m 16 X s 1276 399 m 16 X s 1260 370 m
 16 X s 1260 429 m 16 X s 1244 392 m 15 Y s 1292 392 m 15 Y s 1268 399 m20 1316 378 m 22 Y s 1316 416 m 22 Y s 1292 408 m 16 X s 1324 408 m 16 X s 1308 378 m 16 X s 1308 438 m 16 X s 1292 400 m 16 Y s 1340 400 m 16 Y s 1316 408 m20 1364 346 m 20 Y s
 1364 381 m 20 Y s 1340 374 m 16 X s 1371 374 m 17 X s 1356 346 m 15 X s 1356 401 m 15 X s 1340 366 m 15 Y s 1388 366 m 15 Y s 1364 374 m20 1412 390 m 23 Y s 1412 429 m 23 Y s 1388 421 m 16 X s 1419 421 m 17 X s 1404 390 m 15 X s 1404 452 m 15 X s
 1388 413 m 16 Y s 1436 413 m 16 Y s 1412 421 m20 1460 342 m 20 Y s 1460 377 m 19 Y s 1436 369 m 16 X s 1467 369 m 17 X s 1452 342 m 15 X s 1452 396 m 15 X s 1436 362 m 15 Y s 1484 362 m 15 Y s 1460 369 m20 1508 326 m 18 Y s 1508 360 m 17 Y s 1484
 352 m 16 X s 1515 352 m 17 X s 1500 326 m 15 X s 1500 377 m 15 X s 1484 344 m 16 Y s 1532 344 m 16 Y s 1508 352 m20 1556 295 m 15 Y s 1556 325 m 15 Y s 1532 318 m 16 X s 1563 318 m 16 X s 1548 295 m 15 X s 1548 340 m 15 X s 1532 310 m 15 Y s 1579
 310 m 15 Y s 1556 318 m20 1603 326 m 18 Y s 1603 360 m 17 Y s 1579 352 m 17 X s 1611 352 m 16 X s 1596 326 m 15 X s 1596 377 m 15 X s 1579 344 m 16 Y s 1627 344 m 16 Y s 1603 352 m20 1651 323 m 17 Y s 1651 355 m 18 Y s 1627 348 m 17 X s 1659 348 m
 16 X s 1644 323 m 15 X s 1644 373 m 15 X s 1627 340 m 15 Y s 1675 340 m 15 Y s 1651 348 m20 1699 291 m 15 Y s 1699 321 m 14 Y s 1675 313 m 17 X s 1707 313 m 16 X s 1692 291 m 15 X s 1692 335 m 15 X s 1675 306 m 15 Y s 1723 306 m 15 Y s 1699 313 m20
 1747 283 m 14 Y s 1747 312 m 14 Y s 1723 305 m 17 X s 1755 305 m 16 X s 1740 283 m 15 X s 1740 326 m 15 X s 1723 297 m 15 Y s 1771 297 m 15 Y s 1747 305 m20 1795 245 m 9 Y s 1795 269 m 9 Y s 1771 261 m 16 X s 1803 261 m 16 X s 1787 245 m 16 X s 1787
 278 m 16 X s 1771 254 m 15 Y s 1819 254 m 15 Y s 1795 261 m20 1843 319 m 17 Y s 1843 351 m 17 Y s 1819 343 m 16 X s 1851 343 m 16 X s 1835 319 m 16 X s 1835 368 m 16 X s 1819 336 m 15 Y s 1867 336 m 15 Y s 1843 343 m20 1891 272 m 12 Y s 1891 299 m
 12 Y s 1867 292 m 16 X s 1898 292 m 17 X s 1883 272 m 15 X s 1883 311 m 15 X s 1867 284 m 15 Y s 1915 284 m 15 Y s 1891 292 m20 1939 276 m 12 Y s 1939 304 m 12 Y s 1915 296 m 16 X s 1946 296 m 17 X s 1931 276 m 15 X s 1931 316 m 15 X s 1915 288 m 16
 Y s 1963 288 m 16 Y s 1939 296 m20 1987 287 m 14 Y s 1987 316 m 14 Y s 1963 309 m 16 X s 1994 309 m 17 X s 1979 287 m 15 X s 1979 330 m 15 X s 1963 301 m 15 Y s 2011 301 m 15 Y s 1987 309 m20 2035 257 m 10 Y s 2035 282 m 10 Y s 2011 274 m 16 X s
 2042 274 m 17 X s 2027 257 m 15 X s 2027 292 m 15 X s 2011 267 m 15 Y s 2059 267 m 15 Y s 2035 274 m20 2082 234 m 7 Y s 2082 256 m 7 Y s 2059 249 m 16 X s 2090 249 m 16 X s 2075 234 m 15 X s 2075 263 m 15 X s 2059 241 m 15 Y s 2106 241 m 15 Y s 2082
 249 m20 2106 210 m 17 X s 2138 210 m 16 X s 2106 202 m 15 Y s 2154 202 m 15 Y s 2130 210 m20 black
 gsave  2268 1676 0 0 C 272.126 1240.34 t 0 r /Helvetica-Bold findfont 49.2982 sf 0 0 m (Kolmogorov\255Smirnov test: signal \(background\) probability =     0 \(0.137\)) show NC gr  238 201 m 1916 X s 406 244 m -43 Y s 447 222 m -21 Y s 489 222 m -21
 Y s 530 222 m -21 Y s 572 222 m -21 Y s 613 244 m -43 Y s 655 222 m -21 Y s 697 222 m -21 Y s 738 222 m -21 Y s 780 222 m -21 Y s 821 244 m -43 Y s 863 222 m -21 Y s 904 222 m -21 Y s 946 222 m -21 Y s 987 222 m -21 Y s 1029 244 m -43 Y s 1071 222 m
 -21 Y s 1112 222 m -21 Y s 1154 222 m -21 Y s 1195 222 m -21 Y s 1237 244 m -43 Y s 1278 222 m -21 Y s 1320 222 m -21 Y s 1362 222 m -21 Y s 1403 222 m -21 Y s 1445 244 m -43 Y s 1486 222 m -21 Y s 1528 222 m -21 Y s 1569 222 m -21 Y s 1611 222 m
 -21 Y s 1652 244 m -43 Y s 1694 222 m -21 Y s 1736 222 m -21 Y s 1777 222 m -21 Y s 1819 222 m -21 Y s 1860 244 m -43 Y s 1902 222 m -21 Y s 1943 222 m -21 Y s 1985 222 m -21 Y s 2027 222 m -21 Y s 2068 244 m -43 Y s 406 244 m -43 Y s 364 222 m -21
 Y s 322 222 m -21 Y s 281 222 m -21 Y s 239 222 m -21 Y s 2068 244 m -43 Y s 2110 222 m -21 Y s 2151 222 m -21 Y s 238 1509 m 1916 X s 406 1466 m 43 Y s 447 1487 m 22 Y s 489 1487 m 22 Y s 530 1487 m 22 Y s 572 1487 m 22 Y s 613 1466 m 43 Y s 655
 1487 m 22 Y s 697 1487 m 22 Y s 738 1487 m 22 Y s 780 1487 m 22 Y s 821 1466 m 43 Y s 863 1487 m 22 Y s 904 1487 m 22 Y s 946 1487 m 22 Y s 987 1487 m 22 Y s 1029 1466 m 43 Y s 1071 1487 m 22 Y s 1112 1487 m 22 Y s 1154 1487 m 22 Y s 1195 1487 m 22
 Y s 1237 1466 m 43 Y s 1278 1487 m 22 Y s 1320 1487 m 22 Y s 1362 1487 m 22 Y s 1403 1487 m 22 Y s 1445 1466 m 43 Y s 1486 1487 m 22 Y s 1528 1487 m 22 Y s 1569 1487 m 22 Y s 1611 1487 m 22 Y s 1652 1466 m 43 Y s 1694 1487 m 22 Y s 1736 1487 m 22 Y
 s 1777 1487 m 22 Y s 1819 1487 m 22 Y s 1860 1466 m 43 Y s 1902 1487 m 22 Y s 1943 1487 m 22 Y s 1985 1487 m 22 Y s 2027 1487 m 22 Y s 2068 1466 m 43 Y s 406 1466 m 43 Y s 364 1487 m 22 Y s 322 1487 m 22 Y s 281 1487 m 22 Y s 239 1487 m 22 Y s 2068
 1466 m 43 Y s 2110 1487 m 22 Y s 2151 1487 m 22 Y s 238 201 m 1308 Y s 291 201 m -53 X s 265 239 m -27 X s 265 278 m -27 X s 265 316 m -27 X s 265 354 m -27 X s 291 393 m -53 X s 265 431 m -27 X s 265 469 m -27 X s 265 507 m -27 X s 265 546 m -27 X
 s 291 584 m -53 X s 265 622 m -27 X s 265 661 m -27 X s 265 699 m -27 X s 265 737 m -27 X s 291 776 m -53 X s 265 814 m -27 X s 265 852 m -27 X s 265 890 m -27 X s 265 929 m -27 X s 291 967 m -53 X s 265 1005 m -27 X s 265 1044 m -27 X s 265 1082 m
 -27 X s 265 1120 m -27 X s 291 1158 m -53 X s 265 1197 m -27 X s 265 1235 m -27 X s 265 1273 m -27 X s 265 1312 m -27 X s 291 1350 m -53 X s 291 1350 m -53 X s 265 1388 m -27 X s 265 1427 m -27 X s 265 1465 m -27 X s 265 1503 m -27 X s 2154 201 m
 1308 Y s 2101 201 m 53 X s 2128 239 m 26 X s 2128 278 m 26 X s 2128 316 m 26 X s 2128 354 m 26 X s 2101 393 m 53 X s 2128 431 m 26 X s 2128 469 m 26 X s 2128 507 m 26 X s 2128 546 m 26 X s 2101 584 m 53 X s 2128 622 m 26 X s 2128 661 m 26 X s 2128
 699 m 26 X s 2128 737 m 26 X s 2101 776 m 53 X s 2128 814 m 26 X s 2128 852 m 26 X s 2128 890 m 26 X s 2128 929 m 26 X s 2101 967 m 53 X s 2128 1005 m 26 X s 2128 1044 m 26 X s 2128 1082 m 26 X s 2128 1120 m 26 X s 2101 1158 m 53 X s 2128 1197 m 26
 X s 2128 1235 m 26 X s 2128 1273 m 26 X s 2128 1312 m 26 X s 2101 1350 m 53 X s 2101 1350 m 53 X s 2128 1388 m 26 X s 2128 1427 m 26 X s 2128 1465 m 26 X s 2128 1503 m 26 X s
 gsave  2268 1676 0 0 C 2211.02 192.756 t 90 r /Helvetica-Bold findfont 45.506 sf 0 0 m (U/O\255flow \(S,B\): \(0.0, 0.0\)% / \(0.0, 0.0\)%) show NC gr  0.490196 0.545098 0.615686 c 0.364706 0.419608 0.490196 c 1587 96 23 1572 bf 0.490196 0.545098
 0.615686 c 23 1572 m 1587 X s 1610 1572 m 96 Y s 1610 1668 m -1587 X s 23 1668 m -96 Y s 1 1 1 c black 1 1 1 c
 gsave  2268 1676 0 0 C 94.8042 1604.09 t 0 r /Helvetica-Bold findfont 64.4669 sf 0 0 m (TMVA overtraining check for classifier: PDERS) show NC gr 
 gr  gr showpage
end
%%EOF
