%!PS-Adobe-2.0 EPSF-2.0
%%BoundingBox:  0 0 567 419
%%Title: DataSet/plots/overtrain_BDTG.eps: TMVA comparison BDTG
%%Creator: ROOT Version 6.08/06
%%CreationDate: Fri Jun  8 13:04:25 2018
%%DocumentNeededResources: ProcSet (FontSetInit)
%%EndComments
%%BeginProlog
80 dict begin
/s {stroke} def /l {lineto} def /m {moveto} def /t {translate} def
/r {rotate} def /rl {roll}  def /R {repeat} def
/d {rlineto} def /rm {rmoveto} def /gr {grestore} def /f {eofill} def
/c {setrgbcolor} def /black {0 setgray} def /sd {setdash} def
/cl {closepath} def /sf {scalefont setfont} def /lw {setlinewidth} def
/box {m dup 0 exch d exch 0 d 0 exch neg d cl} def
/NC{systemdict begin initclip end}def/C{NC box clip newpath}def
/bl {box s} def /bf {gsave box gsave f grestore 1 lw [] 0 sd s grestore} def /Y { 0 exch d} def /X { 0 d} def 
/K {{pop pop 0 moveto} exch kshow} bind def
/ita {/ang 15 def gsave [1 0 ang dup sin exch cos div 1 0 0] concat} def 
/mp {newpath /y exch def /x exch def} def
/side {[w .77 mul w .23 mul] .385 w mul sd w 0 l currentpoint t -144 r} def
/mr {mp x y w2 0 360 arc} def /m24 {mr s} def /m20 {mr f} def
/mb {mp x y w2 add m w2 neg 0 d 0 w neg d w 0 d 0 w d cl} def
/mt {mp x y w2 add m w2 neg w neg d w 0 d cl} def
/m21 {mb f} def /m25 {mb s} def /m22 {mt f} def /m26{mt s} def
/m23 {mp x y w2 sub m w2 w d w neg 0 d cl f} def
/m27 {mp x y w2 add m w3 neg w2 neg d w3 w2 neg d w3 w2 d cl s} def
/m28 {mp x w2 sub y w2 sub w3 add m w3 0 d  0 w3 neg d w3 0 d 0 w3 d w3 0 d  0 w3 d w3 neg 0 d 0 w3 d w3 neg 0 d 0 w3 neg d w3 neg 0 d cl s } def
/m29 {mp gsave x w2 sub y w2 add w3 sub m currentpoint t 4 {side} repeat cl fill gr} def
/m30 {mp gsave x w2 sub y w2 add w3 sub m currentpoint t 4 {side} repeat cl s gr} def
/m31 {mp x y w2 sub m 0 w d x w2 sub y m w 0 d x w2 sub y w2 add m w w neg d x w2 sub y w2 sub m w w d s} def
/m32 {mp x y w2 sub m w2 w d w neg 0 d cl s} def
/m33 {mp x y w2 add m w3 neg w2 neg d w3 w2 neg d w3 w2 d cl f} def
/m34 {mp x w2 sub y w2 sub w3 add m w3 0 d  0 w3 neg d w3 0 d 0 w3 d w3 0 d  0 w3 d w3 neg 0 d 0 w3 d w3 neg 0 d 0 w3 neg d w3 neg 0 d cl f } def
/m2 {mp x y w2 sub m 0 w d x w2 sub y m w 0 d s} def
/m5 {mp x w2 sub y w2 sub m w w d x w2 sub y w2 add m w w neg d s} def
%%IncludeResource: ProcSet (FontSetInit)
%%IncludeResource: font Times-Roman
%%IncludeResource: font Times-Italic
%%IncludeResource: font Times-Bold
%%IncludeResource: font Times-BoldItalic
%%IncludeResource: font Helvetica
%%IncludeResource: font Helvetica-Oblique
%%IncludeResource: font Helvetica-Bold
%%IncludeResource: font Helvetica-BoldOblique
%%IncludeResource: font Courier
%%IncludeResource: font Courier-Oblique
%%IncludeResource: font Courier-Bold
%%IncludeResource: font Courier-BoldOblique
%%IncludeResource: font Symbol
%%IncludeResource: font ZapfDingbats
/reEncode {exch findfont dup length dict begin {1 index /FID eq  {pop pop} {def} ifelse } forall /Encoding exch def currentdict end dup /FontName get exch definefont pop } def [/Times-Bold /Times-Italic /Times-BoldItalic /Helvetica /Helvetica-Oblique
 /Helvetica-Bold /Helvetica-BoldOblique /Courier /Courier-Oblique /Courier-Bold /Courier-BoldOblique /Times-Roman /AvantGarde-Book /AvantGarde-BookOblique /AvantGarde-Demi /AvantGarde-DemiOblique /Bookman-Demi /Bookman-DemiItalic /Bookman-Light
 /Bookman-LightItalic /Helvetica-Narrow /Helvetica-Narrow-Bold /Helvetica-Narrow-BoldOblique /Helvetica-Narrow-Oblique /NewCenturySchlbk-Roman /NewCenturySchlbk-Bold /NewCenturySchlbk-BoldItalic /NewCenturySchlbk-Italic /Palatino-Bold
 /Palatino-BoldItalic /Palatino-Italic /Palatino-Roman ] {ISOLatin1Encoding reEncode } forall
%%EndProlog
%%BeginSetup
%%EndSetup
newpath  gsave  .25 .25 scale  gsave  0 0 t 0.490196 0.545098 0.615686 c[  ] 0 sd 3 lw 1 1 1 c 2268 1676 0 0 bf black 1 1 1 c 1916 1308 238 201 bf black 1916 1308 238 201 bl 1 1 1 c 1916 1308 238 201 bf black 1916 1308 238 201 bl 238 201 m 1916 X s
 gsave  2268 1676 0 0 C 1607.88 30.3373 t 0 r /Helvetica-Bold findfont 72.0512 sf 0 0 m (BDTG response) show NC gr  430 244 m -43 Y s 478 222 m -21 Y s 526 222 m -21 Y s 573 222 m -21 Y s 621 244 m -43 Y s 669 222 m -21 Y s 717 222 m -21 Y s 765 222
 m -21 Y s 813 244 m -43 Y s 861 222 m -21 Y s 909 222 m -21 Y s 957 222 m -21 Y s 1005 244 m -43 Y s 1053 222 m -21 Y s 1101 222 m -21 Y s 1148 222 m -21 Y s 1196 244 m -43 Y s 1244 222 m -21 Y s 1292 222 m -21 Y s 1340 222 m -21 Y s 1388 244 m -43
 Y s 1436 222 m -21 Y s 1484 222 m -21 Y s 1532 222 m -21 Y s 1580 244 m -43 Y s 1628 222 m -21 Y s 1675 222 m -21 Y s 1723 222 m -21 Y s 1771 244 m -43 Y s 1819 222 m -21 Y s 1867 222 m -21 Y s 1915 222 m -21 Y s 1963 244 m -43 Y s 430 244 m -43 Y s
 382 222 m -21 Y s 334 222 m -21 Y s 286 222 m -21 Y s 1963 244 m -43 Y s 2011 222 m -21 Y s 2059 222 m -21 Y s 2107 222 m -21 Y s
 gsave  2268 1676 0 0 C 398.178 128.934 t 0 r /Helvetica-Bold findfont 64.4669 sf 0 0 m (0.8) show NC gr 
 gsave  2268 1676 0 0 C 364.048 128.934 t 0 r /Symbol findfont 64.4669 sf 0 0 m (-) show NC gr 
 gsave  2268 1676 0 0 C 587.786 128.934 t 0 r /Helvetica-Bold findfont 64.4669 sf 0 0 m (0.6) show NC gr 
 gsave  2268 1676 0 0 C 557.449 128.934 t 0 r /Symbol findfont 64.4669 sf 0 0 m (-) show NC gr 
 gsave  2268 1676 0 0 C 781.187 128.934 t 0 r /Helvetica-Bold findfont 64.4669 sf 0 0 m (0.4) show NC gr 
 gsave  2268 1676 0 0 C 747.057 128.934 t 0 r /Symbol findfont 64.4669 sf 0 0 m (-) show NC gr 
 gsave  2268 1676 0 0 C 970.795 128.934 t 0 r /Helvetica-Bold findfont 64.4669 sf 0 0 m (0.2) show NC gr 
 gsave  2268 1676 0 0 C 940.458 128.934 t 0 r /Symbol findfont 64.4669 sf 0 0 m (-) show NC gr 
 gsave  2268 1676 0 0 C 1175.57 128.934 t 0 r /Helvetica-Bold findfont 64.4669 sf 0 0 m (0) show NC gr 
 gsave  2268 1676 0 0 C 1342.43 128.934 t 0 r /Helvetica-Bold findfont 64.4669 sf 0 0 m (0.2) show NC gr 
 gsave  2268 1676 0 0 C 1532.04 128.934 t 0 r /Helvetica-Bold findfont 64.4669 sf 0 0 m (0.4) show NC gr 
 gsave  2268 1676 0 0 C 1725.44 128.934 t 0 r /Helvetica-Bold findfont 64.4669 sf 0 0 m (0.6) show NC gr 
 gsave  2268 1676 0 0 C 1915.04 128.934 t 0 r /Helvetica-Bold findfont 64.4669 sf 0 0 m (0.8) show NC gr  238 1509 m 1916 X s 430 1466 m 43 Y s 478 1487 m 22 Y s 526 1487 m 22 Y s 573 1487 m 22 Y s 621 1466 m 43 Y s 669 1487 m 22 Y s 717 1487 m 22 Y
 s 765 1487 m 22 Y s 813 1466 m 43 Y s 861 1487 m 22 Y s 909 1487 m 22 Y s 957 1487 m 22 Y s 1005 1466 m 43 Y s 1053 1487 m 22 Y s 1101 1487 m 22 Y s 1148 1487 m 22 Y s 1196 1466 m 43 Y s 1244 1487 m 22 Y s 1292 1487 m 22 Y s 1340 1487 m 22 Y s 1388
 1466 m 43 Y s 1436 1487 m 22 Y s 1484 1487 m 22 Y s 1532 1487 m 22 Y s 1580 1466 m 43 Y s 1628 1487 m 22 Y s 1675 1487 m 22 Y s 1723 1487 m 22 Y s 1771 1466 m 43 Y s 1819 1487 m 22 Y s 1867 1487 m 22 Y s 1915 1487 m 22 Y s 1963 1466 m 43 Y s 430
 1466 m 43 Y s 382 1487 m 22 Y s 334 1487 m 22 Y s 286 1487 m 22 Y s 1963 1466 m 43 Y s 2011 1487 m 22 Y s 2059 1487 m 22 Y s 2107 1487 m 22 Y s 238 201 m 1308 Y s
 gsave  2268 1676 0 0 C 64.4669 1425.86 t 90 r /Helvetica-Bold findfont 72.0512 sf 0 0 m (dx) show NC gr 
 gsave  2268 1676 0 0 C 30.3373 1406.89 t 90 r /Helvetica-Bold findfont 45.506 sf 0 0 m ( ) show NC gr 
 gsave  2268 1676 0 0 C 64.4669 1384.14 t 90 r /Helvetica-Bold findfont 72.0512 sf 0 0 m (/) show NC gr 
 gsave  2268 1676 0 0 C 30.3373 1365.18 t 90 r /Helvetica-Bold findfont 45.506 sf 0 0 m ( ) show NC gr 
 gsave  2268 1676 0 0 C 60.6747 1092.14 t 90 r /Helvetica-Bold findfont 72.0512 sf 0 0 m (\(1/N\) dN) show NC gr  291 201 m -53 X s 265 249 m -27 X s 265 297 m -27 X s 265 345 m -27 X s 291 392 m -53 X s 265 440 m -27 X s 265 488 m -27 X s 265 536 m
 -27 X s 291 584 m -53 X s 265 631 m -27 X s 265 679 m -27 X s 265 727 m -27 X s 291 775 m -53 X s 265 823 m -27 X s 265 870 m -27 X s 265 918 m -27 X s 291 966 m -53 X s 265 1014 m -27 X s 265 1062 m -27 X s 265 1109 m -27 X s 291 1157 m -53 X s 265
 1205 m -27 X s 265 1253 m -27 X s 265 1301 m -27 X s 291 1348 m -53 X s 291 1348 m -53 X s 265 1396 m -27 X s 265 1444 m -27 X s 265 1492 m -27 X s
 gsave  2268 1676 0 0 C 174.44 178.232 t 0 r /Helvetica-Bold findfont 64.4669 sf 0 0 m (0) show NC gr 
 gsave  2268 1676 0 0 C 174.44 367.84 t 0 r /Helvetica-Bold findfont 64.4669 sf 0 0 m (2) show NC gr 
 gsave  2268 1676 0 0 C 174.44 557.449 t 0 r /Helvetica-Bold findfont 64.4669 sf 0 0 m (4) show NC gr 
 gsave  2268 1676 0 0 C 174.44 750.849 t 0 r /Helvetica-Bold findfont 64.4669 sf 0 0 m (6) show NC gr 
 gsave  2268 1676 0 0 C 174.44 940.458 t 0 r /Helvetica-Bold findfont 64.4669 sf 0 0 m (8) show NC gr 
 gsave  2268 1676 0 0 C 136.518 1133.86 t 0 r /Helvetica-Bold findfont 64.4669 sf 0 0 m (10) show NC gr 
 gsave  2268 1676 0 0 C 136.518 1323.47 t 0 r /Helvetica-Bold findfont 64.4669 sf 0 0 m (12) show NC gr  2154 201 m 1308 Y s 2101 201 m 53 X s 2128 249 m 26 X s 2128 297 m 26 X s 2128 345 m 26 X s 2101 392 m 53 X s 2128 440 m 26 X s 2128 488 m 26 X s
 2128 536 m 26 X s 2101 584 m 53 X s 2128 631 m 26 X s 2128 679 m 26 X s 2128 727 m 26 X s 2101 775 m 53 X s 2128 823 m 26 X s 2128 870 m 26 X s 2128 918 m 26 X s 2101 966 m 53 X s 2128 1014 m 26 X s 2128 1062 m 26 X s 2128 1109 m 26 X s 2101 1157 m
 53 X s 2128 1205 m 26 X s 2128 1253 m 26 X s 2128 1301 m 26 X s 2101 1348 m 53 X s 2101 1348 m 53 X s 2128 1396 m 26 X s 2128 1444 m 26 X s 2128 1492 m 26 X s 0.490196 0.545098 0.615686 c 1 1 1 c 0.490196 0.545098 0.615686 c 907 202 238 1307 bl 238
 1307 m 907 X s 1145 1307 m 202 Y s 1145 1509 m -907 X s 238 1509 m -202 Y s black
 gsave  2268 1676 0 0 C 417.138 1437.23 t 0 r /Helvetica-Bold findfont 56.8825 sf 0 0 m (Signal \(test sample\)) show NC gr  0.49 0.6 0.82 c 265 1423 m 127 X 70 Y -127 X f 0 0 0.933333 c 265 1493 m 127 X s 265 1423 m 127 X s 392 1423 m 70 Y s 265
 1423 m 70 Y s black
 gsave  2268 1676 0 0 C 417.138 1338.64 t 0 r /Helvetica-Bold findfont 56.8825 sf 0 0 m (Background \(test sample\)) show NC gr  1 0 0 c 392 1354 m -32 -32 d s 383 1393 m -71 -71 d s 335 1393 m -70 -69 d s 286 1393 m -21 -21 d s 0 0 0.933333 c 1 0 0
 c 265 1393 m 127 X s 265 1322 m 127 X s 392 1322 m 71 Y s 265 1322 m 71 Y s 0 0 0.933333 c 0.49 0.6 0.82 c black 0.49 0.6 0.82 c 238 201 m 8 Y 48 X -6 Y 48 X 11 Y 48 X -3 Y 96 X -6 Y 48 X -2 Y 47 X 4 Y 48 X 4 Y 48 X -2 Y 48 X -2 Y 48 X 7 Y 48 X -3 Y
 48 X -2 Y 48 X 5 Y 96 X -7 Y 48 X 7 Y 143 X -5 Y 48 X 2 Y 48 X 3 Y 48 X -3 Y 48 X 17 Y 48 X -6 Y 48 X 2 Y 48 X -4 Y 47 X 12 Y 48 X -6 Y 48 X 10 Y 48 X -2 Y 48 X 4 Y 48 X 7 Y 48 X 14 Y 48 X 12 Y 48 X 52 Y 48 X 33 Y 48 X 114 Y 47 X 455 Y 48 X -724 Y f
 0 0 0.933333 c 0.49 0.6 0.82 c 0 0 0.933333 c 238 209 m 48 X -6 Y 48 X 11 Y 48 X -3 Y 96 X -6 Y 48 X -2 Y 47 X 4 Y 48 X 4 Y 48 X -2 Y 48 X -2 Y 48 X 7 Y 48 X -3 Y 48 X -2 Y 48 X 5 Y 96 X -7 Y 48 X 7 Y 143 X -5 Y 48 X 2 Y 48 X 3 Y 48 X -3 Y 48 X 17 Y
 48 X -6 Y 48 X 2 Y 48 X -4 Y 47 X 12 Y 48 X -6 Y 48 X 10 Y 48 X -2 Y 48 X 4 Y 48 X 7 Y 48 X 14 Y 48 X 12 Y 48 X 52 Y 48 X 33 Y 48 X 114 Y 47 X 455 Y 48 X -724 Y s 1 0 0 c black 1 0 0 c 2133 209 m -8 -8 d s 2089 213 m -12 -12 d s 2041 213 m -12 -12 d
 s 2005 225 m -24 -24 d s 1953 221 m -20 -20 d s 1889 205 m -4 -4 d s 1849 213 m -12 -12 d s 1793 205 m -4 -4 d s 1752 213 m -11 -12 d s 1700 209 m -8 -8 d s 1656 213 m -12 -12 d s 1600 205 m -4 -4 d s 1564 217 m -16 -16 d s 1516 217 m -16 -16 d s
 1456 205 m -4 -4 d s 1408 205 m -4 -4 d s 1364 209 m -8 -8 d s 1320 213 m -12 -12 d s 1263 205 m -4 -4 d s 1215 205 m -4 -4 d s 1187 225 m -24 -24 d s 1127 213 m -12 -12 d s 1091 225 m -24 -24 d s 1031 213 m -12 -12 d s 983 213 m -12 -12 d s 927 205
 m -4 -4 d s 899 225 m -24 -24 d s 850 225 m -23 -24 d s 798 221 m -20 -20 d s 738 209 m -8 -8 d s 690 209 m -8 -8 d s 646 213 m -12 -12 d s 621 237 m -35 -36 d s 586 249 m -13 -12 d s 570 233 m -32 -32 d s 526 237 m -36 -36 d s 506 265 m -64 -64 d s
 445 253 m -51 -52 d s 413 269 m -68 -68 d s 382 286 m -85 -85 d s 361 313 m -112 -112 d s 334 334 m -96 -96 d s 325 373 m -87 -87 d s 286 382 m -48 -48 d s 286 430 m -48 -48 d s 286 478 m -48 -47 d s 286 527 m -48 -48 d s 286 575 m -48 -48 d s 286
 623 m -48 -48 d s 286 671 m -48 -48 d s 286 719 m -48 -48 d s 286 767 m -48 -48 d s 286 815 m -48 -48 d s 286 863 m -48 -48 d s 286 911 m -48 -48 d s 286 959 m -48 -47 d s 286 1008 m -48 -48 d s 286 1056 m -48 -48 d s 286 1104 m -48 -48 d s 286 1152
 m -48 -48 d s 269 1183 m -31 -31 d s 238 1183 m 48 X -810 Y 48 X -60 Y 48 X -44 Y 48 X -16 Y 48 X 12 Y 48 X -32 Y 47 X 16 Y 48 X -36 Y 48 X -4 Y 96 X 12 Y 48 X 4 Y 96 X -20 Y 48 X 8 Y 96 X 12 Y 47 X -12 Y 48 X 12 Y 48 X -20 Y 96 X 8 Y 48 X -4 Y 48 X
 -4 Y 96 X 12 Y 95 X -12 Y 48 X 8 Y 48 X -4 Y 48 X 4 Y 48 X -8 Y 48 X 8 Y 48 X -8 Y 48 X 16 Y 48 X 4 Y 48 X -12 Y 95 X -4 Y 48 X -8 Y s 0.490196 0.545098 0.615686 c 1 1 1 c 0.490196 0.545098 0.615686 c 952 202 1202 1307 bl 1202 1307 m 952 X s 2154
 1307 m 202 Y s 2154 1509 m -952 X s 1202 1509 m -202 Y s black
 gsave  2268 1676 0 0 C 1296.92 1437.23 t 0 r /Helvetica-Bold findfont 56.8825 sf 0 0 m (Signal \(training sample\)) show NC gr  0 0 0.933333 c /w 21 def /w2 {w 2 div} def /w3 {w 3 div} def 1250 1458 m20 black
 gsave  2268 1676 0 0 C 1296.92 1338.64 t 0 r /Helvetica-Bold findfont 56.8825 sf 0 0 m (Background \(training sample\)) show NC gr  1 0 0 c 1250 1358 m20 0 0 0.933333 c 1 1 1 c 0 0 0.933333 c 238 202 m 16 X s 270 202 m 16 X s 238 195 m 15 Y s 286
 195 m 15 Y s 262 202 m20 286 203 m 16 X s 318 203 m 16 X s 286 196 m 15 Y s 334 196 m 15 Y s 310 203 m20 334 204 m 16 X s 365 204 m 17 X s 334 196 m 15 Y s 382 196 m 15 Y s 358 204 m20 382 203 m 16 X s 413 203 m 17 X s 382 195 m 15 Y s 430 195 m 15
 Y s 406 203 m20 430 206 m 16 X s 461 206 m 17 X s 430 198 m 16 Y s 478 198 m 16 Y s 454 206 m20 478 207 m 16 X s 509 207 m 17 X s 478 199 m 15 Y s 526 199 m 15 Y s 502 207 m20 526 206 m 16 X s 557 206 m 16 X s 526 198 m 15 Y s 573 198 m 15 Y s 549
 206 m20 573 207 m 17 X s 605 207 m 16 X s 573 199 m 16 Y s 621 199 m 16 Y s 597 207 m20 621 204 m 17 X s 653 204 m 16 X s 621 196 m 15 Y s 669 196 m 15 Y s 645 204 m20 669 206 m 17 X s 701 206 m 16 X s 669 198 m 15 Y s 717 198 m 15 Y s 693 206 m20
 717 208 m 17 X s 749 208 m 16 X s 717 201 m 15 Y s 765 201 m 15 Y s 741 208 m20 765 208 m 16 X s 797 208 m 16 X s 765 200 m 16 Y s 813 200 m 16 Y s 789 208 m20 813 207 m 16 X s 845 207 m 16 X s 813 199 m 15 Y s 861 199 m 15 Y s 837 207 m20 861 206 m
 16 X s 892 206 m 17 X s 861 198 m 16 Y s 909 198 m 16 Y s 885 206 m20 909 208 m 16 X s 940 208 m 17 X s 909 200 m 15 Y s 957 200 m 15 Y s 933 208 m20 957 208 m 16 X s 988 208 m 17 X s 957 200 m 15 Y s 1005 200 m 15 Y s 981 208 m20 1005 213 m 16 X s
 1036 213 m 17 X s 1005 205 m 16 Y s 1053 205 m 16 Y s 1029 213 m20 1053 209 m 16 X s 1084 209 m 16 X s 1053 202 m 15 Y s 1100 202 m 15 Y s 1076 209 m20 1100 210 m 17 X s 1132 210 m 16 X s 1100 202 m 16 Y s 1148 202 m 16 Y s 1124 210 m20 1148 212 m
 17 X s 1180 212 m 16 X s 1148 204 m 16 Y s 1196 204 m 16 Y s 1172 212 m20 1196 212 m 17 X s 1228 212 m 16 X s 1196 205 m 15 Y s 1244 205 m 15 Y s 1220 212 m20 1244 212 m 16 X s 1276 212 m 16 X s 1244 205 m 15 Y s 1292 205 m 15 Y s 1268 212 m20 1292
 213 m 16 X s 1324 213 m 16 X s 1292 205 m 16 Y s 1340 205 m 16 Y s 1316 213 m20 1340 215 m 16 X s 1371 215 m 17 X s 1340 208 m 15 Y s 1388 208 m 15 Y s 1364 215 m20 1388 215 m 16 X s 1419 215 m 17 X s 1388 207 m 15 Y s 1436 207 m 15 Y s 1412 215 m20
 1436 211 m 16 X s 1467 211 m 17 X s 1436 204 m 15 Y s 1484 204 m 15 Y s 1460 211 m20 1484 227 m 16 X s 1515 227 m 17 X s 1484 219 m 15 Y s 1532 219 m 15 Y s 1508 227 m20 1532 226 m 16 X s 1563 226 m 16 X s 1532 218 m 15 Y s 1579 218 m 15 Y s 1556
 226 m20 1579 222 m 17 X s 1611 222 m 16 X s 1579 215 m 15 Y s 1627 215 m 15 Y s 1603 222 m20 1627 229 m 17 X s 1659 229 m 16 X s 1627 221 m 15 Y s 1675 221 m 15 Y s 1651 229 m20 1675 232 m 17 X s 1707 232 m 16 X s 1675 224 m 15 Y s 1723 224 m 15 Y s
 1699 232 m20 1723 229 m 17 X s 1755 229 m 16 X s 1723 222 m 15 Y s 1771 222 m 15 Y s 1747 229 m20 1771 237 m 16 X s 1803 237 m 16 X s 1771 229 m 16 Y s 1819 229 m 16 Y s 1795 237 m20 1819 262 m 16 X s 1851 262 m 16 X s 1819 254 m 15 Y s 1867 254 m
 15 Y s 1843 262 m20 1867 264 m 16 X s 1898 264 m 17 X s 1867 256 m 16 Y s 1915 256 m 16 Y s 1891 264 m20 1915 289 m 16 X s 1946 289 m 17 X s 1915 282 m 15 Y s 1963 282 m 15 Y s 1939 289 m20 1963 310 m 16 X s 1994 310 m 17 X s 1963 302 m 15 Y s 2011
 302 m 15 Y s 1987 310 m20 2035 357 m 1 Y s 2035 373 m 2 Y s 2011 366 m 16 X s 2042 366 m 17 X s 2027 357 m 15 X s 2027 375 m 15 X s 2011 358 m 15 Y s 2059 358 m 15 Y s 2035 366 m20 2082 475 m 4 Y s 2082 494 m 5 Y s 2059 487 m 16 X s 2090 487 m 16 X
 s 2075 475 m 15 X s 2075 499 m 15 X s 2059 479 m 15 Y s 2106 479 m 15 Y s 2082 487 m20 2130 947 m 12 Y s 2130 974 m 12 Y s 2106 966 m 17 X s 2138 966 m 16 X s 2123 947 m 15 X s 2123 986 m 15 X s 2106 959 m 15 Y s 2154 959 m 15 Y s 2130 966 m20 1 0 0
 c 1 1 1 c 1 0 0 c 262 1175 m 24 Y s 262 1214 m 24 Y s 238 1207 m 16 X s 270 1207 m 16 X s 254 1175 m 16 X s 254 1238 m 16 X s 238 1199 m 15 Y s 286 1199 m 15 Y s 262 1207 m20 310 377 m 7 Y s 310 399 m 6 Y s 286 391 m 16 X s 318 391 m 16 X s 302 377
 m 16 X s 302 405 m 16 X s 286 384 m 15 Y s 334 384 m 15 Y s 310 391 m20 358 304 m 3 Y s 358 323 m 3 Y s 334 315 m 16 X s 365 315 m 17 X s 350 304 m 15 X s 350 326 m 15 X s 334 307 m 16 Y s 382 307 m 16 Y s 358 315 m20 406 264 m 1 Y s 406 280 m 1 Y s
 382 272 m 16 X s 413 272 m 17 X s 398 264 m 15 X s 398 281 m 15 X s 382 265 m 15 Y s 430 265 m 15 Y s 406 272 m20 454 256 m s 454 271 m s 430 263 m 16 X s 461 263 m 17 X s 446 256 m 15 X s 446 271 m 15 X s 430 256 m 15 Y s 478 256 m 15 Y s 454 263
 m20 478 236 m 16 X s 509 236 m 17 X s 478 228 m 15 Y s 526 228 m 15 Y s 502 236 m20 526 234 m 16 X s 557 234 m 16 X s 526 226 m 15 Y s 573 226 m 15 Y s 549 234 m20 573 226 m 17 X s 605 226 m 16 X s 573 218 m 15 Y s 621 218 m 15 Y s 597 226 m20 621
 229 m 17 X s 653 229 m 16 X s 621 221 m 15 Y s 669 221 m 15 Y s 645 229 m20 669 219 m 17 X s 701 219 m 16 X s 669 211 m 16 Y s 717 211 m 16 Y s 693 219 m20 717 225 m 17 X s 749 225 m 16 X s 717 217 m 15 Y s 765 217 m 15 Y s 741 225 m20 765 220 m 16
 X s 797 220 m 16 X s 765 212 m 16 Y s 813 212 m 16 Y s 789 220 m20 813 223 m 16 X s 845 223 m 16 X s 813 215 m 15 Y s 861 215 m 15 Y s 837 223 m20 861 223 m 16 X s 892 223 m 17 X s 861 215 m 15 Y s 909 215 m 15 Y s 885 223 m20 909 216 m 16 X s 940
 216 m 17 X s 909 208 m 16 Y s 957 208 m 16 Y s 933 216 m20 957 216 m 16 X s 988 216 m 17 X s 957 208 m 16 Y s 1005 208 m 16 Y s 981 216 m20 1005 219 m 16 X s 1036 219 m 17 X s 1005 211 m 16 Y s 1053 211 m 16 Y s 1029 219 m20 1053 217 m 16 X s 1084
 217 m 16 X s 1053 209 m 16 Y s 1100 209 m 16 Y s 1076 217 m20 1100 209 m 17 X s 1132 209 m 16 X s 1100 201 m 16 Y s 1148 201 m 16 Y s 1124 209 m20 1148 212 m 17 X s 1180 212 m 16 X s 1148 204 m 16 Y s 1196 204 m 16 Y s 1172 212 m20 1196 214 m 17 X s
 1228 214 m 16 X s 1196 206 m 16 Y s 1244 206 m 16 Y s 1220 214 m20 1244 212 m 16 X s 1276 212 m 16 X s 1244 204 m 16 Y s 1292 204 m 16 Y s 1268 212 m20 1292 213 m 16 X s 1324 213 m 16 X s 1292 205 m 16 Y s 1340 205 m 16 Y s 1316 213 m20 1340 213 m
 16 X s 1371 213 m 17 X s 1340 205 m 16 Y s 1388 205 m 16 Y s 1364 213 m20 1388 210 m 16 X s 1419 210 m 17 X s 1388 202 m 16 Y s 1436 202 m 16 Y s 1412 210 m20 1436 206 m 16 X s 1467 206 m 17 X s 1436 199 m 15 Y s 1484 199 m 15 Y s 1460 206 m20 1484
 214 m 16 X s 1515 214 m 17 X s 1484 206 m 16 Y s 1532 206 m 16 Y s 1508 214 m20 1532 209 m 16 X s 1563 209 m 16 X s 1532 201 m 16 Y s 1579 201 m 16 Y s 1556 209 m20 1579 209 m 17 X s 1611 209 m 16 X s 1579 201 m 16 Y s 1627 201 m 16 Y s 1603 209 m20
 1627 207 m 17 X s 1659 207 m 16 X s 1627 199 m 16 Y s 1675 199 m 16 Y s 1651 207 m20 1675 211 m 17 X s 1707 211 m 16 X s 1675 203 m 16 Y s 1723 203 m 16 Y s 1699 211 m20 1723 207 m 17 X s 1755 207 m 16 X s 1723 199 m 16 Y s 1771 199 m 16 Y s 1747
 207 m20 1771 215 m 16 X s 1803 215 m 16 X s 1771 207 m 16 Y s 1819 207 m 16 Y s 1795 215 m20 1819 207 m 16 X s 1851 207 m 16 X s 1819 199 m 16 Y s 1867 199 m 16 Y s 1843 207 m20 1867 205 m 16 X s 1898 205 m 17 X s 1867 198 m 15 Y s 1915 198 m 15 Y s
 1891 205 m20 1915 206 m 16 X s 1946 206 m 17 X s 1915 199 m 15 Y s 1963 199 m 15 Y s 1939 206 m20 1963 207 m 16 X s 1994 207 m 17 X s 1963 199 m 16 Y s 2011 199 m 16 Y s 1987 207 m20 2011 207 m 16 X s 2042 207 m 17 X s 2011 199 m 16 Y s 2059 199 m
 16 Y s 2035 207 m20 2059 210 m 16 X s 2090 210 m 16 X s 2059 202 m 16 Y s 2106 202 m 16 Y s 2082 210 m20 2106 203 m 17 X s 2138 203 m 16 X s 2106 196 m 15 Y s 2154 196 m 15 Y s 2130 203 m20 black
 gsave  2268 1676 0 0 C 272.126 1240.34 t 0 r /Helvetica-Bold findfont 49.2982 sf 0 0 m (Kolmogorov\255Smirnov test: signal \(background\) probability =     0 \(0.013\)) show NC gr  238 201 m 1916 X s 430 244 m -43 Y s 478 222 m -21 Y s 526 222 m -21
 Y s 573 222 m -21 Y s 621 244 m -43 Y s 669 222 m -21 Y s 717 222 m -21 Y s 765 222 m -21 Y s 813 244 m -43 Y s 861 222 m -21 Y s 909 222 m -21 Y s 957 222 m -21 Y s 1005 244 m -43 Y s 1053 222 m -21 Y s 1101 222 m -21 Y s 1148 222 m -21 Y s 1196
 244 m -43 Y s 1244 222 m -21 Y s 1292 222 m -21 Y s 1340 222 m -21 Y s 1388 244 m -43 Y s 1436 222 m -21 Y s 1484 222 m -21 Y s 1532 222 m -21 Y s 1580 244 m -43 Y s 1628 222 m -21 Y s 1675 222 m -21 Y s 1723 222 m -21 Y s 1771 244 m -43 Y s 1819
 222 m -21 Y s 1867 222 m -21 Y s 1915 222 m -21 Y s 1963 244 m -43 Y s 430 244 m -43 Y s 382 222 m -21 Y s 334 222 m -21 Y s 286 222 m -21 Y s 1963 244 m -43 Y s 2011 222 m -21 Y s 2059 222 m -21 Y s 2107 222 m -21 Y s 238 1509 m 1916 X s 430 1466 m
 43 Y s 478 1487 m 22 Y s 526 1487 m 22 Y s 573 1487 m 22 Y s 621 1466 m 43 Y s 669 1487 m 22 Y s 717 1487 m 22 Y s 765 1487 m 22 Y s 813 1466 m 43 Y s 861 1487 m 22 Y s 909 1487 m 22 Y s 957 1487 m 22 Y s 1005 1466 m 43 Y s 1053 1487 m 22 Y s 1101
 1487 m 22 Y s 1148 1487 m 22 Y s 1196 1466 m 43 Y s 1244 1487 m 22 Y s 1292 1487 m 22 Y s 1340 1487 m 22 Y s 1388 1466 m 43 Y s 1436 1487 m 22 Y s 1484 1487 m 22 Y s 1532 1487 m 22 Y s 1580 1466 m 43 Y s 1628 1487 m 22 Y s 1675 1487 m 22 Y s 1723
 1487 m 22 Y s 1771 1466 m 43 Y s 1819 1487 m 22 Y s 1867 1487 m 22 Y s 1915 1487 m 22 Y s 1963 1466 m 43 Y s 430 1466 m 43 Y s 382 1487 m 22 Y s 334 1487 m 22 Y s 286 1487 m 22 Y s 1963 1466 m 43 Y s 2011 1487 m 22 Y s 2059 1487 m 22 Y s 2107 1487 m
 22 Y s 238 201 m 1308 Y s 291 201 m -53 X s 265 249 m -27 X s 265 297 m -27 X s 265 345 m -27 X s 291 392 m -53 X s 265 440 m -27 X s 265 488 m -27 X s 265 536 m -27 X s 291 584 m -53 X s 265 631 m -27 X s 265 679 m -27 X s 265 727 m -27 X s 291 775
 m -53 X s 265 823 m -27 X s 265 870 m -27 X s 265 918 m -27 X s 291 966 m -53 X s 265 1014 m -27 X s 265 1062 m -27 X s 265 1109 m -27 X s 291 1157 m -53 X s 265 1205 m -27 X s 265 1253 m -27 X s 265 1301 m -27 X s 291 1348 m -53 X s 291 1348 m -53
 X s 265 1396 m -27 X s 265 1444 m -27 X s 265 1492 m -27 X s 2154 201 m 1308 Y s 2101 201 m 53 X s 2128 249 m 26 X s 2128 297 m 26 X s 2128 345 m 26 X s 2101 392 m 53 X s 2128 440 m 26 X s 2128 488 m 26 X s 2128 536 m 26 X s 2101 584 m 53 X s 2128
 631 m 26 X s 2128 679 m 26 X s 2128 727 m 26 X s 2101 775 m 53 X s 2128 823 m 26 X s 2128 870 m 26 X s 2128 918 m 26 X s 2101 966 m 53 X s 2128 1014 m 26 X s 2128 1062 m 26 X s 2128 1109 m 26 X s 2101 1157 m 53 X s 2128 1205 m 26 X s 2128 1253 m 26
 X s 2128 1301 m 26 X s 2101 1348 m 53 X s 2101 1348 m 53 X s 2128 1396 m 26 X s 2128 1444 m 26 X s 2128 1492 m 26 X s
 gsave  2268 1676 0 0 C 2211.02 192.756 t 90 r /Helvetica-Bold findfont 45.506 sf 0 0 m (U/O\255flow \(S,B\): \(0.0, 0.0\)% / \(0.0, 0.0\)%) show NC gr  0.490196 0.545098 0.615686 c 0.364706 0.419608 0.490196 c 1587 96 23 1572 bf 0.490196 0.545098
 0.615686 c 23 1572 m 1587 X s 1610 1572 m 96 Y s 1610 1668 m -1587 X s 23 1668 m -96 Y s 1 1 1 c black 1 1 1 c
 gsave  2268 1676 0 0 C 75.8434 1600.29 t 0 r /Helvetica-Bold findfont 68.259 sf 0 0 m (TMVA overtraining check for classifier: BDTG) show NC gr 
 gr  gr showpage
end
%%EOF
