%!PS-Adobe-2.0 EPSF-2.0
%%BoundingBox:  0 0 567 419
%%Title: DataSet/plots/overtrain_BDTDe.eps: TMVA comparison BDTDe
%%Creator: ROOT Version 6.08/06
%%CreationDate: Fri Jun  8 13:04:25 2018
%%DocumentNeededResources: ProcSet (FontSetInit)
%%EndComments
%%BeginProlog
80 dict begin
/s {stroke} def /l {lineto} def /m {moveto} def /t {translate} def
/r {rotate} def /rl {roll}  def /R {repeat} def
/d {rlineto} def /rm {rmoveto} def /gr {grestore} def /f {eofill} def
/c {setrgbcolor} def /black {0 setgray} def /sd {setdash} def
/cl {closepath} def /sf {scalefont setfont} def /lw {setlinewidth} def
/box {m dup 0 exch d exch 0 d 0 exch neg d cl} def
/NC{systemdict begin initclip end}def/C{NC box clip newpath}def
/bl {box s} def /bf {gsave box gsave f grestore 1 lw [] 0 sd s grestore} def /Y { 0 exch d} def /X { 0 d} def 
/K {{pop pop 0 moveto} exch kshow} bind def
/ita {/ang 15 def gsave [1 0 ang dup sin exch cos div 1 0 0] concat} def 
/mp {newpath /y exch def /x exch def} def
/side {[w .77 mul w .23 mul] .385 w mul sd w 0 l currentpoint t -144 r} def
/mr {mp x y w2 0 360 arc} def /m24 {mr s} def /m20 {mr f} def
/mb {mp x y w2 add m w2 neg 0 d 0 w neg d w 0 d 0 w d cl} def
/mt {mp x y w2 add m w2 neg w neg d w 0 d cl} def
/m21 {mb f} def /m25 {mb s} def /m22 {mt f} def /m26{mt s} def
/m23 {mp x y w2 sub m w2 w d w neg 0 d cl f} def
/m27 {mp x y w2 add m w3 neg w2 neg d w3 w2 neg d w3 w2 d cl s} def
/m28 {mp x w2 sub y w2 sub w3 add m w3 0 d  0 w3 neg d w3 0 d 0 w3 d w3 0 d  0 w3 d w3 neg 0 d 0 w3 d w3 neg 0 d 0 w3 neg d w3 neg 0 d cl s } def
/m29 {mp gsave x w2 sub y w2 add w3 sub m currentpoint t 4 {side} repeat cl fill gr} def
/m30 {mp gsave x w2 sub y w2 add w3 sub m currentpoint t 4 {side} repeat cl s gr} def
/m31 {mp x y w2 sub m 0 w d x w2 sub y m w 0 d x w2 sub y w2 add m w w neg d x w2 sub y w2 sub m w w d s} def
/m32 {mp x y w2 sub m w2 w d w neg 0 d cl s} def
/m33 {mp x y w2 add m w3 neg w2 neg d w3 w2 neg d w3 w2 d cl f} def
/m34 {mp x w2 sub y w2 sub w3 add m w3 0 d  0 w3 neg d w3 0 d 0 w3 d w3 0 d  0 w3 d w3 neg 0 d 0 w3 d w3 neg 0 d 0 w3 neg d w3 neg 0 d cl f } def
/m2 {mp x y w2 sub m 0 w d x w2 sub y m w 0 d s} def
/m5 {mp x w2 sub y w2 sub m w w d x w2 sub y w2 add m w w neg d s} def
%%IncludeResource: ProcSet (FontSetInit)
%%IncludeResource: font Times-Roman
%%IncludeResource: font Times-Italic
%%IncludeResource: font Times-Bold
%%IncludeResource: font Times-BoldItalic
%%IncludeResource: font Helvetica
%%IncludeResource: font Helvetica-Oblique
%%IncludeResource: font Helvetica-Bold
%%IncludeResource: font Helvetica-BoldOblique
%%IncludeResource: font Courier
%%IncludeResource: font Courier-Oblique
%%IncludeResource: font Courier-Bold
%%IncludeResource: font Courier-BoldOblique
%%IncludeResource: font Symbol
%%IncludeResource: font ZapfDingbats
/reEncode {exch findfont dup length dict begin {1 index /FID eq  {pop pop} {def} ifelse } forall /Encoding exch def currentdict end dup /FontName get exch definefont pop } def [/Times-Bold /Times-Italic /Times-BoldItalic /Helvetica /Helvetica-Oblique
 /Helvetica-Bold /Helvetica-BoldOblique /Courier /Courier-Oblique /Courier-Bold /Courier-BoldOblique /Times-Roman /AvantGarde-Book /AvantGarde-BookOblique /AvantGarde-Demi /AvantGarde-DemiOblique /Bookman-Demi /Bookman-DemiItalic /Bookman-Light
 /Bookman-LightItalic /Helvetica-Narrow /Helvetica-Narrow-Bold /Helvetica-Narrow-BoldOblique /Helvetica-Narrow-Oblique /NewCenturySchlbk-Roman /NewCenturySchlbk-Bold /NewCenturySchlbk-BoldItalic /NewCenturySchlbk-Italic /Palatino-Bold
 /Palatino-BoldItalic /Palatino-Italic /Palatino-Roman ] {ISOLatin1Encoding reEncode } forall
%%EndProlog
%%BeginSetup
%%EndSetup
newpath  gsave  .25 .25 scale  gsave  0 0 t 0.490196 0.545098 0.615686 c[  ] 0 sd 3 lw 1 1 1 c 2268 1676 0 0 bf black 1 1 1 c 1916 1308 238 201 bf black 1916 1308 238 201 bl 1 1 1 c 1916 1308 238 201 bf black 1916 1308 238 201 bl 238 201 m 1916 X s
 gsave  2268 1676 0 0 C 1573.75 34.1295 t 0 r /Helvetica-Bold findfont 72.0512 sf 0 0 m (BDTDe response) show NC gr  401 244 m -43 Y s 445 222 m -21 Y s 489 222 m -21 Y s 533 222 m -21 Y s 577 222 m -21 Y s 620 244 m -43 Y s 664 222 m -21 Y s 708 222
 m -21 Y s 752 222 m -21 Y s 795 222 m -21 Y s 839 244 m -43 Y s 883 222 m -21 Y s 927 222 m -21 Y s 971 222 m -21 Y s 1014 222 m -21 Y s 1058 244 m -43 Y s 1102 222 m -21 Y s 1146 222 m -21 Y s 1189 222 m -21 Y s 1233 222 m -21 Y s 1277 244 m -43 Y
 s 1321 222 m -21 Y s 1365 222 m -21 Y s 1408 222 m -21 Y s 1452 222 m -21 Y s 1496 244 m -43 Y s 1540 222 m -21 Y s 1583 222 m -21 Y s 1627 222 m -21 Y s 1671 222 m -21 Y s 1715 244 m -43 Y s 1759 222 m -21 Y s 1802 222 m -21 Y s 1846 222 m -21 Y s
 1890 222 m -21 Y s 1934 244 m -43 Y s 1977 222 m -21 Y s 2021 222 m -21 Y s 2065 222 m -21 Y s 2109 222 m -21 Y s 2153 244 m -43 Y s 401 244 m -43 Y s 358 222 m -21 Y s 314 222 m -21 Y s 270 222 m -21 Y s 2153 244 m -43 Y s
 gsave  2268 1676 0 0 C 367.84 128.934 t 0 r /Helvetica-Bold findfont 64.4669 sf 0 0 m (0.4) show NC gr 
 gsave  2268 1676 0 0 C 333.711 128.934 t 0 r /Symbol findfont 64.4669 sf 0 0 m (-) show NC gr 
 gsave  2268 1676 0 0 C 587.786 128.934 t 0 r /Helvetica-Bold findfont 64.4669 sf 0 0 m (0.3) show NC gr 
 gsave  2268 1676 0 0 C 557.449 128.934 t 0 r /Symbol findfont 64.4669 sf 0 0 m (-) show NC gr 
 gsave  2268 1676 0 0 C 807.732 128.934 t 0 r /Helvetica-Bold findfont 64.4669 sf 0 0 m (0.2) show NC gr 
 gsave  2268 1676 0 0 C 777.394 128.934 t 0 r /Symbol findfont 64.4669 sf 0 0 m (-) show NC gr 
 gsave  2268 1676 0 0 C 1031.47 128.934 t 0 r /Helvetica-Bold findfont 64.4669 sf 0 0 m (0.1) show NC gr 
 gsave  2268 1676 0 0 C 1001.13 128.934 t 0 r /Symbol findfont 64.4669 sf 0 0 m (-) show NC gr 
 gsave  2268 1676 0 0 C 1255.21 128.934 t 0 r /Helvetica-Bold findfont 64.4669 sf 0 0 m (0) show NC gr 
 gsave  2268 1676 0 0 C 1452.4 128.934 t 0 r /Helvetica-Bold findfont 64.4669 sf 0 0 m (0.1) show NC gr 
 gsave  2268 1676 0 0 C 1668.55 128.934 t 0 r /Helvetica-Bold findfont 64.4669 sf 0 0 m (0.2) show NC gr 
 gsave  2268 1676 0 0 C 1884.71 128.934 t 0 r /Helvetica-Bold findfont 64.4669 sf 0 0 m (0.3) show NC gr 
 gsave  2268 1676 0 0 C 2104.65 128.934 t 0 r /Helvetica-Bold findfont 64.4669 sf 0 0 m (0.4) show NC gr  238 1509 m 1916 X s 401 1466 m 43 Y s 445 1487 m 22 Y s 489 1487 m 22 Y s 533 1487 m 22 Y s 577 1487 m 22 Y s 620 1466 m 43 Y s 664 1487 m 22 Y
 s 708 1487 m 22 Y s 752 1487 m 22 Y s 795 1487 m 22 Y s 839 1466 m 43 Y s 883 1487 m 22 Y s 927 1487 m 22 Y s 971 1487 m 22 Y s 1014 1487 m 22 Y s 1058 1466 m 43 Y s 1102 1487 m 22 Y s 1146 1487 m 22 Y s 1189 1487 m 22 Y s 1233 1487 m 22 Y s 1277
 1466 m 43 Y s 1321 1487 m 22 Y s 1365 1487 m 22 Y s 1408 1487 m 22 Y s 1452 1487 m 22 Y s 1496 1466 m 43 Y s 1540 1487 m 22 Y s 1583 1487 m 22 Y s 1627 1487 m 22 Y s 1671 1487 m 22 Y s 1715 1466 m 43 Y s 1759 1487 m 22 Y s 1802 1487 m 22 Y s 1846
 1487 m 22 Y s 1890 1487 m 22 Y s 1934 1466 m 43 Y s 1977 1487 m 22 Y s 2021 1487 m 22 Y s 2065 1487 m 22 Y s 2109 1487 m 22 Y s 2153 1466 m 43 Y s 401 1466 m 43 Y s 358 1487 m 22 Y s 314 1487 m 22 Y s 270 1487 m 22 Y s 2153 1466 m 43 Y s 238 201 m
 1308 Y s
 gsave  2268 1676 0 0 C 64.4669 1425.86 t 90 r /Helvetica-Bold findfont 72.0512 sf 0 0 m (dx) show NC gr 
 gsave  2268 1676 0 0 C 30.3373 1406.89 t 90 r /Helvetica-Bold findfont 45.506 sf 0 0 m ( ) show NC gr 
 gsave  2268 1676 0 0 C 64.4669 1384.14 t 90 r /Helvetica-Bold findfont 72.0512 sf 0 0 m (/) show NC gr 
 gsave  2268 1676 0 0 C 30.3373 1365.18 t 90 r /Helvetica-Bold findfont 45.506 sf 0 0 m ( ) show NC gr 
 gsave  2268 1676 0 0 C 60.6747 1092.14 t 90 r /Helvetica-Bold findfont 72.0512 sf 0 0 m (\(1/N\) dN) show NC gr  291 201 m -53 X s 265 241 m -27 X s 265 281 m -27 X s 265 321 m -27 X s 265 361 m -27 X s 291 401 m -53 X s 265 441 m -27 X s 265 481 m
 -27 X s 265 520 m -27 X s 265 560 m -27 X s 291 600 m -53 X s 265 640 m -27 X s 265 680 m -27 X s 265 720 m -27 X s 265 760 m -27 X s 291 800 m -53 X s 265 840 m -27 X s 265 880 m -27 X s 265 920 m -27 X s 265 960 m -27 X s 291 1000 m -53 X s 265
 1039 m -27 X s 265 1079 m -27 X s 265 1119 m -27 X s 265 1159 m -27 X s 291 1199 m -53 X s 265 1239 m -27 X s 265 1279 m -27 X s 265 1319 m -27 X s 265 1359 m -27 X s 291 1399 m -53 X s 291 1399 m -53 X s 265 1439 m -27 X s 265 1479 m -27 X s
 gsave  2268 1676 0 0 C 174.44 178.232 t 0 r /Helvetica-Bold findfont 64.4669 sf 0 0 m (0) show NC gr 
 gsave  2268 1676 0 0 C 182.024 375.425 t 0 r /Helvetica-Bold findfont 64.4669 sf 0 0 m (1) show NC gr 
 gsave  2268 1676 0 0 C 174.44 576.41 t 0 r /Helvetica-Bold findfont 64.4669 sf 0 0 m (2) show NC gr 
 gsave  2268 1676 0 0 C 174.44 773.602 t 0 r /Helvetica-Bold findfont 64.4669 sf 0 0 m (3) show NC gr 
 gsave  2268 1676 0 0 C 174.44 974.587 t 0 r /Helvetica-Bold findfont 64.4669 sf 0 0 m (4) show NC gr 
 gsave  2268 1676 0 0 C 174.44 1175.57 t 0 r /Helvetica-Bold findfont 64.4669 sf 0 0 m (5) show NC gr 
 gsave  2268 1676 0 0 C 174.44 1372.76 t 0 r /Helvetica-Bold findfont 64.4669 sf 0 0 m (6) show NC gr  2154 201 m 1308 Y s 2101 201 m 53 X s 2128 241 m 26 X s 2128 281 m 26 X s 2128 321 m 26 X s 2128 361 m 26 X s 2101 401 m 53 X s 2128 441 m 26 X s
 2128 481 m 26 X s 2128 520 m 26 X s 2128 560 m 26 X s 2101 600 m 53 X s 2128 640 m 26 X s 2128 680 m 26 X s 2128 720 m 26 X s 2128 760 m 26 X s 2101 800 m 53 X s 2128 840 m 26 X s 2128 880 m 26 X s 2128 920 m 26 X s 2128 960 m 26 X s 2101 1000 m 53
 X s 2128 1039 m 26 X s 2128 1079 m 26 X s 2128 1119 m 26 X s 2128 1159 m 26 X s 2101 1199 m 53 X s 2128 1239 m 26 X s 2128 1279 m 26 X s 2128 1319 m 26 X s 2128 1359 m 26 X s 2101 1399 m 53 X s 2101 1399 m 53 X s 2128 1439 m 26 X s 2128 1479 m 26 X
 s 0.490196 0.545098 0.615686 c 1 1 1 c 0.490196 0.545098 0.615686 c 907 202 238 1307 bl 238 1307 m 907 X s 1145 1307 m 202 Y s 1145 1509 m -907 X s 238 1509 m -202 Y s black
 gsave  2268 1676 0 0 C 417.138 1437.23 t 0 r /Helvetica-Bold findfont 56.8825 sf 0 0 m (Signal \(test sample\)) show NC gr  0.49 0.6 0.82 c 265 1423 m 127 X 70 Y -127 X f 0 0 0.933333 c 265 1493 m 127 X s 265 1423 m 127 X s 392 1423 m 70 Y s 265
 1423 m 70 Y s black
 gsave  2268 1676 0 0 C 417.138 1338.64 t 0 r /Helvetica-Bold findfont 56.8825 sf 0 0 m (Background \(test sample\)) show NC gr  1 0 0 c 392 1354 m -32 -32 d s 383 1393 m -71 -71 d s 335 1393 m -70 -69 d s 286 1393 m -21 -21 d s 0 0 0.933333 c 1 0 0
 c 265 1393 m 127 X s 265 1322 m 127 X s 392 1322 m 71 Y s 265 1322 m 71 Y s 0 0 0.933333 c 0.49 0.6 0.82 c black 0.49 0.6 0.82 c 238 201 m 431 X 10 Y 48 X -10 Y 144 X 10 Y 144 X 39 Y 48 X -29 Y 47 X 59 Y 48 X 20 Y 48 X 59 Y 48 X -59 Y 48 X 88 Y 48 X
 60 Y 48 X 49 Y 48 X -40 Y 48 X 247 Y 48 X 128 Y 47 X 30 Y 48 X 217 Y 48 X 128 Y 48 X -148 Y 48 X 89 Y 48 X -148 Y 48 X -266 Y 48 X -158 Y 48 X -89 Y 48 X -217 Y 48 X -39 Y 47 X -10 Y 48 X -20 Y f 0 0 0.933333 c 0.49 0.6 0.82 c 0 0 0.933333 c 238 201
 m 431 X 10 Y 48 X -10 Y 144 X 10 Y 144 X 39 Y 48 X -29 Y 47 X 59 Y 48 X 20 Y 48 X 59 Y 48 X -59 Y 48 X 88 Y 48 X 60 Y 48 X 49 Y 48 X -40 Y 48 X 247 Y 48 X 128 Y 47 X 30 Y 48 X 217 Y 48 X 128 Y 48 X -148 Y 48 X 89 Y 48 X -148 Y 48 X -266 Y 48 X -158
 Y 48 X -89 Y 48 X -217 Y 48 X -39 Y 47 X -10 Y 48 X -20 Y s 1 0 0 c black 1 0 0 c 2125 201 m s 2077 201 m s 2029 201 m s 1981 201 m s 1933 201 m s 1885 201 m s 1837 201 m s 1789 201 m cl s 1771 232 m -30 -31 d s 1769 277 m -77 -76 d s 1701 258 m -57
 -57 d s 1672 277 m -76 -76 d s 1605 258 m -57 -57 d s 1579 281 m -79 -80 d s 1566 315 m -114 -114 d s 1532 329 m -128 -128 d s 1527 372 m -171 -171 d s 1441 334 m -133 -133 d s 1393 334 m -134 -133 d s 1383 372 m -172 -171 d s 1340 378 m -177 -177 d
 s 1340 426 m -225 -225 d s 1296 430 m -229 -229 d s 1285 468 m -266 -267 d s 1218 449 m -247 -248 d s 1196 475 m -273 -274 d s 1196 523 m -321 -322 d s 1196 571 m -369 -370 d s 1196 619 m -418 -418 d s 1149 620 m -419 -419 d s 1120 639 m -438 -438 d
 s 1072 639 m -438 -438 d s 1053 668 m -48 -48 d s 986 601 m -400 -400 d s 1052 715 m -47 -47 d s 938 601 m -400 -400 d s 871 582 m -381 -381 d s 861 620 m -419 -419 d s 813 621 m -419 -420 d s 813 669 m -96 -96 d s 707 563 m -362 -362 d s 792 696 m
 -75 -75 d s 669 573 m -372 -372 d s 765 717 m -48 -48 d s 669 621 m -239 -239 d s 383 334 m -134 -133 d s 753 753 m -36 -36 d s 669 669 m -48 -48 d s 582 582 m -56 -56 d s 525 525 m -95 -95 d s 372 372 m -38 -38 d s 315 315 m -29 -29 d s 258 258 m
 -20 -20 d s 669 717 m -48 -48 d s 573 622 m -47 -48 d s 478 526 m -48 -48 d s 638 734 m -17 -16 d s 573 670 m -47 -48 d s 467 563 m -37 -37 d s 552 696 m -26 -26 d s 238 258 m 48 X 57 Y 48 X 57 Y 48 X -38 Y 48 X 229 Y 48 X -38 Y 48 X 171 Y 47 X -114
 Y 48 X 152 Y 48 X -171 Y 48 X 190 Y 48 X -57 Y 48 X -76 Y 48 X -38 Y 48 X 19 Y 96 X 114 Y 48 X -76 Y 95 X -19 Y 48 X -171 Y 48 X 19 Y 48 X -38 Y 48 X -58 Y 48 X -38 Y 96 X 38 Y 48 X -57 Y 47 X -57 Y 48 X 19 Y 48 X -19 Y 48 X 19 Y 48 X -76 Y 383 X s
 0.490196 0.545098 0.615686 c 1 1 1 c 0.490196 0.545098 0.615686 c 952 202 1202 1307 bl 1202 1307 m 952 X s 2154 1307 m 202 Y s 2154 1509 m -952 X s 1202 1509 m -202 Y s black
 gsave  2268 1676 0 0 C 1296.92 1437.23 t 0 r /Helvetica-Bold findfont 56.8825 sf 0 0 m (Signal \(training sample\)) show NC gr  0 0 0.933333 c /w 21 def /w2 {w 2 div} def /w3 {w 3 div} def 1250 1458 m20 black
 gsave  2268 1676 0 0 C 1296.92 1338.64 t 0 r /Helvetica-Bold findfont 56.8825 sf 0 0 m (Background \(training sample\)) show NC gr  1 0 0 c 1250 1358 m20 0 0 0.933333 c 1 1 1 c 0 0 0.933333 c 909 208 m 16 X s 940 208 m 17 X s 909 201 m 15 Y s 957
 201 m 15 Y s 933 208 m20 957 208 m 16 X s 988 208 m 17 X s 957 201 m 15 Y s 1005 201 m 15 Y s 981 208 m20 1005 208 m 16 X s 1036 208 m 17 X s 1005 201 m 15 Y s 1053 201 m 15 Y s 1029 208 m20 1053 213 m 16 X s 1084 213 m 16 X s 1053 205 m 15 Y s 1100
 205 m 15 Y s 1076 213 m20 1124 221 m 1 Y s 1124 237 m s 1100 229 m 17 X s 1132 229 m 16 X s 1117 221 m 15 X s 1117 237 m 15 X s 1100 222 m 15 Y s 1148 222 m 15 Y s 1124 229 m20 1172 250 m 4 Y s 1172 270 m 4 Y s 1148 262 m 17 X s 1180 262 m 16 X s
 1165 250 m 15 X s 1165 274 m 15 X s 1148 254 m 16 Y s 1196 254 m 16 Y s 1172 262 m20 1220 291 m 8 Y s 1220 314 m 8 Y s 1196 306 m 17 X s 1228 306 m 16 X s 1213 291 m 15 X s 1213 322 m 15 X s 1196 299 m 15 Y s 1244 299 m 15 Y s 1220 306 m20 1268 297
 m 9 Y s 1268 321 m 9 Y s 1244 313 m 16 X s 1276 313 m 16 X s 1260 297 m 16 X s 1260 330 m 16 X s 1244 306 m 15 Y s 1292 306 m 15 Y s 1268 313 m20 1316 310 m 10 Y s 1316 335 m 10 Y s 1292 328 m 16 X s 1324 328 m 16 X s 1308 310 m 16 X s 1308 345 m 16
 X s 1292 320 m 15 Y s 1340 320 m 15 Y s 1316 328 m20 1364 359 m 12 Y s 1364 387 m 12 Y s 1340 379 m 16 X s 1371 379 m 17 X s 1356 359 m 15 X s 1356 399 m 15 X s 1340 371 m 16 Y s 1388 371 m 16 Y s 1364 379 m20 1412 497 m 20 Y s 1412 532 m 20 Y s
 1388 524 m 16 X s 1419 524 m 17 X s 1404 497 m 15 X s 1404 552 m 15 X s 1388 517 m 15 Y s 1436 517 m 15 Y s 1412 524 m20 1460 526 m 21 Y s 1460 562 m 21 Y s 1436 555 m 16 X s 1467 555 m 17 X s 1452 526 m 15 X s 1452 583 m 15 X s 1436 547 m 15 Y s
 1484 547 m 15 Y s 1460 555 m20 1508 706 m 28 Y s 1508 749 m 28 Y s 1484 742 m 16 X s 1515 742 m 17 X s 1500 706 m 15 X s 1500 777 m 15 X s 1484 734 m 15 Y s 1532 734 m 15 Y s 1508 742 m20 1556 761 m 29 Y s 1556 805 m 30 Y s 1532 798 m 16 X s 1563
 798 m 16 X s 1548 761 m 15 X s 1548 835 m 15 X s 1532 790 m 15 Y s 1579 790 m 15 Y s 1556 798 m20 1603 888 m 33 Y s 1603 937 m 33 Y s 1579 929 m 17 X s 1611 929 m 16 X s 1596 888 m 15 X s 1596 970 m 15 X s 1579 921 m 16 Y s 1627 921 m 16 Y s 1603
 929 m20 1651 988 m 36 Y s 1651 1040 m 36 Y s 1627 1032 m 17 X s 1659 1032 m 16 X s 1644 988 m 15 X s 1644 1076 m 15 X s 1627 1024 m 16 Y s 1675 1024 m 16 Y s 1651 1032 m20 1699 1084 m 39 Y s 1699 1138 m 39 Y s 1675 1130 m 17 X s 1707 1130 m 16 X s
 1692 1084 m 15 X s 1692 1177 m 15 X s 1675 1123 m 15 Y s 1723 1123 m 15 Y s 1699 1130 m20 1747 1086 m 39 Y s 1747 1140 m 39 Y s 1723 1133 m 17 X s 1755 1133 m 16 X s 1740 1086 m 15 X s 1740 1179 m 15 X s 1723 1125 m 15 Y s 1771 1125 m 15 Y s 1747
 1133 m20 1795 1011 m 37 Y s 1795 1063 m 37 Y s 1771 1055 m 16 X s 1803 1055 m 16 X s 1787 1011 m 16 X s 1787 1100 m 16 X s 1771 1048 m 15 Y s 1819 1048 m 15 Y s 1795 1055 m20 1843 983 m 37 Y s 1843 1035 m 36 Y s 1819 1027 m 16 X s 1851 1027 m 16 X s
 1835 983 m 16 X s 1835 1071 m 16 X s 1819 1020 m 15 Y s 1867 1020 m 15 Y s 1843 1027 m20 1891 829 m 32 Y s 1891 876 m 32 Y s 1867 868 m 16 X s 1898 868 m 17 X s 1883 829 m 15 X s 1883 908 m 15 X s 1867 861 m 15 Y s 1915 861 m 15 Y s 1891 868 m20
 1939 638 m 26 Y s 1939 679 m 26 Y s 1915 672 m 16 X s 1946 672 m 17 X s 1931 638 m 15 X s 1931 705 m 15 X s 1915 664 m 15 Y s 1963 664 m 15 Y s 1939 672 m20 1987 425 m 17 Y s 1987 457 m 16 Y s 1963 449 m 16 X s 1994 449 m 17 X s 1979 425 m 15 X s
 1979 473 m 15 X s 1963 442 m 15 Y s 2011 442 m 15 Y s 1987 449 m20 2035 306 m 9 Y s 2035 330 m 10 Y s 2011 323 m 16 X s 2042 323 m 17 X s 2027 306 m 15 X s 2027 340 m 15 X s 2011 315 m 15 Y s 2059 315 m 15 Y s 2035 323 m20 2082 233 m 3 Y s 2082 251
 m 2 Y s 2059 243 m 16 X s 2090 243 m 16 X s 2075 233 m 15 X s 2075 253 m 15 X s 2059 236 m 15 Y s 2106 236 m 15 Y s 2082 243 m20 2106 215 m 17 X s 2138 215 m 16 X s 2106 208 m 15 Y s 2154 208 m 15 Y s 2130 215 m20 1 0 0 c 1 1 1 c 1 0 0 c 262 258 m
 11 Y s 262 285 m 11 Y s 238 277 m 16 X s 270 277 m 16 X s 254 258 m 16 X s 254 296 m 16 X s 238 269 m 16 Y s 286 269 m 16 Y s 262 277 m20 310 300 m 17 Y s 310 332 m 16 Y s 286 324 m 16 X s 318 324 m 16 X s 302 300 m 16 X s 302 348 m 16 X s 286 317 m
 15 Y s 334 317 m 15 Y s 310 324 m20 358 304 m 17 Y s 358 337 m 17 Y s 334 329 m 16 X s 365 329 m 17 X s 350 304 m 15 X s 350 354 m 15 X s 334 321 m 16 Y s 382 321 m 16 Y s 358 329 m20 406 391 m 25 Y s 406 431 m 25 Y s 382 424 m 16 X s 413 424 m 17 X
 s 398 391 m 15 X s 398 456 m 15 X s 382 416 m 15 Y s 430 416 m 15 Y s 406 424 m20 454 418 m 27 Y s 454 460 m 27 Y s 430 452 m 16 X s 461 452 m 17 X s 446 418 m 15 X s 446 487 m 15 X s 430 445 m 15 Y s 478 445 m 15 Y s 454 452 m20 502 480 m 31 Y s
 502 526 m 31 Y s 478 519 m 16 X s 509 519 m 17 X s 494 480 m 15 X s 494 557 m 15 X s 478 511 m 15 Y s 526 511 m 15 Y s 502 519 m20 549 587 m 38 Y s 549 640 m 37 Y s 526 632 m 16 X s 557 632 m 16 X s 542 587 m 15 X s 542 677 m 15 X s 526 625 m 15 Y s
 573 625 m 15 Y s 549 632 m20 597 542 m 35 Y s 597 592 m 36 Y s 573 585 m 17 X s 605 585 m 16 X s 590 542 m 15 X s 590 628 m 15 X s 573 577 m 15 Y s 621 577 m 15 Y s 597 585 m20 645 569 m 37 Y s 645 621 m 37 Y s 621 613 m 17 X s 653 613 m 16 X s 638
 569 m 15 X s 638 658 m 15 X s 621 606 m 15 Y s 669 606 m 15 Y s 645 613 m20 693 664 m 41 Y s 693 720 m 42 Y s 669 713 m 17 X s 701 713 m 16 X s 686 664 m 15 X s 686 762 m 15 X s 669 705 m 15 Y s 717 705 m 15 Y s 693 713 m20 741 637 m 40 Y s 741 692
 m 40 Y s 717 684 m 17 X s 749 684 m 16 X s 734 637 m 15 X s 734 732 m 15 X s 717 677 m 15 Y s 765 677 m 15 Y s 741 684 m20 789 677 m 42 Y s 789 735 m 42 Y s 765 727 m 16 X s 797 727 m 16 X s 781 677 m 16 X s 781 777 m 16 X s 765 719 m 16 Y s 813 719
 m 16 Y s 789 727 m20 837 668 m 42 Y s 837 725 m 42 Y s 813 718 m 16 X s 845 718 m 16 X s 829 668 m 16 X s 829 767 m 16 X s 813 710 m 15 Y s 861 710 m 15 Y s 837 718 m20 885 700 m 43 Y s 885 758 m 44 Y s 861 751 m 16 X s 892 751 m 17 X s 877 700 m 15
 X s 877 802 m 15 X s 861 743 m 15 Y s 909 743 m 15 Y s 885 751 m20 933 655 m 41 Y s 933 711 m 41 Y s 909 703 m 16 X s 940 703 m 17 X s 925 655 m 15 X s 925 752 m 15 X s 909 696 m 15 Y s 957 696 m 15 Y s 933 703 m20 981 709 m 44 Y s 981 768 m 44 Y s
 957 760 m 16 X s 988 760 m 17 X s 973 709 m 15 X s 973 812 m 15 X s 957 753 m 15 Y s 1005 753 m 15 Y s 981 760 m20 1029 695 m 43 Y s 1029 754 m 43 Y s 1005 746 m 16 X s 1036 746 m 17 X s 1021 695 m 15 X s 1021 797 m 15 X s 1005 738 m 16 Y s 1053 738
 m 16 Y s 1029 746 m20 1076 498 m 32 Y s 1076 545 m 32 Y s 1053 538 m 16 X s 1084 538 m 16 X s 1069 498 m 15 X s 1069 577 m 15 X s 1053 530 m 15 Y s 1100 530 m 15 Y s 1076 538 m20 1124 471 m 31 Y s 1124 517 m 30 Y s 1100 509 m 17 X s 1132 509 m 16 X
 s 1117 471 m 15 X s 1117 547 m 15 X s 1100 502 m 15 Y s 1148 502 m 15 Y s 1124 509 m20 1172 507 m 32 Y s 1172 555 m 32 Y s 1148 547 m 17 X s 1180 547 m 16 X s 1165 507 m 15 X s 1165 587 m 15 X s 1148 539 m 16 Y s 1196 539 m 16 Y s 1172 547 m20 1220
 396 m 25 Y s 1220 436 m 25 Y s 1196 429 m 17 X s 1228 429 m 16 X s 1213 396 m 15 X s 1213 461 m 15 X s 1196 421 m 15 Y s 1244 421 m 15 Y s 1220 429 m20 1268 413 m 27 Y s 1268 455 m 27 Y s 1244 447 m 16 X s 1276 447 m 16 X s 1260 413 m 16 X s 1260
 482 m 16 X s 1244 440 m 15 Y s 1292 440 m 15 Y s 1268 447 m20 1316 383 m 24 Y s 1316 422 m 24 Y s 1292 414 m 16 X s 1324 414 m 16 X s 1308 383 m 16 X s 1308 446 m 16 X s 1292 407 m 15 Y s 1340 407 m 15 Y s 1316 414 m20 1364 335 m 20 Y s 1364 370 m
 20 Y s 1340 362 m 16 X s 1371 362 m 17 X s 1356 335 m 15 X s 1356 390 m 15 X s 1340 355 m 15 Y s 1388 355 m 15 Y s 1364 362 m20 1412 369 m 24 Y s 1412 408 m 23 Y s 1388 400 m 16 X s 1419 400 m 17 X s 1404 369 m 15 X s 1404 431 m 15 X s 1388 393 m 15
 Y s 1436 393 m 15 Y s 1412 400 m20 1460 287 m 16 Y s 1460 318 m 15 Y s 1436 310 m 16 X s 1467 310 m 17 X s 1452 287 m 15 X s 1452 333 m 15 X s 1436 303 m 15 Y s 1484 303 m 15 Y s 1460 310 m20 1508 292 m 15 Y s 1508 322 m 16 Y s 1484 315 m 16 X s
 1515 315 m 17 X s 1500 292 m 15 X s 1500 338 m 15 X s 1484 307 m 15 Y s 1532 307 m 15 Y s 1508 315 m20 1556 304 m 17 Y s 1556 337 m 17 Y s 1532 329 m 16 X s 1563 329 m 16 X s 1548 304 m 15 X s 1548 354 m 15 X s 1532 321 m 16 Y s 1579 321 m 16 Y s
 1556 329 m20 1603 238 m 8 Y s 1603 261 m 8 Y s 1579 253 m 17 X s 1611 253 m 16 X s 1596 238 m 15 X s 1596 269 m 15 X s 1579 246 m 15 Y s 1627 246 m 15 Y s 1603 253 m20 1651 230 m 6 Y s 1651 251 m 7 Y s 1627 244 m 17 X s 1659 244 m 16 X s 1644 230 m
 15 X s 1644 258 m 15 X s 1627 236 m 15 Y s 1675 236 m 15 Y s 1651 244 m20 1699 234 m 7 Y s 1699 256 m 7 Y s 1675 249 m 17 X s 1707 249 m 16 X s 1692 234 m 15 X s 1692 263 m 15 X s 1675 241 m 15 Y s 1723 241 m 15 Y s 1699 249 m20 1747 226 m 5 Y s
 1747 247 m 5 Y s 1723 239 m 17 X s 1755 239 m 16 X s 1740 226 m 15 X s 1740 252 m 15 X s 1723 231 m 16 Y s 1771 231 m 16 Y s 1747 239 m20 1795 207 m 1 Y s 1795 223 m 1 Y s 1771 215 m 16 X s 1803 215 m 16 X s 1787 207 m 16 X s 1787 224 m 16 X s 1771
 208 m 15 Y s 1819 208 m 15 Y s 1795 215 m20 black
 gsave  2268 1676 0 0 C 272.126 1240.34 t 0 r /Helvetica-Bold findfont 49.2982 sf 0 0 m (Kolmogorov\255Smirnov test: signal \(background\) probability =     0 \(0.001\)) show NC gr  238 201 m 1916 X s 401 244 m -43 Y s 445 222 m -21 Y s 489 222 m -21
 Y s 533 222 m -21 Y s 577 222 m -21 Y s 620 244 m -43 Y s 664 222 m -21 Y s 708 222 m -21 Y s 752 222 m -21 Y s 795 222 m -21 Y s 839 244 m -43 Y s 883 222 m -21 Y s 927 222 m -21 Y s 971 222 m -21 Y s 1014 222 m -21 Y s 1058 244 m -43 Y s 1102 222
 m -21 Y s 1146 222 m -21 Y s 1189 222 m -21 Y s 1233 222 m -21 Y s 1277 244 m -43 Y s 1321 222 m -21 Y s 1365 222 m -21 Y s 1408 222 m -21 Y s 1452 222 m -21 Y s 1496 244 m -43 Y s 1540 222 m -21 Y s 1583 222 m -21 Y s 1627 222 m -21 Y s 1671 222 m
 -21 Y s 1715 244 m -43 Y s 1759 222 m -21 Y s 1802 222 m -21 Y s 1846 222 m -21 Y s 1890 222 m -21 Y s 1934 244 m -43 Y s 1977 222 m -21 Y s 2021 222 m -21 Y s 2065 222 m -21 Y s 2109 222 m -21 Y s 2153 244 m -43 Y s 401 244 m -43 Y s 358 222 m -21
 Y s 314 222 m -21 Y s 270 222 m -21 Y s 2153 244 m -43 Y s 238 1509 m 1916 X s 401 1466 m 43 Y s 445 1487 m 22 Y s 489 1487 m 22 Y s 533 1487 m 22 Y s 577 1487 m 22 Y s 620 1466 m 43 Y s 664 1487 m 22 Y s 708 1487 m 22 Y s 752 1487 m 22 Y s 795 1487
 m 22 Y s 839 1466 m 43 Y s 883 1487 m 22 Y s 927 1487 m 22 Y s 971 1487 m 22 Y s 1014 1487 m 22 Y s 1058 1466 m 43 Y s 1102 1487 m 22 Y s 1146 1487 m 22 Y s 1189 1487 m 22 Y s 1233 1487 m 22 Y s 1277 1466 m 43 Y s 1321 1487 m 22 Y s 1365 1487 m 22 Y
 s 1408 1487 m 22 Y s 1452 1487 m 22 Y s 1496 1466 m 43 Y s 1540 1487 m 22 Y s 1583 1487 m 22 Y s 1627 1487 m 22 Y s 1671 1487 m 22 Y s 1715 1466 m 43 Y s 1759 1487 m 22 Y s 1802 1487 m 22 Y s 1846 1487 m 22 Y s 1890 1487 m 22 Y s 1934 1466 m 43 Y s
 1977 1487 m 22 Y s 2021 1487 m 22 Y s 2065 1487 m 22 Y s 2109 1487 m 22 Y s 2153 1466 m 43 Y s 401 1466 m 43 Y s 358 1487 m 22 Y s 314 1487 m 22 Y s 270 1487 m 22 Y s 2153 1466 m 43 Y s 238 201 m 1308 Y s 291 201 m -53 X s 265 241 m -27 X s 265 281
 m -27 X s 265 321 m -27 X s 265 361 m -27 X s 291 401 m -53 X s 265 441 m -27 X s 265 481 m -27 X s 265 520 m -27 X s 265 560 m -27 X s 291 600 m -53 X s 265 640 m -27 X s 265 680 m -27 X s 265 720 m -27 X s 265 760 m -27 X s 291 800 m -53 X s 265
 840 m -27 X s 265 880 m -27 X s 265 920 m -27 X s 265 960 m -27 X s 291 1000 m -53 X s 265 1039 m -27 X s 265 1079 m -27 X s 265 1119 m -27 X s 265 1159 m -27 X s 291 1199 m -53 X s 265 1239 m -27 X s 265 1279 m -27 X s 265 1319 m -27 X s 265 1359 m
 -27 X s 291 1399 m -53 X s 291 1399 m -53 X s 265 1439 m -27 X s 265 1479 m -27 X s 2154 201 m 1308 Y s 2101 201 m 53 X s 2128 241 m 26 X s 2128 281 m 26 X s 2128 321 m 26 X s 2128 361 m 26 X s 2101 401 m 53 X s 2128 441 m 26 X s 2128 481 m 26 X s
 2128 520 m 26 X s 2128 560 m 26 X s 2101 600 m 53 X s 2128 640 m 26 X s 2128 680 m 26 X s 2128 720 m 26 X s 2128 760 m 26 X s 2101 800 m 53 X s 2128 840 m 26 X s 2128 880 m 26 X s 2128 920 m 26 X s 2128 960 m 26 X s 2101 1000 m 53 X s 2128 1039 m 26
 X s 2128 1079 m 26 X s 2128 1119 m 26 X s 2128 1159 m 26 X s 2101 1199 m 53 X s 2128 1239 m 26 X s 2128 1279 m 26 X s 2128 1319 m 26 X s 2128 1359 m 26 X s 2101 1399 m 53 X s 2101 1399 m 53 X s 2128 1439 m 26 X s 2128 1479 m 26 X s
 gsave  2268 1676 0 0 C 2211.02 192.756 t 90 r /Helvetica-Bold findfont 45.506 sf 0 0 m (U/O\255flow \(S,B\): \(0.0, 0.0\)% / \(0.0, 0.0\)%) show NC gr  0.490196 0.545098 0.615686 c 0.364706 0.419608 0.490196 c 1587 96 23 1572 bf 0.490196 0.545098
 0.615686 c 23 1572 m 1587 X s 1610 1572 m 96 Y s 1610 1668 m -1587 X s 23 1668 m -96 Y s 1 1 1 c black 1 1 1 c
 gsave  2268 1676 0 0 C 98.5964 1604.09 t 0 r /Helvetica-Bold findfont 64.4669 sf 0 0 m (TMVA overtraining check for classifier: BDTDe) show NC gr 
 gr  gr showpage
end
%%EOF
