%!PS-Adobe-2.0 EPSF-2.0
%%BoundingBox:  0 0 567 294
%%Title: DataSet/plots/variables_id_c2.eps: Input variables (training sample)
%%Creator: ROOT Version 6.08/06
%%CreationDate: Thu Jul 26 15:55:28 2018
%%DocumentNeededResources: ProcSet (FontSetInit)
%%EndComments
%%BeginProlog
80 dict begin
/s {stroke} def /l {lineto} def /m {moveto} def /t {translate} def
/r {rotate} def /rl {roll}  def /R {repeat} def
/d {rlineto} def /rm {rmoveto} def /gr {grestore} def /f {eofill} def
/c {setrgbcolor} def /black {0 setgray} def /sd {setdash} def
/cl {closepath} def /sf {scalefont setfont} def /lw {setlinewidth} def
/box {m dup 0 exch d exch 0 d 0 exch neg d cl} def
/NC{systemdict begin initclip end}def/C{NC box clip newpath}def
/bl {box s} def /bf {gsave box gsave f grestore 1 lw [] 0 sd s grestore} def /Y { 0 exch d} def /X { 0 d} def 
/K {{pop pop 0 moveto} exch kshow} bind def
/ita {/ang 15 def gsave [1 0 ang dup sin exch cos div 1 0 0] concat} def 
/mp {newpath /y exch def /x exch def} def
/side {[w .77 mul w .23 mul] .385 w mul sd w 0 l currentpoint t -144 r} def
/mr {mp x y w2 0 360 arc} def /m24 {mr s} def /m20 {mr f} def
/mb {mp x y w2 add m w2 neg 0 d 0 w neg d w 0 d 0 w d cl} def
/mt {mp x y w2 add m w2 neg w neg d w 0 d cl} def
/m21 {mb f} def /m25 {mb s} def /m22 {mt f} def /m26{mt s} def
/m23 {mp x y w2 sub m w2 w d w neg 0 d cl f} def
/m27 {mp x y w2 add m w3 neg w2 neg d w3 w2 neg d w3 w2 d cl s} def
/m28 {mp x w2 sub y w2 sub w3 add m w3 0 d  0 w3 neg d w3 0 d 0 w3 d w3 0 d  0 w3 d w3 neg 0 d 0 w3 d w3 neg 0 d 0 w3 neg d w3 neg 0 d cl s } def
/m29 {mp gsave x w2 sub y w2 add w3 sub m currentpoint t 4 {side} repeat cl fill gr} def
/m30 {mp gsave x w2 sub y w2 add w3 sub m currentpoint t 4 {side} repeat cl s gr} def
/m31 {mp x y w2 sub m 0 w d x w2 sub y m w 0 d x w2 sub y w2 add m w w neg d x w2 sub y w2 sub m w w d s} def
/m32 {mp x y w2 sub m w2 w d w neg 0 d cl s} def
/m33 {mp x y w2 add m w3 neg w2 neg d w3 w2 neg d w3 w2 d cl f} def
/m34 {mp x w2 sub y w2 sub w3 add m w3 0 d  0 w3 neg d w3 0 d 0 w3 d w3 0 d  0 w3 d w3 neg 0 d 0 w3 d w3 neg 0 d 0 w3 neg d w3 neg 0 d cl f } def
/m2 {mp x y w2 sub m 0 w d x w2 sub y m w 0 d s} def
/m5 {mp x w2 sub y w2 sub m w w d x w2 sub y w2 add m w w neg d s} def
%%IncludeResource: ProcSet (FontSetInit)
%%IncludeResource: font Times-Roman
%%IncludeResource: font Times-Italic
%%IncludeResource: font Times-Bold
%%IncludeResource: font Times-BoldItalic
%%IncludeResource: font Helvetica
%%IncludeResource: font Helvetica-Oblique
%%IncludeResource: font Helvetica-Bold
%%IncludeResource: font Helvetica-BoldOblique
%%IncludeResource: font Courier
%%IncludeResource: font Courier-Oblique
%%IncludeResource: font Courier-Bold
%%IncludeResource: font Courier-BoldOblique
%%IncludeResource: font Symbol
%%IncludeResource: font ZapfDingbats
/reEncode {exch findfont dup length dict begin {1 index /FID eq  {pop pop} {def} ifelse } forall /Encoding exch def currentdict end dup /FontName get exch definefont pop } def [/Times-Bold /Times-Italic /Times-BoldItalic /Helvetica /Helvetica-Oblique
 /Helvetica-Bold /Helvetica-BoldOblique /Courier /Courier-Oblique /Courier-Bold /Courier-BoldOblique /Times-Roman /AvantGarde-Book /AvantGarde-BookOblique /AvantGarde-Demi /AvantGarde-DemiOblique /Bookman-Demi /Bookman-DemiItalic /Bookman-Light
 /Bookman-LightItalic /Helvetica-Narrow /Helvetica-Narrow-Bold /Helvetica-Narrow-BoldOblique /Helvetica-Narrow-Oblique /NewCenturySchlbk-Roman /NewCenturySchlbk-Bold /NewCenturySchlbk-BoldItalic /NewCenturySchlbk-Italic /Palatino-Bold
 /Palatino-BoldItalic /Palatino-Italic /Palatino-Roman ] {ISOLatin1Encoding reEncode } forall
%%EndProlog
%%BeginSetup
%%EndSetup
newpath  gsave  .25 .25 scale  gsave  0 0 t 0.490196 0.545098 0.615686 c[  ] 0 sd 3 lw 1 1 1 c 2268 1176 0 0 bf 0.490196 0.545098 0.615686 c 1 1 1 c 710 565 23 600 bf black 1 1 1 c 548 427 143 681 bf black 548 427 143 681 bl 1 1 1 c 548 427 143 681
 bf black 548 427 143 681 bl 0 0 0.933333 c 6 lw 0.49 0.6 0.82 c black 3 lw 0.49 0.6 0.82 c 143 681 m 309 Y 14 X -7 Y 14 X -143 Y 14 X -53 Y 13 X -30 Y 14 X -35 Y 14 X 7 Y 13 X -16 Y 14 X -12 Y 14 X 1 Y 13 X -14 Y 14 X 11 Y 14 X -12 Y 13 X -2 Y 14 X
 2 Y 41 X 5 Y 14 X -2 Y 13 X -5 Y 14 X -2 Y 14 X -2 Y 27 X 2 Y 14 X -2 Y 27 X 4 Y 14 X -2 Y 13 X -2 Y 55 X 2 Y 14 X -2 Y 96 X f 6 lw 0 0 0.933333 c 0.49 0.6 0.82 c 0 0 0.933333 c 143 990 m 14 X -7 Y 14 X -143 Y 14 X -53 Y 13 X -30 Y 14 X -35 Y 14 X 7
 Y 13 X -16 Y 14 X -12 Y 14 X 1 Y 13 X -14 Y 14 X 11 Y 14 X -12 Y 13 X -2 Y 14 X 2 Y 41 X 5 Y 14 X -2 Y 13 X -5 Y 14 X -2 Y 14 X -2 Y 27 X 2 Y 14 X -2 Y 27 X 4 Y 14 X -2 Y 13 X -2 Y 55 X 2 Y 14 X -2 Y 96 X s black 3 lw 143 681 m 548 X s
 gsave  710 565 23 600 C 349.535 610.976 t 0 r /Helvetica findfont 28.5208 sf 0 0 m (Z_D_minus_Z_B_div_error		) show NC gr  238 694 m -13 Y s 262 688 m -7 Y s 286 688 m -7 Y s 309 688 m -7 Y s 333 694 m -13 Y s 357 688 m -7 Y s 381 688 m -7 Y s 404
 688 m -7 Y s 428 694 m -13 Y s 452 688 m -7 Y s 475 688 m -7 Y s 499 688 m -7 Y s 523 694 m -13 Y s 546 688 m -7 Y s 570 688 m -7 Y s 594 688 m -7 Y s 618 694 m -13 Y s 238 694 m -13 Y s 215 688 m -7 Y s 191 688 m -7 Y s 167 688 m -7 Y s 618 694 m
 -13 Y s 641 688 m -7 Y s 665 688 m -7 Y s 689 688 m -7 Y s
 gsave  710 565 23 600 C 221.657 653.603 t 0 r /Helvetica findfont 25.6688 sf 0 0 m (20) show NC gr 
 gsave  710 565 23 600 C 318.276 653.603 t 0 r /Helvetica findfont 25.6688 sf 0 0 m (40) show NC gr 
 gsave  710 565 23 600 C 412.054 653.603 t 0 r /Helvetica findfont 25.6688 sf 0 0 m (60) show NC gr 
 gsave  710 565 23 600 C 505.832 653.603 t 0 r /Helvetica findfont 25.6688 sf 0 0 m (80) show NC gr 
 gsave  710 565 23 600 C 593.926 653.603 t 0 r /Helvetica findfont 25.6688 sf 0 0 m (100) show NC gr  143 1108 m 548 X s 238 1095 m 13 Y s 262 1102 m 6 Y s 286 1102 m 6 Y s 309 1102 m 6 Y s 333 1095 m 13 Y s 357 1102 m 6 Y s 381 1102 m 6 Y s 404 1102
 m 6 Y s 428 1095 m 13 Y s 452 1102 m 6 Y s 475 1102 m 6 Y s 499 1102 m 6 Y s 523 1095 m 13 Y s 546 1102 m 6 Y s 570 1102 m 6 Y s 594 1102 m 6 Y s 618 1095 m 13 Y s 238 1095 m 13 Y s 215 1102 m 6 Y s 191 1102 m 6 Y s 167 1102 m 6 Y s 618 1095 m 13 Y
 s 641 1102 m 6 Y s 665 1102 m 6 Y s 689 1102 m 6 Y s 143 681 m 427 Y s
 gsave  710 565 23 600 C 45.468 1042.92 t 90 r /Helvetica findfont 28.5208 sf 0 0 m (2.88 ) show NC gr 
 gsave  710 565 23 600 C 31.2593 1037.24 t 90 r /Helvetica findfont 19.9646 sf 0 0 m ( ) show NC gr 
 gsave  710 565 23 600 C 45.468 1025.87 t 90 r /Helvetica findfont 28.5208 sf 0 0 m (/) show NC gr 
 gsave  710 565 23 600 C 53.9933 1020.19 t 90 r /Helvetica findfont 19.9646 sf 0 0 m ( ) show NC gr 
 gsave  710 565 23 600 C 45.468 912.202 t 90 r /Helvetica findfont 28.5208 sf 0 0 m (\(1/N\) dN) show NC gr  160 681 m -17 X s 152 699 m -9 X s 152 716 m -9 X s 152 733 m -9 X s 160 750 m -17 X s 152 767 m -9 X s 152 785 m -9 X s 152 802 m -9 X s 160
 819 m -17 X s 152 836 m -9 X s 152 854 m -9 X s 152 871 m -9 X s 160 888 m -17 X s 152 905 m -9 X s 152 923 m -9 X s 152 940 m -9 X s 160 957 m -17 X s 152 974 m -9 X s 152 991 m -9 X s 152 1009 m -9 X s 160 1026 m -17 X s 152 1043 m -9 X s 152 1060
 m -9 X s 152 1078 m -9 X s 160 1095 m -17 X s 160 1095 m -17 X s
 gsave  710 565 23 600 C 119.354 670.653 t 0 r /Helvetica findfont 25.6688 sf 0 0 m (0) show NC gr 
 gsave  710 565 23 600 C 82.4108 741.697 t 0 r /Helvetica findfont 25.6688 sf 0 0 m (0.02) show NC gr 
 gsave  710 565 23 600 C 82.4108 809.899 t 0 r /Helvetica findfont 25.6688 sf 0 0 m (0.04) show NC gr 
 gsave  710 565 23 600 C 82.4108 878.101 t 0 r /Helvetica findfont 25.6688 sf 0 0 m (0.06) show NC gr 
 gsave  710 565 23 600 C 82.4108 946.303 t 0 r /Helvetica findfont 25.6688 sf 0 0 m (0.08) show NC gr 
 gsave  710 565 23 600 C 102.303 1017.35 t 0 r /Helvetica findfont 25.6688 sf 0 0 m (0.1) show NC gr 
 gsave  710 565 23 600 C 82.4108 1085.55 t 0 r /Helvetica findfont 25.6688 sf 0 0 m (0.12) show NC gr  691 681 m 427 Y s 674 681 m 17 X s 683 699 m 8 X s 683 716 m 8 X s 683 733 m 8 X s 674 750 m 17 X s 683 767 m 8 X s 683 785 m 8 X s 683 802 m 8 X s
 674 819 m 17 X s 683 836 m 8 X s 683 854 m 8 X s 683 871 m 8 X s 674 888 m 17 X s 683 905 m 8 X s 683 923 m 8 X s 683 940 m 8 X s 674 957 m 17 X s 683 974 m 8 X s 683 991 m 8 X s 683 1009 m 8 X s 674 1026 m 17 X s 683 1043 m 8 X s 683 1060 m 8 X s
 683 1078 m 8 X s 674 1095 m 17 X s 674 1095 m 17 X s 1 0 0 c 6 lw black 3 lw 1 0 0 c 676 681 m s 661 681 m s 646 681 m s 632 682 m -1 -1 d s 616 681 m s 601 681 m s 586 681 m s 572 683 m -1 -2 d s 556 681 m s 541 681 m s 525 681 m s 512 683 m -2 -2
 d s 495 681 m cl s 482 683 m -2 -2 d s 465 681 m s 452 683 m -2 -2 d s 436 682 m -1 -1 d s 423 684 m -3 -3 d s 411 687 m -6 -6 d s 393 684 m -3 -3 d s 379 686 m -4 -5 d s 363 685 m -3 -4 d s 352 688 m -7 -7 d s 335 687 m -6 -6 d s 324 691 m -10 -10
 d s 304 686 m -5 -5 d s 294 691 m -10 -10 d s 286 699 m -17 -18 d s 275 702 m -21 -21 d s 259 701 m -20 -20 d s 253 710 m -29 -29 d s 247 719 m -38 -38 d s 236 724 m -42 -43 d s 226 728 m -47 -47 d s 212 730 m -48 -49 d s 204 737 m -55 -56 d s 198
 746 m -55 -55 d s 198 762 m -55 -55 d s 198 777 m -55 -55 d s 185 779 m -42 -42 d s 185 793 m -42 -41 d s 185 809 m -42 -42 d s 185 824 m -42 -42 d s 177 831 m -34 -33 d s 171 840 m -28 -27 d s 171 856 m -28 -28 d s 171 871 m -28 -28 d s 171 886 m
 -28 -28 d s 171 901 m -28 -27 d s 171 916 m -28 -27 d s 171 931 m -28 -27 d s 160 936 m -17 -17 d s 157 948 m -14 -14 d s 157 963 m -14 -14 d s 157 978 m -14 -13 d s 157 994 m -14 -14 d s 157 1009 m -14 -14 d s 157 1024 m -14 -14 d s 157 1039 m -14
 -14 d s 157 1054 m -14 -13 d s 157 1069 m -14 -13 d s 6 lw 143 1069 m 14 X -133 Y 14 X -105 Y 14 X -52 Y 13 X -42 Y 14 X -7 Y 14 X -6 Y 13 X -5 Y 14 X -18 Y 14 X 1 Y 13 X -3 Y 14 X -13 Y 14 X 2 Y 13 X 3 Y 14 X -5 Y 14 X 2 Y 13 X -3 Y 14 X 1 Y 14 X
 -2 Y 13 X 3 Y 14 X -3 Y 14 X -2 Y 13 X 1 Y 14 X -2 Y 14 X 2 Y 13 X -2 Y 14 X 2 Y 14 X -2 Y 13 X 1 Y 14 X -1 Y 27 X 2 Y 14 X -2 Y 41 X 1 Y 14 X -1 Y 55 X s black 3 lw 143 681 m 548 X s 238 694 m -13 Y s 262 688 m -7 Y s 286 688 m -7 Y s 309 688 m -7
 Y s 333 694 m -13 Y s 357 688 m -7 Y s 381 688 m -7 Y s 404 688 m -7 Y s 428 694 m -13 Y s 452 688 m -7 Y s 475 688 m -7 Y s 499 688 m -7 Y s 523 694 m -13 Y s 546 688 m -7 Y s 570 688 m -7 Y s 594 688 m -7 Y s 618 694 m -13 Y s 238 694 m -13 Y s
 215 688 m -7 Y s 191 688 m -7 Y s 167 688 m -7 Y s 618 694 m -13 Y s 641 688 m -7 Y s 665 688 m -7 Y s 689 688 m -7 Y s 143 1108 m 548 X s 238 1095 m 13 Y s 262 1102 m 6 Y s 286 1102 m 6 Y s 309 1102 m 6 Y s 333 1095 m 13 Y s 357 1102 m 6 Y s 381
 1102 m 6 Y s 404 1102 m 6 Y s 428 1095 m 13 Y s 452 1102 m 6 Y s 475 1102 m 6 Y s 499 1102 m 6 Y s 523 1095 m 13 Y s 546 1102 m 6 Y s 570 1102 m 6 Y s 594 1102 m 6 Y s 618 1095 m 13 Y s 238 1095 m 13 Y s 215 1102 m 6 Y s 191 1102 m 6 Y s 167 1102 m
 6 Y s 618 1095 m 13 Y s 641 1102 m 6 Y s 665 1102 m 6 Y s 689 1102 m 6 Y s 143 681 m 427 Y s 160 681 m -17 X s 152 699 m -9 X s 152 716 m -9 X s 152 733 m -9 X s 160 750 m -17 X s 152 767 m -9 X s 152 785 m -9 X s 152 802 m -9 X s 160 819 m -17 X s
 152 836 m -9 X s 152 854 m -9 X s 152 871 m -9 X s 160 888 m -17 X s 152 905 m -9 X s 152 923 m -9 X s 152 940 m -9 X s 160 957 m -17 X s 152 974 m -9 X s 152 991 m -9 X s 152 1009 m -9 X s 160 1026 m -17 X s 152 1043 m -9 X s 152 1060 m -9 X s 152
 1078 m -9 X s 160 1095 m -17 X s 160 1095 m -17 X s 691 681 m 427 Y s 674 681 m 17 X s 683 699 m 8 X s 683 716 m 8 X s 683 733 m 8 X s 674 750 m 17 X s 683 767 m 8 X s 683 785 m 8 X s 683 802 m 8 X s 674 819 m 17 X s 683 836 m 8 X s 683 854 m 8 X s
 683 871 m 8 X s 674 888 m 17 X s 683 905 m 8 X s 683 923 m 8 X s 683 940 m 8 X s 674 957 m 17 X s 683 974 m 8 X s 683 991 m 8 X s 683 1009 m 8 X s 674 1026 m 17 X s 683 1043 m 8 X s 683 1060 m 8 X s 683 1078 m 8 X s 674 1095 m 17 X s 674 1095 m 17 X
 s
 gsave  710 565 23 600 C 719.017 679.067 t 90 r /Helvetica-Bold findfont 19.9646 sf 0 0 m (U/O\255flow \(S,B\): \(0.0, 0.0\)% / \(0.0, 0.1\)%) show NC gr  0.490196 0.545098 0.615686 c 0.364706 0.419608 0.490196 c 497 38 30 1124 bf 0.490196 0.545098
 0.615686 c 30 1124 m 497 X s 527 1124 m 38 Y s 527 1162 m -497 X s 30 1162 m -38 Y s 1 1 1 c black 1 1 1 c
 gsave  710 565 23 600 C 48.3097 1136.7 t 0 r /Helvetica-Bold findfont 22.8167 sf 0 0 m (Input variable: Z_D_minus_Z_B_div_error		) show NC gr  0.490196 0.545098 0.615686 c 1 1 1 c 710 565 779 600 bf black 1 1 1 c 548 427 899 681 bf black 548 427 899
 681 bl 1 1 1 c 548 427 899 681 bf black 548 427 899 681 bl 0 0 0.933333 c 6 lw 0.49 0.6 0.82 c black 3 lw 0.49 0.6 0.82 c 899 681 m 228 Y 14 X -169 Y 14 X -23 Y 13 X -20 Y 28 X -4 Y 13 X -2 Y 14 X -5 Y 14 X 2 Y 13 X -4 Y 14 X 1 Y 14 X 1 Y 14 X -3 Y
 41 X -1 Y 27 X 1 Y 41 X -1 Y 14 X -1 Y 13 X 1 Y 28 X 1 Y 13 X -2 Y 14 X 1 Y 14 X -1 Y 41 X 1 Y 27 X 1 Y 14 X -2 Y 13 X 1 Y 14 X -1 Y 27 X 1 Y 14 X -1 Y 28 X f 6 lw 0 0 0.933333 c 0.49 0.6 0.82 c 0 0 0.933333 c 899 909 m 14 X -169 Y 14 X -23 Y 13 X
 -20 Y 28 X -4 Y 13 X -2 Y 14 X -5 Y 14 X 2 Y 13 X -4 Y 14 X 1 Y 14 X 1 Y 14 X -3 Y 41 X -1 Y 27 X 1 Y 41 X -1 Y 14 X -1 Y 13 X 1 Y 28 X 1 Y 13 X -2 Y 14 X 1 Y 14 X -1 Y 41 X 1 Y 27 X 1 Y 14 X -2 Y 13 X 1 Y 14 X -1 Y 27 X 1 Y 14 X -1 Y 28 X s black 3
 lw 899 681 m 548 X s
 gsave  710 565 779 600 C 1159.43 610.976 t 0 r /Helvetica findfont 28.5208 sf 0 0 m (Bach_Min_IPCHI2_PV			) show NC gr  967 694 m -13 Y s 981 688 m -7 Y s 994 688 m -7 Y s 1008 688 m -7 Y s 1022 688 m -7 Y s 1035 694 m -13 Y s 1049 688 m -7 Y s 1063
 688 m -7 Y s 1076 688 m -7 Y s 1090 688 m -7 Y s 1104 694 m -13 Y s 1117 688 m -7 Y s 1131 688 m -7 Y s 1144 688 m -7 Y s 1158 688 m -7 Y s 1172 694 m -13 Y s 1185 688 m -7 Y s 1199 688 m -7 Y s 1213 688 m -7 Y s 1226 688 m -7 Y s 1240 694 m -13 Y s
 1254 688 m -7 Y s 1267 688 m -7 Y s 1281 688 m -7 Y s 1295 688 m -7 Y s 1308 694 m -13 Y s 1322 688 m -7 Y s 1336 688 m -7 Y s 1349 688 m -7 Y s 1363 688 m -7 Y s 1376 694 m -13 Y s 1390 688 m -7 Y s 1404 688 m -7 Y s 1417 688 m -7 Y s 1431 688 m -7
 Y s 1445 694 m -13 Y s 967 694 m -13 Y s 953 688 m -7 Y s 940 688 m -7 Y s 926 688 m -7 Y s 912 688 m -7 Y s 1445 694 m -13 Y s
 gsave  710 565 779 600 C 943.461 653.603 t 0 r /Helvetica findfont 25.6688 sf 0 0 m (500) show NC gr 
 gsave  710 565 779 600 C 1005.98 653.603 t 0 r /Helvetica findfont 25.6688 sf 0 0 m (1000) show NC gr 
 gsave  710 565 779 600 C 1074.18 653.603 t 0 r /Helvetica findfont 25.6688 sf 0 0 m (1500) show NC gr 
 gsave  710 565 779 600 C 1142.38 653.603 t 0 r /Helvetica findfont 25.6688 sf 0 0 m (2000) show NC gr 
 gsave  710 565 779 600 C 1210.59 653.603 t 0 r /Helvetica findfont 25.6688 sf 0 0 m (2500) show NC gr 
 gsave  710 565 779 600 C 1278.79 653.603 t 0 r /Helvetica findfont 25.6688 sf 0 0 m (3000) show NC gr 
 gsave  710 565 779 600 C 1346.99 653.603 t 0 r /Helvetica findfont 25.6688 sf 0 0 m (3500) show NC gr 
 gsave  710 565 779 600 C 1415.19 653.603 t 0 r /Helvetica findfont 25.6688 sf 0 0 m (4000) show NC gr  899 1108 m 548 X s 967 1095 m 13 Y s 981 1102 m 6 Y s 994 1102 m 6 Y s 1008 1102 m 6 Y s 1022 1102 m 6 Y s 1035 1095 m 13 Y s 1049 1102 m 6 Y s
 1063 1102 m 6 Y s 1076 1102 m 6 Y s 1090 1102 m 6 Y s 1104 1095 m 13 Y s 1117 1102 m 6 Y s 1131 1102 m 6 Y s 1144 1102 m 6 Y s 1158 1102 m 6 Y s 1172 1095 m 13 Y s 1185 1102 m 6 Y s 1199 1102 m 6 Y s 1213 1102 m 6 Y s 1226 1102 m 6 Y s 1240 1095 m
 13 Y s 1254 1102 m 6 Y s 1267 1102 m 6 Y s 1281 1102 m 6 Y s 1295 1102 m 6 Y s 1308 1095 m 13 Y s 1322 1102 m 6 Y s 1336 1102 m 6 Y s 1349 1102 m 6 Y s 1363 1102 m 6 Y s 1376 1095 m 13 Y s 1390 1102 m 6 Y s 1404 1102 m 6 Y s 1417 1102 m 6 Y s 1431
 1102 m 6 Y s 1445 1095 m 13 Y s 967 1095 m 13 Y s 953 1102 m 6 Y s 940 1102 m 6 Y s 926 1102 m 6 Y s 912 1102 m 6 Y s 1445 1095 m 13 Y s 899 681 m 427 Y s
 gsave  710 565 779 600 C 801.374 1051.45 t 90 r /Helvetica findfont 28.5208 sf 0 0 m (100 ) show NC gr 
 gsave  710 565 779 600 C 787.165 1045.76 t 90 r /Helvetica findfont 19.9646 sf 0 0 m ( ) show NC gr 
 gsave  710 565 779 600 C 801.374 1034.4 t 90 r /Helvetica findfont 28.5208 sf 0 0 m (/) show NC gr 
 gsave  710 565 779 600 C 809.899 1028.71 t 90 r /Helvetica findfont 19.9646 sf 0 0 m ( ) show NC gr 
 gsave  710 565 779 600 C 801.374 920.727 t 90 r /Helvetica findfont 28.5208 sf 0 0 m (\(1/N\) dN) show NC gr  915 681 m -16 X s 907 702 m -8 X s 907 723 m -8 X s 907 744 m -8 X s 915 765 m -16 X s 907 785 m -8 X s 907 806 m -8 X s 907 827 m -8 X s
 915 848 m -16 X s 907 868 m -8 X s 907 889 m -8 X s 907 910 m -8 X s 915 931 m -16 X s 907 952 m -8 X s 907 972 m -8 X s 907 993 m -8 X s 915 1014 m -16 X s 907 1035 m -8 X s 907 1056 m -8 X s 907 1076 m -8 X s 915 1097 m -16 X s 915 1097 m -16 X s
 gsave  710 565 779 600 C 875.259 670.653 t 0 r /Helvetica findfont 25.6688 sf 0 0 m (0) show NC gr 
 gsave  710 565 779 600 C 824.107 755.906 t 0 r /Helvetica findfont 25.6688 sf 0 0 m (0.002) show NC gr 
 gsave  710 565 779 600 C 824.107 838.316 t 0 r /Helvetica findfont 25.6688 sf 0 0 m (0.004) show NC gr 
 gsave  710 565 779 600 C 824.107 920.727 t 0 r /Helvetica findfont 25.6688 sf 0 0 m (0.006) show NC gr 
 gsave  710 565 779 600 C 824.107 1003.14 t 0 r /Helvetica findfont 25.6688 sf 0 0 m (0.008) show NC gr 
 gsave  710 565 779 600 C 844 1088.39 t 0 r /Helvetica findfont 25.6688 sf 0 0 m (0.01) show NC gr  1447 681 m 427 Y s 1430 681 m 17 X s 1438 702 m 9 X s 1438 723 m 9 X s 1438 744 m 9 X s 1430 765 m 17 X s 1438 785 m 9 X s 1438 806 m 9 X s 1438 827 m
 9 X s 1430 848 m 17 X s 1438 868 m 9 X s 1438 889 m 9 X s 1438 910 m 9 X s 1430 931 m 17 X s 1438 952 m 9 X s 1438 972 m 9 X s 1438 993 m 9 X s 1430 1014 m 17 X s 1438 1035 m 9 X s 1438 1056 m 9 X s 1438 1076 m 9 X s 1430 1097 m 17 X s 1430 1097 m
 17 X s 1 0 0 c 6 lw black 3 lw 1 0 0 c 1432 681 m s 1417 682 m -1 Y s 1402 682 m -1 Y s 1387 681 m s 1372 681 m s 1357 681 m s 1342 681 m s 1327 681 m s 1312 682 m -1 -1 d s 1296 681 m s 1281 681 m s 1266 681 m cl s 1251 681 m s 1237 682 m -1 -1 d s
 1221 681 m cl s 1206 681 m s 1191 681 m cl s 1176 681 m cl s 1161 682 m -1 Y s 1146 681 m s 1131 681 m s 1116 682 m -1 Y s 1101 682 m -1 -1 d s 1086 682 m -1 -1 d s 1071 682 m -1 -1 d s 1055 682 m -1 Y s 1040 681 m s 1025 682 m -1 Y s 1010 682 m -1
 Y s 995 681 m s 981 683 m -1 -2 d s 966 683 m -1 -2 d s 952 684 m -2 -3 d s 938 685 m -3 -4 d s 927 689 m -7 -8 d s 917 694 m -12 -13 d s 913 705 m -14 -14 d s 913 720 m -14 -13 d s 913 735 m -14 -13 d s 913 751 m -14 -14 d s 913 766 m -14 -14 d s
 913 781 m -14 -14 d s 913 796 m -14 -14 d s 913 811 m -14 -13 d s 913 827 m -14 -14 d s 913 842 m -14 -14 d s 913 857 m -14 -14 d s 913 872 m -14 -14 d s 913 887 m -14 -13 d s 913 903 m -14 -14 d s 913 918 m -14 -14 d s 913 933 m -14 -14 d s 913 948
 m -14 -14 d s 913 963 m -14 -14 d s 913 978 m -14 -13 d s 913 994 m -14 -14 d s 913 1009 m -14 -14 d s 913 1024 m -14 -14 d s 913 1039 m -14 -14 d s 913 1054 m -14 -13 d s 913 1069 m -14 -13 d s 6 lw 899 1069 m 14 X -375 Y 14 X -9 Y 13 X -1 Y 14 X
 -1 Y 14 X 1 Y 13 X -2 Y 14 X -1 Y 14 X 1 Y 27 X -1 Y 14 X 1 Y 68 X -1 Y 41 X 1 Y 14 X -1 Y 55 X 1 Y 13 X -1 Y 69 X 1 Y 13 X -1 Y 69 X 1 Y 27 X -1 Y 28 X s black 3 lw 899 681 m 548 X s 967 694 m -13 Y s 981 688 m -7 Y s 994 688 m -7 Y s 1008 688 m -7
 Y s 1022 688 m -7 Y s 1035 694 m -13 Y s 1049 688 m -7 Y s 1063 688 m -7 Y s 1076 688 m -7 Y s 1090 688 m -7 Y s 1104 694 m -13 Y s 1117 688 m -7 Y s 1131 688 m -7 Y s 1144 688 m -7 Y s 1158 688 m -7 Y s 1172 694 m -13 Y s 1185 688 m -7 Y s 1199 688
 m -7 Y s 1213 688 m -7 Y s 1226 688 m -7 Y s 1240 694 m -13 Y s 1254 688 m -7 Y s 1267 688 m -7 Y s 1281 688 m -7 Y s 1295 688 m -7 Y s 1308 694 m -13 Y s 1322 688 m -7 Y s 1336 688 m -7 Y s 1349 688 m -7 Y s 1363 688 m -7 Y s 1376 694 m -13 Y s
 1390 688 m -7 Y s 1404 688 m -7 Y s 1417 688 m -7 Y s 1431 688 m -7 Y s 1445 694 m -13 Y s 967 694 m -13 Y s 953 688 m -7 Y s 940 688 m -7 Y s 926 688 m -7 Y s 912 688 m -7 Y s 1445 694 m -13 Y s 899 1108 m 548 X s 967 1095 m 13 Y s 981 1102 m 6 Y s
 994 1102 m 6 Y s 1008 1102 m 6 Y s 1022 1102 m 6 Y s 1035 1095 m 13 Y s 1049 1102 m 6 Y s 1063 1102 m 6 Y s 1076 1102 m 6 Y s 1090 1102 m 6 Y s 1104 1095 m 13 Y s 1117 1102 m 6 Y s 1131 1102 m 6 Y s 1144 1102 m 6 Y s 1158 1102 m 6 Y s 1172 1095 m 13
 Y s 1185 1102 m 6 Y s 1199 1102 m 6 Y s 1213 1102 m 6 Y s 1226 1102 m 6 Y s 1240 1095 m 13 Y s 1254 1102 m 6 Y s 1267 1102 m 6 Y s 1281 1102 m 6 Y s 1295 1102 m 6 Y s 1308 1095 m 13 Y s 1322 1102 m 6 Y s 1336 1102 m 6 Y s 1349 1102 m 6 Y s 1363 1102
 m 6 Y s 1376 1095 m 13 Y s 1390 1102 m 6 Y s 1404 1102 m 6 Y s 1417 1102 m 6 Y s 1431 1102 m 6 Y s 1445 1095 m 13 Y s 967 1095 m 13 Y s 953 1102 m 6 Y s 940 1102 m 6 Y s 926 1102 m 6 Y s 912 1102 m 6 Y s 1445 1095 m 13 Y s 899 681 m 427 Y s 915 681
 m -16 X s 907 702 m -8 X s 907 723 m -8 X s 907 744 m -8 X s 915 765 m -16 X s 907 785 m -8 X s 907 806 m -8 X s 907 827 m -8 X s 915 848 m -16 X s 907 868 m -8 X s 907 889 m -8 X s 907 910 m -8 X s 915 931 m -16 X s 907 952 m -8 X s 907 972 m -8 X
 s 907 993 m -8 X s 915 1014 m -16 X s 907 1035 m -8 X s 907 1056 m -8 X s 907 1076 m -8 X s 915 1097 m -16 X s 915 1097 m -16 X s 1447 681 m 427 Y s 1430 681 m 17 X s 1438 702 m 9 X s 1438 723 m 9 X s 1438 744 m 9 X s 1430 765 m 17 X s 1438 785 m 9
 X s 1438 806 m 9 X s 1438 827 m 9 X s 1430 848 m 17 X s 1438 868 m 9 X s 1438 889 m 9 X s 1438 910 m 9 X s 1430 931 m 17 X s 1438 952 m 9 X s 1438 972 m 9 X s 1438 993 m 9 X s 1430 1014 m 17 X s 1438 1035 m 9 X s 1438 1056 m 9 X s 1438 1076 m 9 X s
 1430 1097 m 17 X s 1430 1097 m 17 X s
 gsave  710 565 779 600 C 1474.92 679.067 t 90 r /Helvetica-Bold findfont 19.9646 sf 0 0 m (U/O\255flow \(S,B\): \(0.0, 0.0\)% / \(0.3, 0.1\)%) show NC gr  0.490196 0.545098 0.615686 c 0.364706 0.419608 0.490196 c 497 38 786 1124 bf 0.490196 0.545098
 0.615686 c 786 1124 m 497 X s 1283 1124 m 38 Y s 1283 1162 m -497 X s 786 1162 m -38 Y s 1 1 1 c black 1 1 1 c
 gsave  710 565 779 600 C 781.481 1136.7 t 0 r /Helvetica-Bold findfont 28.5208 sf 0 0 m (Input variable: Bach_Min_IPCHI2_PV			) show NC gr  0.490196 0.545098 0.615686 c 1 1 1 c 711 565 1534 600 bf black 1 1 1 c 547 427 1655 681 bf black 547 427 1655
 681 bl 1 1 1 c 547 427 1655 681 bf black 547 427 1655 681 bl 0 0 0.933333 c 6 lw 0.49 0.6 0.82 c black 3 lw 0.49 0.6 0.82 c 1655 681 m 69 Y 14 X 71 Y 14 X -18 Y 13 X 8 Y 14 X 16 Y 14 X -36 Y 13 X -10 Y 14 X -15 Y 14 X -18 Y 13 X -8 Y 14 X -4 Y 14 X
 -17 Y 13 X 9 Y 14 X -31 Y 14 X 4 Y 13 X -12 Y 14 X 16 Y 14 X -12 Y 13 X -4 Y 14 X 2 Y 14 X 2 Y 14 X -2 Y 13 X -8 Y 14 X 6 Y 14 X -2 Y 13 X 2 Y 14 X -6 Y 14 X 2 Y 13 X -2 Y 14 X 2 Y 27 X -4 Y 14 X 2 Y 27 X -2 Y 55 X 2 Y 27 X -2 Y f 6 lw 0 0 0.933333
 c 0.49 0.6 0.82 c 0 0 0.933333 c 1655 750 m 14 X 71 Y 14 X -18 Y 13 X 8 Y 14 X 16 Y 14 X -36 Y 13 X -10 Y 14 X -15 Y 14 X -18 Y 13 X -8 Y 14 X -4 Y 14 X -17 Y 13 X 9 Y 14 X -31 Y 14 X 4 Y 13 X -12 Y 14 X 16 Y 14 X -12 Y 13 X -4 Y 14 X 2 Y 14 X 2 Y
 14 X -2 Y 13 X -8 Y 14 X 6 Y 14 X -2 Y 13 X 2 Y 14 X -6 Y 14 X 2 Y 13 X -2 Y 14 X 2 Y 27 X -4 Y 14 X 2 Y 27 X -2 Y 55 X 2 Y 27 X s black 3 lw 1655 681 m 547 X s
 gsave  711 565 1534 600 C 2023.33 610.976 t 0 r /Helvetica findfont 28.5208 sf 0 0 m (Bach_Min_PT					) show NC gr  1704 694 m -13 Y s 1717 688 m -7 Y s 1729 688 m -7 Y s 1741 688 m -7 Y s 1754 688 m -7 Y s 1766 694 m -13 Y s 1778 688 m -7 Y s 1791
 688 m -7 Y s 1803 688 m -7 Y s 1815 688 m -7 Y s 1828 694 m -13 Y s 1840 688 m -7 Y s 1852 688 m -7 Y s 1865 688 m -7 Y s 1877 688 m -7 Y s 1889 694 m -13 Y s 1901 688 m -7 Y s 1914 688 m -7 Y s 1926 688 m -7 Y s 1938 688 m -7 Y s 1951 694 m -13 Y s
 1963 688 m -7 Y s 1975 688 m -7 Y s 1988 688 m -7 Y s 2000 688 m -7 Y s 2012 694 m -13 Y s 2025 688 m -7 Y s 2037 688 m -7 Y s 2049 688 m -7 Y s 2061 688 m -7 Y s 2074 694 m -13 Y s 2086 688 m -7 Y s 2098 688 m -7 Y s 2111 688 m -7 Y s 2123 688 m -7
 Y s 2135 694 m -13 Y s 2148 688 m -7 Y s 2160 688 m -7 Y s 2172 688 m -7 Y s 2185 688 m -7 Y s 2197 694 m -13 Y s 1704 694 m -13 Y s 1692 688 m -7 Y s 1680 688 m -7 Y s 1668 688 m -7 Y s 2197 694 m -13 Y s
 gsave  711 565 1534 600 C 1679.47 653.603 t 0 r /Helvetica findfont 25.6688 sf 0 0 m (500) show NC gr 
 gsave  711 565 1534 600 C 1736.31 653.603 t 0 r /Helvetica findfont 25.6688 sf 0 0 m (1000) show NC gr 
 gsave  711 565 1534 600 C 1798.83 653.603 t 0 r /Helvetica findfont 25.6688 sf 0 0 m (1500) show NC gr 
 gsave  711 565 1534 600 C 1858.5 653.603 t 0 r /Helvetica findfont 25.6688 sf 0 0 m (2000) show NC gr 
 gsave  711 565 1534 600 C 1921.02 653.603 t 0 r /Helvetica findfont 25.6688 sf 0 0 m (2500) show NC gr 
 gsave  711 565 1534 600 C 1983.54 653.603 t 0 r /Helvetica findfont 25.6688 sf 0 0 m (3000) show NC gr 
 gsave  711 565 1534 600 C 2043.22 653.603 t 0 r /Helvetica findfont 25.6688 sf 0 0 m (3500) show NC gr 
 gsave  711 565 1534 600 C 2105.74 653.603 t 0 r /Helvetica findfont 25.6688 sf 0 0 m (4000) show NC gr 
 gsave  711 565 1534 600 C 2168.26 653.603 t 0 r /Helvetica findfont 25.6688 sf 0 0 m (4500) show NC gr  1655 1108 m 547 X s 1704 1095 m 13 Y s 1717 1102 m 6 Y s 1729 1102 m 6 Y s 1741 1102 m 6 Y s 1754 1102 m 6 Y s 1766 1095 m 13 Y s 1778 1102 m 6 Y
 s 1791 1102 m 6 Y s 1803 1102 m 6 Y s 1815 1102 m 6 Y s 1828 1095 m 13 Y s 1840 1102 m 6 Y s 1852 1102 m 6 Y s 1865 1102 m 6 Y s 1877 1102 m 6 Y s 1889 1095 m 13 Y s 1901 1102 m 6 Y s 1914 1102 m 6 Y s 1926 1102 m 6 Y s 1938 1102 m 6 Y s 1951 1095 m
 13 Y s 1963 1102 m 6 Y s 1975 1102 m 6 Y s 1988 1102 m 6 Y s 2000 1102 m 6 Y s 2012 1095 m 13 Y s 2025 1102 m 6 Y s 2037 1102 m 6 Y s 2049 1102 m 6 Y s 2061 1102 m 6 Y s 2074 1095 m 13 Y s 2086 1102 m 6 Y s 2098 1102 m 6 Y s 2111 1102 m 6 Y s 2123
 1102 m 6 Y s 2135 1095 m 13 Y s 2148 1102 m 6 Y s 2160 1102 m 6 Y s 2172 1102 m 6 Y s 2185 1102 m 6 Y s 2197 1095 m 13 Y s 1704 1095 m 13 Y s 1692 1102 m 6 Y s 1680 1102 m 6 Y s 1668 1102 m 6 Y s 2197 1095 m 13 Y s 1655 681 m 427 Y s
 gsave  711 565 1534 600 C 1557.28 1057.13 t 90 r /Helvetica findfont 28.5208 sf 0 0 m (111 ) show NC gr 
 gsave  711 565 1534 600 C 1543.07 1051.45 t 90 r /Helvetica findfont 19.9646 sf 0 0 m ( ) show NC gr 
 gsave  711 565 1534 600 C 1557.28 1040.08 t 90 r /Helvetica findfont 28.5208 sf 0 0 m (/) show NC gr 
 gsave  711 565 1534 600 C 1565.8 1034.4 t 90 r /Helvetica findfont 19.9646 sf 0 0 m ( ) show NC gr 
 gsave  711 565 1534 600 C 1557.28 926.411 t 90 r /Helvetica findfont 28.5208 sf 0 0 m (\(1/N\) dN) show NC gr  1671 681 m -16 X s 1663 696 m -8 X s 1663 711 m -8 X s 1663 726 m -8 X s 1663 740 m -8 X s 1671 755 m -16 X s 1663 770 m -8 X s 1663 785 m
 -8 X s 1663 799 m -8 X s 1663 814 m -8 X s 1671 829 m -16 X s 1663 844 m -8 X s 1663 858 m -8 X s 1663 873 m -8 X s 1663 888 m -8 X s 1671 903 m -16 X s 1663 917 m -8 X s 1663 932 m -8 X s 1663 947 m -8 X s 1663 962 m -8 X s 1671 977 m -16 X s 1663
 991 m -8 X s 1663 1006 m -8 X s 1663 1021 m -8 X s 1663 1036 m -8 X s 1671 1050 m -16 X s 1671 1050 m -16 X s 1663 1065 m -8 X s 1663 1080 m -8 X s 1663 1095 m -8 X s
 gsave  711 565 1534 600 C 1631.16 670.653 t 0 r /Helvetica findfont 25.6688 sf 0 0 m (0) show NC gr 
 gsave  711 565 1534 600 C 1565.8 744.539 t 0 r /Helvetica findfont 25.6688 sf 0 0 m (0.0005) show NC gr 
 gsave  711 565 1534 600 C 1585.7 818.424 t 0 r /Helvetica findfont 25.6688 sf 0 0 m (0.001) show NC gr 
 gsave  711 565 1534 600 C 1565.8 892.31 t 0 r /Helvetica findfont 25.6688 sf 0 0 m (0.0015) show NC gr 
 gsave  711 565 1534 600 C 1580.01 966.195 t 0 r /Helvetica findfont 25.6688 sf 0 0 m (0.002) show NC gr 
 gsave  711 565 1534 600 C 1565.8 1040.08 t 0 r /Helvetica findfont 25.6688 sf 0 0 m (0.0025) show NC gr  2202 681 m 427 Y s 2186 681 m 16 X s 2194 696 m 8 X s 2194 711 m 8 X s 2194 726 m 8 X s 2194 740 m 8 X s 2186 755 m 16 X s 2194 770 m 8 X s 2194
 785 m 8 X s 2194 799 m 8 X s 2194 814 m 8 X s 2186 829 m 16 X s 2194 844 m 8 X s 2194 858 m 8 X s 2194 873 m 8 X s 2194 888 m 8 X s 2186 903 m 16 X s 2194 917 m 8 X s 2194 932 m 8 X s 2194 947 m 8 X s 2194 962 m 8 X s 2186 977 m 16 X s 2194 991 m 8
 X s 2194 1006 m 8 X s 2194 1021 m 8 X s 2194 1036 m 8 X s 2186 1050 m 16 X s 2186 1050 m 16 X s 2194 1065 m 8 X s 2194 1080 m 8 X s 2194 1095 m 8 X s 1 0 0 c 6 lw black 3 lw 1 0 0 c 2188 681 m s 2173 681 m s 2158 681 m s 2143 681 m s 2128 681 m s
 2113 681 m s 2098 681 m s 2083 682 m -1 -1 d s 2067 681 m s 2052 681 m s 2037 681 m s 2023 682 m -1 -1 d s 2007 681 m cl s 1994 683 m -2 -2 d s 1978 682 m -1 -1 d s 1963 682 m -1 -1 d s 1949 684 m -2 -3 d s 1932 681 m s 1918 683 m -1 -2 d s 1902 681
 m s 1890 685 m -3 -4 d s 1878 688 m -4 -4 d s 1874 684 m -3 -3 d s 1859 684 m -3 -3 d s 1846 686 m -5 -5 d s 1833 688 m -7 -7 d s 1822 692 m -3 -2 d s 1814 685 m -3 -4 d s 1806 691 m -10 -10 d s 1794 694 m -13 -13 d s 1779 695 m -13 -14 d s 1768 699
 m -17 -18 d s 1759 704 m -23 -23 d s 1751 712 m -30 -31 d s 1744 720 m -38 -39 d s 1737 728 m -46 -47 d s 1726 732 m -51 -51 d s 1724 745 m -64 -64 d s 1724 760 m -69 -69 d s 1719 771 m -64 -64 d s 1710 777 m -55 -55 d s 1700 782 m -45 -45 d s 1696
 793 m -41 -41 d s 1696 809 m -41 -42 d s 1696 824 m -41 -42 d s 1696 839 m -41 -41 d s 1696 854 m -41 -41 d s 1696 869 m -41 -41 d s 1696 885 m -41 -42 d s 1696 900 m -41 -42 d s 1686 904 m -31 -30 d s 1683 916 m -28 -27 d s 1683 931 m -28 -27 d s
 1683 947 m -28 -28 d s 1683 962 m -28 -28 d s 1683 977 m -28 -28 d s 1683 992 m -28 -27 d s 1683 1007 m -28 -27 d s 1683 1023 m -14 -14 d s 1668 1008 m -13 -13 d s 1683 1038 m -14 -14 d s 1683 1053 m -14 -14 d s 1683 1068 m -14 -14 d s 6 lw 1655
 1008 m 14 X 61 Y 14 X -165 Y 13 X -122 Y 14 X -11 Y 14 X -39 Y 13 X -12 Y 14 X -16 Y 14 X -5 Y 13 X -4 Y 14 X -1 Y 14 X -9 Y 13 X 7 Y 14 X -6 Y 14 X -2 Y 27 X 4 Y 14 X -3 Y 13 X -4 Y 14 X 2 Y 14 X -2 Y 14 X 3 Y 13 X -2 Y 28 X 1 Y 13 X -2 Y 14 X 1 Y
 14 X -1 Y 13 X 1 Y 14 X -1 Y 27 X 1 Y 14 X -1 Y 109 X s black 3 lw 1655 681 m 547 X s 1704 694 m -13 Y s 1717 688 m -7 Y s 1729 688 m -7 Y s 1741 688 m -7 Y s 1754 688 m -7 Y s 1766 694 m -13 Y s 1778 688 m -7 Y s 1791 688 m -7 Y s 1803 688 m -7 Y s
 1815 688 m -7 Y s 1828 694 m -13 Y s 1840 688 m -7 Y s 1852 688 m -7 Y s 1865 688 m -7 Y s 1877 688 m -7 Y s 1889 694 m -13 Y s 1901 688 m -7 Y s 1914 688 m -7 Y s 1926 688 m -7 Y s 1938 688 m -7 Y s 1951 694 m -13 Y s 1963 688 m -7 Y s 1975 688 m
 -7 Y s 1988 688 m -7 Y s 2000 688 m -7 Y s 2012 694 m -13 Y s 2025 688 m -7 Y s 2037 688 m -7 Y s 2049 688 m -7 Y s 2061 688 m -7 Y s 2074 694 m -13 Y s 2086 688 m -7 Y s 2098 688 m -7 Y s 2111 688 m -7 Y s 2123 688 m -7 Y s 2135 694 m -13 Y s 2148
 688 m -7 Y s 2160 688 m -7 Y s 2172 688 m -7 Y s 2185 688 m -7 Y s 2197 694 m -13 Y s 1704 694 m -13 Y s 1692 688 m -7 Y s 1680 688 m -7 Y s 1668 688 m -7 Y s 2197 694 m -13 Y s 1655 1108 m 547 X s 1704 1095 m 13 Y s 1717 1102 m 6 Y s 1729 1102 m 6
 Y s 1741 1102 m 6 Y s 1754 1102 m 6 Y s 1766 1095 m 13 Y s 1778 1102 m 6 Y s 1791 1102 m 6 Y s 1803 1102 m 6 Y s 1815 1102 m 6 Y s 1828 1095 m 13 Y s 1840 1102 m 6 Y s 1852 1102 m 6 Y s 1865 1102 m 6 Y s 1877 1102 m 6 Y s 1889 1095 m 13 Y s 1901
 1102 m 6 Y s 1914 1102 m 6 Y s 1926 1102 m 6 Y s 1938 1102 m 6 Y s 1951 1095 m 13 Y s 1963 1102 m 6 Y s 1975 1102 m 6 Y s 1988 1102 m 6 Y s 2000 1102 m 6 Y s 2012 1095 m 13 Y s 2025 1102 m 6 Y s 2037 1102 m 6 Y s 2049 1102 m 6 Y s 2061 1102 m 6 Y s
 2074 1095 m 13 Y s 2086 1102 m 6 Y s 2098 1102 m 6 Y s 2111 1102 m 6 Y s 2123 1102 m 6 Y s 2135 1095 m 13 Y s 2148 1102 m 6 Y s 2160 1102 m 6 Y s 2172 1102 m 6 Y s 2185 1102 m 6 Y s 2197 1095 m 13 Y s 1704 1095 m 13 Y s 1692 1102 m 6 Y s 1680 1102 m
 6 Y s 1668 1102 m 6 Y s 2197 1095 m 13 Y s 1655 681 m 427 Y s 1671 681 m -16 X s 1663 696 m -8 X s 1663 711 m -8 X s 1663 726 m -8 X s 1663 740 m -8 X s 1671 755 m -16 X s 1663 770 m -8 X s 1663 785 m -8 X s 1663 799 m -8 X s 1663 814 m -8 X s 1671
 829 m -16 X s 1663 844 m -8 X s 1663 858 m -8 X s 1663 873 m -8 X s 1663 888 m -8 X s 1671 903 m -16 X s 1663 917 m -8 X s 1663 932 m -8 X s 1663 947 m -8 X s 1663 962 m -8 X s 1671 977 m -16 X s 1663 991 m -8 X s 1663 1006 m -8 X s 1663 1021 m -8 X
 s 1663 1036 m -8 X s 1671 1050 m -16 X s 1671 1050 m -16 X s 1663 1065 m -8 X s 1663 1080 m -8 X s 1663 1095 m -8 X s 2202 681 m 427 Y s 2186 681 m 16 X s 2194 696 m 8 X s 2194 711 m 8 X s 2194 726 m 8 X s 2194 740 m 8 X s 2186 755 m 16 X s 2194 770
 m 8 X s 2194 785 m 8 X s 2194 799 m 8 X s 2194 814 m 8 X s 2186 829 m 16 X s 2194 844 m 8 X s 2194 858 m 8 X s 2194 873 m 8 X s 2194 888 m 8 X s 2186 903 m 16 X s 2194 917 m 8 X s 2194 932 m 8 X s 2194 947 m 8 X s 2194 962 m 8 X s 2186 977 m 16 X s
 2194 991 m 8 X s 2194 1006 m 8 X s 2194 1021 m 8 X s 2194 1036 m 8 X s 2186 1050 m 16 X s 2186 1050 m 16 X s 2194 1065 m 8 X s 2194 1080 m 8 X s 2194 1095 m 8 X s
 gsave  711 565 1534 600 C 2230.83 679.067 t 90 r /Helvetica-Bold findfont 19.9646 sf 0 0 m (U/O\255flow \(S,B\): \(0.0, 0.0\)% / \(0.0, 0.0\)%) show NC gr  0.490196 0.545098 0.615686 c 0.364706 0.419608 0.490196 c 403 38 1542 1124 bf 0.490196
 0.545098 0.615686 c 1542 1124 m 403 X s 1945 1124 m 38 Y s 1945 1162 m -403 X s 1542 1162 m -38 Y s 1 1 1 c black 1 1 1 c
 gsave  711 565 1534 600 C 1545.91 1136.7 t 0 r /Helvetica-Bold findfont 28.5208 sf 0 0 m (Input variable: Bach_Min_PT					) show NC gr  0.490196 0.545098 0.615686 c 1 1 1 c 710 564 23 12 bf black 1 1 1 c 548 427 143 93 bf black 548 427 143 93 bl 1 1
 1 c 548 427 143 93 bf black 548 427 143 93 bl 0 0 0.933333 c 6 lw 0.49 0.6 0.82 c black 3 lw 0.49 0.6 0.82 c 143 93 m 237 Y 14 X -165 Y 14 X -42 Y 14 X -9 Y 13 X -6 Y 14 X -2 Y 14 X -8 Y 13 X 2 Y 14 X -1 Y 14 X -1 Y 13 X -2 Y 14 X -2 Y 14 X -1 Y 13
 X 2 Y 14 X 1 Y 14 X -2 Y 27 X -1 Y 14 X 1 Y 13 X 1 Y 14 X -1 Y 14 X -1 Y 13 X 1 Y 14 X -1 Y 14 X 1 Y 41 X -1 Y 13 X 2 Y 14 X -2 Y 96 X 1 Y 14 X -1 Y 13 X 1 Y 14 X -1 Y 14 X f 6 lw 0 0 0.933333 c 0.49 0.6 0.82 c 0 0 0.933333 c 143 330 m 14 X -165 Y
 14 X -42 Y 14 X -9 Y 13 X -6 Y 14 X -2 Y 14 X -8 Y 13 X 2 Y 14 X -1 Y 14 X -1 Y 13 X -2 Y 14 X -2 Y 14 X -1 Y 13 X 2 Y 14 X 1 Y 14 X -2 Y 27 X -1 Y 14 X 1 Y 13 X 1 Y 14 X -1 Y 14 X -1 Y 13 X 1 Y 14 X -1 Y 14 X 1 Y 41 X -1 Y 13 X 2 Y 14 X -2 Y 96 X 1
 Y 14 X -1 Y 13 X 1 Y 14 X -1 Y 14 X s black 3 lw 143 93 m 548 X s
 gsave  710 564 23 12 C 375.111 22.734 t 0 r /Helvetica findfont 28.5208 sf 0 0 m (DdauPi_Min_IPCHI2_PV		) show NC gr  202 106 m -13 Y s 213 100 m -7 Y s 225 100 m -7 Y s 237 100 m -7 Y s 248 100 m -7 Y s 260 106 m -13 Y s 272 100 m -7 Y s 283 100 m
 -7 Y s 295 100 m -7 Y s 307 100 m -7 Y s 318 106 m -13 Y s 330 100 m -7 Y s 342 100 m -7 Y s 353 100 m -7 Y s 365 100 m -7 Y s 377 106 m -13 Y s 388 100 m -7 Y s 400 100 m -7 Y s 412 100 m -7 Y s 423 100 m -7 Y s 435 106 m -13 Y s 447 100 m -7 Y s
 458 100 m -7 Y s 470 100 m -7 Y s 482 100 m -7 Y s 493 106 m -13 Y s 505 100 m -7 Y s 517 100 m -7 Y s 528 100 m -7 Y s 540 100 m -7 Y s 552 106 m -13 Y s 563 100 m -7 Y s 575 100 m -7 Y s 587 100 m -7 Y s 598 100 m -7 Y s 610 106 m -13 Y s 622 100
 m -7 Y s 633 100 m -7 Y s 645 100 m -7 Y s 657 100 m -7 Y s 668 106 m -13 Y s 202 106 m -13 Y s 190 100 m -7 Y s 178 100 m -7 Y s 167 100 m -7 Y s 155 100 m -7 Y s 668 106 m -13 Y s 680 100 m -7 Y s
 gsave  710 564 23 12 C 170.505 65.3603 t 0 r /Helvetica findfont 25.6688 sf 0 0 m (1000) show NC gr 
 gsave  710 564 23 12 C 230.182 65.3603 t 0 r /Helvetica findfont 25.6688 sf 0 0 m (2000) show NC gr 
 gsave  710 564 23 12 C 289.858 65.3603 t 0 r /Helvetica findfont 25.6688 sf 0 0 m (3000) show NC gr 
 gsave  710 564 23 12 C 346.694 65.3603 t 0 r /Helvetica findfont 25.6688 sf 0 0 m (4000) show NC gr 
 gsave  710 564 23 12 C 406.37 65.3603 t 0 r /Helvetica findfont 25.6688 sf 0 0 m (5000) show NC gr 
 gsave  710 564 23 12 C 463.205 65.3603 t 0 r /Helvetica findfont 25.6688 sf 0 0 m (6000) show NC gr 
 gsave  710 564 23 12 C 522.882 65.3603 t 0 r /Helvetica findfont 25.6688 sf 0 0 m (7000) show NC gr 
 gsave  710 564 23 12 C 579.717 65.3603 t 0 r /Helvetica findfont 25.6688 sf 0 0 m (8000) show NC gr 
 gsave  710 564 23 12 C 639.394 65.3603 t 0 r /Helvetica findfont 25.6688 sf 0 0 m (9000) show NC gr  143 520 m 548 X s 202 507 m 13 Y s 213 513 m 7 Y s 225 513 m 7 Y s 237 513 m 7 Y s 248 513 m 7 Y s 260 507 m 13 Y s 272 513 m 7 Y s 283 513 m 7 Y s
 295 513 m 7 Y s 307 513 m 7 Y s 318 507 m 13 Y s 330 513 m 7 Y s 342 513 m 7 Y s 353 513 m 7 Y s 365 513 m 7 Y s 377 507 m 13 Y s 388 513 m 7 Y s 400 513 m 7 Y s 412 513 m 7 Y s 423 513 m 7 Y s 435 507 m 13 Y s 447 513 m 7 Y s 458 513 m 7 Y s 470
 513 m 7 Y s 482 513 m 7 Y s 493 507 m 13 Y s 505 513 m 7 Y s 517 513 m 7 Y s 528 513 m 7 Y s 540 513 m 7 Y s 552 507 m 13 Y s 563 513 m 7 Y s 575 513 m 7 Y s 587 513 m 7 Y s 598 513 m 7 Y s 610 507 m 13 Y s 622 513 m 7 Y s 633 513 m 7 Y s 645 513 m
 7 Y s 657 513 m 7 Y s 668 507 m 13 Y s 202 507 m 13 Y s 190 513 m 7 Y s 178 513 m 7 Y s 167 513 m 7 Y s 155 513 m 7 Y s 668 507 m 13 Y s 680 513 m 7 Y s 143 93 m 427 Y s
 gsave  710 564 23 12 C 45.468 463.205 t 90 r /Helvetica findfont 28.5208 sf 0 0 m (234 ) show NC gr 
 gsave  710 564 23 12 C 31.2593 457.522 t 90 r /Helvetica findfont 19.9646 sf 0 0 m ( ) show NC gr 
 gsave  710 564 23 12 C 45.468 446.155 t 90 r /Helvetica findfont 28.5208 sf 0 0 m (/) show NC gr 
 gsave  710 564 23 12 C 53.9933 440.471 t 90 r /Helvetica findfont 19.9646 sf 0 0 m ( ) show NC gr 
 gsave  710 564 23 12 C 45.468 332.485 t 90 r /Helvetica findfont 28.5208 sf 0 0 m (\(1/N\) dN) show NC gr  160 93 m -17 X s 152 103 m -9 X s 152 113 m -9 X s 152 124 m -9 X s 152 134 m -9 X s 160 144 m -17 X s 152 154 m -9 X s 152 164 m -9 X s 152
 174 m -9 X s 152 184 m -9 X s 160 195 m -17 X s 152 205 m -9 X s 152 215 m -9 X s 152 225 m -9 X s 152 235 m -9 X s 160 245 m -17 X s 152 255 m -9 X s 152 266 m -9 X s 152 276 m -9 X s 152 286 m -9 X s 160 296 m -17 X s 152 306 m -9 X s 152 316 m -9
 X s 152 327 m -9 X s 152 337 m -9 X s 160 347 m -17 X s 152 357 m -9 X s 152 367 m -9 X s 152 377 m -9 X s 152 387 m -9 X s 160 398 m -17 X s 152 408 m -9 X s 152 418 m -9 X s 152 428 m -9 X s 152 438 m -9 X s 160 448 m -17 X s 152 458 m -9 X s 152
 469 m -9 X s 152 479 m -9 X s 152 489 m -9 X s 160 499 m -17 X s 160 499 m -17 X s 152 509 m -9 X s 152 519 m -9 X s
 gsave  710 564 23 12 C 119.354 82.4108 t 0 r /Helvetica findfont 25.6688 sf 0 0 m (0) show NC gr 
 gsave  710 564 23 12 C 53.9933 133.562 t 0 r /Helvetica findfont 25.6688 sf 0 0 m (0.0005) show NC gr 
 gsave  710 564 23 12 C 73.8855 184.714 t 0 r /Helvetica findfont 25.6688 sf 0 0 m (0.001) show NC gr 
 gsave  710 564 23 12 C 53.9933 235.865 t 0 r /Helvetica findfont 25.6688 sf 0 0 m (0.0015) show NC gr 
 gsave  710 564 23 12 C 68.202 287.017 t 0 r /Helvetica findfont 25.6688 sf 0 0 m (0.002) show NC gr 
 gsave  710 564 23 12 C 53.9933 338.168 t 0 r /Helvetica findfont 25.6688 sf 0 0 m (0.0025) show NC gr 
 gsave  710 564 23 12 C 68.202 386.478 t 0 r /Helvetica findfont 25.6688 sf 0 0 m (0.003) show NC gr 
 gsave  710 564 23 12 C 53.9933 437.63 t 0 r /Helvetica findfont 25.6688 sf 0 0 m (0.0035) show NC gr 
 gsave  710 564 23 12 C 68.202 488.781 t 0 r /Helvetica findfont 25.6688 sf 0 0 m (0.004) show NC gr  691 93 m 427 Y s 674 93 m 17 X s 683 103 m 8 X s 683 113 m 8 X s 683 124 m 8 X s 683 134 m 8 X s 674 144 m 17 X s 683 154 m 8 X s 683 164 m 8 X s
 683 174 m 8 X s 683 184 m 8 X s 674 195 m 17 X s 683 205 m 8 X s 683 215 m 8 X s 683 225 m 8 X s 683 235 m 8 X s 674 245 m 17 X s 683 255 m 8 X s 683 266 m 8 X s 683 276 m 8 X s 683 286 m 8 X s 674 296 m 17 X s 683 306 m 8 X s 683 316 m 8 X s 683
 327 m 8 X s 683 337 m 8 X s 674 347 m 17 X s 683 357 m 8 X s 683 367 m 8 X s 683 377 m 8 X s 683 387 m 8 X s 674 398 m 17 X s 683 408 m 8 X s 683 418 m 8 X s 683 428 m 8 X s 683 438 m 8 X s 674 448 m 17 X s 683 458 m 8 X s 683 469 m 8 X s 683 479 m
 8 X s 683 489 m 8 X s 674 499 m 17 X s 674 499 m 17 X s 683 509 m 8 X s 683 519 m 8 X s 1 0 0 c 6 lw black 3 lw 1 0 0 c 676 93 m s 661 93 m s 646 93 m s 631 93 m s 616 93 m s 601 93 m s 586 93 m s 571 93 m s 556 93 m s 541 93 m s 525 93 m s 510 93 m
 cl s 495 93 m cl s 480 93 m s 465 93 m cl s 450 93 m s 435 93 m s 420 93 m cl s 405 94 m -1 Y s 390 93 m cl s 375 93 m s 360 93 m s 345 93 m cl s 329 93 m s 314 93 m s 300 93 m -1 X s 285 94 m -1 -1 d s 269 93 m s 254 93 m s 240 94 m -1 -1 d s 226
 95 m -2 -2 d s 211 95 m -2 -2 d s 198 97 m -4 -4 d s 185 99 m -6 -6 d s 173 102 m -9 -9 d s 171 115 m -22 -22 d s 157 117 m -14 -14 d s 157 132 m -14 -14 d s 157 147 m -14 -14 d s 157 162 m -14 -13 d s 157 178 m -14 -14 d s 157 193 m -14 -14 d s 157
 208 m -14 -14 d s 157 223 m -14 -14 d s 157 238 m -14 -13 d s 157 254 m -14 -14 d s 157 269 m -14 -14 d s 157 284 m -14 -14 d s 157 299 m -14 -14 d s 157 314 m -14 -13 d s 157 329 m -14 -13 d s 157 345 m -14 -14 d s 157 360 m -14 -14 d s 157 375 m
 -14 -14 d s 157 390 m -14 -14 d s 157 405 m -14 -13 d s 157 421 m -14 -14 d s 157 436 m -14 -14 d s 157 451 m -14 -14 d s 157 466 m -14 -14 d s 157 481 m -14 -13 d s 6 lw 143 481 m 14 X -365 Y 14 X -14 Y 14 X -5 Y 13 X -2 Y 28 X -1 Y 27 X -1 Y 27 X
 1 Y 14 X -1 Y 109 X 1 Y 14 X -1 Y 274 X s black 3 lw 143 93 m 548 X s 202 106 m -13 Y s 213 100 m -7 Y s 225 100 m -7 Y s 237 100 m -7 Y s 248 100 m -7 Y s 260 106 m -13 Y s 272 100 m -7 Y s 283 100 m -7 Y s 295 100 m -7 Y s 307 100 m -7 Y s 318 106
 m -13 Y s 330 100 m -7 Y s 342 100 m -7 Y s 353 100 m -7 Y s 365 100 m -7 Y s 377 106 m -13 Y s 388 100 m -7 Y s 400 100 m -7 Y s 412 100 m -7 Y s 423 100 m -7 Y s 435 106 m -13 Y s 447 100 m -7 Y s 458 100 m -7 Y s 470 100 m -7 Y s 482 100 m -7 Y s
 493 106 m -13 Y s 505 100 m -7 Y s 517 100 m -7 Y s 528 100 m -7 Y s 540 100 m -7 Y s 552 106 m -13 Y s 563 100 m -7 Y s 575 100 m -7 Y s 587 100 m -7 Y s 598 100 m -7 Y s 610 106 m -13 Y s 622 100 m -7 Y s 633 100 m -7 Y s 645 100 m -7 Y s 657 100
 m -7 Y s 668 106 m -13 Y s 202 106 m -13 Y s 190 100 m -7 Y s 178 100 m -7 Y s 167 100 m -7 Y s 155 100 m -7 Y s 668 106 m -13 Y s 680 100 m -7 Y s 143 520 m 548 X s 202 507 m 13 Y s 213 513 m 7 Y s 225 513 m 7 Y s 237 513 m 7 Y s 248 513 m 7 Y s
 260 507 m 13 Y s 272 513 m 7 Y s 283 513 m 7 Y s 295 513 m 7 Y s 307 513 m 7 Y s 318 507 m 13 Y s 330 513 m 7 Y s 342 513 m 7 Y s 353 513 m 7 Y s 365 513 m 7 Y s 377 507 m 13 Y s 388 513 m 7 Y s 400 513 m 7 Y s 412 513 m 7 Y s 423 513 m 7 Y s 435
 507 m 13 Y s 447 513 m 7 Y s 458 513 m 7 Y s 470 513 m 7 Y s 482 513 m 7 Y s 493 507 m 13 Y s 505 513 m 7 Y s 517 513 m 7 Y s 528 513 m 7 Y s 540 513 m 7 Y s 552 507 m 13 Y s 563 513 m 7 Y s 575 513 m 7 Y s 587 513 m 7 Y s 598 513 m 7 Y s 610 507 m
 13 Y s 622 513 m 7 Y s 633 513 m 7 Y s 645 513 m 7 Y s 657 513 m 7 Y s 668 507 m 13 Y s 202 507 m 13 Y s 190 513 m 7 Y s 178 513 m 7 Y s 167 513 m 7 Y s 155 513 m 7 Y s 668 507 m 13 Y s 680 513 m 7 Y s 143 93 m 427 Y s 160 93 m -17 X s 152 103 m -9
 X s 152 113 m -9 X s 152 124 m -9 X s 152 134 m -9 X s 160 144 m -17 X s 152 154 m -9 X s 152 164 m -9 X s 152 174 m -9 X s 152 184 m -9 X s 160 195 m -17 X s 152 205 m -9 X s 152 215 m -9 X s 152 225 m -9 X s 152 235 m -9 X s 160 245 m -17 X s 152
 255 m -9 X s 152 266 m -9 X s 152 276 m -9 X s 152 286 m -9 X s 160 296 m -17 X s 152 306 m -9 X s 152 316 m -9 X s 152 327 m -9 X s 152 337 m -9 X s 160 347 m -17 X s 152 357 m -9 X s 152 367 m -9 X s 152 377 m -9 X s 152 387 m -9 X s 160 398 m -17
 X s 152 408 m -9 X s 152 418 m -9 X s 152 428 m -9 X s 152 438 m -9 X s 160 448 m -17 X s 152 458 m -9 X s 152 469 m -9 X s 152 479 m -9 X s 152 489 m -9 X s 160 499 m -17 X s 160 499 m -17 X s 152 509 m -9 X s 152 519 m -9 X s 691 93 m 427 Y s 674
 93 m 17 X s 683 103 m 8 X s 683 113 m 8 X s 683 124 m 8 X s 683 134 m 8 X s 674 144 m 17 X s 683 154 m 8 X s 683 164 m 8 X s 683 174 m 8 X s 683 184 m 8 X s 674 195 m 17 X s 683 205 m 8 X s 683 215 m 8 X s 683 225 m 8 X s 683 235 m 8 X s 674 245 m
 17 X s 683 255 m 8 X s 683 266 m 8 X s 683 276 m 8 X s 683 286 m 8 X s 674 296 m 17 X s 683 306 m 8 X s 683 316 m 8 X s 683 327 m 8 X s 683 337 m 8 X s 674 347 m 17 X s 683 357 m 8 X s 683 367 m 8 X s 683 377 m 8 X s 683 387 m 8 X s 674 398 m 17 X s
 683 408 m 8 X s 683 418 m 8 X s 683 428 m 8 X s 683 438 m 8 X s 674 448 m 17 X s 683 458 m 8 X s 683 469 m 8 X s 683 479 m 8 X s 683 489 m 8 X s 674 499 m 17 X s 674 499 m 17 X s 683 509 m 8 X s 683 519 m 8 X s
 gsave  710 564 23 12 C 719.017 90.8246 t 90 r /Helvetica-Bold findfont 19.9646 sf 0 0 m (U/O\255flow \(S,B\): \(0.0, 0.0\)% / \(0.7, 0.0\)%) show NC gr  0.490196 0.545098 0.615686 c 0.364706 0.419608 0.490196 c 497 38 30 536 bf 0.490196 0.545098
 0.615686 c 30 536 m 497 X s 527 536 m 38 Y s 527 574 m -497 X s 30 574 m -38 Y s 1 1 1 c black 1 1 1 c
 gsave  710 564 23 12 C 36.9427 548.458 t 0 r /Helvetica-Bold findfont 25.6688 sf 0 0 m (Input variable: DdauPi_Min_IPCHI2_PV		) show NC gr  0.490196 0.545098 0.615686 c 1 1 1 c 710 564 779 12 bf black 1 1 1 c 548 427 899 93 bf black 548 427 899 93
 bl 1 1 1 c 548 427 899 93 bf black 548 427 899 93 bl 0 0 0.933333 c 6 lw 0.49 0.6 0.82 c black 3 lw 0.49 0.6 0.82 c 899 93 m 222 Y 14 X -129 Y 14 X -51 Y 13 X -13 Y 14 X -9 Y 14 X -9 Y 13 X -4 Y 14 X 2 Y 14 X -7 Y 13 X 2 Y 14 X -1 Y 28 X 3 Y 13 X -5
 Y 14 X -1 Y 14 X 1 Y 54 X 1 Y 28 X -2 Y 13 X 1 Y 69 X -1 Y 13 X 1 Y 14 X -1 Y 14 X 1 Y 27 X -1 Y 14 X 1 Y 27 X -1 Y 69 X f 6 lw 0 0 0.933333 c 0.49 0.6 0.82 c 0 0 0.933333 c 899 315 m 14 X -129 Y 14 X -51 Y 13 X -13 Y 14 X -9 Y 14 X -9 Y 13 X -4 Y
 14 X 2 Y 14 X -7 Y 13 X 2 Y 14 X -1 Y 28 X 3 Y 13 X -5 Y 14 X -1 Y 14 X 1 Y 54 X 1 Y 28 X -2 Y 13 X 1 Y 69 X -1 Y 13 X 1 Y 14 X -1 Y 14 X 1 Y 27 X -1 Y 14 X 1 Y 27 X -1 Y 69 X s black 3 lw 899 93 m 548 X s
 gsave  710 564 779 12 C 1122.49 22.734 t 0 r /Helvetica findfont 28.5208 sf 0 0 m (DdauPi_Max_IPCHI2_PV		) show NC gr  989 106 m -13 Y s 1007 100 m -7 Y s 1025 100 m -7 Y s 1043 100 m -7 Y s 1061 100 m -7 Y s 1079 106 m -13 Y s 1097 100 m -7 Y s
 1115 100 m -7 Y s 1133 100 m -7 Y s 1151 100 m -7 Y s 1169 106 m -13 Y s 1187 100 m -7 Y s 1205 100 m -7 Y s 1223 100 m -7 Y s 1241 100 m -7 Y s 1259 106 m -13 Y s 1277 100 m -7 Y s 1295 100 m -7 Y s 1313 100 m -7 Y s 1331 100 m -7 Y s 1349 106 m
 -13 Y s 1367 100 m -7 Y s 1385 100 m -7 Y s 1403 100 m -7 Y s 1421 100 m -7 Y s 1439 106 m -13 Y s 989 106 m -13 Y s 971 100 m -7 Y s 953 100 m -7 Y s 935 100 m -7 Y s 917 100 m -7 Y s 1439 106 m -13 Y s
 gsave  710 564 779 12 C 960.512 65.3603 t 0 r /Helvetica findfont 25.6688 sf 0 0 m (5000) show NC gr 
 gsave  710 564 779 12 C 1040.08 65.3603 t 0 r /Helvetica findfont 25.6688 sf 0 0 m (10000) show NC gr 
 gsave  710 564 779 12 C 1131.02 65.3603 t 0 r /Helvetica findfont 25.6688 sf 0 0 m (15000) show NC gr 
 gsave  710 564 779 12 C 1219.11 65.3603 t 0 r /Helvetica findfont 25.6688 sf 0 0 m (20000) show NC gr 
 gsave  710 564 779 12 C 1310.05 65.3603 t 0 r /Helvetica findfont 25.6688 sf 0 0 m (25000) show NC gr 
 gsave  710 564 779 12 C 1400.98 65.3603 t 0 r /Helvetica findfont 25.6688 sf 0 0 m (30000) show NC gr  899 520 m 548 X s 989 507 m 13 Y s 1007 513 m 7 Y s 1025 513 m 7 Y s 1043 513 m 7 Y s 1061 513 m 7 Y s 1079 507 m 13 Y s 1097 513 m 7 Y s 1115 513
 m 7 Y s 1133 513 m 7 Y s 1151 513 m 7 Y s 1169 507 m 13 Y s 1187 513 m 7 Y s 1205 513 m 7 Y s 1223 513 m 7 Y s 1241 513 m 7 Y s 1259 507 m 13 Y s 1277 513 m 7 Y s 1295 513 m 7 Y s 1313 513 m 7 Y s 1331 513 m 7 Y s 1349 507 m 13 Y s 1367 513 m 7 Y s
 1385 513 m 7 Y s 1403 513 m 7 Y s 1421 513 m 7 Y s 1439 507 m 13 Y s 989 507 m 13 Y s 971 513 m 7 Y s 953 513 m 7 Y s 935 513 m 7 Y s 917 513 m 7 Y s 1439 507 m 13 Y s 899 93 m 427 Y s
 gsave  710 564 779 12 C 801.374 468.889 t 90 r /Helvetica findfont 28.5208 sf 0 0 m (761 ) show NC gr 
 gsave  710 564 779 12 C 787.165 463.205 t 90 r /Helvetica findfont 19.9646 sf 0 0 m ( ) show NC gr 
 gsave  710 564 779 12 C 801.374 451.838 t 90 r /Helvetica findfont 28.5208 sf 0 0 m (/) show NC gr 
 gsave  710 564 779 12 C 809.899 446.155 t 90 r /Helvetica findfont 19.9646 sf 0 0 m ( ) show NC gr 
 gsave  710 564 779 12 C 801.374 338.168 t 90 r /Helvetica findfont 28.5208 sf 0 0 m (\(1/N\) dN) show NC gr  915 93 m -16 X s 907 111 m -8 X s 907 129 m -8 X s 907 147 m -8 X s 915 164 m -16 X s 907 182 m -8 X s 907 200 m -8 X s 907 218 m -8 X s 915
 236 m -16 X s 907 254 m -8 X s 907 271 m -8 X s 907 289 m -8 X s 915 307 m -16 X s 907 325 m -8 X s 907 343 m -8 X s 907 361 m -8 X s 915 378 m -16 X s 907 396 m -8 X s 907 414 m -8 X s 907 432 m -8 X s 915 450 m -16 X s 915 450 m -16 X s 907 467 m
 -8 X s 907 485 m -8 X s 907 503 m -8 X s
 gsave  710 564 779 12 C 875.259 82.4108 t 0 r /Helvetica findfont 25.6688 sf 0 0 m (0) show NC gr 
 gsave  710 564 779 12 C 809.899 153.455 t 0 r /Helvetica findfont 25.6688 sf 0 0 m (0.0002) show NC gr 
 gsave  710 564 779 12 C 809.899 224.498 t 0 r /Helvetica findfont 25.6688 sf 0 0 m (0.0004) show NC gr 
 gsave  710 564 779 12 C 809.899 298.384 t 0 r /Helvetica findfont 25.6688 sf 0 0 m (0.0006) show NC gr 
 gsave  710 564 779 12 C 809.899 369.428 t 0 r /Helvetica findfont 25.6688 sf 0 0 m (0.0008) show NC gr 
 gsave  710 564 779 12 C 829.791 440.471 t 0 r /Helvetica findfont 25.6688 sf 0 0 m (0.001) show NC gr  1447 93 m 427 Y s 1430 93 m 17 X s 1438 111 m 9 X s 1438 129 m 9 X s 1438 147 m 9 X s 1430 164 m 17 X s 1438 182 m 9 X s 1438 200 m 9 X s 1438 218
 m 9 X s 1430 236 m 17 X s 1438 254 m 9 X s 1438 271 m 9 X s 1438 289 m 9 X s 1430 307 m 17 X s 1438 325 m 9 X s 1438 343 m 9 X s 1438 361 m 9 X s 1430 378 m 17 X s 1438 396 m 9 X s 1438 414 m 9 X s 1438 432 m 9 X s 1430 450 m 17 X s 1430 450 m 17 X
 s 1438 467 m 9 X s 1438 485 m 9 X s 1438 503 m 9 X s 1 0 0 c 6 lw black 3 lw 1 0 0 c 1432 93 m s 1417 93 m s 1402 93 m s 1387 93 m s 1372 93 m s 1357 93 m s 1342 93 m s 1327 93 m s 1311 93 m s 1296 93 m s 1281 93 m s 1266 93 m s 1251 93 m cl s 1236
 93 m s 1221 93 m s 1206 93 m s 1191 93 m cl s 1176 93 m cl s 1161 93 m cl s 1146 93 m cl s 1131 93 m s 1116 93 m s 1100 93 m s 1086 93 m -1 X s 1071 93 m -1 X s 1055 93 m s 1040 93 m s 1025 93 m s 1011 94 m -1 -1 d s 997 95 m -2 -2 d s 981 95 m -1
 -2 d s 967 95 m -2 -2 d s 954 97 m -4 -4 d s 942 100 m -7 -7 d s 938 112 m -18 -19 d s 927 115 m -22 -22 d s 927 131 m -28 -28 d s 920 139 m -21 -21 d s 913 147 m -14 -14 d s 913 162 m -14 -13 d s 913 178 m -14 -14 d s 913 193 m -14 -14 d s 913 208
 m -14 -14 d s 913 223 m -14 -14 d s 913 238 m -14 -13 d s 913 254 m -14 -14 d s 913 269 m -14 -14 d s 913 284 m -14 -14 d s 913 299 m -14 -14 d s 913 314 m -14 -13 d s 913 329 m -14 -13 d s 913 345 m -14 -14 d s 913 360 m -14 -14 d s 913 375 m -14
 -14 d s 913 390 m -14 -14 d s 913 405 m -14 -13 d s 913 421 m -14 -14 d s 913 436 m -14 -14 d s 913 451 m -14 -14 d s 913 466 m -14 -14 d s 913 481 m -14 -13 d s 6 lw 899 481 m 14 X -342 Y 14 X -27 Y 13 X -12 Y 14 X -5 Y 27 X -1 Y 14 X 1 Y 14 X -1 Y
 13 X -1 Y 425 X s black 3 lw 899 93 m 548 X s 989 106 m -13 Y s 1007 100 m -7 Y s 1025 100 m -7 Y s 1043 100 m -7 Y s 1061 100 m -7 Y s 1079 106 m -13 Y s 1097 100 m -7 Y s 1115 100 m -7 Y s 1133 100 m -7 Y s 1151 100 m -7 Y s 1169 106 m -13 Y s
 1187 100 m -7 Y s 1205 100 m -7 Y s 1223 100 m -7 Y s 1241 100 m -7 Y s 1259 106 m -13 Y s 1277 100 m -7 Y s 1295 100 m -7 Y s 1313 100 m -7 Y s 1331 100 m -7 Y s 1349 106 m -13 Y s 1367 100 m -7 Y s 1385 100 m -7 Y s 1403 100 m -7 Y s 1421 100 m -7
 Y s 1439 106 m -13 Y s 989 106 m -13 Y s 971 100 m -7 Y s 953 100 m -7 Y s 935 100 m -7 Y s 917 100 m -7 Y s 1439 106 m -13 Y s 899 520 m 548 X s 989 507 m 13 Y s 1007 513 m 7 Y s 1025 513 m 7 Y s 1043 513 m 7 Y s 1061 513 m 7 Y s 1079 507 m 13 Y s
 1097 513 m 7 Y s 1115 513 m 7 Y s 1133 513 m 7 Y s 1151 513 m 7 Y s 1169 507 m 13 Y s 1187 513 m 7 Y s 1205 513 m 7 Y s 1223 513 m 7 Y s 1241 513 m 7 Y s 1259 507 m 13 Y s 1277 513 m 7 Y s 1295 513 m 7 Y s 1313 513 m 7 Y s 1331 513 m 7 Y s 1349 507
 m 13 Y s 1367 513 m 7 Y s 1385 513 m 7 Y s 1403 513 m 7 Y s 1421 513 m 7 Y s 1439 507 m 13 Y s 989 507 m 13 Y s 971 513 m 7 Y s 953 513 m 7 Y s 935 513 m 7 Y s 917 513 m 7 Y s 1439 507 m 13 Y s 899 93 m 427 Y s 915 93 m -16 X s 907 111 m -8 X s 907
 129 m -8 X s 907 147 m -8 X s 915 164 m -16 X s 907 182 m -8 X s 907 200 m -8 X s 907 218 m -8 X s 915 236 m -16 X s 907 254 m -8 X s 907 271 m -8 X s 907 289 m -8 X s 915 307 m -16 X s 907 325 m -8 X s 907 343 m -8 X s 907 361 m -8 X s 915 378 m
 -16 X s 907 396 m -8 X s 907 414 m -8 X s 907 432 m -8 X s 915 450 m -16 X s 915 450 m -16 X s 907 467 m -8 X s 907 485 m -8 X s 907 503 m -8 X s 1447 93 m 427 Y s 1430 93 m 17 X s 1438 111 m 9 X s 1438 129 m 9 X s 1438 147 m 9 X s 1430 164 m 17 X s
 1438 182 m 9 X s 1438 200 m 9 X s 1438 218 m 9 X s 1430 236 m 17 X s 1438 254 m 9 X s 1438 271 m 9 X s 1438 289 m 9 X s 1430 307 m 17 X s 1438 325 m 9 X s 1438 343 m 9 X s 1438 361 m 9 X s 1430 378 m 17 X s 1438 396 m 9 X s 1438 414 m 9 X s 1438 432
 m 9 X s 1430 450 m 17 X s 1430 450 m 17 X s 1438 467 m 9 X s 1438 485 m 9 X s 1438 503 m 9 X s
 gsave  710 564 779 12 C 1474.92 90.8246 t 90 r /Helvetica-Bold findfont 19.9646 sf 0 0 m (U/O\255flow \(S,B\): \(0.0, 0.0\)% / \(0.6, 0.1\)%) show NC gr  0.490196 0.545098 0.615686 c 0.364706 0.419608 0.490196 c 497 38 786 536 bf 0.490196 0.545098
 0.615686 c 786 536 m 497 X s 1283 536 m 38 Y s 1283 574 m -497 X s 786 574 m -38 Y s 1 1 1 c black 1 1 1 c
 gsave  710 564 779 12 C 790.007 548.458 t 0 r /Helvetica-Bold findfont 25.6688 sf 0 0 m (Input variable: DdauPi_Max_IPCHI2_PV		) show NC gr  0.490196 0.545098 0.615686 c 1 1 1 c 711 564 1534 12 bf black 1 1 1 c 547 427 1655 93 bf black 547 427 1655
 93 bl 1 1 1 c 547 427 1655 93 bf black 547 427 1655 93 bl 0 0 0.933333 c 6 lw 0.49 0.6 0.82 c black 3 lw 0.49 0.6 0.82 c 1655 93 m 164 X 2 Y 14 X -2 Y 55 X 2 Y 13 X 5 Y 14 X -7 Y 14 X 2 Y 27 X 5 Y 41 X 6 Y 14 X -2 Y 14 X 9 Y 13 X 8 Y 14 X -2 Y 14 X
 5 Y 13 X -3 Y 14 X 55 Y 14 X 7 Y 27 X 78 Y 14 X 40 Y 13 X 124 Y 14 X -17 Y 14 X -313 Y 13 X -2 Y f 6 lw 0 0 0.933333 c 0.49 0.6 0.82 c 0 0 0.933333 c 1655 93 m 164 X 2 Y 14 X -2 Y 55 X 2 Y 13 X 5 Y 14 X -7 Y 14 X 2 Y 27 X 5 Y 41 X 6 Y 14 X -2 Y 14 X
 9 Y 13 X 8 Y 14 X -2 Y 14 X 5 Y 13 X -3 Y 14 X 55 Y 14 X 7 Y 27 X 78 Y 14 X 40 Y 13 X 124 Y 14 X -17 Y 14 X -313 Y 13 X s black 3 lw 1655 93 m 547 X s
 gsave  711 564 1534 12 C 1906.81 25.5758 t 0 r /Helvetica findfont 28.5208 sf 0 0 m (Max_cos_phi_D0_bach			) show NC gr  1711 106 m -13 Y s 1731 100 m -7 Y s 1751 100 m -7 Y s 1771 100 m -7 Y s 1790 106 m -13 Y s 1810 100 m -7 Y s 1830 100 m -7 Y s
 1850 100 m -7 Y s 1870 106 m -13 Y s 1890 100 m -7 Y s 1910 100 m -7 Y s 1930 100 m -7 Y s 1950 106 m -13 Y s 1970 100 m -7 Y s 1990 100 m -7 Y s 2010 100 m -7 Y s 2030 106 m -13 Y s 2050 100 m -7 Y s 2069 100 m -7 Y s 2089 100 m -7 Y s 2109 106 m
 -13 Y s 2129 100 m -7 Y s 2149 100 m -7 Y s 2169 100 m -7 Y s 2189 106 m -13 Y s 1711 106 m -13 Y s 1691 100 m -7 Y s 1671 100 m -7 Y s 2189 106 m -13 Y s
 gsave  711 564 1534 12 C 1676.63 65.3603 t 0 r /Helvetica findfont 25.6688 sf 0 0 m (0.988) show NC gr 
 gsave  711 564 1534 12 C 1764.73 65.3603 t 0 r /Helvetica findfont 25.6688 sf 0 0 m (0.99) show NC gr 
 gsave  711 564 1534 12 C 1835.77 65.3603 t 0 r /Helvetica findfont 25.6688 sf 0 0 m (0.992) show NC gr 
 gsave  711 564 1534 12 C 1915.34 65.3603 t 0 r /Helvetica findfont 25.6688 sf 0 0 m (0.994) show NC gr 
 gsave  711 564 1534 12 C 1994.91 65.3603 t 0 r /Helvetica findfont 25.6688 sf 0 0 m (0.996) show NC gr 
 gsave  711 564 1534 12 C 2074.48 65.3603 t 0 r /Helvetica findfont 25.6688 sf 0 0 m (0.998) show NC gr 
 gsave  711 564 1534 12 C 2182.46 65.3603 t 0 r /Helvetica findfont 25.6688 sf 0 0 m (1) show NC gr  1655 520 m 547 X s 1711 507 m 13 Y s 1731 513 m 7 Y s 1751 513 m 7 Y s 1771 513 m 7 Y s 1790 507 m 13 Y s 1810 513 m 7 Y s 1830 513 m 7 Y s 1850 513
 m 7 Y s 1870 507 m 13 Y s 1890 513 m 7 Y s 1910 513 m 7 Y s 1930 513 m 7 Y s 1950 507 m 13 Y s 1970 513 m 7 Y s 1990 513 m 7 Y s 2010 513 m 7 Y s 2030 507 m 13 Y s 2050 513 m 7 Y s 2069 513 m 7 Y s 2089 513 m 7 Y s 2109 507 m 13 Y s 2129 513 m 7 Y s
 2149 513 m 7 Y s 2169 513 m 7 Y s 2189 507 m 13 Y s 1711 507 m 13 Y s 1691 513 m 7 Y s 1671 513 m 7 Y s 2189 507 m 13 Y s 1655 93 m 427 Y s
 gsave  711 564 1534 12 C 1557.28 392.162 t 90 r /Helvetica findfont 28.5208 sf 0 0 m (0.000343 ) show NC gr 
 gsave  711 564 1534 12 C 1543.07 386.478 t 90 r /Helvetica findfont 19.9646 sf 0 0 m ( ) show NC gr 
 gsave  711 564 1534 12 C 1557.28 375.111 t 90 r /Helvetica findfont 28.5208 sf 0 0 m (/) show NC gr 
 gsave  711 564 1534 12 C 1565.8 369.428 t 90 r /Helvetica findfont 19.9646 sf 0 0 m ( ) show NC gr 
 gsave  711 564 1534 12 C 1557.28 261.441 t 90 r /Helvetica findfont 28.5208 sf 0 0 m (\(1/N\) dN) show NC gr  1671 93 m -16 X s 1663 103 m -8 X s 1663 113 m -8 X s 1663 124 m -8 X s 1663 134 m -8 X s 1671 144 m -16 X s 1663 154 m -8 X s 1663 164 m
 -8 X s 1663 174 m -8 X s 1663 184 m -8 X s 1671 195 m -16 X s 1663 205 m -8 X s 1663 215 m -8 X s 1663 225 m -8 X s 1663 235 m -8 X s 1671 245 m -16 X s 1663 255 m -8 X s 1663 266 m -8 X s 1663 276 m -8 X s 1663 286 m -8 X s 1671 296 m -16 X s 1663
 306 m -8 X s 1663 316 m -8 X s 1663 327 m -8 X s 1663 337 m -8 X s 1671 347 m -16 X s 1663 357 m -8 X s 1663 367 m -8 X s 1663 377 m -8 X s 1663 387 m -8 X s 1671 398 m -16 X s 1663 408 m -8 X s 1663 418 m -8 X s 1663 428 m -8 X s 1663 438 m -8 X s
 1671 448 m -16 X s 1663 458 m -8 X s 1663 469 m -8 X s 1663 479 m -8 X s 1663 489 m -8 X s 1671 499 m -16 X s 1671 499 m -16 X s 1663 509 m -8 X s 1663 519 m -8 X s
 gsave  711 564 1534 12 C 1631.16 82.4108 t 0 r /Helvetica findfont 25.6688 sf 0 0 m (0) show NC gr 
 gsave  711 564 1534 12 C 1602.75 133.562 t 0 r /Helvetica findfont 25.6688 sf 0 0 m (100) show NC gr 
 gsave  711 564 1534 12 C 1602.75 184.714 t 0 r /Helvetica findfont 25.6688 sf 0 0 m (200) show NC gr 
 gsave  711 564 1534 12 C 1602.75 235.865 t 0 r /Helvetica findfont 25.6688 sf 0 0 m (300) show NC gr 
 gsave  711 564 1534 12 C 1602.75 287.017 t 0 r /Helvetica findfont 25.6688 sf 0 0 m (400) show NC gr 
 gsave  711 564 1534 12 C 1602.75 338.168 t 0 r /Helvetica findfont 25.6688 sf 0 0 m (500) show NC gr 
 gsave  711 564 1534 12 C 1602.75 386.478 t 0 r /Helvetica findfont 25.6688 sf 0 0 m (600) show NC gr 
 gsave  711 564 1534 12 C 1602.75 437.63 t 0 r /Helvetica findfont 25.6688 sf 0 0 m (700) show NC gr 
 gsave  711 564 1534 12 C 1602.75 488.781 t 0 r /Helvetica findfont 25.6688 sf 0 0 m (800) show NC gr  2202 93 m 427 Y s 2186 93 m 16 X s 2194 103 m 8 X s 2194 113 m 8 X s 2194 124 m 8 X s 2194 134 m 8 X s 2186 144 m 16 X s 2194 154 m 8 X s 2194 164
 m 8 X s 2194 174 m 8 X s 2194 184 m 8 X s 2186 195 m 16 X s 2194 205 m 8 X s 2194 215 m 8 X s 2194 225 m 8 X s 2194 235 m 8 X s 2186 245 m 16 X s 2194 255 m 8 X s 2194 266 m 8 X s 2194 276 m 8 X s 2194 286 m 8 X s 2186 296 m 16 X s 2194 306 m 8 X s
 2194 316 m 8 X s 2194 327 m 8 X s 2194 337 m 8 X s 2186 347 m 16 X s 2194 357 m 8 X s 2194 367 m 8 X s 2194 377 m 8 X s 2194 387 m 8 X s 2186 398 m 16 X s 2194 408 m 8 X s 2194 418 m 8 X s 2194 428 m 8 X s 2194 438 m 8 X s 2186 448 m 16 X s 2194 458
 m 8 X s 2194 469 m 8 X s 2194 479 m 8 X s 2194 489 m 8 X s 2186 499 m 16 X s 2186 499 m 16 X s 2194 509 m 8 X s 2194 519 m 8 X s 1 0 0 c 6 lw black 3 lw 1 0 0 c 2202 108 m -14 -15 d s 2194 114 m -21 -21 d s 2189 124 m -31 -31 d s 2189 139 m -46 -46
 d s 2189 155 m -61 -62 d s 2189 170 m -76 -77 d s 2189 185 m -91 -92 d s 2189 200 m -107 -107 d s 2189 215 m -122 -122 d s 2189 231 m -137 -138 d s 2189 246 m -55 -55 d s 2130 186 m -10 -9 d s 2116 173 m -9 -10 d s 2097 153 m -4 -4 d s 2080 137 m
 -43 -44 d s 2189 261 m -55 -55 d s 2070 141 m -4 -4 d s 2052 123 m -30 -30 d s 2189 276 m -41 -41 d s 2145 232 m -11 -11 d s 2042 129 m -4 -5 d s 2031 117 m -24 -24 d s 2189 291 m -41 -41 d s 2014 115 m -3 -3 d s 2009 110 m -17 -17 d s 2189 306 m
 -28 -27 d s 1994 110 m -17 -17 d s 2189 322 m -28 -28 d s 1972 104 m -2 -3 d s 1968 99 m -6 -6 d s 2189 337 m -28 -28 d s 1953 99 m -6 -6 d s 2189 352 m -14 -14 d s 2165 328 m -4 -4 d s 1936 98 m -4 -5 d s 2189 367 m -14 -14 d s 1918 95 m -1 -2 d s
 2189 382 m -14 -13 d s 1902 94 m -1 Y s 2189 398 m -14 -14 d s 1888 95 m -1 -2 d s 2189 413 m -14 -14 d s 1874 96 m -3 -3 d s 2189 428 m -14 -14 d s 1862 98 m -2 -1 d s 1860 97 m -4 -4 d s 2189 443 m -14 -14 d s 1841 93 m cl s 2189 458 m -14 -13 d s
 1828 95 m -2 -2 d s 2189 473 m -14 -13 d s 1812 94 m -1 -1 d s 2181 481 m -6 -6 d s 1797 94 m -1 -1 d s 1783 95 m -2 -2 d s 1768 95 m -2 -2 d s 1752 94 m -1 -1 d s 1737 94 m -1 -1 d s 1721 93 m cl s 1707 94 m -1 -1 d s 1691 93 m cl s 1675 93 m cl s
 1660 93 m cl s 6 lw 1655 93 m 41 X 1 Y 14 X -1 Y 14 X 1 Y 41 X 1 Y 27 X -1 Y 27 X 1 Y 14 X -2 Y 14 X 4 Y 13 X 1 Y 14 X -2 Y 14 X -1 Y 13 X -1 Y 14 X 1 Y 14 X 3 Y 14 X 1 Y 27 X 5 Y 14 X 6 Y 27 X 5 Y 14 X 2 Y 13 X 12 Y 14 X -6 Y 14 X 18 Y 13 X -4 Y 14
 X 16 Y 14 X 20 Y 13 X 13 Y 14 X 46 Y 14 X 33 Y 13 X 63 Y 14 X 153 Y 14 X -367 Y 13 X s black 3 lw 1655 93 m 547 X s 1711 106 m -13 Y s 1731 100 m -7 Y s 1751 100 m -7 Y s 1771 100 m -7 Y s 1790 106 m -13 Y s 1810 100 m -7 Y s 1830 100 m -7 Y s 1850
 100 m -7 Y s 1870 106 m -13 Y s 1890 100 m -7 Y s 1910 100 m -7 Y s 1930 100 m -7 Y s 1950 106 m -13 Y s 1970 100 m -7 Y s 1990 100 m -7 Y s 2010 100 m -7 Y s 2030 106 m -13 Y s 2050 100 m -7 Y s 2069 100 m -7 Y s 2089 100 m -7 Y s 2109 106 m -13 Y
 s 2129 100 m -7 Y s 2149 100 m -7 Y s 2169 100 m -7 Y s 2189 106 m -13 Y s 1711 106 m -13 Y s 1691 100 m -7 Y s 1671 100 m -7 Y s 2189 106 m -13 Y s 1655 520 m 547 X s 1711 507 m 13 Y s 1731 513 m 7 Y s 1751 513 m 7 Y s 1771 513 m 7 Y s 1790 507 m
 13 Y s 1810 513 m 7 Y s 1830 513 m 7 Y s 1850 513 m 7 Y s 1870 507 m 13 Y s 1890 513 m 7 Y s 1910 513 m 7 Y s 1930 513 m 7 Y s 1950 507 m 13 Y s 1970 513 m 7 Y s 1990 513 m 7 Y s 2010 513 m 7 Y s 2030 507 m 13 Y s 2050 513 m 7 Y s 2069 513 m 7 Y s
 2089 513 m 7 Y s 2109 507 m 13 Y s 2129 513 m 7 Y s 2149 513 m 7 Y s 2169 513 m 7 Y s 2189 507 m 13 Y s 1711 507 m 13 Y s 1691 513 m 7 Y s 1671 513 m 7 Y s 2189 507 m 13 Y s 1655 93 m 427 Y s 1671 93 m -16 X s 1663 103 m -8 X s 1663 113 m -8 X s
 1663 124 m -8 X s 1663 134 m -8 X s 1671 144 m -16 X s 1663 154 m -8 X s 1663 164 m -8 X s 1663 174 m -8 X s 1663 184 m -8 X s 1671 195 m -16 X s 1663 205 m -8 X s 1663 215 m -8 X s 1663 225 m -8 X s 1663 235 m -8 X s 1671 245 m -16 X s 1663 255 m
 -8 X s 1663 266 m -8 X s 1663 276 m -8 X s 1663 286 m -8 X s 1671 296 m -16 X s 1663 306 m -8 X s 1663 316 m -8 X s 1663 327 m -8 X s 1663 337 m -8 X s 1671 347 m -16 X s 1663 357 m -8 X s 1663 367 m -8 X s 1663 377 m -8 X s 1663 387 m -8 X s 1671
 398 m -16 X s 1663 408 m -8 X s 1663 418 m -8 X s 1663 428 m -8 X s 1663 438 m -8 X s 1671 448 m -16 X s 1663 458 m -8 X s 1663 469 m -8 X s 1663 479 m -8 X s 1663 489 m -8 X s 1671 499 m -16 X s 1671 499 m -16 X s 1663 509 m -8 X s 1663 519 m -8 X
 s 2202 93 m 427 Y s 2186 93 m 16 X s 2194 103 m 8 X s 2194 113 m 8 X s 2194 124 m 8 X s 2194 134 m 8 X s 2186 144 m 16 X s 2194 154 m 8 X s 2194 164 m 8 X s 2194 174 m 8 X s 2194 184 m 8 X s 2186 195 m 16 X s 2194 205 m 8 X s 2194 215 m 8 X s 2194
 225 m 8 X s 2194 235 m 8 X s 2186 245 m 16 X s 2194 255 m 8 X s 2194 266 m 8 X s 2194 276 m 8 X s 2194 286 m 8 X s 2186 296 m 16 X s 2194 306 m 8 X s 2194 316 m 8 X s 2194 327 m 8 X s 2194 337 m 8 X s 2186 347 m 16 X s 2194 357 m 8 X s 2194 367 m 8
 X s 2194 377 m 8 X s 2194 387 m 8 X s 2186 398 m 16 X s 2194 408 m 8 X s 2194 418 m 8 X s 2194 428 m 8 X s 2194 438 m 8 X s 2186 448 m 16 X s 2194 458 m 8 X s 2194 469 m 8 X s 2194 479 m 8 X s 2194 489 m 8 X s 2186 499 m 16 X s 2186 499 m 16 X s
 2194 509 m 8 X s 2194 519 m 8 X s
 gsave  711 564 1534 12 C 2230.83 90.8246 t 90 r /Helvetica-Bold findfont 19.9646 sf 0 0 m (U/O\255flow \(S,B\): \(0.0, 0.1\)% / \(0.0, 0.0\)%) show NC gr  0.490196 0.545098 0.615686 c 0.364706 0.419608 0.490196 c 497 38 1542 536 bf 0.490196 0.545098
 0.615686 c 1542 536 m 497 X s 2039 536 m 38 Y s 2039 574 m -497 X s 1542 574 m -38 Y s 1 1 1 c black 1 1 1 c
 gsave  711 564 1534 12 C 1554.44 548.458 t 0 r /Helvetica-Bold findfont 25.6688 sf 0 0 m (Input variable: Max_cos_phi_D0_bach			) show NC gr 
 gr  gr showpage
end
%%EOF
